[
  {
    "id": 1002040,
    "name": "Солдат Среброгривых Стражей",
    "type": "MinionLv2",
    "img": "/image/game/starrails/monster/Monster_1002040.png"
  },
  {
    "id": 1002041,
    "name": "Солдат Среброгривых Стражей",
    "type": "MinionLv2",
    "img": "/image/game/starrails/monster/Monster_1002040.png"
  },
  {
    "id": 1002050,
    "name": "Стрелок Среброгривых Стражей",
    "type": "MinionLv2",
    "img": "/image/game/starrails/monster/Monster_1002050.png"
  },
  {
    "id": 1002011,
    "name": "Ледяное лезвие",
    "type": "MinionLv2",
    "img": "/image/game/starrails/monster/Monster_1002011.png"
  },
  {
    "id": 1002012,
    "name": "Ледяное лезвие",
    "type": "MinionLv2",
    "img": "/image/game/starrails/monster/Monster_1002011.png"
  },
  {
    "id": 1002013,
    "name": "Копьё бесконечного холода",
    "type": "MinionLv2",
    "img": "/image/game/starrails/monster/Monster_1002013.png"
  },
  {
    "id": 1002014,
    "name": "Копьё бесконечного холода",
    "type": "MinionLv2",
    "img": "/image/game/starrails/monster/Monster_1002013.png"
  },
  {
    "id": 1002015,
    "name": "Ледяное лезвие",
    "type": "MinionLv2",
    "img": "/image/game/starrails/monster/Monster_1002011.png"
  },
  {
    "id": 1002016,
    "name": "Ледяное лезвие",
    "type": "MinionLv2",
    "img": "/image/game/starrails/monster/Monster_1002011.png"
  },
  {
    "id": 1002017,
    "name": "Копьё бесконечного холода",
    "type": "MinionLv2",
    "img": "/image/game/starrails/monster/Monster_1002013.png"
  },
  {
    "id": 1002018,
    "name": "Копьё бесконечного холода",
    "type": "MinionLv2",
    "img": "/image/game/starrails/monster/Monster_1002013.png"
  },
  {
    "id": 1002020,
    "name": "Бродяга",
    "type": "MinionLv2",
    "img": "/image/game/starrails/monster/Monster_1002020.png"
  },
  {
    "id": 1002030,
    "name": "Канонир Среброгривых Стражей",
    "type": "MinionLv2",
    "img": "/image/game/starrails/monster/Monster_1002030.png"
  },
  {
    "id": 1003010,
    "name": "Лейтенант Среброгривых Стражей",
    "type": "Elite",
    "img": "/image/game/starrails/monster/Monster_1003010.png"
  },
  {
    "id": 1003011,
    "name": "Лейтенант Среброгривых Стражей (неисправный)",
    "type": "Elite",
    "img": "/image/game/starrails/monster/Monster_1003010.png"
  },
  {
    "id": 1003012,
    "name": "Лейтенант Среброгривых Стражей (исправный)",
    "type": "Elite",
    "img": "/image/game/starrails/monster/Monster_1003010.png"
  },
  {
    "id": 1003013,
    "name": "Лейтенант Среброгривых Стражей (исправный)",
    "type": "Elite",
    "img": "/image/game/starrails/monster/Monster_1003010.png"
  },
  {
    "id": 1004010,
    "name": "Коколия",
    "type": "LittleBoss",
    "img": "/image/game/starrails/monster/Monster_1004010.png"
  },
  {
    "id": 1004011,
    "name": "Коколия (исправная)",
    "type": "LittleBoss",
    "img": "/image/game/starrails/monster/Monster_1004010.png"
  },
  {
    "id": 1004012,
    "name": "Коколия (исправная)",
    "type": "LittleBoss",
    "img": "/image/game/starrails/monster/Monster_1004010.png"
  },
  {
    "id": 1014010,
    "name": "Сварог",
    "type": "LittleBoss",
    "img": "/image/game/starrails/monster/Monster_1014010.png"
  },
  {
    "id": 1014011,
    "name": "Сварог (исправный)",
    "type": "LittleBoss",
    "img": "/image/game/starrails/monster/Monster_1014010.png"
  },
  {
    "id": 1014012,
    "name": "Сварог (исправный)",
    "type": "LittleBoss",
    "img": "/image/game/starrails/monster/Monster_1014010.png"
  },
  {
    "id": 1012040,
    "name": "Вспомогательный робот-манипулятор",
    "type": "MinionLv2",
    "img": "/image/game/starrails/monster/Monster_1012040.png"
  },
  {
    "id": 1012041,
    "name": "Вспомогательный робот-манипулятор",
    "type": "MinionLv2",
    "img": "/image/game/starrails/monster/Monster_1012040.png"
  },
  {
    "id": 1012042,
    "name": "Вспомогательный робот-манипулятор",
    "type": "MinionLv2",
    "img": "/image/game/starrails/monster/Monster_1012040.png"
  },
  {
    "id": 1004030,
    "name": "Броня",
    "type": "LittleBoss",
    "img": "/image/game/starrails/monster/Monster_1004030.png"
  },
  {
    "id": 1004031,
    "name": "Броня (исправная)",
    "type": "LittleBoss",
    "img": "/image/game/starrails/monster/Monster_1004030.png"
  },
  {
    "id": 1005010,
    "name": "Коколия, Мать обмана",
    "type": "BigBoss",
    "img": "/image/game/starrails/monster/Monster_1005010.png"
  },
  {
    "id": 1005011,
    "name": "Коколия, Мать обмана",
    "type": "BigBoss",
    "img": "/image/game/starrails/monster/Monster_1005010.png"
  },
  {
    "id": 1005012,
    "name": "Коколия, Мать обмана",
    "type": "BigBoss",
    "img": "/image/game/starrails/monster/Monster_1005010.png"
  },
  {
    "id": 1012010,
    "name": "Автоматон-гончая",
    "type": "MinionLv2",
    "img": "/image/game/starrails/monster/Monster_1012010.png"
  },
  {
    "id": 1012011,
    "name": "Автоматон-гончая",
    "type": "MinionLv2",
    "img": "/image/game/starrails/monster/Monster_1012010.png"
  },
  {
    "id": 1012020,
    "name": "Автоматон-паук",
    "type": "MinionLv2",
    "img": "/image/game/starrails/monster/Monster_1012020.png"
  },
  {
    "id": 1012021,
    "name": "Автоматон-паук",
    "type": "MinionLv2",
    "img": "/image/game/starrails/monster/Monster_1012020.png"
  },
  {
    "id": 1012030,
    "name": "Автоматон-жук",
    "type": "MinionLv2",
    "img": "/image/game/starrails/monster/Monster_1012030.png"
  },
  {
    "id": 1013010,
    "name": "Автоматон-гризли",
    "type": "Elite",
    "img": "/image/game/starrails/monster/Monster_1013010.png"
  },
  {
    "id": 1013011,
    "name": "Автоматон-гризли (неисправный)",
    "type": "Elite",
    "img": "/image/game/starrails/monster/Monster_1013010.png"
  },
  {
    "id": 1013012,
    "name": "Автоматон-гризли (исправный)",
    "type": "Elite",
    "img": "/image/game/starrails/monster/Monster_1013010.png"
  },
  {
    "id": 1013013,
    "name": "Автоматон-гризли (исправный)",
    "type": "Elite",
    "img": "/image/game/starrails/monster/Monster_1013010.png"
  },
  {
    "id": 1013020,
    "name": "Автоматон-лютоволк",
    "type": "Elite",
    "img": "/image/game/starrails/monster/Monster_1013020.png"
  },
  {
    "id": 1013021,
    "name": "Автоматон-лютоволк (неисправный)",
    "type": "Elite",
    "img": "/image/game/starrails/monster/Monster_1013020.png"
  },
  {
    "id": 1013022,
    "name": "Автоматон-лютоволк (исправный)",
    "type": "Elite",
    "img": "/image/game/starrails/monster/Monster_1013020.png"
  },
  {
    "id": 1013023,
    "name": "Автоматон-лютоволк (исправный)",
    "type": "Elite",
    "img": "/image/game/starrails/monster/Monster_1013020.png"
  },
  {
    "id": 1022010,
    "name": "Тень вечнозимья",
    "type": "MinionLv2",
    "img": "/image/game/starrails/monster/Monster_1022010.png"
  },
  {
    "id": 1022020,
    "name": "Тень испепеления",
    "type": "MinionLv2",
    "img": "/image/game/starrails/monster/Monster_1022020.png"
  },
  {
    "id": 1023010,
    "name": "Пылающий странник",
    "type": "Elite",
    "img": "/image/game/starrails/monster/Monster_1023010.png"
  },
  {
    "id": 1023011,
    "name": "Пылающий странник (неисправный)",
    "type": "Elite",
    "img": "/image/game/starrails/monster/Monster_1023010.png"
  },
  {
    "id": 1023020,
    "name": "Морозный странник",
    "type": "Elite",
    "img": "/image/game/starrails/monster/Monster_1023020.png"
  },
  {
    "id": 1023021,
    "name": "Морозный странник (неисправный)",
    "type": "Elite",
    "img": "/image/game/starrails/monster/Monster_1023020.png"
  },
  {
    "id": 2002010,
    "name": "Дозорный Облачных Рыцарей",
    "type": "MinionLv2",
    "img": "/image/game/starrails/monster/Monster_2002010.png"
  },
  {
    "id": 2002030,
    "name": "Призрачная стражница",
    "type": "MinionLv2",
    "img": "/image/game/starrails/monster/Monster_2002030.png"
  },
  {
    "id": 8001040,
    "name": "Отродье грома",
    "type": "Minion",
    "img": "/image/game/starrails/monster/Monster_8001040.png"
  },
  {
    "id": 8001050,
    "name": "Отродье ветра",
    "type": "Minion",
    "img": "/image/game/starrails/monster/Monster_8001050.png"
  },
  {
    "id": 2022010,
    "name": "Поражённый Марой солдат",
    "type": "MinionLv2",
    "img": "/image/game/starrails/monster/Monster_2022010.png"
  },
  {
    "id": 2022020,
    "name": "Ученик Санктус Медикус: Внутренний алхимик",
    "type": "MinionLv2",
    "img": "/image/game/starrails/monster/Monster_2022020.png"
  },
  {
    "id": 2022110,
    "name": "Поражённая Марой стражница",
    "type": "MinionLv2",
    "img": "/image/game/starrails/monster/Monster_2022110.png"
  },
  {
    "id": 2023010,
    "name": "Ученик Санктус Медикус: Оборотень",
    "type": "Elite",
    "img": "/image/game/starrails/monster/Monster_2023010.png"
  },
  {
    "id": 2011010,
    "name": "Зачарованное изобретение: покорный лев-дракон",
    "type": "Minion",
    "img": "/image/game/starrails/monster/Monster_2011010.png"
  },
  {
    "id": 2011020,
    "name": "Зачарованное изобретение: облачная золотая жаба",
    "type": "Minion",
    "img": "/image/game/starrails/monster/Monster_2011020.png"
  },
  {
    "id": 2012010,
    "name": "Зачарованное изобретение: светящаяся рыба-дракон",
    "type": "MinionLv2",
    "img": "/image/game/starrails/monster/Monster_2012010.png"
  },
  {
    "id": 2013010,
    "name": "Ауруматон-привратник",
    "type": "Elite",
    "img": "/image/game/starrails/monster/Monster_2013010.png"
  },
  {
    "id": 2013020,
    "name": "Спектральная посланница-ауруматон",
    "type": "Elite",
    "img": "/image/game/starrails/monster/Monster_2013020.png"
  },
  {
    "id": 2004010,
    "name": "Охотники за Стелларонами: Кафка",
    "type": "LittleBoss",
    "img": "/image/game/starrails/monster/Monster_2004010.png"
  },
  {
    "id": 2004011,
    "name": "Охотники за Стелларонами: Кафка (исправная)",
    "type": "LittleBoss",
    "img": "/image/game/starrails/monster/Monster_2004010.png"
  },
  {
    "id": 2004012,
    "name": "Охотники за Стелларонами: Кафка (исправная)",
    "type": "LittleBoss",
    "img": "/image/game/starrails/monster/Monster_2004010.png"
  },
  {
    "id": 2002020,
    "name": "Порхающий меч",
    "type": "MinionLv2",
    "img": "/image/game/starrails/monster/Monster_2002020.png"
  },
  {
    "id": 2002021,
    "name": "Порхающий меч",
    "type": "MinionLv2",
    "img": "/image/game/starrails/monster/Monster_2002020.png"
  },
  {
    "id": 2024010,
    "name": "Чёрный олень Изобилия",
    "type": "LittleBoss",
    "img": "/image/game/starrails/monster/Monster_2024010.png"
  },
  {
    "id": 2024011,
    "name": "Чёрный олень Изобилия (исправный)",
    "type": "LittleBoss",
    "img": "/image/game/starrails/monster/Monster_2024010.png"
  },
  {
    "id": 2022070,
    "name": "Ветвь зимнего ветра",
    "type": "MinionLv2",
    "img": "/image/game/starrails/monster/Monster_2022070.png"
  },
  {
    "id": 2022080,
    "name": "Ветвь жёлтой листвы",
    "type": "MinionLv2",
    "img": "/image/game/starrails/monster/Monster_2022080.png"
  },
  {
    "id": 2022090,
    "name": "Ветвь пышного цветения",
    "type": "MinionLv2",
    "img": "/image/game/starrails/monster/Monster_2022090.png"
  },
  {
    "id": 2022100,
    "name": "Ветвь обильных плодов",
    "type": "MinionLv2",
    "img": "/image/game/starrails/monster/Monster_2022100.png"
  },
  {
    "id": 2022071,
    "name": "Ветвь зимнего ветра",
    "type": "MinionLv2",
    "img": "/image/game/starrails/monster/Monster_2022070.png"
  },
  {
    "id": 2022081,
    "name": "Ветвь жёлтой листвы",
    "type": "MinionLv2",
    "img": "/image/game/starrails/monster/Monster_2022080.png"
  },
  {
    "id": 2022091,
    "name": "Ветвь пышного цветения",
    "type": "MinionLv2",
    "img": "/image/game/starrails/monster/Monster_2022090.png"
  },
  {
    "id": 2022101,
    "name": "Ветвь обильных плодов",
    "type": "MinionLv2",
    "img": "/image/game/starrails/monster/Monster_2022100.png"
  },
  {
    "id": 8001010,
    "name": "Отродье пламени",
    "type": "Minion",
    "img": "/image/game/starrails/monster/Monster_8001010.png"
  },
  {
    "id": 8001020,
    "name": "Отродье льда",
    "type": "Minion",
    "img": "/image/game/starrails/monster/Monster_8001020.png"
  },
  {
    "id": 8002010,
    "name": "Мнимый ткач",
    "type": "MinionLv2",
    "img": "/image/game/starrails/monster/Monster_8002010.png"
  },
  {
    "id": 8001030,
    "name": "Маска без мыслей",
    "type": "Minion",
    "img": "/image/game/starrails/monster/Monster_8001030.png"
  },
  {
    "id": 8002040,
    "name": "Свинка-копилка пространства",
    "type": "MinionLv2",
    "img": "/image/game/starrails/monster/Monster_8002040.png"
  },
  {
    "id": 8002050,
    "name": "Свинка-копилка последовательности",
    "type": "MinionLv2",
    "img": "/image/game/starrails/monster/Monster_8002050.png"
  },
  {
    "id": 8002051,
    "name": "Наф-Наф",
    "type": "MinionLv2",
    "img": "/image/game/starrails/monster/Monster_8002050.png"
  },
  {
    "id": 8002052,
    "name": "Нуф-Нуф",
    "type": "MinionLv2",
    "img": "/image/game/starrails/monster/Monster_8002050.png"
  },
  {
    "id": 8002053,
    "name": "Ниф-Ниф",
    "type": "MinionLv2",
    "img": "/image/game/starrails/monster/Monster_8002050.png"
  },
  {
    "id": 8002060,
    "name": "Свинка-копилка Разрушения",
    "type": "MinionLv2",
    "img": "/image/game/starrails/monster/Monster_8002050.png"
  },
  {
    "id": 8002070,
    "name": "Свинка-копилка Изобилия",
    "type": "MinionLv2",
    "img": "/image/game/starrails/monster/Monster_8002050.png"
  },
  {
    "id": 8002080,
    "name": "Свинка-копилка Сохранения",
    "type": "MinionLv2",
    "img": "/image/game/starrails/monster/Monster_8002050.png"
  },
  {
    "id": 8002081,
    "name": "Свинка-копилка Сохранения",
    "type": "MinionLv2",
    "img": "/image/game/starrails/monster/Monster_8002050.png"
  },
  {
    "id": 8002090,
    "name": "Свинка-копилка последовательности",
    "type": "MinionLv2",
    "img": "/image/game/starrails/monster/Monster_8002050.png"
  },
  {
    "id": 8003010,
    "name": "Лёд из космоса",
    "type": "Elite",
    "img": "/image/game/starrails/monster/Monster_8003010.png"
  },
  {
    "id": 8003011,
    "name": "Лёд из космоса (неисправный)",
    "type": "Elite",
    "img": "/image/game/starrails/monster/Monster_8003010.png"
  },
  {
    "id": 8003020,
    "name": "Огонь из космоса",
    "type": "Elite",
    "img": "/image/game/starrails/monster/Monster_8003020.png"
  },
  {
    "id": 8003021,
    "name": "Огонь из космоса (неисправный)",
    "type": "Elite",
    "img": "/image/game/starrails/monster/Monster_8003020.png"
  },
  {
    "id": 8003030,
    "name": "Тень хранительницы",
    "type": "Elite",
    "img": "/image/game/starrails/monster/Monster_8003030.png"
  },
  {
    "id": 8003031,
    "name": "Тень хранительницы (неисправная)",
    "type": "Elite",
    "img": "/image/game/starrails/monster/Monster_8003030.png"
  },
  {
    "id": 8003040,
    "name": "Тень пожирательницы",
    "type": "Elite",
    "img": "/image/game/starrails/monster/Monster_8003040.png"
  },
  {
    "id": 8003041,
    "name": "Тень пожирательницы (неисправная)",
    "type": "Elite",
    "img": "/image/game/starrails/monster/Monster_8003040.png"
  },
  {
    "id": 8011010,
    "name": "Барион",
    "type": "Minion",
    "img": "/image/game/starrails/monster/Monster_8011010.png"
  },
  {
    "id": 8011020,
    "name": "Антибарион",
    "type": "Minion",
    "img": "/image/game/starrails/monster/Monster_8011020.png"
  },
  {
    "id": 8012010,
    "name": "Рейнджер пустоты: Захватчик",
    "type": "MinionLv2",
    "img": "/image/game/starrails/monster/Monster_8012010.png"
  },
  {
    "id": 8012020,
    "name": "Рейнджер пустоты: Исказитель",
    "type": "MinionLv2",
    "img": "/image/game/starrails/monster/Monster_8012020.png"
  },
  {
    "id": 8012021,
    "name": "Рейнджер пустоты: Исказитель",
    "type": "MinionLv2",
    "img": "/image/game/starrails/monster/Monster_8012020.png"
  },
  {
    "id": 8012030,
    "name": "Рейнджер пустоты: Уничтожитель",
    "type": "MinionLv2",
    "img": "/image/game/starrails/monster/Monster_8012030.png"
  },
  {
    "id": 8013010,
    "name": "Рейнджер пустоты: Подавитель",
    "type": "Elite",
    "img": "/image/game/starrails/monster/Monster_8013010.png"
  },
  {
    "id": 8013011,
    "name": "Рейнджер пустоты: Подавитель (неисправный)",
    "type": "Elite",
    "img": "/image/game/starrails/monster/Monster_8013010.png"
  },
  {
    "id": 8013012,
    "name": "Рейнджер пустоты: Подавитель",
    "type": "Elite",
    "img": "/image/game/starrails/monster/Monster_8013010.png"
  },
  {
    "id": 8015020,
    "name": "Фантилия Неумирающая",
    "type": "BigBoss",
    "img": "/image/game/starrails/monster/Monster_8015020.png"
  },
  {
    "id": 8015021,
    "name": "Фантилия Неумирающая",
    "type": "BigBoss",
    "img": "/image/game/starrails/monster/Monster_8015020.png"
  },
  {
    "id": 8012200,
    "name": "Лотос Изобилия",
    "type": "MinionLv2",
    "img": "/image/game/starrails/monster/Monster_8012200.png"
  },
  {
    "id": 8012201,
    "name": "Лотос Изобилия",
    "type": "MinionLv2",
    "img": "/image/game/starrails/monster/Monster_8012201.png"
  },
  {
    "id": 8012202,
    "name": "Лотос Изобилия",
    "type": "MinionLv2",
    "img": "/image/game/starrails/monster/Monster_8012200.png"
  },
  {
    "id": 8012203,
    "name": "Лотос Изобилия",
    "type": "MinionLv2",
    "img": "/image/game/starrails/monster/Monster_8012201.png"
  },
  {
    "id": 8012210,
    "name": "Лотос Разрушения",
    "type": "MinionLv2",
    "img": "/image/game/starrails/monster/Monster_8012210.png"
  },
  {
    "id": 8012211,
    "name": "Лотос Разрушения",
    "type": "MinionLv2",
    "img": "/image/game/starrails/monster/Monster_8012211.png"
  },
  {
    "id": 8012212,
    "name": "Лотос Разрушения",
    "type": "MinionLv2",
    "img": "/image/game/starrails/monster/Monster_8012210.png"
  },
  {
    "id": 8012213,
    "name": "Лотос Разрушения",
    "type": "MinionLv2",
    "img": "/image/game/starrails/monster/Monster_8012211.png"
  },
  {
    "id": 8022010,
    "name": "Незрелый жаложук",
    "type": "MinionLv2",
    "img": "/image/game/starrails/monster/Monster_8022010.png"
  },
  {
    "id": 8022020,
    "name": "Молодой жаложук",
    "type": "MinionLv2",
    "img": "/image/game/starrails/monster/Monster_8022020.png"
  },
  {
    "id": 8024010,
    "name": "Рой: Жаложук (исправный)",
    "type": "LittleBoss",
    "img": "/image/game/starrails/monster/Monster_8024010.png"
  },
  {
    "id": 8032010,
    "name": "Базовый персонал: Полевой сотрудник",
    "type": "MinionLv2",
    "img": "/image/game/starrails/monster/Monster_8032010.png"
  },
  {
    "id": 8032020,
    "name": "Базовый персонал: Сотрудник охраны",
    "type": "MinionLv2",
    "img": "/image/game/starrails/monster/Monster_8032020.png"
  },
  {
    "id": 8033010,
    "name": "Старший персонал: Лидер команды",
    "type": "Elite",
    "img": "/image/game/starrails/monster/Monster_8033010.png"
  },
  {
    "id": 8003050,
    "name": "Буревестник",
    "type": "Elite",
    "img": "/image/game/starrails/monster/Monster_8003050.png"
  },
  {
    "id": 8003051,
    "name": "Буревестник (неисправный)",
    "type": "Elite",
    "img": "/image/game/starrails/monster/Monster_8003050.png"
  },
  {
    "id": 2023030,
    "name": "Вознёсшаяся",
    "type": "Elite",
    "img": "/image/game/starrails/monster/Monster_2023030.png"
  },
  {
    "id": 8015010,
    "name": "Зверь Судного дня",
    "type": "BigBoss",
    "img": "/image/game/starrails/monster/Monster_8015010.png"
  },
  {
    "id": 8012140,
    "name": "Правая рука катастрофы",
    "type": "MinionLv2",
    "img": "/image/game/starrails/monster/Monster_8012140.png"
  },
  {
    "id": 8013141,
    "name": "Двигатель на антиматерии",
    "type": "Elite",
    "img": "/image/game/starrails/monster/Monster_8012141.png"
  },
  {
    "id": 8012142,
    "name": "Левая рука рассвета",
    "type": "MinionLv2",
    "img": "/image/game/starrails/monster/Monster_8012142.png"
  },
  {
    "id": 8015011,
    "name": "Зверь Судного дня",
    "type": "BigBoss",
    "img": "/image/game/starrails/monster/Monster_8015010.png"
  },
  {
    "id": 8012143,
    "name": "Правая рука катастрофы",
    "type": "MinionLv2",
    "img": "/image/game/starrails/monster/Monster_8012140.png"
  },
  {
    "id": 8013144,
    "name": "Двигатель на антиматерии",
    "type": "Elite",
    "img": "/image/game/starrails/monster/Monster_8012141.png"
  },
  {
    "id": 8012145,
    "name": "Левая рука рассвета",
    "type": "MinionLv2",
    "img": "/image/game/starrails/monster/Monster_8012142.png"
  },
  {
    "id": 2022040,
    "name": "Зверь Изобилия: Золотая гончая",
    "type": "MinionLv2",
    "img": "/image/game/starrails/monster/Monster_2022040.png"
  },
  {
    "id": 2022050,
    "name": "Зверь Изобилия: Древесный волк",
    "type": "MinionLv2",
    "img": "/image/game/starrails/monster/Monster_2022050.png"
  },
  {
    "id": 2022051,
    "name": "Теневолк",
    "type": "MinionLv2",
    "img": "/image/game/starrails/monster/Monster_2022051.png"
  },
  {
    "id": 2022060,
    "name": "Ученик Санктус Медикус: Баллистарий",
    "type": "MinionLv2",
    "img": "/image/game/starrails/monster/Monster_2022060.png"
  },
  {
    "id": 2023020,
    "name": "Зверь Изобилия: Могучий примат",
    "type": "Elite",
    "img": "/image/game/starrails/monster/Monster_2023020.png"
  },
  {
    "id": 8002041,
    "name": "N/A",
    "type": "MinionLv2",
    "img": "/image/game/starrails/monster/Monster_8002040.png"
  },
  {
    "id": 3001010,
    "name": "Пружинный Крупье из труппы «Кошмарики»",
    "type": "Minion",
    "img": "/image/game/starrails/monster/Monster_3001010.png"
  },
  {
    "id": 3001020,
    "name": "Танцующий Клюв из труппы «Кошмарики»",
    "type": "Minion",
    "img": "/image/game/starrails/monster/Monster_3001020.png"
  },
  {
    "id": 2013011,
    "name": "Ауруматон-привратник (неисправный)",
    "type": "Elite",
    "img": "/image/game/starrails/monster/Monster_2013010.png"
  },
  {
    "id": 2023011,
    "name": "Ученик Санктус Медикус: Оборотень (неисправный)",
    "type": "Elite",
    "img": "/image/game/starrails/monster/Monster_2023010.png"
  },
  {
    "id": 8002054,
    "name": "Свинка-копилка последовательности",
    "type": "MinionLv2",
    "img": "/image/game/starrails/monster/Monster_8002050.png"
  },
  {
    "id": 8002061,
    "name": "Свинка-копилка Разрушения",
    "type": "MinionLv2",
    "img": "/image/game/starrails/monster/Monster_8002050.png"
  },
  {
    "id": 8002071,
    "name": "Свинка-копилка Изобилия",
    "type": "MinionLv2",
    "img": "/image/game/starrails/monster/Monster_8002050.png"
  },
  {
    "id": 8002082,
    "name": "Свинка-копилка Сохранения",
    "type": "MinionLv2",
    "img": "/image/game/starrails/monster/Monster_8002050.png"
  },
  {
    "id": 8002055,
    "name": "Наф-Наф",
    "type": "MinionLv2",
    "img": "/image/game/starrails/monster/Monster_8002050.png"
  },
  {
    "id": 8002056,
    "name": "Нуф-Нуф",
    "type": "MinionLv2",
    "img": "/image/game/starrails/monster/Monster_8002050.png"
  },
  {
    "id": 8002057,
    "name": "Ниф-Ниф",
    "type": "MinionLv2",
    "img": "/image/game/starrails/monster/Monster_8002050.png"
  },
  {
    "id": 3002089,
    "name": "N/A",
    "type": "MinionLv2",
    "img": "/image/game/starrails/monster/Monster_2022040.png"
  },
  {
    "id": 8002091,
    "name": "Свинка-копилка последовательности",
    "type": "MinionLv2",
    "img": "/image/game/starrails/monster/Monster_8002050.png"
  },
  {
    "id": 8003052,
    "name": "Буревестник",
    "type": "Elite",
    "img": "/image/game/starrails/monster/Monster_8003050.png"
  },
  {
    "id": 8013013,
    "name": "Рейнджер пустоты: Подавитель",
    "type": "Elite",
    "img": "/image/game/starrails/monster/Monster_8013010.png"
  },
  {
    "id": 3002030,
    "name": "Гончая с газировкой из труппы «Кошмарики»",
    "type": "MinionLv2",
    "img": "/image/game/starrails/monster/Monster_3002030.png"
  },
  {
    "id": 8002058,
    "name": "Свинка-копилка последовательности",
    "type": "MinionLv2",
    "img": "/image/game/starrails/monster/Monster_8002050.png"
  },
  {
    "id": 8002059,
    "name": "Свинка-копилка последовательности (редкая)",
    "type": "MinionLv2",
    "img": "/image/game/starrails/monster/Monster_8002050.png"
  },
  {
    "id": 8002100,
    "name": "Наф-Наф",
    "type": "MinionLv2",
    "img": "/image/game/starrails/monster/Monster_8002050.png"
  },
  {
    "id": 8002101,
    "name": "Нуф-Нуф",
    "type": "MinionLv2",
    "img": "/image/game/starrails/monster/Monster_8002050.png"
  },
  {
    "id": 8002102,
    "name": "Ниф-Ниф",
    "type": "MinionLv2",
    "img": "/image/game/starrails/monster/Monster_8002050.png"
  },
  {
    "id": 3024010,
    "name": "Аргенти",
    "type": "LittleBoss",
    "img": "/image/game/starrails/monster/Monster_3024010.png"
  },
  {
    "id": 2023021,
    "name": "Зверь Изобилия: Могучий примат (неисправный)",
    "type": "Elite",
    "img": "/image/game/starrails/monster/Monster_2023020.png"
  },
  {
    "id": 2023031,
    "name": "Вознёсшаяся (неисправная)",
    "type": "Elite",
    "img": "/image/game/starrails/monster/Monster_2023030.png"
  },
  {
    "id": 8003042,
    "name": "Тень пожирательницы",
    "type": "Elite",
    "img": "/image/game/starrails/monster/Monster_8003040.png"
  },
  {
    "id": 2002031,
    "name": "Призрачная стражница",
    "type": "MinionLv2",
    "img": "/image/game/starrails/monster/Monster_2002030.png"
  },
  {
    "id": 8024011,
    "name": "Рой: Жаложук",
    "type": "LittleBoss",
    "img": "/image/game/starrails/monster/Monster_8024010.png"
  },
  {
    "id": 3012030,
    "name": "Усыпальница душ",
    "type": "MinionLv2",
    "img": "/image/game/starrails/monster/Monster_3012030.png"
  },
  {
    "id": 3021020,
    "name": "«Награждённая»",
    "type": "Minion",
    "img": "/image/game/starrails/monster/Monster_3021020.png"
  },
  {
    "id": 3021030,
    "name": "«Копьё»",
    "type": "Minion",
    "img": "/image/game/starrails/monster/Monster_3021030.png"
  },
  {
    "id": 3021040,
    "name": "«Щит»",
    "type": "Minion",
    "img": "/image/game/starrails/monster/Monster_3021040.png"
  },
  {
    "id": 3002010,
    "name": "Господин Телебрюх из труппы «Кошмарики»",
    "type": "MinionLv2",
    "img": "/image/game/starrails/monster/Monster_3002010.png"
  },
  {
    "id": 8022030,
    "name": "Коррозийный жаложук",
    "type": "MinionLv2",
    "img": "/image/game/starrails/monster/Monster_8022030.png"
  },
  {
    "id": 8025010,
    "name": "Повелитель жуков «Разрушитель звёзд»: Скаракабаз (синтетический)",
    "type": "BigBoss",
    "img": "/image/game/starrails/monster/Monster_8025010.png"
  },
  {
    "id": 2024012,
    "name": "Чёрный олень Изобилия (исправный)",
    "type": "LittleBoss",
    "img": "/image/game/starrails/monster/Monster_2024010.png"
  },
  {
    "id": 3014020,
    "name": "Мем зоны воспоминаний «Что-то к смерти»",
    "type": "LittleBoss",
    "img": "/image/game/starrails/monster/Monster_3014020.png"
  },
  {
    "id": 1002021,
    "name": "Бродяга",
    "type": "MinionLv2",
    "img": "/image/game/starrails/monster/Monster_1002020.png"
  },
  {
    "id": 2013021,
    "name": "Спектральная посланница-ауруматон (неисправная)",
    "type": "Elite",
    "img": "/image/game/starrails/monster/Monster_2013020.png"
  },
  {
    "id": 8033011,
    "name": "Старший персонал: Лидер команды (неисправный)",
    "type": "Elite",
    "img": "/image/game/starrails/monster/Monster_8033010.png"
  },
  {
    "id": 2013012,
    "name": "Ауруматон-привратник",
    "type": "Elite",
    "img": "/image/game/starrails/monster/Monster_2013010.png"
  },
  {
    "id": 2024020,
    "name": "Циррус",
    "type": "LittleBoss",
    "img": "/image/game/starrails/monster/Monster_2024020.png"
  },
  {
    "id": 3003020,
    "name": "Сладкая Горилла из труппы «Кошмарики»",
    "type": "Elite",
    "img": "/image/game/starrails/monster/Monster_3003020.png"
  },
  {
    "id": 8034010,
    "name": "Десять каменных сердец: Авантюрин хитрости",
    "type": "LittleBoss",
    "img": "/image/game/starrails/monster/Monster_8034010.png"
  },
  {
    "id": 8032030,
    "name": "«Всё или ничего»",
    "type": "MinionLv2",
    "img": "/image/game/starrails/monster/Monster_8032030.png"
  },
  {
    "id": 2002032,
    "name": "Призрачная стражница",
    "type": "MinionLv2",
    "img": "/image/game/starrails/monster/Monster_2002030.png"
  },
  {
    "id": 3003010,
    "name": "Пережаренный из труппы «Кошмарики»",
    "type": "Elite",
    "img": "/image/game/starrails/monster/Monster_3003010.png"
  },
  {
    "id": 3012020,
    "name": "Мем зоны воспоминаний «Моё Сердце Разбито»",
    "type": "MinionLv2",
    "img": "/image/game/starrails/monster/Monster_3012020.png"
  },
  {
    "id": 3002040,
    "name": "Заводной Хулиган из труппы «Кошмарики»",
    "type": "MinionLv2",
    "img": "/image/game/starrails/monster/Monster_3002040.png"
  },
  {
    "id": 3024020,
    "name": "Охотники за Стелларонами: Сэм",
    "type": "LittleBoss",
    "img": "/image/game/starrails/monster/Monster_3024020.png"
  },
  {
    "id": 3021021,
    "name": "«Награждённая»",
    "type": "Minion",
    "img": "/image/game/starrails/monster/Monster_3021020.png"
  },
  {
    "id": 3021031,
    "name": "«Копьё»",
    "type": "Minion",
    "img": "/image/game/starrails/monster/Monster_3021030.png"
  },
  {
    "id": 3021041,
    "name": "«Щит»",
    "type": "Minion",
    "img": "/image/game/starrails/monster/Monster_3021040.png"
  },
  {
    "id": 3024011,
    "name": "Аргенти (исправный)",
    "type": "LittleBoss",
    "img": "/image/game/starrails/monster/Monster_3024010.png"
  },
  {
    "id": 3002050,
    "name": "Королевский бак",
    "type": "MinionLv2",
    "img": "/image/game/starrails/monster/Monster_3002050.png"
  },
  {
    "id": 1013014,
    "name": "Автоматон-гризли (исправный)",
    "type": "Elite",
    "img": "/image/game/starrails/monster/Monster_1013010.png"
  },
  {
    "id": 1013024,
    "name": "Автоматон-лютоволк (исправный)",
    "type": "Elite",
    "img": "/image/game/starrails/monster/Monster_1013020.png"
  },
  {
    "id": 8024012,
    "name": "Рой: Жаложук (исправный)",
    "type": "LittleBoss",
    "img": "/image/game/starrails/monster/Monster_8024010.png"
  },
  {
    "id": 1004013,
    "name": "Коколия (иллюзорная)",
    "type": "LittleBoss",
    "img": "/image/game/starrails/monster/Monster_1004010.png"
  },
  {
    "id": 1005013,
    "name": "Коколия, Мать обмана (иллюзорная)",
    "type": "BigBoss",
    "img": "/image/game/starrails/monster/Monster_1005010.png"
  },
  {
    "id": 2004013,
    "name": "Охотники за Стелларонами: Кафка (иллюзорная)",
    "type": "LittleBoss",
    "img": "/image/game/starrails/monster/Monster_2004010.png"
  },
  {
    "id": 2004023,
    "name": "Лейтенант Облачных Рыцарей: Яньцин (иллюзорный)",
    "type": "LittleBoss",
    "img": "/image/game/starrails/monster/Monster_2004020.png"
  },
  {
    "id": 2024013,
    "name": "Чёрный олень Изобилия (иллюзорный)",
    "type": "LittleBoss",
    "img": "/image/game/starrails/monster/Monster_2024010.png"
  },
  {
    "id": 3025010,
    "name": "Великий Септимий, Хор баланса",
    "type": "BigBoss",
    "img": "/image/game/starrails/monster/Monster_3025010.png"
  },
  {
    "id": 3025011,
    "name": "Великий Септимий, Хор баланса",
    "type": "BigBoss",
    "img": "/image/game/starrails/monster/Monster_3025010.png"
  },
  {
    "id": 3022010,
    "name": "Отголосок старых грёз",
    "type": "MinionLv2",
    "img": "/image/game/starrails/monster/Monster_3022010.png"
  },
  {
    "id": 1004032,
    "name": "Броня (иллюзорная)",
    "type": "LittleBoss",
    "img": "/image/game/starrails/monster/Monster_1004030.png"
  },
  {
    "id": 3012010,
    "name": "Мем зоны воспоминаний «Что-то в зеркале»",
    "type": "MinionLv2",
    "img": "/image/game/starrails/monster/Monster_3012010.png"
  },
  {
    "id": 3024012,
    "name": "Аргенти",
    "type": "LittleBoss",
    "img": "/image/game/starrails/monster/Monster_3024010.png"
  },
  {
    "id": 3011010,
    "name": "Мем зоны воспоминаний «Всевидец»",
    "type": "Minion",
    "img": "/image/game/starrails/monster/Monster_3011010.png"
  },
  {
    "id": 8033012,
    "name": "Старший персонал: Лидер команды",
    "type": "Elite",
    "img": "/image/game/starrails/monster/Monster_8033010.png"
  },
  {
    "id": 3003030,
    "name": "«Заключённое в клетку прошлое»",
    "type": "Elite",
    "img": "/image/game/starrails/monster/Monster_3003030.png"
  },
  {
    "id": 3003040,
    "name": "«Гармоничное будущее»",
    "type": "Elite",
    "img": "/image/game/starrails/monster/Monster_3003040.png"
  },
  {
    "id": 3003050,
    "name": "«Опьянённое празднеством настоящее»",
    "type": "Elite",
    "img": "/image/game/starrails/monster/Monster_3003050.png"
  },
  {
    "id": 3002020,
    "name": "Торговец удачей из труппы «Кошмарики»",
    "type": "MinionLv2",
    "img": "/image/game/starrails/monster/Monster_3002020.png"
  },
  {
    "id": 3012031,
    "name": "Усыпальница душ",
    "type": "MinionLv2",
    "img": "/image/game/starrails/monster/Monster_3012030.png"
  },
  {
    "id": 3012040,
    "name": "Мем зоны воспоминаний «Ненасытное тщеславие»",
    "type": "MinionLv2",
    "img": "/image/game/starrails/monster/Monster_3012040.png"
  },
  {
    "id": 3003011,
    "name": "Пережаренный из труппы «Кошмарики» (проекция)",
    "type": "Elite",
    "img": "/image/game/starrails/monster/Monster_3003010.png"
  },
  {
    "id": 3003021,
    "name": "Сладкая Горилла из труппы «Кошмарики» (проекция)",
    "type": "Elite",
    "img": "/image/game/starrails/monster/Monster_3003020.png"
  },
  {
    "id": 3024021,
    "name": "Охотники за Стелларонами: Сэм",
    "type": "LittleBoss",
    "img": "/image/game/starrails/monster/Monster_3024020.png"
  },
  {
    "id": 2024014,
    "name": "Чёрный олень Изобилия",
    "type": "LittleBoss",
    "img": "/image/game/starrails/monster/Monster_2024010.png"
  },
  {
    "id": 3002051,
    "name": "Королевский бак (проекция)",
    "type": "MinionLv2",
    "img": "/image/game/starrails/monster/Monster_3002050.png"
  },
  {
    "id": 3014021,
    "name": "Мем зоны воспоминаний «Что-то к смерти» (проекция)",
    "type": "LittleBoss",
    "img": "/image/game/starrails/monster/Monster_3014020.png"
  },
  {
    "id": 3013010,
    "name": "Мем зоны воспоминаний «Скорлупа угасшей ярости»",
    "type": "Elite",
    "img": "/image/game/starrails/monster/Monster_3013010.png"
  },
  {
    "id": 1014013,
    "name": "Сварог",
    "type": "LittleBoss",
    "img": "/image/game/starrails/monster/Monster_1014010.png"
  },
  {
    "id": 3003031,
    "name": "«Заключённое в клетку прошлое»",
    "type": "Elite",
    "img": "/image/game/starrails/monster/Monster_3003030.png"
  },
  {
    "id": 3003041,
    "name": "«Гармоничное будущее»",
    "type": "Elite",
    "img": "/image/game/starrails/monster/Monster_3003040.png"
  },
  {
    "id": 3003051,
    "name": "«Опьянённое празднеством настоящее»",
    "type": "Elite",
    "img": "/image/game/starrails/monster/Monster_3003050.png"
  },
  {
    "id": 2033010,
    "name": "Воющий гроб",
    "type": "Elite",
    "img": "/image/game/starrails/monster/Monster_2033010.png"
  },
  {
    "id": 3003032,
    "name": "«Заключённое в клетку прошлое» (неисправный)",
    "type": "Elite",
    "img": "/image/game/starrails/monster/Monster_3003030.png"
  },
  {
    "id": 2032010,
    "name": "Волк-чернокоготь",
    "type": "MinionLv2",
    "img": "/image/game/starrails/monster/Monster_2032010.png"
  },
  {
    "id": 2034010,
    "name": "Вожак борисинцев: Хулэй",
    "type": "LittleBoss",
    "img": "/image/game/starrails/monster/Monster_2034010.png"
  },
  {
    "id": 3024013,
    "name": "Серебряный рыцарь добродетели",
    "type": "LittleBoss",
    "img": "/image/game/starrails/monster/Monster_3024010.png"
  },
  {
    "id": 3014022,
    "name": "Мем зоны воспоминаний «Что-то к смерти» (исправный)",
    "type": "LittleBoss",
    "img": "/image/game/starrails/monster/Monster_3014020.png"
  },
  {
    "id": 3003012,
    "name": "Пережаренный из труппы «Кошмарики» (неисправный)",
    "type": "Elite",
    "img": "/image/game/starrails/monster/Monster_3003010.png"
  },
  {
    "id": 3003022,
    "name": "Сладкая Горилла из труппы «Кошмарики» (неисправная)",
    "type": "Elite",
    "img": "/image/game/starrails/monster/Monster_3003020.png"
  },
  {
    "id": 3021022,
    "name": "«Награждённая»",
    "type": "Minion",
    "img": "/image/game/starrails/monster/Monster_3021020.png"
  },
  {
    "id": 3021032,
    "name": "«Копьё»",
    "type": "Minion",
    "img": "/image/game/starrails/monster/Monster_3021030.png"
  },
  {
    "id": 3021042,
    "name": "«Щит»",
    "type": "Minion",
    "img": "/image/game/starrails/monster/Monster_3021040.png"
  },
  {
    "id": 3013011,
    "name": "Мем зоны воспоминаний «Скорлупа угасшей ярости»",
    "type": "Elite",
    "img": "/image/game/starrails/monster/Monster_3013010.png"
  },
  {
    "id": 2032020,
    "name": "Волк-поглотитель луны",
    "type": "MinionLv2",
    "img": "/image/game/starrails/monster/Monster_2032020.png"
  },
  {
    "id": 3025012,
    "name": "Великий Септимий, Хор баланса",
    "type": "BigBoss",
    "img": "/image/game/starrails/monster/Monster_3025010.png"
  },
  {
    "id": 3003052,
    "name": "«Опьянённое празднеством настоящее» (неисправный)",
    "type": "Elite",
    "img": "/image/game/starrails/monster/Monster_3003050.png"
  },
  {
    "id": 3003042,
    "name": "«Гармоничное будущее» (неисправный)",
    "type": "Elite",
    "img": "/image/game/starrails/monster/Monster_3003040.png"
  },
  {
    "id": 3004010,
    "name": "Представление о прошлом, нынешнем и вечном",
    "type": "LittleBoss",
    "img": "/image/game/starrails/monster/Monster_3004010.png"
  },
  {
    "id": 3004011,
    "name": "Представление о прошлом, нынешнем и вечном (исправное)",
    "type": "LittleBoss",
    "img": "/image/game/starrails/monster/Monster_3004010.png"
  },
  {
    "id": 8032031,
    "name": "«Всё или ничего»",
    "type": "MinionLv2",
    "img": "/image/game/starrails/monster/Monster_8032030.png"
  },
  {
    "id": 8034011,
    "name": "Десять каменных сердец: Авантюрин хитрости (исправный)",
    "type": "LittleBoss",
    "img": "/image/game/starrails/monster/Monster_8034010.png"
  },
  {
    "id": 3003033,
    "name": "Заключённое в клетку прошлое (исправное)",
    "type": "Elite",
    "img": "/image/game/starrails/monster/Monster_3003030.png"
  },
  {
    "id": 3003043,
    "name": "Гармоничное будущее (исправное)",
    "type": "Elite",
    "img": "/image/game/starrails/monster/Monster_3003040.png"
  },
  {
    "id": 3003053,
    "name": "Опьянённое празднеством настоящее (исправное)",
    "type": "Elite",
    "img": "/image/game/starrails/monster/Monster_3003050.png"
  },
  {
    "id": 3002052,
    "name": "Королевский бак",
    "type": "MinionLv2",
    "img": "/image/game/starrails/monster/Monster_3002052.png"
  },
  {
    "id": 1004014,
    "name": "Сокрушительница мистраля отчаяния",
    "type": "LittleBoss",
    "img": "/image/game/starrails/monster/Monster_1004010.png"
  },
  {
    "id": 1005014,
    "name": "Сокрушительница мистраля отчаяния: Мать обмана",
    "type": "BigBoss",
    "img": "/image/game/starrails/monster/Monster_1005010.png"
  },
  {
    "id": 3024022,
    "name": "Охотники за Стелларонами: Сэм",
    "type": "LittleBoss",
    "img": "/image/game/starrails/monster/Monster_3024020.png"
  },
  {
    "id": 3024023,
    "name": "Охотники за Стелларонами: Сэм (исправный)",
    "type": "LittleBoss",
    "img": "/image/game/starrails/monster/Monster_3024020.png"
  },
  {
    "id": 3002011,
    "name": "Лабананорант коллектива банафедры",
    "type": "MinionLv2",
    "img": "/image/game/starrails/monster/Monster_3002011.png"
  },
  {
    "id": 3002021,
    "name": "Бананаставник Школы богатств коллектива банафедры",
    "type": "MinionLv2",
    "img": "/image/game/starrails/monster/Monster_3002021.png"
  },
  {
    "id": 3002041,
    "name": "Бананаставник Школы грёзотворчества коллектива банафедры",
    "type": "MinionLv2",
    "img": "/image/game/starrails/monster/Monster_3002041.png"
  },
  {
    "id": 3003013,
    "name": "Бананаставник Школы гармонии коллектива банафедры",
    "type": "Elite",
    "img": "/image/game/starrails/monster/Monster_3003013.png"
  },
  {
    "id": 3004020,
    "name": "Коллектив банафедры Чудесного леса",
    "type": "LittleBoss",
    "img": "/image/game/starrails/monster/Monster_3004020.png"
  },
  {
    "id": 2004014,
    "name": "Влекущий владыка",
    "type": "LittleBoss",
    "img": "/image/game/starrails/monster/Monster_2004010.png"
  },
  {
    "id": 3014023,
    "name": "Мем зоны воспоминаний «Что-то к смерти»",
    "type": "LittleBoss",
    "img": "/image/game/starrails/monster/Monster_3014020.png"
  },
  {
    "id": 4012010,
    "name": "Воин ярости",
    "type": "MinionLv2",
    "img": "/image/game/starrails/monster/Monster_4012010.png"
  },
  {
    "id": 3014024,
    "name": "Мем зоны воспоминаний «Что-то к смерти»",
    "type": "LittleBoss",
    "img": "/image/game/starrails/monster/Monster_3014020.png"
  },
  {
    "id": 8032032,
    "name": "«Всё или ничего»",
    "type": "MinionLv2",
    "img": "/image/game/starrails/monster/Monster_8032030.png"
  },
  {
    "id": 1002060,
    "name": "Копьё бесконечного холода",
    "type": "MinionLv2",
    "img": "/image/game/starrails/monster/Monster_1002013.png"
  },
  {
    "id": 1002061,
    "name": "Копьё бесконечного холода",
    "type": "MinionLv2",
    "img": "/image/game/starrails/monster/Monster_1002013.png"
  },
  {
    "id": 1002062,
    "name": "Копьё бесконечного холода",
    "type": "MinionLv2",
    "img": "/image/game/starrails/monster/Monster_1002013.png"
  },
  {
    "id": 1002063,
    "name": "Копьё бесконечного холода",
    "type": "MinionLv2",
    "img": "/image/game/starrails/monster/Monster_1002013.png"
  },
  {
    "id": 2024015,
    "name": "Чёрный олень Изобилия (исправный)",
    "type": "LittleBoss",
    "img": "/image/game/starrails/monster/Monster_2024010.png"
  },
  {
    "id": 4012020,
    "name": "Философ ярости",
    "type": "MinionLv2",
    "img": "/image/game/starrails/monster/Monster_4012020.png"
  },
  {
    "id": 4013010,
    "name": "Авангард ярости",
    "type": "Elite",
    "img": "/image/game/starrails/monster/Monster_4013010.png"
  },
  {
    "id": 2024021,
    "name": "Циррус (исправная)",
    "type": "LittleBoss",
    "img": "/image/game/starrails/monster/Monster_2024020.png"
  },
  {
    "id": 3003014,
    "name": "Пережаренный из труппы «Кошмарики»",
    "type": "Elite",
    "img": "/image/game/starrails/monster/Monster_3003010.png"
  },
  {
    "id": 3013012,
    "name": "Мем зоны воспоминаний «Скорлупа угасшей ярости»",
    "type": "Elite",
    "img": "/image/game/starrails/monster/Monster_3013010.png"
  },
  {
    "id": 8003012,
    "name": "Лёд из космоса",
    "type": "Elite",
    "img": "/image/game/starrails/monster/Monster_8003010.png"
  },
  {
    "id": 8003022,
    "name": "Огонь из космоса",
    "type": "Elite",
    "img": "/image/game/starrails/monster/Monster_8003020.png"
  },
  {
    "id": 8015022,
    "name": "Авантюрный провокатор",
    "type": "BigBoss",
    "img": "/image/game/starrails/monster/Monster_8015020.png"
  },
  {
    "id": 2005010,
    "name": "Безумная Фэйсяо",
    "type": "BigBoss",
    "img": "/image/game/starrails/monster/Monster_2035010.png"
  },
  {
    "id": 2035010,
    "name": "Тень «Фэйсяо»",
    "type": "BigBoss",
    "img": "/image/game/starrails/monster/Monster_2035010.png"
  },
  {
    "id": 2035011,
    "name": "Тень «Фэйсяо»",
    "type": "BigBoss",
    "img": "/image/game/starrails/monster/Monster_2035010.png"
  },
  {
    "id": 2004020,
    "name": "Лейтенант Облачных Рыцарей: Яньцин",
    "type": "LittleBoss",
    "img": "/image/game/starrails/monster/Monster_2004020.png"
  },
  {
    "id": 2004021,
    "name": "Лейтенант Облачных Рыцарей: Яньцин (исправный)",
    "type": "LittleBoss",
    "img": "/image/game/starrails/monster/Monster_2004020.png"
  },
  {
    "id": 2004022,
    "name": "Лейтенант Облачных Рыцарей: Яньцин (исправный)",
    "type": "LittleBoss",
    "img": "/image/game/starrails/monster/Monster_2004020.png"
  },
  {
    "id": 2004024,
    "name": "Лейтенант Облачных Рыцарей: Яньцин",
    "type": "LittleBoss",
    "img": "/image/game/starrails/monster/Monster_2004020.png"
  },
  {
    "id": 8012204,
    "name": "Лотос Изобилия",
    "type": "MinionLv2",
    "img": "/image/game/starrails/monster/Monster_8012200.png"
  },
  {
    "id": 8012205,
    "name": "Лотос Изобилия",
    "type": "MinionLv2",
    "img": "/image/game/starrails/monster/Monster_8012201.png"
  },
  {
    "id": 8012214,
    "name": "Лотос Разрушения",
    "type": "MinionLv2",
    "img": "/image/game/starrails/monster/Monster_8012210.png"
  },
  {
    "id": 8012215,
    "name": "Лотос Разрушения",
    "type": "MinionLv2",
    "img": "/image/game/starrails/monster/Monster_8012211.png"
  },
  {
    "id": 1004015,
    "name": "Коколия",
    "type": "LittleBoss",
    "img": "/image/game/starrails/monster/Monster_1004010.png"
  },
  {
    "id": 2034011,
    "name": "Вожак борисинцев: Хулэй",
    "type": "LittleBoss",
    "img": "/image/game/starrails/monster/Monster_2034010.png"
  },
  {
    "id": 2032040,
    "name": "Пожиратель туманностей",
    "type": "MinionLv2",
    "img": "/image/game/starrails/monster/Monster_2032040.png"
  },
  {
    "id": 2032041,
    "name": "Пожиратель туманностей",
    "type": "MinionLv2",
    "img": "/image/game/starrails/monster/Monster_2032040.png"
  },
  {
    "id": 2032050,
    "name": "Разрушительные когти",
    "type": "MinionLv2",
    "img": "/image/game/starrails/monster/Monster_2032050.png"
  },
  {
    "id": 2032051,
    "name": "Разрушительные когти",
    "type": "MinionLv2",
    "img": "/image/game/starrails/monster/Monster_2032050.png"
  },
  {
    "id": 2032060,
    "name": "Сметающий хвост",
    "type": "MinionLv2",
    "img": "/image/game/starrails/monster/Monster_2032060.png"
  },
  {
    "id": 2032061,
    "name": "Сметающий хвост",
    "type": "MinionLv2",
    "img": "/image/game/starrails/monster/Monster_2032060.png"
  },
  {
    "id": 4012030,
    "name": "Охотница ярости",
    "type": "MinionLv2",
    "img": "/image/game/starrails/monster/Monster_4012030.png"
  },
  {
    "id": 4012040,
    "name": "Хорист ярости",
    "type": "MinionLv2",
    "img": "/image/game/starrails/monster/Monster_4012040.png"
  },
  {
    "id": 8033013,
    "name": "Старший персонал: Лидер команды",
    "type": "Elite",
    "img": "/image/game/starrails/monster/Monster_8033010.png"
  },
  {
    "id": 3002053,
    "name": "Королевский бак (проекция)",
    "type": "MinionLv2",
    "img": "/image/game/starrails/monster/Monster_3002050.png"
  },
  {
    "id": 1014014,
    "name": "Сварог",
    "type": "LittleBoss",
    "img": "/image/game/starrails/monster/Monster_1014010.png"
  },
  {
    "id": 8032033,
    "name": "«Всё или ничего»",
    "type": "MinionLv2",
    "img": "/image/game/starrails/monster/Monster_8032030.png"
  },
  {
    "id": 8034012,
    "name": "Отчаянный игрок",
    "type": "LittleBoss",
    "img": "/image/game/starrails/monster/Monster_8034010.png"
  },
  {
    "id": 3022011,
    "name": "Отголосок старых грёз",
    "type": "MinionLv2",
    "img": "/image/game/starrails/monster/Monster_3022010.png"
  },
  {
    "id": 3025013,
    "name": "Дирижёр какофонии",
    "type": "BigBoss",
    "img": "/image/game/starrails/monster/Monster_3025010.png"
  },
  {
    "id": 3012032,
    "name": "Усыпальница душ",
    "type": "MinionLv2",
    "img": "/image/game/starrails/monster/Monster_3012030.png"
  },
  {
    "id": 1002064,
    "name": "Копьё бесконечного холода",
    "type": "MinionLv2",
    "img": "/image/game/starrails/monster/Monster_1002013.png"
  },
  {
    "id": 1023022,
    "name": "Морозный странник",
    "type": "Elite",
    "img": "/image/game/starrails/monster/Monster_1023020.png"
  },
  {
    "id": 8032034,
    "name": "«Всё или ничего: Двойное везение»",
    "type": "MinionLv2",
    "img": "/image/game/starrails/monster/Monster_8032034.png"
  },
  {
    "id": 3024014,
    "name": "Аргенти",
    "type": "LittleBoss",
    "img": "/image/game/starrails/monster/Monster_3024010.png"
  },
  {
    "id": 3014025,
    "name": "Мем зоны воспоминаний «Что-то к смерти»",
    "type": "LittleBoss",
    "img": "/image/game/starrails/monster/Monster_3014020.png"
  },
  {
    "id": 1014015,
    "name": "Сварог",
    "type": "LittleBoss",
    "img": "/image/game/starrails/monster/Monster_1014010.png"
  },
  {
    "id": 2032021,
    "name": "Волк-поглотитель луны",
    "type": "MinionLv2",
    "img": "/image/game/starrails/monster/Monster_2032020.png"
  },
  {
    "id": 2033020,
    "name": "Внутренний зверь и Тень «Фэйсяо»",
    "type": "Elite",
    "img": "/image/game/starrails/monster/Monster_2033020.png"
  },
  {
    "id": 2033021,
    "name": "Внутренний зверь и Тень «Фэйсяо»",
    "type": "Elite",
    "img": "/image/game/starrails/monster/Monster_2033020.png"
  },
  {
    "id": 4012050,
    "name": "Воровской дух Бартолос",
    "type": "MinionLv2",
    "img": "/image/game/starrails/monster/Monster_4012050.png"
  },
  {
    "id": 2034012,
    "name": "Вожак борисинцев: Хулэй (исправный)",
    "type": "LittleBoss",
    "img": "/image/game/starrails/monster/Monster_2034010.png"
  },
  {
    "id": 3025014,
    "name": "Великий Септимий, Хор баланса",
    "type": "BigBoss",
    "img": "/image/game/starrails/monster/Monster_3025010.png"
  },
  {
    "id": 2034013,
    "name": "Вожак борисинцев: Хулэй",
    "type": "LittleBoss",
    "img": "/image/game/starrails/monster/Monster_2034010.png"
  },
  {
    "id": 4014010,
    "name": "«Дикий бог, безумный царь, воплощение раздора»",
    "type": "LittleBoss",
    "img": "/image/game/starrails/monster/Monster_4014010.png"
  },
  {
    "id": 4014020,
    "name": "«Дающий, Лидер Легионов, Копьё Ярости»",
    "type": "LittleBoss",
    "img": "/image/game/starrails/monster/Monster_4014020.png"
  },
  {
    "id": 2004025,
    "name": "Лейтенант Облачных Рыцарей: Яньцин",
    "type": "LittleBoss",
    "img": "/image/game/starrails/monster/Monster_2004020.png"
  },
  {
    "id": 4012060,
    "name": "«Одержи победу или покорись»",
    "type": "MinionLv2",
    "img": "/image/game/starrails/monster/Monster_4012060.png"
  },
  {
    "id": 8003060,
    "name": "Вымышленная совокупность",
    "type": "Elite",
    "img": "/image/game/starrails/monster/Monster_Unknown.png"
  },
  {
    "id": 4012031,
    "name": "Охотница ярости",
    "type": "MinionLv2",
    "img": "/image/game/starrails/monster/Monster_4012030.png"
  },
  {
    "id": 4012051,
    "name": "Воровской дух Бартолос",
    "type": "MinionLv2",
    "img": "/image/game/starrails/monster/Monster_4012050.png"
  },
  {
    "id": 4043010,
    "name": "Герта #НеисправнаяМодель",
    "type": "Elite",
    "img": "/image/game/starrails/monster/Monster_4043010.png"
  },
  {
    "id": 4012041,
    "name": "Хорист ярости",
    "type": "MinionLv2",
    "img": "/image/game/starrails/monster/Monster_4012040.png"
  },
  {
    "id": 4014011,
    "name": "«Дикий бог, безумный царь, воплощение раздора»",
    "type": "LittleBoss",
    "img": "/image/game/starrails/monster/Monster_4014010.png"
  },
  {
    "id": 4013011,
    "name": "Авангард ярости",
    "type": "Elite",
    "img": "/image/game/starrails/monster/Monster_4013010.png"
  },
  {
    "id": 4012021,
    "name": "Философ ярости",
    "type": "MinionLv2",
    "img": "/image/game/starrails/monster/Monster_4012020.png"
  },
  {
    "id": 8022011,
    "name": "Незрелый жаложук",
    "type": "MinionLv2",
    "img": "/image/game/starrails/monster/Monster_8022010.png"
  },
  {
    "id": 8022021,
    "name": "Молодой жаложук",
    "type": "MinionLv2",
    "img": "/image/game/starrails/monster/Monster_8022020.png"
  },
  {
    "id": 8022031,
    "name": "Коррозийный жаложук",
    "type": "MinionLv2",
    "img": "/image/game/starrails/monster/Monster_8022030.png"
  },
  {
    "id": 8025011,
    "name": "Окутывающий небо рой пожирателей звёзд",
    "type": "BigBoss",
    "img": "/image/game/starrails/monster/Monster_8025010.png"
  },
  {
    "id": 4014012,
    "name": "«Дикий бог, безумный царь, воплощение раздора»",
    "type": "LittleBoss",
    "img": "/image/game/starrails/monster/Monster_4014010.png"
  },
  {
    "id": 4013012,
    "name": "Авангард ярости",
    "type": "Elite",
    "img": "/image/game/starrails/monster/Monster_4013010.png"
  },
  {
    "id": 1004020,
    "name": "Гепард",
    "type": "LittleBoss",
    "img": "/image/game/starrails/monster/Monster_1004020.png"
  },
  {
    "id": 1004021,
    "name": "Гепард",
    "type": "LittleBoss",
    "img": "/image/game/starrails/monster/Monster_1004020.png"
  },
  {
    "id": 1004022,
    "name": "Гепард (исправный)",
    "type": "LittleBoss",
    "img": "/image/game/starrails/monster/Monster_1004020.png"
  },
  {
    "id": 1004023,
    "name": "Гепард (исправный)",
    "type": "LittleBoss",
    "img": "/image/game/starrails/monster/Monster_1004020.png"
  },
  {
    "id": 1004024,
    "name": "Гепард (иллюзорный)",
    "type": "LittleBoss",
    "img": "/image/game/starrails/monster/Monster_1004020.png"
  },
  {
    "id": 1004025,
    "name": "Гепард (иллюзорный)",
    "type": "LittleBoss",
    "img": "/image/game/starrails/monster/Monster_1004020.png"
  },
  {
    "id": 1004026,
    "name": "Гепард",
    "type": "LittleBoss",
    "img": "/image/game/starrails/monster/Monster_1004020.png"
  },
  {
    "id": 1004027,
    "name": "Гепард",
    "type": "LittleBoss",
    "img": "/image/game/starrails/monster/Monster_1004020.png"
  },
  {
    "id": 3004021,
    "name": "Пламенановая проделка обезьян",
    "type": "LittleBoss",
    "img": "/image/game/starrails/monster/Monster_3004020.png"
  },
  {
    "id": 8012146,
    "name": "Правая рука катастрофы",
    "type": "MinionLv2",
    "img": "/image/game/starrails/monster/Monster_8012140.png"
  },
  {
    "id": 8012147,
    "name": "Левая рука рассвета",
    "type": "MinionLv2",
    "img": "/image/game/starrails/monster/Monster_8012142.png"
  },
  {
    "id": 8013145,
    "name": "Двигатель на антиматерии",
    "type": "Elite",
    "img": "/image/game/starrails/monster/Monster_8012141.png"
  },
  {
    "id": 8015012,
    "name": "Зверь-уничтожитель звёзд",
    "type": "BigBoss",
    "img": "/image/game/starrails/monster/Monster_8015010.png"
  },
  {
    "id": 3002012,
    "name": "Лабананорант коллектива банафедры",
    "type": "MinionLv2",
    "img": "/image/game/starrails/monster/Monster_3002011.png"
  },
  {
    "id": 3002022,
    "name": "Бананаставник Школы богатств коллектива банафедры",
    "type": "MinionLv2",
    "img": "/image/game/starrails/monster/Monster_3002021.png"
  },
  {
    "id": 3002042,
    "name": "Бананаставник Школы грёзотворчества коллектива банафедры",
    "type": "MinionLv2",
    "img": "/image/game/starrails/monster/Monster_3002041.png"
  },
  {
    "id": 3003015,
    "name": "Бананаставник Школы гармонии коллектива банафедры",
    "type": "Elite",
    "img": "/image/game/starrails/monster/Monster_3003013.png"
  }
]