[
  {
    "id": 1,
    "name": "N/A (Prop_Common_AreaIdentifier_01_Entity)"
  },
  {
    "id": 2,
    "name": "N/A (Prop_Common_AreaIdentifier_02_Entity)"
  },
  {
    "id": 3,
    "name": "N/A (Prop_Common_AreaIdentifier_03_Entity)"
  },
  {
    "id": 100,
    "name": "N/A (Prop_Common_EmptyProp_01_Entity)"
  },
  {
    "id": 101,
    "name": "Пространственный якорь (Prop_Chap01_RecoveryDoor_01_Entity)"
  },
  {
    "id": 102,
    "name": "N/A (Prop_Common_AirWall_02_Entity)"
  },
  {
    "id": 103,
    "name": "Космическая трещина (Prop_Common_SpaceFissurel_01_Entity)"
  },
  {
    "id": 104,
    "name": "N/A (Prop_Common_AdventureHintPoint_01_Entity)"
  },
  {
    "id": 105,
    "name": "N/A (Prop_Common_AirWall_01_Entity)"
  },
  {
    "id": 106,
    "name": "Осмотреть (Prop_Common_AdventureHintPoint_02_Entity)"
  },
  {
    "id": 107,
    "name": "N/A (Prop_Common_EmptyProp_01_Entity)"
  },
  {
    "id": 108,
    "name": "N/A (Prop_Common_EmptyProp_01_Entity)"
  },
  {
    "id": 109,
    "name": "N/A (Prop_Common_AirWall_04_Entity)"
  },
  {
    "id": 110,
    "name": "N/A (Prop_Common_EmptyProp_01_Entity)"
  },
  {
    "id": 111,
    "name": "Осмотреть (Prop_Common_MissionHint_01_Entity)"
  },
  {
    "id": 113,
    "name": "Эхо войны (Prop_Common_EchoOfWar_01_Entity)"
  },
  {
    "id": 114,
    "name": "N/A (Prop_Common_Entrance_BlockLine_01_Entity)"
  },
  {
    "id": 115,
    "name": "N/A (Prop_Common_EmptyProp_01_Entity)"
  },
  {
    "id": 117,
    "name": "Поисковик объектов для дома (Prop_Common_Probe_01_Entity)"
  },
  {
    "id": 119,
    "name": "N/A (Prop_Common_AirWall_03_Entity)"
  },
  {
    "id": 120,
    "name": "N/A (Prop_Common_ReadingProps_01_Entity)"
  },
  {
    "id": 121,
    "name": "N/A (Prop_Common_PhotoFrame_01_Entity)"
  },
  {
    "id": 122,
    "name": "N/A (Prop_Common_InteractivePropHint_01_Entity)"
  },
  {
    "id": 123,
    "name": "N/A (Prop_Common_StageDecal_01_Entity)"
  },
  {
    "id": 124,
    "name": "N/A (Prop_Common_PhotoFrame_01_Entity)"
  },
  {
    "id": 131,
    "name": "N/A (Prop_Common_EmptyProp_01_Entity)"
  },
  {
    "id": 132,
    "name": "N/A (Prop_Common_EmptyProp_01_Entity)"
  },
  {
    "id": 133,
    "name": "N/A (Prop_Common_Entrance_BlockLine_01_Entity)"
  },
  {
    "id": 134,
    "name": "N/A (Prop_Common_Entrance_BlockLine_01_Entity)"
  },
  {
    "id": 135,
    "name": "N/A (Prop_Common_EmptyProp_01_Entity)"
  },
  {
    "id": 136,
    "name": "N/A (Prop_Common_TrackNPC_HiddenArea_Entity)"
  },
  {
    "id": 137,
    "name": "N/A (Prop_Common_AirWall_05_Entity)"
  },
  {
    "id": 138,
    "name": "N/A (Prop_Common_EmptyProp_01_Entity)"
  },
  {
    "id": 139,
    "name": "N/A (Prop_Common_EmptyProp_01_Entity)"
  },
  {
    "id": 140,
    "name": "N/A (Prop_Common_SoftBlockLine_01_Entity)"
  },
  {
    "id": 141,
    "name": "N/A (Prop_Common_EmptyProp_03_Entity)"
  },
  {
    "id": 142,
    "name": "N/A (Prop_Common_SmellTrack_01_Entity)"
  },
  {
    "id": 143,
    "name": "N/A (Prop_Common_EmptyPropIgnoreLod_04_Entity)"
  },
  {
    "id": 211,
    "name": "N/A (Prop_Common_EmptyProp_01_Entity)"
  },
  {
    "id": 217,
    "name": "N/A (Prop_Common_EmptyProp_02_Entity)"
  },
  {
    "id": 218,
    "name": "N/A (Prop_Common_EmptyProp_02_Entity)"
  },
  {
    "id": 220,
    "name": "N/A (Prop_Common_FireOrb_01_Entity)"
  },
  {
    "id": 301,
    "name": "N/A (Prop_Common_EmptyProp_01_Entity)"
  },
  {
    "id": 302,
    "name": "N/A (Prop_Common_EmptyProp_01_Entity)"
  },
  {
    "id": 303,
    "name": "N/A (Prop_Common_EmptyProp_01_Entity)"
  },
  {
    "id": 304,
    "name": "N/A (Prop_Common_EmptyProp_01_Entity)"
  },
  {
    "id": 701,
    "name": "Застойная тень (Prop_Common_FarmElement_01_Entity)"
  },
  {
    "id": 702,
    "name": "Застойная тень (Prop_Common_FarmElement_02_Entity)"
  },
  {
    "id": 703,
    "name": "Застойная тень (Prop_Common_FarmElement_03_Entity)"
  },
  {
    "id": 801,
    "name": "Чашелист (Prop_Common_Cocoon_01_Entity)"
  },
  {
    "id": 808,
    "name": "Чашелист (Prop_Common_Cocoon_02_Entity)"
  },
  {
    "id": 901,
    "name": "Пещера коррозии (Prop_Common_SpaceFissurel_02_Entity)"
  },
  {
    "id": 902,
    "name": "Холм вечнозимья (Prop_Chap01_RaidEntrance_01_Entity)"
  },
  {
    "id": 905,
    "name": "N/A (Prop_Common_EmptyProp_01_Entity)"
  },
  {
    "id": 907,
    "name": "N/A (Prop_Common_ReadingProps_01_Entity)"
  },
  {
    "id": 908,
    "name": "N/A (Prop_Common_PerformencePH_01_Entity)"
  },
  {
    "id": 909,
    "name": "N/A (Prop_Common_PerformencePH_02_Entity)"
  },
  {
    "id": 910,
    "name": "N/A (Prop_Common_PerformencePH_03_Entity)"
  },
  {
    "id": 911,
    "name": "N/A (Prop_Common_PerformencePH_04_Entity)"
  },
  {
    "id": 912,
    "name": "N/A (Prop_Common_PerformencePH_05_Entity)"
  },
  {
    "id": 913,
    "name": "N/A (Prop_Common_EntranceBlockLine_02_Entity)"
  },
  {
    "id": 914,
    "name": "N/A (Prop_Common_EmptyProp_01_Entity)"
  },
  {
    "id": 915,
    "name": "N/A (Prop_Common_Mar7thCam_01_Entity)"
  },
  {
    "id": 916,
    "name": "N/A (Prop_Common_Mar7thSword_01_Entity)"
  },
  {
    "id": 917,
    "name": "N/A (Prop_Common_RappaSpray_01_Entity)"
  },
  {
    "id": 918,
    "name": "N/A (Prop_Common_EngineHeadModel_01_Entity)"
  },
  {
    "id": 919,
    "name": "N/A (Prop_Common_EngineHeadModel_01_Entity)"
  },
  {
    "id": 920,
    "name": "N/A (Prop_Common_EngineHeadModel_01_Entity)"
  },
  {
    "id": 921,
    "name": "N/A (Prop_Common_FireLance_01_Entity)"
  },
  {
    "id": 922,
    "name": "N/A (Prop_Common_HertaMirror_01_Entity)"
  },
  {
    "id": 923,
    "name": "N/A (Prop_Common_DrRatioStatue_01_Entity)"
  },
  {
    "id": 924,
    "name": "N/A (Prop_Common_EmptyProp_01_Entity)"
  },
  {
    "id": 925,
    "name": "N/A (Prop_Rogue_DiceConsole_01_Entity)"
  },
  {
    "id": 1000,
    "name": "Выход из Виртуальной вселенной (Prop_Rogue_Portal_01_Entity)"
  },
  {
    "id": 1001,
    "name": "Загрузчик (Prop_Chap00_RogueLobby_PickMachine_01_Entity)"
  },
  {
    "id": 1002,
    "name": "Воскреситель (Prop_Chap00_RogueLobby_Appraisal_01_Entity)"
  },
  {
    "id": 1003,
    "name": "Виртуальная вселенная (Prop_Common_EmptyProp_01_Entity)"
  },
  {
    "id": 1004,
    "name": "Награды погружения (Prop_Chap00_RogueLobby_GashaponMachine_01_Entity)"
  },
  {
    "id": 1005,
    "name": "Справочник (Prop_Common_EmptyProp_01_Entity)"
  },
  {
    "id": 1006,
    "name": "N/A (Prop_Chap00_RogueLobby_HertaPhoto_01_Entity)"
  },
  {
    "id": 1007,
    "name": "N/A (Prop_Chap00_RogueLobby_PhotoWall_01_Entity)"
  },
  {
    "id": 1021,
    "name": "N/A (Prop_Rogue_Portal_01_Entity)"
  },
  {
    "id": 1022,
    "name": "N/A (Prop_Rogue_Portal_01_Entity)"
  },
  {
    "id": 1023,
    "name": "N/A (Prop_Rogue_Portal_01_Entity)"
  },
  {
    "id": 1024,
    "name": "N/A (Prop_Rogue_Portal_01_Entity)"
  },
  {
    "id": 1025,
    "name": "Расходящаяся вселенная (Prop_Rogue_LobbyEntrance_03_Entity)"
  },
  {
    "id": 1026,
    "name": "Устройство визита (Prop_Rogue_DiceConsole_01_Entity)"
  },
  {
    "id": 1027,
    "name": "N/A (Prop_Chap00_BlockLine_01_Entity)"
  },
  {
    "id": 1028,
    "name": "N/A (Prop_Chap00_BlockLine_01_Entity)"
  },
  {
    "id": 1029,
    "name": "N/A (Prop_Chap00_BlockLine_01_Entity)"
  },
  {
    "id": 1030,
    "name": "N/A (Prop_Chap00_BlockLine_01_Entity)"
  },
  {
    "id": 1031,
    "name": "N/A (Prop_Common_EmptyProp_01_Entity)"
  },
  {
    "id": 1032,
    "name": "N/A (Prop_Rogue_RougueEmblem_01_Entity)"
  },
  {
    "id": 1033,
    "name": "Выйти из Расходящейся вселенной (Prop_Rogue_Portal_01_Entity)"
  },
  {
    "id": 1034,
    "name": "N/A (Prop_Rogue_Portal_01_Entity)"
  },
  {
    "id": 1035,
    "name": "N/A (Prop_Rogue_Portal_01_Entity)"
  },
  {
    "id": 1036,
    "name": "N/A (Prop_Rogue_Portal_01_Entity)"
  },
  {
    "id": 1037,
    "name": "N/A (Prop_Rogue_Portal_01_Entity)"
  },
  {
    "id": 1038,
    "name": "Верстак созданий (Prop_Chap00_CookerThrone_01_Entity)"
  },
  {
    "id": 1039,
    "name": "N/A (Prop_Rogue_PigeonHerta_01_Entity)"
  },
  {
    "id": 1040,
    "name": "N/A (Prop_Rogue_TournMedal_01_Entity)"
  },
  {
    "id": 1041,
    "name": "N/A (Prop_Rogue_DiceAbundance_01_Entity)"
  },
  {
    "id": 1042,
    "name": "N/A (Prop_Rogue_DiceDestruction_01_Entity)"
  },
  {
    "id": 1043,
    "name": "N/A (Prop_Rogue_DiceElation_01_Entity)"
  },
  {
    "id": 1044,
    "name": "N/A (Prop_Rogue_DiceNihility_01_Entity)"
  },
  {
    "id": 1045,
    "name": "N/A (Prop_Rogue_DicePreservation_01_Entity)"
  },
  {
    "id": 1046,
    "name": "N/A (Prop_Rogue_DicePropagation_01_Entity)"
  },
  {
    "id": 1047,
    "name": "N/A (Prop_Rogue_DiceRemembrance_01_Entity)"
  },
  {
    "id": 1048,
    "name": "N/A (Prop_Rogue_DiceTheHunt_01_Entity)"
  },
  {
    "id": 1049,
    "name": "N/A (Prop_Rogue_SlotMachineRogue_01_Entity)"
  },
  {
    "id": 1050,
    "name": "N/A (Prop_Rogue_PrizeWheelRogue_01_Entity)"
  },
  {
    "id": 1051,
    "name": "N/A (Prop_Common_EntranceBlockLine_02_Entity)"
  },
  {
    "id": 1052,
    "name": "N/A (Prop_Common_EmptyProp_01_Entity)"
  },
  {
    "id": 1053,
    "name": "Выход из Виртуальной вселенной (Prop_Rogue_Portal_01_Entity)"
  },
  {
    "id": 1054,
    "name": "N/A (Prop_Rogue_Portal_01_Entity)"
  },
  {
    "id": 1055,
    "name": "N/A (Prop_Rogue_Portal_01_Entity)"
  },
  {
    "id": 1056,
    "name": "N/A (Prop_Rogue_Portal_01_Entity)"
  },
  {
    "id": 1057,
    "name": "N/A (Prop_Rogue_Portal_01_Entity)"
  },
  {
    "id": 1058,
    "name": "Приставка с приключениями (Prop_Chap03_Arcade_03_Entity)"
  },
  {
    "id": 1059,
    "name": "N/A (Prop_Chap04_BlockLine_01_Entity)"
  },
  {
    "id": 1060,
    "name": "Устройство визита (Prop_Rogue_DiceConsole_01_Entity)"
  },
  {
    "id": 2000,
    "name": "Торговый автомат (Prop_Train_VendingMachine_01_Entity)"
  },
  {
    "id": 2001,
    "name": "Фонограф (Prop_Train_Jukebox_01_Entity)"
  },
  {
    "id": 2002,
    "name": "Универсальная машина для синтеза (Prop_Train_CraftingTable_01_Entity)"
  },
  {
    "id": 2003,
    "name": "N/A (Prop_Train_DanHeng_Door_01_Entity)"
  },
  {
    "id": 2004,
    "name": "N/A (Prop_Train_Mirror_01_Entity)"
  },
  {
    "id": 2005,
    "name": "N/A (Prop_Common_EmptyProp_01_Entity)"
  },
  {
    "id": 2006,
    "name": "N/A (Prop_Chap00_Pad_03_Entity)"
  },
  {
    "id": 2007,
    "name": "N/A (Prop_Train_Mar_7th_Ice_01_Entity)"
  },
  {
    "id": 3000,
    "name": "Исследуйте Мнимую неглубокую червоточину (Prop_Common_EmptyProp_02_Entity)"
  },
  {
    "id": 3001,
    "name": "Мнимая глубокая червоточина (Prop_Common_SpaceFissurel_04_Entity)"
  },
  {
    "id": 3002,
    "name": "Энергетический якорь (Prop_Chap01_RecoveryPoint_01_Entity)"
  },
  {
    "id": 60001,
    "name": "Обычный сундук (Prop_Chap00_TreasureBox_01_Entity)"
  },
  {
    "id": 60002,
    "name": "Ценный сундук (Prop_Chap00_TreasureBox_02_Entity)"
  },
  {
    "id": 60003,
    "name": "Роскошный сундук (Prop_Chap00_TreasureBox_03_Entity)"
  },
  {
    "id": 60004,
    "name": "Обычный сундук (Prop_Chap00_TreasureBox_01_Entity)"
  },
  {
    "id": 60005,
    "name": "Ценный сундук (Prop_Chap00_TreasureBox_02_Entity)"
  },
  {
    "id": 60006,
    "name": "Роскошный сундук (Prop_Chap00_TreasureBox_03_Entity)"
  },
  {
    "id": 60101,
    "name": "Обычный сундук (Prop_Chap01_TreasureBox_03_Entity)"
  },
  {
    "id": 60102,
    "name": "Ценный сундук (Prop_Chap01_TreasureBox_01_Entity)"
  },
  {
    "id": 60103,
    "name": "Роскошный сундук (Prop_Chap01_TreasureBox_02_Entity)"
  },
  {
    "id": 60104,
    "name": "Обычный сундук (Prop_Chap01_TreasureBox_03_Entity)"
  },
  {
    "id": 60105,
    "name": "Ценный сундук (Prop_Chap01_TreasureBox_01_Entity)"
  },
  {
    "id": 60106,
    "name": "Роскошный сундук (Prop_Chap01_TreasureBox_02_Entity)"
  },
  {
    "id": 60201,
    "name": "Обычный сундук (Prop_Chap02_TreasureBox_01_Entity)"
  },
  {
    "id": 60202,
    "name": "Ценный сундук (Prop_Chap02_TreasureBox_02_Entity)"
  },
  {
    "id": 60203,
    "name": "Роскошный сундук (Prop_Chap02_TreasureBox_03_Entity)"
  },
  {
    "id": 60204,
    "name": "Обычный сундук (Prop_Chap02_TreasureBox_01_Entity)"
  },
  {
    "id": 60205,
    "name": "Ценный сундук (Prop_Chap02_TreasureBox_02_Entity)"
  },
  {
    "id": 60206,
    "name": "Роскошный сундук (Prop_Chap02_TreasureBox_03_Entity)"
  },
  {
    "id": 60301,
    "name": "Обычный сундук (Prop_Chap03_TreasureBox_01_Entity)"
  },
  {
    "id": 60302,
    "name": "Ценный сундук (Prop_Chap03_TreasureBox_02_Entity)"
  },
  {
    "id": 60303,
    "name": "Роскошный сундук (Prop_Chap03_TreasureBox_03_Entity)"
  },
  {
    "id": 60304,
    "name": "Обычный сундук (Prop_Chap03_TreasureBox_01_Entity)"
  },
  {
    "id": 60305,
    "name": "Ценный сундук (Prop_Chap03_TreasureBox_02_Entity)"
  },
  {
    "id": 60306,
    "name": "Роскошный сундук (Prop_Chap03_TreasureBox_03_Entity)"
  },
  {
    "id": 60307,
    "name": "Аптечка хаоса (Prop_Chap03_TreasureBox_03_Entity)"
  },
  {
    "id": 60401,
    "name": "Обычный сундук (Prop_Chap04_TreasureBox_01_Entity)"
  },
  {
    "id": 60402,
    "name": "Ценный сундук (Prop_Chap04_TreasureBox_02_Entity)"
  },
  {
    "id": 60403,
    "name": "Роскошный сундук (Prop_Chap04_TreasureBox_03_Entity)"
  },
  {
    "id": 100000,
    "name": "Контроллер (Prop_Chap00_BaseConsole_01_Entity)"
  },
  {
    "id": 100001,
    "name": "Запертая дверь (Prop_Chap00_Door_01_Entity)"
  },
  {
    "id": 100002,
    "name": "Запертая дверь (Prop_Chap00_Door_02_Entity)"
  },
  {
    "id": 100003,
    "name": "Запертая дверь (Prop_Chap00_Door_03_Entity)"
  },
  {
    "id": 100004,
    "name": "Контроллер (Prop_Chap00_BaseConsole_01_Entity)"
  },
  {
    "id": 100005,
    "name": "Запертая дверь (Prop_Chap00_Door_04_Entity)"
  },
  {
    "id": 100006,
    "name": "N/A (Prop_Chap00_BlockLine_01_Entity)"
  },
  {
    "id": 100007,
    "name": "N/A (Prop_Chap00_Elevator_01_Entity)"
  },
  {
    "id": 100008,
    "name": "N/A (Prop_Chap00_Bubble_01_Entity)"
  },
  {
    "id": 100009,
    "name": "N/A (Prop_Chap00_RoomScanEffect_01_Entity)"
  },
  {
    "id": 100010,
    "name": "N/A (Prop_Chap00_TransparentWall_01_Entity)"
  },
  {
    "id": 100011,
    "name": "N/A (Prop_Chap01_EnergyBridge_Orange_01_Entity)"
  },
  {
    "id": 100012,
    "name": "N/A (Prop_Chap01_EnergyBridge_Blue_01_Entity)"
  },
  {
    "id": 100013,
    "name": "N/A (Prop_Chap01_EnergyBridge_White_01_Entity)"
  },
  {
    "id": 100014,
    "name": "Устройство управления (Prop_Chap00_BaseConsole_03_Entity)"
  },
  {
    "id": 100016,
    "name": "N/A (Prop_Chap00_Monitor_01_Entity)"
  },
  {
    "id": 100017,
    "name": "N/A (Prop_Chap00_Monitor_03_Entity)"
  },
  {
    "id": 100018,
    "name": "N/A (Prop_Chap00_Readings_01_Entity)"
  },
  {
    "id": 100019,
    "name": "N/A (Prop_Chap00_Readings_02_Entity)"
  },
  {
    "id": 100020,
    "name": "N/A (Prop_Chap00_Readings_03_Entity)"
  },
  {
    "id": 100021,
    "name": "Запертая дверь (Prop_Chap00_Door_05_Entity)"
  },
  {
    "id": 100022,
    "name": "Устройство управления (Prop_Chap00_BaseConsole_01_Entity)"
  },
  {
    "id": 100024,
    "name": "N/A (Prop_Chap00_Des_HPRecoverBox_01_Entity)"
  },
  {
    "id": 100025,
    "name": "N/A (Prop_Chap00_Des_MPRecoverBox_01_Entity)"
  },
  {
    "id": 100026,
    "name": "N/A (Prop_Chap00_Des_Box_02_Entity)"
  },
  {
    "id": 100027,
    "name": "N/A (Prop_Chap00_Des_Box_01_Entity)"
  },
  {
    "id": 100031,
    "name": "N/A (Prop_Chap00_Curio_Conch_01_Entity)"
  },
  {
    "id": 100032,
    "name": "N/A (Prop_Chap00_Curio_DamagedOddity_01_Entity)"
  },
  {
    "id": 100033,
    "name": "N/A (Prop_Chap00_Curio_FZY_01_Entity)"
  },
  {
    "id": 100034,
    "name": "N/A (Prop_Chap00_Curio_GeneralOddity_01_Entity)"
  },
  {
    "id": 100035,
    "name": "N/A (Prop_Chap00_Curio_GeneralOddity_02_Entity)"
  },
  {
    "id": 100036,
    "name": "N/A (Prop_Chap00_Curio_GeneralOddity_03_Entity)"
  },
  {
    "id": 100037,
    "name": "N/A (Prop_Chap00_Curio_GradingGun_01_Entity)"
  },
  {
    "id": 100038,
    "name": "N/A (Prop_Chap00_Curio_HandStove_01_Entity)"
  },
  {
    "id": 100039,
    "name": "N/A (Prop_Chap00_Curio_PlanetMeasure_01_Entity)"
  },
  {
    "id": 100040,
    "name": "N/A (Prop_Chap00_Curio_Poker_01_Entity)"
  },
  {
    "id": 100041,
    "name": "N/A (Prop_Chap00_Curio_SYJSP_01_Entity)"
  },
  {
    "id": 100042,
    "name": "N/A (Prop_Chap00_Curio_Unbearable_01_Entity)"
  },
  {
    "id": 100045,
    "name": "N/A (Prop_Chap00_Monument_01_Entity)"
  },
  {
    "id": 100046,
    "name": "N/A (Prop_Chap00_Papercrane_01_Entity)"
  },
  {
    "id": 100047,
    "name": "N/A (Prop_Chap00_Toilet_01_Entity)"
  },
  {
    "id": 100048,
    "name": "N/A (Prop_Chap00_HertaScraw_01_Entity)"
  },
  {
    "id": 100049,
    "name": "N/A (Prop_Chap00_HertaScraw_02_Entity)"
  },
  {
    "id": 100050,
    "name": "N/A (Prop_Chap00_HertaScraw_03_Entity)"
  },
  {
    "id": 100051,
    "name": "N/A (Prop_Chap00_HertaScraw_04_Entity)"
  },
  {
    "id": 100052,
    "name": "N/A (Prop_Chap00_Monitor_02_Entity)"
  },
  {
    "id": 100054,
    "name": "N/A (Prop_Chap00_Curio_LightCone_01_Entity)"
  },
  {
    "id": 100055,
    "name": "N/A (Prop_Chap00_Wubwub_01_Entity)"
  },
  {
    "id": 100056,
    "name": "N/A (Prop_Chap00_Wubwub_02_Entity)"
  },
  {
    "id": 100057,
    "name": "N/A (Prop_Chap00_Wubwub_03_Entity)"
  },
  {
    "id": 100058,
    "name": "N/A (Prop_Chap00_Readings_04_Entity)"
  },
  {
    "id": 100059,
    "name": "N/A (Prop_Common_EmptyProp_01_Entity)"
  },
  {
    "id": 100060,
    "name": "N/A (Prop_Chap00_RogueLobby_HertaPhoto_01_Entity)"
  },
  {
    "id": 100061,
    "name": "N/A (Prop_Chap00_RogueLobby_RoguePhoto_01_Entity)"
  },
  {
    "id": 100062,
    "name": "N/A (Prop_Chap00_RogueLobby_RoguePhoto_05_Entity)"
  },
  {
    "id": 100063,
    "name": "N/A (Prop_Chap00_RogueLobby_RoguePhoto_02_Entity)"
  },
  {
    "id": 100064,
    "name": "N/A (Prop_Chap00_RogueLobby_RoguePhoto_04_Entity)"
  },
  {
    "id": 100065,
    "name": "N/A (Prop_Chap00_RogueLobby_RoguePhoto_03_Entity)"
  },
  {
    "id": 100066,
    "name": "Зона битвы (Prop_Rogue_Portal_01_Entity)"
  },
  {
    "id": 100067,
    "name": "Зона события (Prop_Rogue_Portal_01_Entity)"
  },
  {
    "id": 100068,
    "name": "Зона отдыха (Prop_Rogue_Portal_01_Entity)"
  },
  {
    "id": 100069,
    "name": "Зона босса (Prop_Rogue_Portal_01_Entity)"
  },
  {
    "id": 100070,
    "name": "N/A (Prop_Chap00_AirBlock_01_Entity)"
  },
  {
    "id": 100071,
    "name": "N/A (Prop_Chap00_AirBlock_02_Entity)"
  },
  {
    "id": 100072,
    "name": "N/A (Prop_Chap00_ElevatorPlatform_01_Entity)"
  },
  {
    "id": 100073,
    "name": "N/A (Prop_Chap00_ElevatorPlatform_02_Entity)"
  },
  {
    "id": 100074,
    "name": "Контроллер (Prop_Chap00_ConsoleGiantElevatorN4_01_Entity)"
  },
  {
    "id": 100075,
    "name": "Запертая дверь (Prop_Chap00_GiantAutoDoor_01_Entity)"
  },
  {
    "id": 100076,
    "name": "Запертая дверь (Prop_Chap00_MechaDoor_01_Entity)"
  },
  {
    "id": 100077,
    "name": "N/A (Prop_Chap00_StationChair_01_Entity)"
  },
  {
    "id": 100078,
    "name": "Контроллер (Prop_Chap00_ConsoleAutoDoor_01_Entity)"
  },
  {
    "id": 100079,
    "name": "Запертая дверь (Prop_Chap00_GlassDoor_01_Entity)"
  },
  {
    "id": 100080,
    "name": "N/A (Prop_Chap00_LetterFromRuanMei_01_Entity)"
  },
  {
    "id": 100081,
    "name": "N/A (Prop_Chap00_Cake_01_Entity)"
  },
  {
    "id": 100082,
    "name": "N/A (Prop_Chap00_PetHouse_01_Entity)"
  },
  {
    "id": 100083,
    "name": "Книга отзывов (Prop_Chap00_AttendanceBook_01_Entity)"
  },
  {
    "id": 100084,
    "name": "N/A (Prop_Chap00_Chess_01_Entity)"
  },
  {
    "id": 100085,
    "name": "N/A (Prop_Chap00_WeakDimensionFire_01_Entity)"
  },
  {
    "id": 100086,
    "name": "N/A (Prop_Chap00_CookerThrone_01_Entity)"
  },
  {
    "id": 100087,
    "name": "N/A (Prop_Chap00_Grass_01_Entity)"
  },
  {
    "id": 100088,
    "name": "Запертая дверь (Prop_Chap00_Door_06_Entity)"
  },
  {
    "id": 100089,
    "name": "N/A (Prop_Chap00_DimensionFireLine_01_Entity)"
  },
  {
    "id": 100090,
    "name": "Зона граффити (Prop_Chap00_DecalPuzzle_01_Entity)"
  },
  {
    "id": 100091,
    "name": "N/A (Prop_Chap00_N4ElevatorAirWall_01_Entity)"
  },
  {
    "id": 100092,
    "name": "N/A (Prop_Chap00_N4ElevatorAirWall_02_Entity)"
  },
  {
    "id": 100093,
    "name": "Зона граффити (Prop_Chap00_DecalPuzzle_02_Entity)"
  },
  {
    "id": 100094,
    "name": "Зона граффити (Prop_Chap00_DecalPuzzle_03_Entity)"
  },
  {
    "id": 100095,
    "name": "Зона граффити (Prop_Chap00_DecalPuzzle_04_Entity)"
  },
  {
    "id": 100096,
    "name": "N/A (Prop_Common_EmptyProp_01_Entity)"
  },
  {
    "id": 100097,
    "name": "N/A (Prop_Chap00_BathRoomAutoDoor_01_Entity)"
  },
  {
    "id": 100098,
    "name": "N/A (Prop_Common_EmptyProp_01_Entity)"
  },
  {
    "id": 101001,
    "name": "Контроллер (Prop_Chap01_BaseConsole_01A_Entity)"
  },
  {
    "id": 101003,
    "name": "Контроллер (Prop_Chap01_BaseConsole_01B_Entity)"
  },
  {
    "id": 101004,
    "name": "Запертая дверь (Prop_Chap01_IronGate_06_Entity)"
  },
  {
    "id": 101005,
    "name": "Запертая дверь (Prop_Chap01_IronGate_07_Entity)"
  },
  {
    "id": 101006,
    "name": "Запертая дверь (Prop_Chap01_IronGate_08_Entity)"
  },
  {
    "id": 101007,
    "name": "N/A (Prop_Chap01_Lift_03_Entity)"
  },
  {
    "id": 101008,
    "name": "Контроллер лифта (Prop_Chap01_Lift_Switch_01_Entity)"
  },
  {
    "id": 101010,
    "name": "N/A (Prop_Chap01_Des_IceCrystal_01a_Entity)"
  },
  {
    "id": 101011,
    "name": "N/A (Prop_Chap01_Des_IceCrystal_01b_Entity)"
  },
  {
    "id": 101012,
    "name": "Контроллер (Prop_Chap01_BaseConsole_01A_Entity)"
  },
  {
    "id": 101013,
    "name": "Запертая дверь (Prop_Chap01_IronGate_09_Entity)"
  },
  {
    "id": 101015,
    "name": "N/A (Prop_Chap01_Des_HPRecover_01_Entity)"
  },
  {
    "id": 101016,
    "name": "N/A (Prop_Chap01_Des_MPRecover_01_Entity)"
  },
  {
    "id": 101017,
    "name": "N/A (Prop_Chap01_Des_Ashcan_01_Entity)"
  },
  {
    "id": 101018,
    "name": "N/A (Prop_Chap01_Des_Ashcan_01_Entity)"
  },
  {
    "id": 101019,
    "name": "Запертая дверь (Prop_Chap01_SchwaroDataCenter_Door_01_Entity)"
  },
  {
    "id": 101020,
    "name": "N/A (Prop_Chap01_Robot_09b_Lod0_Entity)"
  },
  {
    "id": 101021,
    "name": "N/A (Prop_Chap01_Tramcar_01_Entity)"
  },
  {
    "id": 101022,
    "name": "Торговый автомат (Prop_Chap01_Vending_01_Entity)"
  },
  {
    "id": 101024,
    "name": "Вагончик с едой (Prop_Chap01_SnackCar_01_Entity)"
  },
  {
    "id": 101025,
    "name": "Вагончик с едой (Prop_Chap01_SnackCar_02_Entity)"
  },
  {
    "id": 101026,
    "name": "N/A (Prop_Chap01_Readings_01_Entity)"
  },
  {
    "id": 101027,
    "name": "N/A (Prop_Chap01_Readings_02_Entity)"
  },
  {
    "id": 101028,
    "name": "N/A (Prop_Chap01_Readings_06_Entity)"
  },
  {
    "id": 101029,
    "name": "N/A (Prop_Chap01_Readings_03_Entity)"
  },
  {
    "id": 101030,
    "name": "N/A (Prop_Chap01_Readings_04_Entity)"
  },
  {
    "id": 101031,
    "name": "N/A (Prop_Chap01_Readings_05_Entity)"
  },
  {
    "id": 101032,
    "name": "N/A (Prop_Chap01_GhostShadow_Bronya_01_Entity)"
  },
  {
    "id": 101033,
    "name": "N/A (Prop_Chap01_GhostShadow_Bronya_02_Entity)"
  },
  {
    "id": 101034,
    "name": "N/A (Prop_Chap01_GhostShadow_Cocolia_01_Entity)"
  },
  {
    "id": 101035,
    "name": "N/A (Prop_Chap01_GhostShadow_Cocolia_02_Entity)"
  },
  {
    "id": 101039,
    "name": "N/A (Prop_Chap01_FindChest_Streetlamp_IronNet_Entity)"
  },
  {
    "id": 101042,
    "name": "N/A (Prop_Chap01_FindChest_Box_Entity)"
  },
  {
    "id": 101043,
    "name": "N/A (Prop_Chap01_Wanted_Player_01_Entity)"
  },
  {
    "id": 101044,
    "name": "N/A (Prop_Chap01_Wanted_DanHeng_01_Entity)"
  },
  {
    "id": 101045,
    "name": "N/A (Prop_Chap01_Wanted_DanHeng_02_Entity)"
  },
  {
    "id": 101046,
    "name": "N/A (Prop_Chap01_Wanted_Mar_7th_01_Entity)"
  },
  {
    "id": 101047,
    "name": "N/A (Prop_Chap01_Wanted_Mar_7th_02_Entity)"
  },
  {
    "id": 101048,
    "name": "N/A (Prop_Chap01_Wanted_Sampo_01_Entity)"
  },
  {
    "id": 101049,
    "name": "N/A (Prop_Chap01_Wanted_Sampo_02_Entity)"
  },
  {
    "id": 101050,
    "name": "N/A (Prop_Chap01_Serval_Guitar_Entity)"
  },
  {
    "id": 101051,
    "name": "N/A (Prop_Chap01_Furnace_01_Entity)"
  },
  {
    "id": 101052,
    "name": "N/A (Prop_Chap01_Bonfire_02_Entity)"
  },
  {
    "id": 101053,
    "name": "N/A (Prop_Common_EmptyProp_01_Entity)"
  },
  {
    "id": 101054,
    "name": "N/A (Prop_Common_EmptyProp_01_Entity)"
  },
  {
    "id": 101055,
    "name": "N/A (Prop_Chap01_Fake_BoxMan_Board01_Entity)"
  },
  {
    "id": 101056,
    "name": "N/A (Prop_Chap01_Fake_BoxMan_Board06_Entity)"
  },
  {
    "id": 101057,
    "name": "N/A (Prop_Chap01_Fake_BoxMan_Board04_Entity)"
  },
  {
    "id": 101058,
    "name": "N/A (Prop_Common_EmptyProp_01_Entity)"
  },
  {
    "id": 101059,
    "name": "N/A (Prop_Chap01_Sign_01_Entity)"
  },
  {
    "id": 101060,
    "name": "N/A (Prop_Chap01_Museum_Railing_01_Entity)"
  },
  {
    "id": 101061,
    "name": "N/A (Prop_Chap01_Museum_Poster_01_Entity)"
  },
  {
    "id": 101062,
    "name": "N/A (Prop_Chap01_PuMan_Chest_01_Entity)"
  },
  {
    "id": 101063,
    "name": "N/A (Prop_Chap01_PuMan_Tent_01_Entity)"
  },
  {
    "id": 101064,
    "name": "N/A (Prop_Chap01_PuMan_Machine_01_Entity)"
  },
  {
    "id": 101065,
    "name": "N/A (Prop_Chap01_Caisson_03_Entity)"
  },
  {
    "id": 101066,
    "name": "N/A (Prop_Chap01_Projector_01_Entity)"
  },
  {
    "id": 101067,
    "name": "N/A (Prop_Chap01_TreasureBox_01_Entity)"
  },
  {
    "id": 101068,
    "name": "N/A (Prop_Chap01_Furnace_02_Entity)"
  },
  {
    "id": 101069,
    "name": "N/A (Prop_Common_NishastagaDecal_HonkemonRaid_MarkProp_Entity)"
  },
  {
    "id": 101070,
    "name": "N/A (Prop_Chap01_AetherDividePC_01_Entity)"
  },
  {
    "id": 101071,
    "name": "N/A (Prop_Chap01_Bunker_01_Entity)"
  },
  {
    "id": 101072,
    "name": "N/A (Prop_Chap01_Robot_StageHide1_Entity)"
  },
  {
    "id": 101073,
    "name": "N/A (Prop_Chap01_FGWallr_M201_01_Entity)"
  },
  {
    "id": 101074,
    "name": "N/A (Prop_Chap01_Readings_06_Entity)"
  },
  {
    "id": 101075,
    "name": "N/A (Prop_Chap01_Sholve_01_Entity)"
  },
  {
    "id": 101076,
    "name": "N/A (Prop_Common_EmptyProp_01_Entity)"
  },
  {
    "id": 101077,
    "name": "N/A (Prop_Chap01_Bear_01_Entity)"
  },
  {
    "id": 101078,
    "name": "N/A (Prop_Chap01_Furnace_03_Entity)"
  },
  {
    "id": 101080,
    "name": "N/A (Prop_Chap01_PunchingBag_01_Entity)"
  },
  {
    "id": 101081,
    "name": "N/A (Prop_Chap01_Hook_01_Entity)"
  },
  {
    "id": 101082,
    "name": "N/A (Prop_Chap01_Picture_01_Entity)"
  },
  {
    "id": 101083,
    "name": "N/A (Prop_Chap01_MuseumLabel_01_Entity)"
  },
  {
    "id": 102000,
    "name": "Замок (Prop_Chap02_BaseConsole_01_Entity)"
  },
  {
    "id": 102001,
    "name": "Запертая дверь (Prop_Chap02_Door_01_Entity)"
  },
  {
    "id": 102002,
    "name": "Запертая дверь (Prop_Chap02_Door_02_Entity)"
  },
  {
    "id": 102003,
    "name": "N/A (Prop_Chap02_Elevator_01_Entity)"
  },
  {
    "id": 102004,
    "name": "N/A (Prop_Chap02_BlockLine_01_Entity)"
  },
  {
    "id": 102005,
    "name": "N/A (Prop_Chap02_Des_HPRecoverBox_01_Entity)"
  },
  {
    "id": 102006,
    "name": "N/A (Prop_Chap02_Des_MPRecoverBox_01_Entity)"
  },
  {
    "id": 102007,
    "name": "N/A (Prop_Chap02_Des_Box_01_Entity)"
  },
  {
    "id": 102008,
    "name": "N/A (Prop_Chap02_Des_Bottle_01_Entity)"
  },
  {
    "id": 102009,
    "name": "N/A (Prop_Chap02_Readings_01_Entity)"
  },
  {
    "id": 102010,
    "name": "N/A (Prop_Chap02_Readings_02_Entity)"
  },
  {
    "id": 102011,
    "name": "N/A (Prop_Chap02_Readings_03_Entity)"
  },
  {
    "id": 102012,
    "name": "N/A (Prop_Chap02_Readings_04_Entity)"
  },
  {
    "id": 102013,
    "name": "Центральная панель (Prop_Chap02_Conveyor_Console_Double_01_Entity)"
  },
  {
    "id": 102014,
    "name": "Центральная панель (Prop_Chap02_Conveyor_Console_Triple_01_Entity)"
  },
  {
    "id": 102015,
    "name": "N/A (Prop_Chap02_Container_Red_01_Entity)"
  },
  {
    "id": 102016,
    "name": "N/A (Prop_Chap02_Container_Green_01_Entity)"
  },
  {
    "id": 102017,
    "name": "N/A (Prop_Chap02_Container_White_01_Entity)"
  },
  {
    "id": 102018,
    "name": "N/A (Prop_Chap02_RubikCube_StartCube_01_Entity)"
  },
  {
    "id": 102019,
    "name": "N/A (Prop_Chap02_RubikCube_EndCube_01_Entity)"
  },
  {
    "id": 102027,
    "name": "N/A (Prop_Chap02_Kafka_Handprint_01_Entity)"
  },
  {
    "id": 102028,
    "name": "N/A (Prop_Common_EmptyProp_01_Entity)"
  },
  {
    "id": 102029,
    "name": "N/A (Prop_Chap02_Portal_01_Entity)"
  },
  {
    "id": 102032,
    "name": "N/A (Prop_Chap02_Shelf_03_GamePlay_Entity)"
  },
  {
    "id": 102101,
    "name": "N/A (Prop_Chap02_ShelfWithBird_01_Entity)"
  },
  {
    "id": 102033,
    "name": "N/A (Prop_Chap02_Shelf_NightTime_GamePlay_Entity)"
  },
  {
    "id": 102034,
    "name": "N/A (Prop_Chap02_QiongYi_Core_01_Entity)"
  },
  {
    "id": 102035,
    "name": "N/A (Prop_Chap02_CargoBoat_01_Entity)"
  },
  {
    "id": 102036,
    "name": "N/A (Prop_Common_EmptyProp_01_Entity)"
  },
  {
    "id": 102037,
    "name": "N/A (Prop_Common_EmptyProp_01_Entity)"
  },
  {
    "id": 102039,
    "name": "N/A (Prop_Chap02_Mar_7th_Ice_Entity)"
  },
  {
    "id": 102040,
    "name": "N/A (Prop_Chap02_Soldier_Weapon_01_Entity)"
  },
  {
    "id": 102041,
    "name": "N/A (Prop_Common_EmptyProp_01_Entity)"
  },
  {
    "id": 102043,
    "name": "N/A (Prop_Chap02_Abomi01_00_Entity)"
  },
  {
    "id": 102044,
    "name": "N/A (Prop_Chap02_Abomi02_01_Entity)"
  },
  {
    "id": 102045,
    "name": "N/A (Prop_Chap02_Mecha01_01_Entity)"
  },
  {
    "id": 102046,
    "name": "N/A (Prop_Chap02_Mecha02_00_Entity)"
  },
  {
    "id": 102047,
    "name": "N/A (Prop_Chap02_Luocha_Coffin_01_Entity)"
  },
  {
    "id": 102048,
    "name": "N/A (Prop_Chap02_Soldier_Weapon_02_Entity)"
  },
  {
    "id": 102049,
    "name": "N/A (Prop_Chap02_Soldier_Weapon_03_Entity)"
  },
  {
    "id": 102050,
    "name": "N/A (Prop_Chap02_Soldier_Weapon_04_Entity)"
  },
  {
    "id": 102051,
    "name": "N/A (Prop_Chap02_Carton_01_Entity)"
  },
  {
    "id": 102052,
    "name": "N/A (Prop_Chap02_CargoShip_01_Entity)"
  },
  {
    "id": 102053,
    "name": "N/A (Prop_Chap02_CargoShip_02_Entity)"
  },
  {
    "id": 102054,
    "name": "N/A (Prop_Chap02_CargoShip_03_Entity)"
  },
  {
    "id": 102055,
    "name": "N/A (Prop_Chap02_Garage_03_Entity)"
  },
  {
    "id": 102058,
    "name": "N/A (Prop_Chap02_Readings_05_Entity)"
  },
  {
    "id": 102059,
    "name": "N/A (Prop_Chap02_DestroyRootPuzzle_Root_04_Entity)"
  },
  {
    "id": 102061,
    "name": "N/A (Prop_Chap02_Container_02_Entity)"
  },
  {
    "id": 102062,
    "name": "N/A (Prop_Common_EmptyProp_02_Entity)"
  },
  {
    "id": 102063,
    "name": "N/A (Prop_Chap02_CargoShip_04_Entity)"
  },
  {
    "id": 102064,
    "name": "N/A (Prop_Chap02_CargoPlatform_01_Entity)"
  },
  {
    "id": 102065,
    "name": "N/A (Prop_Chap02_CargoPlatform_02a_Entity)"
  },
  {
    "id": 102066,
    "name": "N/A (Prop_Chap02_CargoPlatform_02b_Entity)"
  },
  {
    "id": 102067,
    "name": "Расписание (Prop_Chap02_Billboard_01_Entity)"
  },
  {
    "id": 102068,
    "name": "N/A (Prop_Chap02_DeployPuzzle_Stone_Green_01_Entity)"
  },
  {
    "id": 102069,
    "name": "N/A (Prop_Chap02_DeployPuzzle_Stone_Blue_01_Entity)"
  },
  {
    "id": 102070,
    "name": "N/A (Prop_Chap02_DeployPuzzle_Stone_Purple_01_Entity)"
  },
  {
    "id": 102071,
    "name": "N/A (Prop_Chap02_DestroyRootPuzzle_01_Fake_Entity)"
  },
  {
    "id": 102072,
    "name": "N/A (Prop_Chap02_DestroyRootPuzzle_02_Fake_Entity)"
  },
  {
    "id": 102073,
    "name": "N/A (Prop_Chap02_DestroyRootPuzzle_04_Fake_Entity)"
  },
  {
    "id": 102074,
    "name": "N/A (Prop_Chap02_Elevator_02_Entity)"
  },
  {
    "id": 102075,
    "name": "N/A (Prop_Chap02_CargoBoat_05_Entity)"
  },
  {
    "id": 102076,
    "name": "N/A (Prop_Chap02_Special_RobCrane_01_Entity)"
  },
  {
    "id": 102077,
    "name": "Навигационный компас (Prop_Common_EmptyProp_02_Entity)"
  },
  {
    "id": 102078,
    "name": "N/A (Prop_Common_EmptyProp_01_Entity)"
  },
  {
    "id": 102079,
    "name": "N/A (Prop_Common_EmptyProp_02_Entity)"
  },
  {
    "id": 102080,
    "name": "N/A (Prop_Common_EmptyProp_01_Entity)"
  },
  {
    "id": 102081,
    "name": "N/A (Prop_Chap02_CargoBoat_Broken_01_Entity)"
  },
  {
    "id": 102082,
    "name": "N/A (Prop_Chap02_Projector_01_Entity)"
  },
  {
    "id": 102083,
    "name": "N/A (Prop_Common_EmptyProp_01_Entity)"
  },
  {
    "id": 102085,
    "name": "N/A (Prop_Chap02_Soldier_Body_01_Entity)"
  },
  {
    "id": 102086,
    "name": "N/A (Prop_Chap02_Monster_Beast_Body_01_Entity)"
  },
  {
    "id": 102087,
    "name": "N/A (Prop_Chap02_Monster_Beast_Body_02_Entity)"
  },
  {
    "id": 102088,
    "name": "N/A (Prop_Chap02_AML_Weapon_01_Entity)"
  },
  {
    "id": 102089,
    "name": "N/A (Prop_Chap02_AML_Weapon_02_Entity)"
  },
  {
    "id": 102090,
    "name": "N/A (Prop_Chap02_AML_Weapon_03_01_Entity)"
  },
  {
    "id": 102091,
    "name": "N/A (Prop_Chap02_AML_Weapon_03_02_Entity)"
  },
  {
    "id": 102092,
    "name": "N/A (Prop_Chap02_AML_Weapon_03_03_Entity)"
  },
  {
    "id": 102093,
    "name": "N/A (Prop_Chap02_X302_Lamp_01_Entity)"
  },
  {
    "id": 102094,
    "name": "N/A (Prop_Chap02_X302_PillarFlame_02_Entity)"
  },
  {
    "id": 102095,
    "name": "N/A (Prop_Chap02_Vase_05a_Entity)"
  },
  {
    "id": 102096,
    "name": "N/A (Prop_Chap02_Vase_05b_Entity)"
  },
  {
    "id": 102097,
    "name": "N/A (Prop_Chap02_Bridcage_01a_Entity)"
  },
  {
    "id": 102098,
    "name": "N/A (Prop_Chap02_Censer_02_Entity)"
  },
  {
    "id": 102099,
    "name": "N/A (Prop_Chap02_DuZhu_Sign_02_Entity)"
  },
  {
    "id": 102100,
    "name": "N/A (Prop_Chap02_TableProp_02_Entity)"
  },
  {
    "id": 102102,
    "name": "N/A (Prop_Chap02_X301_FogVolume_Entity)"
  },
  {
    "id": 102103,
    "name": "N/A (Prop_Chap02_X301_Elevator_01_Entity)"
  },
  {
    "id": 102104,
    "name": "N/A (Prop_Chap02_HuanlongFlower_01_Entity)"
  },
  {
    "id": 102105,
    "name": "N/A (Prop_Chap02_HuFu_01a_Entity)"
  },
  {
    "id": 102106,
    "name": "N/A (Prop_Chap02_HuFu_01b_Entity)"
  },
  {
    "id": 102107,
    "name": "N/A (Prop_Chap02_Fox_01_Entity)"
  },
  {
    "id": 102108,
    "name": "N/A (Prop_Chap02_Carton_02_Entity)"
  },
  {
    "id": 102109,
    "name": "N/A (Prop_Chap02_X301_Door_01_Entity)"
  },
  {
    "id": 102110,
    "name": "N/A (Prop_Common_NishastagaDecal_01_Entity)"
  },
  {
    "id": 102111,
    "name": "N/A (Prop_Chap02_SerialBells_01_Entity)"
  },
  {
    "id": 102112,
    "name": "N/A (Prop_Chap02_Stretcher_01_Entity)"
  },
  {
    "id": 102113,
    "name": "N/A (Prop_Common_NishastagaDecal_02_Entity)"
  },
  {
    "id": 102114,
    "name": "N/A (Prop_Common_NishastagaDecal_03_Entity)"
  },
  {
    "id": 102115,
    "name": "N/A (Prop_Common_NishastagaDecal_04_Entity)"
  },
  {
    "id": 102116,
    "name": "N/A (Prop_Common_NishastagaDecal_05_Entity)"
  },
  {
    "id": 102117,
    "name": "N/A (Prop_Common_NishastagaDecal_06_Entity)"
  },
  {
    "id": 102118,
    "name": "N/A (Prop_Common_NishastagaDecal_07_Entity)"
  },
  {
    "id": 102119,
    "name": "N/A (Prop_Common_NishastagaDecal_08_Entity)"
  },
  {
    "id": 102025,
    "name": "N/A (Prop_Chap02_ContainerPack_01_Entity)"
  },
  {
    "id": 102140,
    "name": "N/A (Prop_Common_NishastagaDecal_HonkemonRaid_01_Entity)"
  },
  {
    "id": 102141,
    "name": "N/A (Prop_Common_NishastagaDecal_HonkemonRaid_02_Entity)"
  },
  {
    "id": 102142,
    "name": "N/A (Prop_Common_NishastagaDecal_HonkemonRaid_03_Entity)"
  },
  {
    "id": 102143,
    "name": "N/A (Prop_Common_NishastagaDecal_HonkemonRaid_04_Entity)"
  },
  {
    "id": 102144,
    "name": "N/A (Prop_Common_NishastagaDecal_HonkemonRaid_05_Entity)"
  },
  {
    "id": 102145,
    "name": "N/A (Prop_Common_NishastagaDecal_HonkemonRaid_06_Entity)"
  },
  {
    "id": 102146,
    "name": "N/A (Prop_Common_NishastagaDecal_HonkemonRaid_07_Entity)"
  },
  {
    "id": 102160,
    "name": "N/A (Prop_Chap02_Alley_PlatformSmall_01_Entity)"
  },
  {
    "id": 102161,
    "name": "N/A (Prop_Chap02_DiHengSi_Table_01_Entity)"
  },
  {
    "id": 102162,
    "name": "N/A (Prop_Chap02_Shelf_01_Entity)"
  },
  {
    "id": 102163,
    "name": "N/A (Prop_Chap02_Carton_01c_Entity)"
  },
  {
    "id": 102164,
    "name": "N/A (Prop_Chap02_Table_06_Entity)"
  },
  {
    "id": 102165,
    "name": "N/A (Prop_Chap02_Chair_04_Entity)"
  },
  {
    "id": 102166,
    "name": "N/A (Prop_Chap02_CargoFruit_02_Entity)"
  },
  {
    "id": 102167,
    "name": "N/A (Prop_Chap02_Box_01_Entity)"
  },
  {
    "id": 102168,
    "name": "N/A (Prop_Chap02_Censer_01_Entity)"
  },
  {
    "id": 102169,
    "name": "N/A (Prop_Chap02_Box_02_Entity)"
  },
  {
    "id": 102170,
    "name": "N/A (Prop_Chap02_TeaSet_01_Entity)"
  },
  {
    "id": 102171,
    "name": "N/A (Prop_Chap02_Stall_Light_01a_Entity)"
  },
  {
    "id": 102172,
    "name": "N/A (Prop_Chap02_X102_Boat_01_Entity)"
  },
  {
    "id": 102173,
    "name": "N/A (Prop_Chap02_X102_Boat_02_Entity)"
  },
  {
    "id": 102174,
    "name": "N/A (Prop_Chap02_X102_Boat_03_Entity)"
  },
  {
    "id": 102175,
    "name": "N/A (Prop_Chap02_AirBlock_01_Entity)"
  },
  {
    "id": 102176,
    "name": "N/A (Prop_Chap02_AirBlock_02_Entity)"
  },
  {
    "id": 102177,
    "name": "N/A (Prop_Chap02_SuiGardenBronze_01_Entity)"
  },
  {
    "id": 102178,
    "name": "N/A (Prop_Chap02_SuiGardenElevator_01_Entity)"
  },
  {
    "id": 102179,
    "name": "N/A (Prop_Chap02_HuohuoFuzhi_01_Entity)"
  },
  {
    "id": 102180,
    "name": "N/A (Prop_Chap02_HuohuoFuzhi_02_Entity)"
  },
  {
    "id": 102181,
    "name": "N/A (Prop_Chap02_HuohuoFuzhi_03_Entity)"
  },
  {
    "id": 102182,
    "name": "N/A (Prop_Chap02_HuohuoFuzhiFloating_01_Entity)"
  },
  {
    "id": 102183,
    "name": "N/A (Prop_Chap02_HuohuoFuzhiFloating_02_Entity)"
  },
  {
    "id": 102184,
    "name": "N/A (Prop_Chap02_HuohuoFuzhiFloating_03_Entity)"
  },
  {
    "id": 102185,
    "name": "N/A (Prop_Chap02_Projector_01_Entity)"
  },
  {
    "id": 102186,
    "name": "N/A (Prop_Common_GlobalSceneProp_01_Entity)"
  },
  {
    "id": 102187,
    "name": "N/A (Prop_Chap02_CargoShip_02_Entity)"
  },
  {
    "id": 102188,
    "name": "N/A (Prop_Chap02_SuiGardenConsole_01_Entity)"
  },
  {
    "id": 102189,
    "name": "N/A (Prop_Chap02_Table_03_Entity)"
  },
  {
    "id": 102190,
    "name": "N/A (Prop_Chap02_BoatSeed_05_Entity)"
  },
  {
    "id": 102191,
    "name": "N/A (Prop_Chap02_SuiGardenTower_01_Entity)"
  },
  {
    "id": 102192,
    "name": "N/A (Prop_Chap02_QRCode_01_Entity)"
  },
  {
    "id": 102193,
    "name": "N/A (Prop_Chap02_QRCode_02_Entity)"
  },
  {
    "id": 102194,
    "name": "N/A (Prop_Chap02_DriftBottle_01_Entity)"
  },
  {
    "id": 102195,
    "name": "N/A (Prop_Chap02_HuZhaiZhiYiEventEntrance_01_Entity)"
  },
  {
    "id": 102196,
    "name": "N/A (Prop_Chap02_Container_02_Entity)"
  },
  {
    "id": 102197,
    "name": "N/A (Prop_Chap02_Readings_06_Entity)"
  },
  {
    "id": 102198,
    "name": "N/A (Prop_Chap02_SuiGardenElevatorAirWall_01_Entity)"
  },
  {
    "id": 102199,
    "name": "N/A (Prop_Chap02_CmdBotEndTile_01_Entity)"
  },
  {
    "id": 102200,
    "name": "N/A (Prop_Chap02_CmdBotObsTile_01_Entity)"
  },
  {
    "id": 102201,
    "name": "N/A (Prop_Chap02_CmdBotPrsTile_01_Entity)"
  },
  {
    "id": 102202,
    "name": "N/A (Prop_Chap02_CmdBotGrdTile_01_Entity)"
  },
  {
    "id": 102203,
    "name": "N/A (Prop_Chap02_ValkyrieCorpse_01_Entity)"
  },
  {
    "id": 102204,
    "name": "N/A (Prop_Chap02_YanqingSword_01_Entity)"
  },
  {
    "id": 102205,
    "name": "N/A (Prop_Chap02_YanqingSwordBroken_01_Entity)"
  },
  {
    "id": 102206,
    "name": "N/A (Prop_Chap02_SuiyangSmall_01_Entity)"
  },
  {
    "id": 102207,
    "name": "N/A (Prop_Chap02_SuiyangSmall_01_Entity)"
  },
  {
    "id": 102208,
    "name": "N/A (Prop_Chap02_SuiyangGroup_01_Entity)"
  },
  {
    "id": 102209,
    "name": "N/A (Prop_Chap02_Cucurbit_01_Entity)"
  },
  {
    "id": 102210,
    "name": "N/A (Prop_Chap02_Birdcage_01_Entity)"
  },
  {
    "id": 102211,
    "name": "N/A (Prop_Chap02_SuiGardenSkyBridge_01_Entity)"
  },
  {
    "id": 102212,
    "name": "N/A (Prop_Chap02_CmdBotEndTile_02_Entity)"
  },
  {
    "id": 102213,
    "name": "N/A (Prop_Chap02_CmdBotNpcTile_01_Entity)"
  },
  {
    "id": 102214,
    "name": "N/A (Prop_Chap02_Handprint_01_Entity)"
  },
  {
    "id": 102215,
    "name": "N/A (Prop_Chap02_Handprint_02_Entity)"
  },
  {
    "id": 102216,
    "name": "N/A (Prop_Chap02_Handprint_03_Entity)"
  },
  {
    "id": 102217,
    "name": "N/A (Prop_Chap02_Handprint_04_Entity)"
  },
  {
    "id": 102218,
    "name": "N/A (Prop_Chap02_Handprint_05_Entity)"
  },
  {
    "id": 102219,
    "name": "N/A (Prop_Chap02_Handprint_06_Entity)"
  },
  {
    "id": 102220,
    "name": "N/A (Prop_Chap02_GhostPost_01_Entity)"
  },
  {
    "id": 102221,
    "name": "N/A (Prop_Chap02_MaJiangTable_01_Entity)"
  },
  {
    "id": 102222,
    "name": "N/A (Prop_Chap02_FlyingSword_01_Entity)"
  },
  {
    "id": 102223,
    "name": "N/A (Prop_Chap02_SuiyangSmall_02_Entity)"
  },
  {
    "id": 102224,
    "name": "N/A (Prop_Chap02_GhostBoat_01_Entity)"
  },
  {
    "id": 102225,
    "name": "N/A (Prop_Chap02_CmdBotBoard_01_Entity)"
  },
  {
    "id": 102226,
    "name": "N/A (Prop_Chap02_AbyessCage_01_Entity)"
  },
  {
    "id": 102227,
    "name": "N/A (Prop_Chap02_Portal_02_Entity)"
  },
  {
    "id": 102228,
    "name": "N/A (Prop_Chap02_DrawerBox_01_Entity)"
  },
  {
    "id": 102229,
    "name": "N/A (Prop_Chap02_HuaiyanSword_01_Entity)"
  },
  {
    "id": 102230,
    "name": "N/A (Prop_Chap02_GuyunSword_01_Entity)"
  },
  {
    "id": 102231,
    "name": "N/A (Prop_Chap02_GuyunSword_02_Entity)"
  },
  {
    "id": 102232,
    "name": "N/A (Prop_Chap02_Container_03_Entity)"
  },
  {
    "id": 102233,
    "name": "N/A (Prop_Chap02_RotatableBridge_01_Entity)"
  },
  {
    "id": 102234,
    "name": "N/A (Prop_Chap02_RotatableBridge_02_Entity)"
  },
  {
    "id": 102235,
    "name": "N/A (Prop_Chap02_GaintDoor_01_Entity)"
  },
  {
    "id": 102236,
    "name": "N/A (Prop_Chap02_CellDoor_01_Entity)"
  },
  {
    "id": 102237,
    "name": "N/A (Prop_Chap02_Guqin_01_Entity)"
  },
  {
    "id": 102238,
    "name": "N/A (Prop_Chap02_BaseConsole_02_Entity)"
  },
  {
    "id": 102239,
    "name": "N/A (Prop_Chap02_AirLockDoor_01_Entity)"
  },
  {
    "id": 102240,
    "name": "N/A (Prop_Chap02_AirLockDoor_02_Entity)"
  },
  {
    "id": 102241,
    "name": "N/A (Prop_Chap02_RubikCube_02_Entity)"
  },
  {
    "id": 102242,
    "name": "N/A (Prop_Chap02_RubikCube_04_Entity)"
  },
  {
    "id": 102243,
    "name": "N/A (Prop_Chap02_StoneMonument_01_Entity)"
  },
  {
    "id": 102244,
    "name": "N/A (Prop_Chap02_Knight_01_Entity)"
  },
  {
    "id": 102245,
    "name": "N/A (Prop_Chap02_Lycan00_01_Entity)"
  },
  {
    "id": 102246,
    "name": "N/A (Prop_Chap02_Lycan01_01_Entity)"
  },
  {
    "id": 102247,
    "name": "N/A (Prop_Chap02_Valkyrie02_01_Entity)"
  },
  {
    "id": 102248,
    "name": "N/A (Prop_Chap02_LycanMecha_01_Entity)"
  },
  {
    "id": 102249,
    "name": "N/A (Prop_Chap02_ShipElevatorDoor_01_Entity)"
  },
  {
    "id": 102250,
    "name": "N/A (Prop_Chap02_GoldenBranch_01_Entity)"
  },
  {
    "id": 102251,
    "name": "N/A (Prop_Common_EmptyPropWithLod_01_Entity)"
  },
  {
    "id": 102252,
    "name": "N/A (Prop_Chap02_XueyiBody_01_Entity)"
  },
  {
    "id": 102253,
    "name": "N/A (Prop_Chap02_MassTable_01_Entity)"
  },
  {
    "id": 102254,
    "name": "N/A (Prop_Common_EmptyPropWithLod_01_Entity)"
  },
  {
    "id": 102255,
    "name": "N/A (Prop_Common_EmptyProp_01_Entity)"
  },
  {
    "id": 102256,
    "name": "N/A (Prop_Common_EmptyProp_01_Entity)"
  },
  {
    "id": 102257,
    "name": "N/A (Prop_Common_EmptyProp_01_Entity)"
  },
  {
    "id": 102258,
    "name": "N/A (Prop_Common_EmptyProp_01_Entity)"
  },
  {
    "id": 102259,
    "name": "N/A (Prop_Chap02_KeyPlatform_01_Entity)"
  },
  {
    "id": 102260,
    "name": "N/A (Prop_Chap02_FeixiaoExcerpts_01_Entity)"
  },
  {
    "id": 102261,
    "name": "N/A (Prop_Chap02_Scoreboard_01_Entity)"
  },
  {
    "id": 102262,
    "name": "N/A (Prop_Chap02_Whiteboard_01_Entity)"
  },
  {
    "id": 102263,
    "name": "N/A (Prop_Chap02_AirLockDoor_03_Entity)"
  },
  {
    "id": 102264,
    "name": "N/A (Prop_Chap02_ShipElevatorDoor_02_Entity)"
  },
  {
    "id": 102265,
    "name": "N/A (Prop_Chap02_Console_02_Entity)"
  },
  {
    "id": 102266,
    "name": "N/A (Prop_Chap02_FXMFeixiao_01_Entity)"
  },
  {
    "id": 102267,
    "name": "N/A (Prop_Chap02_FXMHuaiyan_01_Entity)"
  },
  {
    "id": 102268,
    "name": "N/A (Prop_Chap02_FXMJingYuan_01_Entity)"
  },
  {
    "id": 102269,
    "name": "N/A (Prop_Chap02_FXMKnight_01_Entity)"
  },
  {
    "id": 102270,
    "name": "N/A (Prop_Chap02_FXMLycan00_01_Entity)"
  },
  {
    "id": 102271,
    "name": "N/A (Prop_Chap02_FXMLycan01_01_Entity)"
  },
  {
    "id": 102272,
    "name": "N/A (Prop_Chap02_FXMNPCW2Lady57_01_Entity)"
  },
  {
    "id": 102273,
    "name": "N/A (Prop_Chap02_FXMNPCW2Male12_01_Entity)"
  },
  {
    "id": 102274,
    "name": "N/A (Prop_Chap02_FXMNPCW2Male17_01_Entity)"
  },
  {
    "id": 102275,
    "name": "N/A (Prop_Chap02_Xphoto_01_Entity)"
  },
  {
    "id": 102276,
    "name": "N/A (Prop_Chap02_PosterM_01_Entity)"
  },
  {
    "id": 102277,
    "name": "N/A (Prop_Chap02_PosterL_01_Entity)"
  },
  {
    "id": 102278,
    "name": "N/A (Prop_Chap02_PepoleCorps_01_Entity)"
  },
  {
    "id": 102279,
    "name": "N/A (Prop_Chap02_OutdoorPosterM_01_Entity)"
  },
  {
    "id": 102280,
    "name": "N/A (Prop_Chap02_OutdoorPosterL_01_Entity)"
  },
  {
    "id": 102281,
    "name": "N/A (Prop_Chap02_Censer_03_Entity)"
  },
  {
    "id": 102282,
    "name": "N/A (Prop_Chap02_Portal_03_Entity)"
  },
  {
    "id": 103001,
    "name": "N/A (Prop_Chap03_GravityCharger_01_Entity)"
  },
  {
    "id": 103002,
    "name": "N/A (Prop_Common_EmptyProp_01_Entity)"
  },
  {
    "id": 103003,
    "name": "N/A (Prop_Chap03_BubbleBridge_01_Entity)"
  },
  {
    "id": 103004,
    "name": "N/A (Prop_Chap03_BubbleBridge_02_Entity)"
  },
  {
    "id": 103005,
    "name": "N/A (Prop_Chap03_PinballStation_01_Entity)"
  },
  {
    "id": 103006,
    "name": "N/A (Prop_Chap03_PinballPlate_01_Entity)"
  },
  {
    "id": 103007,
    "name": "N/A (Prop_Chap03_PinballBlock_01_Entity)"
  },
  {
    "id": 103008,
    "name": "N/A (Prop_Common_EmptyProp_01_Entity)"
  },
  {
    "id": 103010,
    "name": "N/A (Prop_Chap03_GravityRoomAirLockSpace_01_Entity)"
  },
  {
    "id": 103011,
    "name": "N/A (Prop_Chap03_Door_01_Entity)"
  },
  {
    "id": 103012,
    "name": "N/A (Prop_Chap03_Jigsaw_01_Entity)"
  },
  {
    "id": 103013,
    "name": "N/A (Prop_Chap03_FramePortal_01_Entity)"
  },
  {
    "id": 103014,
    "name": "N/A (Prop_Chap03_HPBox_01_Entity)"
  },
  {
    "id": 103015,
    "name": "N/A (Prop_Chap03_MPBox_01_Entity)"
  },
  {
    "id": 103016,
    "name": "N/A (Prop_Chap03_Balloon_01_Entity)"
  },
  {
    "id": 103017,
    "name": "N/A (Prop_Chap03_Balloon_02_Entity)"
  },
  {
    "id": 103018,
    "name": "N/A (Prop_Chap03_ClockToyBox_01_Entity)"
  },
  {
    "id": 103019,
    "name": "N/A (Prop_Chap03_IceCream_01_Entity)"
  },
  {
    "id": 103020,
    "name": "N/A (Prop_Common_EmptyProp_01_Entity)"
  },
  {
    "id": 103021,
    "name": "N/A (Prop_Common_EmptyProp_01_Entity)"
  },
  {
    "id": 103022,
    "name": "N/A (Prop_Common_EmptyProp_01_Entity)"
  },
  {
    "id": 103023,
    "name": "N/A (Prop_Chap03_OrigamiBird_01_Entity)"
  },
  {
    "id": 103024,
    "name": "N/A (Prop_Chap03_OrigamiBird_02_Entity)"
  },
  {
    "id": 103025,
    "name": "N/A (Prop_Chap03_OrigamiBird_03_Entity)"
  },
  {
    "id": 103026,
    "name": "N/A (Prop_Chap03_OrigamiBird_04_Entity)"
  },
  {
    "id": 103027,
    "name": "N/A (Prop_Chap03_OrigamiBird_05_Entity)"
  },
  {
    "id": 103028,
    "name": "N/A (Prop_Chap03_BottleandGlass_01_Entity)"
  },
  {
    "id": 103029,
    "name": "N/A (Prop_Chap03_Door_06_Entity)"
  },
  {
    "id": 103030,
    "name": "N/A (Prop_Chap03_Door_05_Entity)"
  },
  {
    "id": 103031,
    "name": "N/A (Prop_Chap03_Door_02_Entity)"
  },
  {
    "id": 103032,
    "name": "N/A (Prop_Chap03_Door_03_Entity)"
  },
  {
    "id": 103033,
    "name": "N/A (Prop_Chap03_MazeBridge_01_Entity)"
  },
  {
    "id": 103034,
    "name": "N/A (Prop_Chap03_Door_04_Entity)"
  },
  {
    "id": 103035,
    "name": "N/A (Prop_Chap03_Readings_01_Entity)"
  },
  {
    "id": 103036,
    "name": "N/A (Prop_Chap03_Readings_02_Entity)"
  },
  {
    "id": 103037,
    "name": "N/A (Prop_Chap03_Readings_03_Entity)"
  },
  {
    "id": 103038,
    "name": "N/A (Prop_Chap03_Readings_04_Entity)"
  },
  {
    "id": 103039,
    "name": "N/A (Prop_Chap03_Controller_01_Entity)"
  },
  {
    "id": 103040,
    "name": "N/A (Prop_Chap03_BlockLine_01_Entity)"
  },
  {
    "id": 103041,
    "name": "N/A (Prop_Chap03_Door_08_Entity)"
  },
  {
    "id": 103042,
    "name": "N/A (Prop_Chap03_CartoonTV_01_Entity)"
  },
  {
    "id": 103043,
    "name": "N/A (Prop_Chap03_WoodenBox_01_Entity)"
  },
  {
    "id": 103044,
    "name": "N/A (Prop_Chap03_Controller_02_Entity)"
  },
  {
    "id": 103045,
    "name": "N/A (Prop_Chap03_JazzPiano_01_Entity)"
  },
  {
    "id": 103046,
    "name": "N/A (Prop_Chap03_JazzSaxo_01_Entity)"
  },
  {
    "id": 103047,
    "name": "N/A (Prop_Chap03_JazzDBass_01_Entity)"
  },
  {
    "id": 103048,
    "name": "N/A (Prop_Chap03_JazzTrumpet_01_Entity)"
  },
  {
    "id": 103049,
    "name": "N/A (Prop_Chap03_JazzDrum_01_Entity)"
  },
  {
    "id": 103050,
    "name": "N/A (Prop_Chap03_CartoonPortal_01_Entity)"
  },
  {
    "id": 103051,
    "name": "N/A (Prop_Chap03_CartoonGate_01_Entity)"
  },
  {
    "id": 103052,
    "name": "N/A (Prop_Chap03_CartoonGate_02_Entity)"
  },
  {
    "id": 103053,
    "name": "N/A (Prop_Chap03_CartoonGate_03_Entity)"
  },
  {
    "id": 103054,
    "name": "N/A (Prop_Chap03_CartoonGate_04_Entity)"
  },
  {
    "id": 103055,
    "name": "N/A (Prop_Chap03_CartoonExplosives_01_Entity)"
  },
  {
    "id": 103056,
    "name": "N/A (Prop_Chap03_W2Beast0103_01_Entity)"
  },
  {
    "id": 103057,
    "name": "N/A (Prop_Chap03_W2Beast0103_02_Entity)"
  },
  {
    "id": 103058,
    "name": "N/A (Prop_Chap03_W2Mecha0102_01_Entity)"
  },
  {
    "id": 103059,
    "name": "N/A (Prop_Chap03_W2Mecha0102_02_Entity)"
  },
  {
    "id": 103060,
    "name": "N/A (Prop_Chap03_W3Clock00_01_Entity)"
  },
  {
    "id": 103061,
    "name": "N/A (Prop_Chap03_W3Clock00_02_Entity)"
  },
  {
    "id": 103062,
    "name": "N/A (Prop_Chap03_W3TV01_01_Entity)"
  },
  {
    "id": 103063,
    "name": "N/A (Prop_Chap03_W3TV01_02_Entity)"
  },
  {
    "id": 103064,
    "name": "N/A (Prop_Chap03_XPMinion0104_01_Entity)"
  },
  {
    "id": 103065,
    "name": "N/A (Prop_Chap03_XPMinion0104_02_Entity)"
  },
  {
    "id": 103066,
    "name": "N/A (Prop_Chap03_W3Junk00_01_Entity)"
  },
  {
    "id": 103067,
    "name": "N/A (Prop_Chap03_AventurineHat_01_Entity)"
  },
  {
    "id": 103068,
    "name": "N/A (Prop_Chap03_CartoonGun_01_Entity)"
  },
  {
    "id": 103069,
    "name": "N/A (Prop_Chap03_CartoonAmmo_01_Entity)"
  },
  {
    "id": 103070,
    "name": "N/A (Prop_Common_EmptyProp_01_Entity)"
  },
  {
    "id": 103071,
    "name": "N/A (Prop_Common_EmptyProp_01_Entity)"
  },
  {
    "id": 103072,
    "name": "N/A (Prop_Common_EmptyProp_01_Entity)"
  },
  {
    "id": 103073,
    "name": "N/A (Prop_Chap03_MazeBridge_03_Entity)"
  },
  {
    "id": 103074,
    "name": "N/A (Prop_Chap03_Text3D_01_Entity)"
  },
  {
    "id": 103075,
    "name": "N/A (Prop_Common_EmptyProp_01_Entity)"
  },
  {
    "id": 103076,
    "name": "N/A (Prop_Chap03_IsometricModule_01_Entity)"
  },
  {
    "id": 103077,
    "name": "N/A (Prop_Chap03_IsometricModule_02_Entity)"
  },
  {
    "id": 103078,
    "name": "N/A (Prop_Chap03_IsometricConsole_01_Entity)"
  },
  {
    "id": 103079,
    "name": "N/A (Prop_Chap03_IsometricTrigger_01_Entity)"
  },
  {
    "id": 103080,
    "name": "N/A (Prop_Chap03_GravityPlate_01_Entity)"
  },
  {
    "id": 103081,
    "name": "N/A (Prop_Chap03_GravityPlate_02_Entity)"
  },
  {
    "id": 103082,
    "name": "N/A (Prop_Chap03_PomPomDoll_01_Entity)"
  },
  {
    "id": 103083,
    "name": "N/A (Prop_Chap03_StarCard_01_Entity)"
  },
  {
    "id": 103084,
    "name": "N/A (Prop_Chap03_Car_01_Entity)"
  },
  {
    "id": 103085,
    "name": "N/A (Prop_Chap03_IsometricModuleEff_01_Entity)"
  },
  {
    "id": 103086,
    "name": "N/A (Prop_Chap03_Gashapon_01_Entity)"
  },
  {
    "id": 103087,
    "name": "N/A (Prop_Chap03_SolidaBottle_01_Entity)"
  },
  {
    "id": 103088,
    "name": "N/A (Prop_Chap03_SparkleTrigger_01_Entity)"
  },
  {
    "id": 103089,
    "name": "N/A (Prop_Chap03_SparkleMask_01_Entity)"
  },
  {
    "id": 103090,
    "name": "N/A (Prop_Chap03_SparkleMask_02_Entity)"
  },
  {
    "id": 103091,
    "name": "N/A (Prop_Chap03_KenTama_01_Entity)"
  },
  {
    "id": 103092,
    "name": "N/A (Prop_Chap03_IsometricModuleSignEff_01_Entity)"
  },
  {
    "id": 103093,
    "name": "N/A (Prop_Chap03_IsometricModuleSignEff_02_Entity)"
  },
  {
    "id": 103094,
    "name": "N/A (Prop_Chap03_DogStatue_01_Entity)"
  },
  {
    "id": 103095,
    "name": "N/A (Prop_Chap03_FireflyPhantom_01_Entity)"
  },
  {
    "id": 103096,
    "name": "N/A (Prop_Chap03_ElevatorConsole_01_Entity)"
  },
  {
    "id": 103097,
    "name": "N/A (Prop_Chap03_TV_02_Entity)"
  },
  {
    "id": 103098,
    "name": "N/A (Prop_Chap03_ScreenTvSet_01_Entity)"
  },
  {
    "id": 103099,
    "name": "N/A (Prop_Chap03_Transparent_01_Entity)"
  },
  {
    "id": 103100,
    "name": "N/A (Prop_Chap03_DreamBubble_01_Entity)"
  },
  {
    "id": 103101,
    "name": "N/A (Prop_Chap03_DreamBubble_02_Entity)"
  },
  {
    "id": 103102,
    "name": "N/A (Prop_Chap03_DreamBubble_03_Entity)"
  },
  {
    "id": 103103,
    "name": "N/A (Prop_Chap03_DreamBubble_04_Entity)"
  },
  {
    "id": 103104,
    "name": "N/A (Prop_Chap03_DreamBubble_05_Entity)"
  },
  {
    "id": 103105,
    "name": "N/A (Prop_Chap03_DreamBubble_06_Entity)"
  },
  {
    "id": 103106,
    "name": "N/A (Prop_Common_EmptyProp_01_Entity)"
  },
  {
    "id": 103107,
    "name": "N/A (Prop_Common_EmptyProp_01_Entity)"
  },
  {
    "id": 103108,
    "name": "N/A (Prop_Common_EmptyProp_01_Entity)"
  },
  {
    "id": 103109,
    "name": "N/A (Prop_Chap03_JigsawItem_01_Entity)"
  },
  {
    "id": 103110,
    "name": "N/A (Prop_Chap03_TopazStone_01_Entity)"
  },
  {
    "id": 103111,
    "name": "N/A (Prop_Chap03_AventurineStone_01_Entity)"
  },
  {
    "id": 103112,
    "name": "N/A (Prop_Chap03_JadeStone_01_Entity)"
  },
  {
    "id": 103113,
    "name": "N/A (Prop_Chap03_AventurineBox_01_Entity)"
  },
  {
    "id": 103114,
    "name": "N/A (Prop_Chap03_Cloth_01_Entity)"
  },
  {
    "id": 103115,
    "name": "N/A (Prop_Chap03_IsometricConnector_01_Entity)"
  },
  {
    "id": 103116,
    "name": "N/A (Prop_Chap03_AveFootPrint_01_Entity)"
  },
  {
    "id": 103117,
    "name": "N/A (Prop_Chap03_DRFootPrint_01_Entity)"
  },
  {
    "id": 103118,
    "name": "N/A (Prop_Chap03_PBStationModel_01_Entity)"
  },
  {
    "id": 103119,
    "name": "N/A (Prop_Chap03_DrRatio_01_Entity)"
  },
  {
    "id": 103120,
    "name": "N/A (Prop_Chap03_IronPlate_01_Entity)"
  },
  {
    "id": 103121,
    "name": "N/A (Prop_Common_EmptyProp_01_Entity)"
  },
  {
    "id": 103122,
    "name": "N/A (Prop_Common_EmptyProp_02_Entity)"
  },
  {
    "id": 103123,
    "name": "N/A (Prop_Common_EmptyProp_01_Entity)"
  },
  {
    "id": 103124,
    "name": "N/A (Prop_Common_EmptyProp_01_Entity)"
  },
  {
    "id": 103125,
    "name": "N/A (Prop_Common_EmptyProp_01_Entity)"
  },
  {
    "id": 103126,
    "name": "N/A (Prop_Chap03_Car_02_Entity)"
  },
  {
    "id": 103127,
    "name": "N/A (Prop_Chap03_Car_03_Entity)"
  },
  {
    "id": 103128,
    "name": "N/A (Prop_Chap03_Car_04_Entity)"
  },
  {
    "id": 103129,
    "name": "N/A (Prop_Chap03_Monocycle_05_Entity)"
  },
  {
    "id": 103130,
    "name": "N/A (Prop_Chap03_ClockToyBox_02_Entity)"
  },
  {
    "id": 103131,
    "name": "N/A (Prop_Chap03_TreasureBox_03_Entity)"
  },
  {
    "id": 103132,
    "name": "N/A (Prop_Chap03_ScreenTVSet_02_Entity)"
  },
  {
    "id": 103133,
    "name": "N/A (Prop_Chap03_Curtain_03_Entity)"
  },
  {
    "id": 103134,
    "name": "N/A (Prop_Chap03_Curtain_02_Entity)"
  },
  {
    "id": 103135,
    "name": "N/A (Prop_Chap03_Elevator_02_Entity)"
  },
  {
    "id": 103136,
    "name": "N/A (Prop_Chap03_Elevator_01_Entity)"
  },
  {
    "id": 103137,
    "name": "N/A (Prop_Chap03_ElevatorOutDoor_01_Entity)"
  },
  {
    "id": 103138,
    "name": "N/A (Prop_Chap03_ElevatorOutDoor_02_Entity)"
  },
  {
    "id": 103139,
    "name": "N/A (Prop_Chap03_Chair_01_Entity)"
  },
  {
    "id": 103140,
    "name": "N/A (Prop_Chap03_Chair_02_Entity)"
  },
  {
    "id": 103141,
    "name": "N/A (Prop_Chap03_Curtain_01_Entity)"
  },
  {
    "id": 103142,
    "name": "N/A (Prop_Chap03_GiftBox_01_Entity)"
  },
  {
    "id": 103143,
    "name": "N/A (Prop_Chap03_AventurineBag_01_Entity)"
  },
  {
    "id": 103144,
    "name": "N/A (Prop_Chap03_PBStationModel_02_Entity)"
  },
  {
    "id": 103145,
    "name": "N/A (Prop_Chap03_RailingStand_01_Entity)"
  },
  {
    "id": 103146,
    "name": "N/A (Prop_Chap03_SpotLight_01_Entity)"
  },
  {
    "id": 103147,
    "name": "N/A (Prop_Chap03_BubbleBridge_05_Entity)"
  },
  {
    "id": 103148,
    "name": "N/A (Prop_Chap03_BubbleBridge_06_Entity)"
  },
  {
    "id": 103149,
    "name": "N/A (Prop_Chap03_BubbleBridge_03_Entity)"
  },
  {
    "id": 103150,
    "name": "N/A (Prop_Chap03_BubbleBridge_04_Entity)"
  },
  {
    "id": 103151,
    "name": "N/A (Prop_Common_EmptyProp_01_Entity)"
  },
  {
    "id": 103152,
    "name": "N/A (Prop_Chap03_JadeStone_02_Entity)"
  },
  {
    "id": 103153,
    "name": "N/A (Prop_Chap03_TopazStone_02_Entity)"
  },
  {
    "id": 103154,
    "name": "N/A (Prop_Chap03_SandBoardGate_01_Entity)"
  },
  {
    "id": 103155,
    "name": "N/A (Prop_Chap03_SandBoardGate_02_Entity)"
  },
  {
    "id": 103156,
    "name": "N/A (Prop_Common_PenroseTriangle_01_Entity)"
  },
  {
    "id": 103157,
    "name": "N/A (Prop_Chap03_BubbleClockBoy_01_Entity)"
  },
  {
    "id": 103158,
    "name": "N/A (Prop_Chap03_HSAButton_01_Entity)"
  },
  {
    "id": 103159,
    "name": "N/A (Prop_Chap03_HSAButton_02_Entity)"
  },
  {
    "id": 103160,
    "name": "N/A (Prop_Chap03_HSAReact_01_Entity)"
  },
  {
    "id": 103161,
    "name": "N/A (Prop_Chap03_HSAEaster_01_Entity)"
  },
  {
    "id": 103162,
    "name": "N/A (Prop_Chap03_HSAEaster_02_Entity)"
  },
  {
    "id": 103163,
    "name": "N/A (Prop_Chap03_HSAEaster_03_Entity)"
  },
  {
    "id": 103164,
    "name": "N/A (Prop_Chap03_HSAEaster_04_Entity)"
  },
  {
    "id": 103165,
    "name": "N/A (Prop_Chap03_HSAUnlock_01_Entity)"
  },
  {
    "id": 103166,
    "name": "N/A (Prop_Chap03_HSAUnlock_02_Entity)"
  },
  {
    "id": 103167,
    "name": "N/A (Prop_Chap03_HSBButton_01_Entity)"
  },
  {
    "id": 103168,
    "name": "N/A (Prop_Chap03_HSBButton_02_Entity)"
  },
  {
    "id": 103169,
    "name": "N/A (Prop_Chap03_HSBReact_01_Entity)"
  },
  {
    "id": 103170,
    "name": "N/A (Prop_Chap03_HSBEaster_01_Entity)"
  },
  {
    "id": 103171,
    "name": "N/A (Prop_Chap03_HSBEaster_02_Entity)"
  },
  {
    "id": 103172,
    "name": "N/A (Prop_Chap03_HSBEaster_03_Entity)"
  },
  {
    "id": 103173,
    "name": "N/A (Prop_Chap03_HSBEaster_04_Entity)"
  },
  {
    "id": 103174,
    "name": "N/A (Prop_Chap03_HSBUnlock_01_Entity)"
  },
  {
    "id": 103175,
    "name": "N/A (Prop_Chap03_HSBUnlock_02_Entity)"
  },
  {
    "id": 103176,
    "name": "N/A (Prop_Chap03_HSCButton_01_Entity)"
  },
  {
    "id": 103177,
    "name": "N/A (Prop_Chap03_HSCButton_02_Entity)"
  },
  {
    "id": 103178,
    "name": "N/A (Prop_Chap03_HSCReact_01_Entity)"
  },
  {
    "id": 103179,
    "name": "N/A (Prop_Chap03_HSCEaster_01_Entity)"
  },
  {
    "id": 103180,
    "name": "N/A (Prop_Chap03_HSCEaster_02_Entity)"
  },
  {
    "id": 103181,
    "name": "N/A (Prop_Chap03_HSCEaster_03_Entity)"
  },
  {
    "id": 103182,
    "name": "N/A (Prop_Chap03_HSCEaster_04_Entity)"
  },
  {
    "id": 103183,
    "name": "N/A (Prop_Chap03_HSCUnlock_01_Entity)"
  },
  {
    "id": 103184,
    "name": "N/A (Prop_Chap03_HSCUnlock_02_Entity)"
  },
  {
    "id": 103185,
    "name": "N/A (Prop_Common_EmptyProp_01_Entity)"
  },
  {
    "id": 103186,
    "name": "N/A (Prop_Common_EmptyProp_01_Entity)"
  },
  {
    "id": 103187,
    "name": "N/A (Prop_Common_EmptyProp_01_Entity)"
  },
  {
    "id": 103188,
    "name": "N/A (Prop_Common_EmptyProp_01_Entity)"
  },
  {
    "id": 103189,
    "name": "N/A (Prop_Chap03_OrigamiBird_03_Entity)"
  },
  {
    "id": 103190,
    "name": "N/A (Prop_Chap03_RailBall_01_Entity)"
  },
  {
    "id": 103191,
    "name": "N/A (Prop_Chap03_GravityMovingPlatform_01_Entity)"
  },
  {
    "id": 103192,
    "name": "N/A (Prop_Chap03_ControllerGravityMPF_01_Entity)"
  },
  {
    "id": 103193,
    "name": "N/A (Prop_Chap03_Doll_01_Entity)"
  },
  {
    "id": 103194,
    "name": "N/A (Prop_Chap03_Arcade_01_Entity)"
  },
  {
    "id": 103195,
    "name": "N/A (Prop_Chap03_ClockMakerHat_01_Entity)"
  },
  {
    "id": 103196,
    "name": "N/A (Prop_Chap03_RavenBody_01_Entity)"
  },
  {
    "id": 103197,
    "name": "N/A (Prop_Chap03_HSScreen_01_Entity)"
  },
  {
    "id": 103198,
    "name": "N/A (Prop_Common_EmptyProp_01_Entity)"
  },
  {
    "id": 103199,
    "name": "N/A (Prop_Common_EmptyProp_01_Entity)"
  },
  {
    "id": 103200,
    "name": "N/A (Prop_Chap03_SolidaBottle_02_Entity)"
  },
  {
    "id": 103201,
    "name": "N/A (Prop_Chap03_Popcorn_01_Entity)"
  },
  {
    "id": 103202,
    "name": "N/A (Prop_Chap03_ElevatorConsole_01_Entity)"
  },
  {
    "id": 103203,
    "name": "N/A (Prop_Chap03_Glass_01_Entity)"
  },
  {
    "id": 103204,
    "name": "N/A (Prop_Chap03_Bottle_01_Entity)"
  },
  {
    "id": 103205,
    "name": "N/A (Prop_Chap03_IsometricModule_03_Entity)"
  },
  {
    "id": 103206,
    "name": "N/A (Prop_Chap03_IsometricModule_04_Entity)"
  },
  {
    "id": 103207,
    "name": "N/A (Prop_Chap03_LittleStage_01_Entity)"
  },
  {
    "id": 103208,
    "name": "N/A (Prop_Chap03_BubbleBridge_07_Entity)"
  },
  {
    "id": 103209,
    "name": "N/A (Prop_Chap03_BubbleBridge_08_Entity)"
  },
  {
    "id": 103210,
    "name": "N/A (Prop_Chap03_ClockMaker_01_Entity)"
  },
  {
    "id": 103211,
    "name": "N/A (Prop_Chap03_ClockToyBox_03_Entity)"
  },
  {
    "id": 103212,
    "name": "N/A (Prop_Chap03_TreasureBox_01_Entity)"
  },
  {
    "id": 103213,
    "name": "N/A (Prop_Chap03_RailBall_03_Entity)"
  },
  {
    "id": 103214,
    "name": "N/A (Prop_Common_EmptyProp_01_Entity)"
  },
  {
    "id": 103215,
    "name": "N/A (Prop_Chap03_Flower_01_Entity)"
  },
  {
    "id": 103216,
    "name": "N/A (Prop_Chap03_DogStatue_02_Entity)"
  },
  {
    "id": 103217,
    "name": "N/A (Prop_Chap03_Projector_01_Entity)"
  },
  {
    "id": 103218,
    "name": "N/A (Prop_Chap03_Door_07_Entity)"
  },
  {
    "id": 103219,
    "name": "N/A (Prop_Chap03_PaintFrame_01_Entity)"
  },
  {
    "id": 103220,
    "name": "N/A (Prop_Chap03_PaintFrame_02_Entity)"
  },
  {
    "id": 103221,
    "name": "N/A (Prop_Chap03_CaptainStatus_01_Entity)"
  },
  {
    "id": 103222,
    "name": "N/A (Prop_Chap03_CaptainStatus_02_Entity)"
  },
  {
    "id": 103223,
    "name": "N/A (Prop_Chap03_CaptainPaint_01_Entity)"
  },
  {
    "id": 103224,
    "name": "N/A (Prop_Chap03_CaptainPaint_02_Entity)"
  },
  {
    "id": 103225,
    "name": "N/A (Prop_Chap03_Arcade_03_Entity)"
  },
  {
    "id": 103226,
    "name": "N/A (Prop_Chap03_Arcade_02_Entity)"
  },
  {
    "id": 103227,
    "name": "N/A (Prop_Chap03_AdvBrdBridge_01_Entity)"
  },
  {
    "id": 103228,
    "name": "N/A (Prop_Common_EmptyProp_01_Entity)"
  },
  {
    "id": 103229,
    "name": "N/A (Prop_Chap03_OrigamiBird_01_Entity)"
  },
  {
    "id": 103230,
    "name": "N/A (Prop_Chap03_HSAReactCollider_01_Entity)"
  },
  {
    "id": 103231,
    "name": "N/A (Prop_Chap03_HSAReactCollider_02_Entity)"
  },
  {
    "id": 103232,
    "name": "N/A (Prop_Chap03_HSBReactCollider_01_Entity)"
  },
  {
    "id": 103233,
    "name": "N/A (Prop_Chap03_HSBReactCollider_02_Entity)"
  },
  {
    "id": 103234,
    "name": "N/A (Prop_Chap03_HSCReactCollider_01_Entity)"
  },
  {
    "id": 103235,
    "name": "N/A (Prop_Chap03_HSCReactCollider_02_Entity)"
  },
  {
    "id": 103236,
    "name": "N/A (Prop_Chap03_LittleStage_02_Entity)"
  },
  {
    "id": 103237,
    "name": "N/A (Prop_Chap03_LittleStage_03_Entity)"
  },
  {
    "id": 103238,
    "name": "N/A (Prop_Chap03_LittleStage_04_Entity)"
  },
  {
    "id": 103239,
    "name": "N/A (Prop_Chap03_LittleStage_05_Entity)"
  },
  {
    "id": 103240,
    "name": "N/A (Prop_Chap03_LittleStage_06_Entity)"
  },
  {
    "id": 103241,
    "name": "N/A (Prop_Chap03_ClockGear_01_Entity)"
  },
  {
    "id": 103242,
    "name": "N/A (Prop_Chap03_ClockGear_02_Entity)"
  },
  {
    "id": 103243,
    "name": "Выставка коллекции (Prop_Chap03_Exhibition_01_Entity)"
  },
  {
    "id": 103244,
    "name": "N/A (Prop_Chap03_ShipSign_01_Entity)"
  },
  {
    "id": 103245,
    "name": "N/A (Prop_Chap03_GravityPlate_03_Entity)"
  },
  {
    "id": 103246,
    "name": "N/A (Prop_Chap03_SparkleBomb_01_Entity)"
  },
  {
    "id": 103247,
    "name": "N/A (Prop_Chap03_HSInteract_01_Entity)"
  },
  {
    "id": 103248,
    "name": "N/A (Prop_Chap03_ClockBoyStatue_01_Entity)"
  },
  {
    "id": 103249,
    "name": "N/A (Prop_Chap03_Doll_02_Entity)"
  },
  {
    "id": 103250,
    "name": "N/A (Prop_Chap03_OrigamiBird_02_Entity)"
  },
  {
    "id": 103251,
    "name": "N/A (Prop_Chap03_OrigamiBird_04_Entity)"
  },
  {
    "id": 103252,
    "name": "N/A (Prop_Chap03_OrigamiBird_05_Entity)"
  },
  {
    "id": 103253,
    "name": "N/A (Prop_Chap03_Balloon_01_Entity)"
  },
  {
    "id": 103254,
    "name": "N/A (Prop_Chap03_DJPanel_01_Entity)"
  },
  {
    "id": 103255,
    "name": "N/A (Prop_Chap03_KeyBoard_01_Entity)"
  },
  {
    "id": 103256,
    "name": "N/A (Prop_Chap03_ClockToyBox_04_Entity)"
  },
  {
    "id": 103257,
    "name": "N/A (Prop_Chap03_DJPanel_02_Entity)"
  },
  {
    "id": 103258,
    "name": "N/A (Prop_Chap03_PaperBox_01_Entity)"
  },
  {
    "id": 103259,
    "name": "N/A (Prop_Chap03_PaperBox_02_Entity)"
  },
  {
    "id": 103260,
    "name": "N/A (Prop_Chap03_W3TV02_01_Entity)"
  },
  {
    "id": 103261,
    "name": "N/A (Prop_Chap03_W3Clock02_01_Entity)"
  },
  {
    "id": 103262,
    "name": "N/A (Prop_Chap03_W1Mecha0103_01_Entity)"
  },
  {
    "id": 103263,
    "name": "N/A (Prop_Chap03_W3Dinosaur02_01_Entity)"
  },
  {
    "id": 103264,
    "name": "N/A (Prop_Chap03_MonkeyDoll_01_Entity)"
  },
  {
    "id": 103265,
    "name": "N/A (Prop_Chap03_MonkeyBubble_01_Entity)"
  },
  {
    "id": 103266,
    "name": "Зона граффити (Prop_Chap03_DecalPuzzle_05_Entity)"
  },
  {
    "id": 103267,
    "name": "N/A (Prop_Chap03_Transparent_02_Entity)"
  },
  {
    "id": 103268,
    "name": "N/A (Prop_Chap03_SundayPaint_01_Entity)"
  },
  {
    "id": 103269,
    "name": "N/A (Prop_Chap03_SpecialMonkey_01_Entity)"
  },
  {
    "id": 103270,
    "name": "N/A (Prop_Common_EmptyProp_01_Entity)"
  },
  {
    "id": 104001,
    "name": "N/A (Prop_Chap04_Lift_01_Entity)"
  },
  {
    "id": 104002,
    "name": "N/A (Prop_Chap04_Lift_02_Entity)"
  },
  {
    "id": 104003,
    "name": "N/A (Prop_Chap04_Console_02_Entity)"
  },
  {
    "id": 104004,
    "name": "N/A (Prop_Chap04_Console_01_Entity)"
  },
  {
    "id": 104005,
    "name": "N/A (Prop_Chap04_Door_01_Entity)"
  },
  {
    "id": 104006,
    "name": "N/A (Prop_Chap04_Door_02_Entity)"
  },
  {
    "id": 104007,
    "name": "N/A (Prop_Chap04_Door_03_Entity)"
  },
  {
    "id": 104008,
    "name": "N/A (Prop_Chap04_HPBox_01_Entity)"
  },
  {
    "id": 104009,
    "name": "N/A (Prop_Chap04_MPBox_01_Entity)"
  },
  {
    "id": 104010,
    "name": "N/A (Prop_Chap04_ShieldCoin_01_Entity)"
  },
  {
    "id": 104011,
    "name": "N/A (Prop_Chap04_ShieldCoin_02_Entity)"
  },
  {
    "id": 104012,
    "name": "N/A (Prop_Chap04_GoldenLiquidDev_01_Entity)"
  },
  {
    "id": 104013,
    "name": "N/A (Prop_Chap04_LiftDoor_02_Entity)"
  },
  {
    "id": 104014,
    "name": "N/A (Prop_Chap04_LiftDoor_01_Entity)"
  },
  {
    "id": 104015,
    "name": "N/A (Prop_Chap04_GoldenTree_01_Entity)"
  },
  {
    "id": 104016,
    "name": "N/A (Prop_Chap04_TimeRewindConsole_01_Entity)"
  },
  {
    "id": 104017,
    "name": "N/A (Prop_Chap04_Door_04_Entity)"
  },
  {
    "id": 104018,
    "name": "N/A (Prop_Chap04_Door_05_Entity)"
  },
  {
    "id": 104019,
    "name": "N/A (Prop_Chap04_DollyZoomTeleport_01_Entity)"
  },
  {
    "id": 104020,
    "name": "N/A (Prop_Chap04_DollyZoomTeleport_02_Entity)"
  },
  {
    "id": 104021,
    "name": "N/A (Prop_Chap04_Gensis_01_Entity)"
  },
  {
    "id": 104022,
    "name": "N/A (Prop_Chap04_EraFlipperSpot_01_Entity)"
  },
  {
    "id": 104023,
    "name": "N/A (Prop_Chap04_GoldenSpear_01_Entity)"
  },
  {
    "id": 104024,
    "name": "N/A (Prop_Chap04_DoorSignal_01_Entity)"
  },
  {
    "id": 104025,
    "name": "N/A (Prop_Common_EmptyProp_01_Entity)"
  },
  {
    "id": 104026,
    "name": "N/A (Prop_Common_EmptyProp_01_Entity)"
  },
  {
    "id": 104027,
    "name": "N/A (Prop_Common_EmptyProp_01_Entity)"
  },
  {
    "id": 104028,
    "name": "N/A (Prop_Chap04_Bee_01_Entity)"
  },
  {
    "id": 104029,
    "name": "N/A (Prop_Chap04_EraFlipperConsole_01_Entity)"
  },
  {
    "id": 104030,
    "name": "N/A (Prop_Chap04_BallPad_01_Entity)"
  },
  {
    "id": 104031,
    "name": "N/A (Prop_Chap04_EraFlipperSpotMark_01_Entity)"
  },
  {
    "id": 104032,
    "name": "N/A (Prop_Chap04_EraFlipperSpotMarkFX_01_Entity)"
  },
  {
    "id": 104033,
    "name": "N/A (Prop_Chap04_TRBall_01_Entity)"
  },
  {
    "id": 104034,
    "name": "N/A (Prop_Chap04_TRBallFoundation_01_Entity)"
  },
  {
    "id": 104035,
    "name": "N/A (Prop_Chap04_GaintSword_02_Entity)"
  },
  {
    "id": 104036,
    "name": "N/A (Prop_Chap04_TimeRewindPillar_01_Entity)"
  },
  {
    "id": 104037,
    "name": "N/A (Prop_Chap04_Container_01_Entity)"
  },
  {
    "id": 104038,
    "name": "N/A (Prop_Chap04_VirusClamp_01_Entity)"
  },
  {
    "id": 104039,
    "name": "N/A (Prop_Chap04_VirusAntiPoint_01_Entity)"
  },
  {
    "id": 104040,
    "name": "N/A (Prop_Chap04_EraFlipperSpot_02_Entity)"
  },
  {
    "id": 104041,
    "name": "N/A (Prop_Chap04_EraFlipperStageCapture_01_Entity)"
  },
  {
    "id": 104042,
    "name": "N/A (Prop_Chap04_TimeRewindBridge_02_Entity)"
  },
  {
    "id": 104043,
    "name": "N/A (Prop_Chap04_TimeRewindBridge_03_Entity)"
  },
  {
    "id": 104044,
    "name": "N/A (Prop_Chap04_TimeRewindBridge_01_Entity)"
  },
  {
    "id": 104045,
    "name": "N/A (Prop_Chap04_TimeRewindPillar_02_Entity)"
  },
  {
    "id": 104046,
    "name": "N/A (Prop_Chap04_TrfGoldenGoatMaskProp_01_Entity)"
  },
  {
    "id": 104050,
    "name": "N/A (Prop_Chap04_LuckyScroll_01_Entity)"
  },
  {
    "id": 104051,
    "name": "N/A (Prop_Chap04_Door_06_Entity)"
  },
  {
    "id": 104052,
    "name": "N/A (Prop_Chap04_DollyZoomTeleport_03_Entity)"
  },
  {
    "id": 104053,
    "name": "N/A (Prop_Common_EmptyProp_01_Entity)"
  },
  {
    "id": 104054,
    "name": "N/A (Prop_Chap04_GoldenApple_01_Entity)"
  },
  {
    "id": 104055,
    "name": "N/A (Prop_Chap04_BugButterfly_01_Entity)"
  },
  {
    "id": 104056,
    "name": "N/A (Prop_Chap04_BugKabudo_01_Entity)"
  },
  {
    "id": 104057,
    "name": "N/A (Prop_Chap04_BugKabudo_02_Entity)"
  },
  {
    "id": 104058,
    "name": "N/A (Prop_Chap04_BugKabudo_03_Entity)"
  },
  {
    "id": 104059,
    "name": "N/A (Prop_Chap04_TheftFlame_01_Entity)"
  },
  {
    "id": 104060,
    "name": "N/A (Prop_Chap04_BusStationBell_01_Entity)"
  },
  {
    "id": 104061,
    "name": "N/A (Prop_Chap04_HandCoin_01_Entity)"
  },
  {
    "id": 104063,
    "name": "N/A (Prop_Chap04_MicroScene_01_Entity)"
  },
  {
    "id": 104064,
    "name": "N/A (Prop_Chap04_MicroScene_02_Entity)"
  },
  {
    "id": 104065,
    "name": "N/A (Prop_Chap04_MicroScene_03_Entity)"
  },
  {
    "id": 104066,
    "name": "N/A (Prop_Chap04_MicroScene_04_Entity)"
  },
  {
    "id": 104067,
    "name": "N/A (Prop_Chap04_TimeRewindPillar_04_Entity)"
  },
  {
    "id": 104068,
    "name": "N/A (Prop_Chap04_TruthMouth_01_Entity)"
  },
  {
    "id": 104069,
    "name": "N/A (Prop_Chap04_WeightCraft_01_Entity)"
  },
  {
    "id": 104070,
    "name": "N/A (Prop_Chap04_EchoConch_01_Entity)"
  },
  {
    "id": 104071,
    "name": "N/A (Prop_Chap04_TimeRWDecorate_01_Entity)"
  },
  {
    "id": 104072,
    "name": "N/A (Prop_Chap04_TimeRWDecorate_02_Entity)"
  },
  {
    "id": 104073,
    "name": "N/A (Prop_Chap04_TimeRWDecorate_03_Entity)"
  },
  {
    "id": 104074,
    "name": "N/A (Prop_Chap04_TimeRWDecorate_04_Entity)"
  },
  {
    "id": 104075,
    "name": "N/A (Prop_Chap04_Weight_01_Entity)"
  },
  {
    "id": 104076,
    "name": "N/A (Prop_Chap04_GenesisCore_01_Entity)"
  },
  {
    "id": 104077,
    "name": "N/A (Prop_Chap04_Tablet_01_Entity)"
  },
  {
    "id": 104078,
    "name": "N/A (Prop_Chap04_WishingWell_01_Entity)"
  },
  {
    "id": 104079,
    "name": "N/A (Prop_Chap04_Bookshelf_01_Entity)"
  },
  {
    "id": 104080,
    "name": "N/A (Prop_Chap04_FlyingPiggy_01_Entity)"
  },
  {
    "id": 104081,
    "name": "N/A (Prop_Chap04_WaterfallDoor_01_Entity)"
  },
  {
    "id": 104082,
    "name": "N/A (Prop_Chap04_WaterfallDoor_02_Entity)"
  },
  {
    "id": 104083,
    "name": "N/A (Prop_Chap04_Kindling_01_Entity)"
  },
  {
    "id": 104084,
    "name": "N/A (Prop_Chap04_Organ_01_Entity)"
  },
  {
    "id": 104085,
    "name": "N/A (Prop_Chap04_Organ_02_Entity)"
  },
  {
    "id": 104086,
    "name": "N/A (Prop_Chap04_EntrancePillar_01_Entity)"
  },
  {
    "id": 104087,
    "name": "N/A (Prop_Chap04_BlockLine_01_Entity)"
  },
  {
    "id": 104088,
    "name": "N/A (Prop_Chap04_TimeRewindBridge_04_Entity)"
  },
  {
    "id": 104089,
    "name": "N/A (Prop_Chap04_Hands_02_Entity)"
  },
  {
    "id": 104090,
    "name": "N/A (Prop_Chap04_ChainBridge_01_Entity)"
  },
  {
    "id": 104091,
    "name": "N/A (Prop_Chap04_WoodenBox_01_Entity)"
  },
  {
    "id": 104092,
    "name": "N/A (Prop_Chap04_MemoryPhantom_01_Entity)"
  },
  {
    "id": 104093,
    "name": "N/A (Prop_Chap04_Reading_01_Entity)"
  },
  {
    "id": 104094,
    "name": "N/A (Prop_Chap04_Reading_02_Entity)"
  },
  {
    "id": 104095,
    "name": "N/A (Prop_Chap04_Reading_03_Entity)"
  },
  {
    "id": 104096,
    "name": "N/A (Prop_Chap04_Reading_04_Entity)"
  },
  {
    "id": 104097,
    "name": "N/A (Prop_Chap04_HandConsole_01_Entity)"
  },
  {
    "id": 104098,
    "name": "N/A (Prop_Chap04_OracleMachine_01_Entity)"
  },
  {
    "id": 104099,
    "name": "N/A (Prop_Chap04_WeightCraft_02_Entity)"
  },
  {
    "id": 104100,
    "name": "N/A (Prop_Chap04_WeightCraft_03_Entity)"
  },
  {
    "id": 104101,
    "name": "N/A (Prop_Chap04_HandPlate_01_Entity)"
  },
  {
    "id": 104102,
    "name": "N/A (Prop_Chap04_MascotMonster_01_Entity)"
  },
  {
    "id": 104103,
    "name": "N/A (Prop_Chap04_Balance_01_Entity)"
  },
  {
    "id": 104104,
    "name": "N/A (Prop_Chap04_Trojans_01_Entity)"
  },
  {
    "id": 104106,
    "name": "N/A (Prop_Common_EmptyProp_01_Entity)"
  },
  {
    "id": 104107,
    "name": "N/A (Prop_Common_EmptyProp_01_Entity)"
  },
  {
    "id": 104108,
    "name": "N/A (Prop_Chap04_Basket_01_Entity)"
  },
  {
    "id": 104109,
    "name": "N/A (Prop_Chap04_OpenScroll_01_Entity)"
  },
  {
    "id": 104110,
    "name": "N/A (Prop_Chap04_SmallChair_01_Entity)"
  },
  {
    "id": 104111,
    "name": "N/A (Prop_Chap04_SmallChair_02_Entity)"
  },
  {
    "id": 104112,
    "name": "N/A (Prop_Chap04_Mat_01_Entity)"
  },
  {
    "id": 104113,
    "name": "N/A (Prop_Chap04_Seal_01_Entity)"
  },
  {
    "id": 104114,
    "name": "N/A (Prop_Chap04_FlyingExpress_01_Entity)"
  },
  {
    "id": 104116,
    "name": "N/A (Prop_Chap04_Mineral_01_Entity)"
  },
  {
    "id": 104119,
    "name": "N/A (Prop_Chap04_HandDesBox_01_Entity)"
  },
  {
    "id": 104120,
    "name": "N/A (Prop_Chap04_BalanceDoor_01_Entity)"
  },
  {
    "id": 104121,
    "name": "N/A (Prop_Common_EmptyProp_01_Entity)"
  },
  {
    "id": 104122,
    "name": "N/A (Prop_Common_EmptyProp_01_Entity)"
  },
  {
    "id": 104123,
    "name": "N/A (Prop_Chap04_TransportBall_01_Entity)"
  },
  {
    "id": 104124,
    "name": "N/A (Prop_Common_EmptyProp_01_Entity)"
  },
  {
    "id": 104141,
    "name": "N/A (Prop_Chap04_EraFlipper3DMapIcon_01_Entity)"
  },
  {
    "id": 104142,
    "name": "N/A (Prop_Chap04_TitanCorpse_01_Entity)"
  },
  {
    "id": 104143,
    "name": "N/A (Prop_Chap04_TranspotDevice_01_Entity)"
  },
  {
    "id": 104144,
    "name": "N/A (Prop_Chap04_CurseScroll_01_Entity)"
  },
  {
    "id": 104145,
    "name": "N/A (Prop_Chap04_CurseScroll_02_Entity)"
  },
  {
    "id": 104146,
    "name": "N/A (Prop_Chap04_CurseScroll_03_Entity)"
  },
  {
    "id": 104147,
    "name": "N/A (Prop_Chap04_CurseScroll_04_Entity)"
  },
  {
    "id": 104148,
    "name": "N/A (Prop_Chap04_CurseScroll_05_Entity)"
  },
  {
    "id": 104149,
    "name": "N/A (Prop_Chap04_DustCorpse_01_Entity)"
  },
  {
    "id": 104150,
    "name": "N/A (Prop_Chap04_AMLMinion0301_01_Entity)"
  },
  {
    "id": 104151,
    "name": "N/A (Prop_Chap04_W4Claymore00_01_Entity)"
  },
  {
    "id": 104152,
    "name": "N/A (Prop_Chap04_W4Scholar00_01_Entity)"
  },
  {
    "id": 104153,
    "name": "N/A (Prop_Chap04_W4Shooter00_01_Entity)"
  },
  {
    "id": 104154,
    "name": "N/A (Prop_Chap04_W4Strongman00_01_Entity)"
  },
  {
    "id": 104157,
    "name": "N/A (Prop_Common_EmptyProp_01_Entity)"
  },
  {
    "id": 104158,
    "name": "N/A (Prop_Chap04_Fairy_01_Entity)"
  },
  {
    "id": 104159,
    "name": "N/A (Prop_Chap04_MascotCoin_01_Entity)"
  },
  {
    "id": 104160,
    "name": "N/A (Prop_Chap04_RecoveryDoor_01_Entity)"
  },
  {
    "id": 104162,
    "name": "Послушать эхо титанов (Prop_Chap04_EchoHistroy_01_Entity)"
  },
  {
    "id": 104163,
    "name": "N/A (Prop_Chap04_EraFlipperSpotMark_02_Entity)"
  },
  {
    "id": 104165,
    "name": "N/A (Prop_Common_EmptyProp_01_Entity)"
  },
  {
    "id": 104169,
    "name": "N/A (Prop_Chap04_TTDoor_01_Entity)"
  },
  {
    "id": 104174,
    "name": "N/A (Prop_Chap04_GoldenSpear_02_Entity)"
  },
  {
    "id": 104177,
    "name": "N/A (Prop_Chap04_EraFlipperAddCollider_01_Entity)"
  },
  {
    "id": 104196,
    "name": "N/A (Prop_Chap04_StrongManBody_01_Entity)"
  },
  {
    "id": 300000,
    "name": "N/A (Prop_Common_EmptyProp_01_Entity)"
  },
  {
    "id": 300001,
    "name": "N/A (Prop_Chap00_PlayerBat_01_Entity)"
  },
  {
    "id": 300002,
    "name": "N/A (Prop_Common_EmptyProp_01_Entity)"
  },
  {
    "id": 300003,
    "name": "N/A (Prop_Chap00_Door_00_Entity)"
  },
  {
    "id": 300004,
    "name": "N/A (Prop_Common_EmptyProp_01_Entity)"
  },
  {
    "id": 300005,
    "name": "N/A (Prop_Common_EmptyProp_01_Entity)"
  },
  {
    "id": 300006,
    "name": "N/A (Prop_Common_EmptyProp_01_Entity)"
  },
  {
    "id": 300007,
    "name": "N/A (Prop_Common_GlobalSceneProp_01_Entity)"
  },
  {
    "id": 300008,
    "name": "N/A (Prop_Chap00_DoorFrameN4_00_Entity)"
  },
  {
    "id": 300009,
    "name": "N/A (Prop_Chap00_BillboardSign_01_Entity)"
  },
  {
    "id": 301000,
    "name": "Сугроб (Prop_Chap01_Snowdrift_01_Entity)"
  },
  {
    "id": 301001,
    "name": "N/A (Prop_Common_EmptyProp_01_Entity)"
  },
  {
    "id": 301002,
    "name": "Центр энергоснабжения механизмов (Prop_Common_EmptyProp_01_Entity)"
  },
  {
    "id": 301003,
    "name": "Центр энергоснабжения механизмов (Prop_Common_EmptyProp_01_Entity)"
  },
  {
    "id": 301004,
    "name": "N/A (Prop_Chap01_ElevatorMat_Entity)"
  },
  {
    "id": 301005,
    "name": "N/A (Prop_Chap01_ElevatorBase_Entity)"
  },
  {
    "id": 301010,
    "name": "Повреждённый дрон (Prop_Chap01_Robot_05_Entity)"
  },
  {
    "id": 301011,
    "name": "N/A (Prop_Common_EmptyProp_01_Entity)"
  },
  {
    "id": 301013,
    "name": "N/A (Prop_Chap01_CrystalHuman_02_Entity)"
  },
  {
    "id": 301014,
    "name": "N/A (Prop_Chap01_Barrier_Grp_24_Entity)"
  },
  {
    "id": 301015,
    "name": "N/A (Prop_Chap01_Barrier_Grp_23_Entity)"
  },
  {
    "id": 301016,
    "name": "N/A (Prop_Chap01_Barrier_Entity)"
  },
  {
    "id": 301017,
    "name": "N/A (Prop_Chap01_Minecart_01_Broken_Entity)"
  },
  {
    "id": 301018,
    "name": "N/A (Prop_Chap01_Minecart_01_Entity)"
  },
  {
    "id": 301019,
    "name": "N/A (Prop_Common_EmptyProp_01_Entity)"
  },
  {
    "id": 301023,
    "name": "N/A (Prop_Common_EmptyProp_01_Entity)"
  },
  {
    "id": 301058,
    "name": "N/A (Prop_Common_EmptyProp_02_Entity)"
  },
  {
    "id": 301059,
    "name": "N/A (Prop_Common_EmptyProp_01_Entity)"
  },
  {
    "id": 301060,
    "name": "N/A (Prop_Chap01_CocoliaExcerpts_011_Entity)"
  },
  {
    "id": 301061,
    "name": "N/A (Prop_Chap01_CocoliaExcerpts_02_Entity)"
  },
  {
    "id": 301062,
    "name": "N/A (Prop_Chap01_CocoliaExcerpts_03_Entity)"
  },
  {
    "id": 301063,
    "name": "N/A (Prop_Chap01_CocoliaExcerpts_04_Entity)"
  },
  {
    "id": 301064,
    "name": "N/A (Prop_Chap01_PiecesOfDreams_01_Entity)"
  },
  {
    "id": 301065,
    "name": "N/A (Prop_Chap01_IronGate_11_Entity)"
  },
  {
    "id": 301066,
    "name": "N/A (Prop_Chap01_Trashcan_01_Entity)"
  },
  {
    "id": 301067,
    "name": "N/A (Prop_Chap01_Grd_19_Entity)"
  },
  {
    "id": 301068,
    "name": "N/A (Prop_Chap01_Bonfire_01_Entity)"
  },
  {
    "id": 301069,
    "name": "N/A (Prop_Chap01_HandLamp_03_Entity)"
  },
  {
    "id": 301070,
    "name": "N/A (Prop_Chap01_HeatDevice_01_Entity)"
  },
  {
    "id": 301071,
    "name": "N/A (Prop_Chap01_HeatDevice_02_Entity)"
  },
  {
    "id": 301072,
    "name": "N/A (Prop_Chap01_Package_01_Entity)"
  },
  {
    "id": 301073,
    "name": "N/A (Prop_Chap01_Tent_02a_Entity)"
  },
  {
    "id": 301074,
    "name": "N/A (Prop_Chap01_ToolBag_01_Entity)"
  },
  {
    "id": 301075,
    "name": "N/A (Prop_Chap01_Woodenbox_01b_Old_Entity)"
  },
  {
    "id": 301076,
    "name": "N/A (Prop_Chap01_Glowstick_01_Entity)"
  },
  {
    "id": 301077,
    "name": "N/A (Prop_Common_EmptyProp_01_Entity)"
  },
  {
    "id": 301078,
    "name": "N/A (Prop_Common_EmptyProp_02_Entity)"
  },
  {
    "id": 301079,
    "name": "N/A (Prop_Common_EmptyProp_02_Entity)"
  },
  {
    "id": 301080,
    "name": "N/A (Prop_Common_EmptyProp_01_Entity)"
  },
  {
    "id": 301081,
    "name": "N/A (Prop_Common_EmptyProp_01_Entity)"
  },
  {
    "id": 301082,
    "name": "N/A (Prop_Common_EmptyProp_01_Entity)"
  },
  {
    "id": 9999820,
    "name": "N/A (Common_Prop_EmptyProp_Entity)"
  },
  {
    "id": 9999834,
    "name": "N/A (Chime_Score_Entity)"
  },
  {
    "id": 9090008,
    "name": "N/A (Test_AreaBuff_Entity)"
  },
  {
    "id": 9120018,
    "name": "N/A (Rogue_Prop_Portal_01_Entity)"
  },
  {
    "id": 9120019,
    "name": "N/A (Rogue_Prop_Portal_01_Entity)"
  },
  {
    "id": 9120020,
    "name": "N/A (Rogue_Prop_Portal_01_Entity)"
  },
  {
    "id": 9120021,
    "name": "N/A (Rogue_Prop_Portal_01_Entity)"
  },
  {
    "id": 9120031,
    "name": "N/A (X302_Light_Entity)"
  },
  {
    "id": 9120032,
    "name": "N/A (X302_Egg_Entity)"
  },
  {
    "id": 9120033,
    "name": "N/A (X302_Bridge_Entity)"
  },
  {
    "id": 9120034,
    "name": "N/A (Eff_Rogue_DialogueEventHintPoint_Entity)"
  },
  {
    "id": 9130003,
    "name": "N/A (LogisticBrid_Group_Entity)"
  },
  {
    "id": 9200005,
    "name": "N/A (Test_Prop_GachaMachine_01_Entity)"
  },
  {
    "id": 9200006,
    "name": "N/A (Test_Prop_PrizeWheel_01_Entity)"
  },
  {
    "id": 9200007,
    "name": "N/A (Test_Prop_N4_Elevator_Entity)"
  },
  {
    "id": 9103002,
    "name": "N/A (Chap03_Prop_GashaponMachine_01_Entity)"
  },
  {
    "id": 9103003,
    "name": "N/A (Chap03_Prop_GashaponMachine_Ball_01_Entity)"
  },
  {
    "id": 9103004,
    "name": "N/A (Chap03_Prop_GashaponMachine_Switcher_01_Entity)"
  },
  {
    "id": 9103005,
    "name": "N/A (Chap03_Prop_HighStrikers_01_Entity)"
  },
  {
    "id": 9103007,
    "name": "N/A (Chap03_Prop_HighStrikers_Bottle_01_Entity)"
  },
  {
    "id": 9103008,
    "name": "N/A (Prop_Chap03_JigsawDevMultiFunc_01_Entity)"
  },
  {
    "id": 9103009,
    "name": "N/A (Prop_Chap03_IsometricConnector_01_Entity)"
  },
  {
    "id": 9103010,
    "name": "N/A (Prop_Chap03_JigsawItem_01_Entity)"
  },
  {
    "id": 9103011,
    "name": "N/A (Prop_Chap03_IsometricMovePlatform_01_Entity)"
  },
  {
    "id": 9103012,
    "name": "N/A (Prop_Chap03_IsometricMovePlatformSwitch_01_Entity)"
  },
  {
    "id": 9103013,
    "name": "N/A (Prop_Chap03_IsometricSwitch_01_Entity)"
  },
  {
    "id": 9103014,
    "name": "N/A (Prop_Chap03_IsometricMovePlatformLShape_01_Entity)"
  },
  {
    "id": 9103015,
    "name": "N/A (Common_DesignBackup_Mar_7th_Entity)"
  },
  {
    "id": 9103017,
    "name": "N/A (DecalPuzzle_WhiteBox02_SubvideRegion_Entity)"
  },
  {
    "id": 9103018,
    "name": "N/A (DecalPuzzle_WhiteBox02_SubvideRegion1_Entity)"
  },
  {
    "id": 9103019,
    "name": "N/A (DecalPuzzle_WhiteBox02_SubvideRegion2_Entity)"
  },
  {
    "id": 9103020,
    "name": "N/A (DecalPuzzle_WhiteBox02_SubvideRegion3_Entity)"
  },
  {
    "id": 9103021,
    "name": "N/A (Prop_Chap03_RailBall_01_Entity)"
  },
  {
    "id": 9103022,
    "name": "N/A (Test_ColliderTest_Entity)"
  },
  {
    "id": 9300001,
    "name": "N/A (ChapP4_GameplayProp_TimeAxisChange_01_Entity)"
  },
  {
    "id": 9300002,
    "name": "N/A (Chap04_GameplayProp_TimeAxisTest_01_Lod0_Entity)"
  },
  {
    "id": 9300003,
    "name": "N/A (Chap04_TimeAxisBroken_Entity)"
  },
  {
    "id": 9300004,
    "name": "N/A (TimeAxisBrigdgeOut_Entity)"
  },
  {
    "id": 9300005,
    "name": "N/A (TimeAxisLongBridge_Entity)"
  },
  {
    "id": 9300006,
    "name": "N/A (EraFlipper_SpotLight_Entity)"
  },
  {
    "id": 9300007,
    "name": "N/A (EraFlipper_ToggleEraSwitch_Entity)"
  },
  {
    "id": 9300008,
    "name": "N/A (EraFlipper_DevMulti1_Entity)"
  },
  {
    "id": 9300009,
    "name": "N/A (EraFlipper_DevMulti2_Entity)"
  },
  {
    "id": 9300010,
    "name": "N/A (EraFlipper_DevMulti3_Entity)"
  },
  {
    "id": 9300011,
    "name": "N/A (TimeLineBox_Entity)"
  },
  {
    "id": 9300012,
    "name": "N/A (TimelineSphere_Entity)"
  },
  {
    "id": 9300013,
    "name": "N/A (TimelineFan_Entity)"
  },
  {
    "id": 9300014,
    "name": "N/A (TimelineBox1_Entity)"
  },
  {
    "id": 9300015,
    "name": "N/A (TimeBrokenBox_Entity)"
  },
  {
    "id": 9300016,
    "name": "N/A (Test_Prop_Chap04_TimeRingHalf_01_Entity)"
  },
  {
    "id": 9300017,
    "name": "N/A (Test_Prop_Chap04_TimeRingFull_01_Entity)"
  },
  {
    "id": 9300018,
    "name": "N/A (Test_Prop_Chap04_TimeRingStone_01_Entity)"
  },
  {
    "id": 9300019,
    "name": "N/A (Test_Prop_Chap04_TimeRingProjectionLight_01_Entity)"
  },
  {
    "id": 9300020,
    "name": "N/A (Chap04_PinPongCtrl_Entity)"
  },
  {
    "id": 9300021,
    "name": "N/A (OracleMachine_01_Entity)"
  },
  {
    "id": 9300022,
    "name": "N/A (EraFlipper_DevMulti4_Entity)"
  },
  {
    "id": 9300023,
    "name": "N/A (EraFlipper_DevMulti5_Entity)"
  },
  {
    "id": 9300024,
    "name": "N/A (Chap02_GameplayProp_BaseConsole_02_Lod0_Entity)"
  },
  {
    "id": 9300028,
    "name": "N/A (Test_Prop_Common_PlaceholderProp_01_Entity)"
  },
  {
    "id": 9300029,
    "name": "N/A (Test_Prop_Common_PlaceholderProp_02_Entity)"
  },
  {
    "id": 9300030,
    "name": "N/A (Test_Prop_Common_PlaceholderProp_03_Entity)"
  },
  {
    "id": 9300031,
    "name": "N/A (Test_Prop_Common_PlaceholderProp_04_Entity)"
  },
  {
    "id": 9300032,
    "name": "N/A (Test_Prop_Common_PlaceholderProp_05_Entity)"
  },
  {
    "id": 9300035,
    "name": "N/A (Test_Prop_Chap04_TimeRingHalfShadow_01_Entity)"
  },
  {
    "id": 9300036,
    "name": "N/A (Test_Prop_Chap04_TimeRingHalfPuzzle_01_Entity)"
  },
  {
    "id": 9300038,
    "name": "N/A (Test_Prop_Chap04_TimeRingHalf_02_Entity)"
  },
  {
    "id": 9300046,
    "name": "N/A (Test_Prop_Common_PlaceholderProp_06_Entity)"
  },
  {
    "id": 9310001,
    "name": "N/A (MusicRhythm_Peppy_Entity)"
  },
  {
    "id": 9310002,
    "name": "N/A (MusicRhythm_Robo_Entity)"
  },
  {
    "id": 9310003,
    "name": "N/A (MusicRhythm_Bird_Entity)"
  },
  {
    "id": 9310004,
    "name": "N/A (MusicRhythm_WolfBro_Entity)"
  }
]