[
  {
    "id": 1,
    "name": "PV (16)",
    "grup": 2
  },
  {
    "id": 2,
    "name": "ATQ (8)",
    "grup": 2
  },
  {
    "id": 3,
    "name": "DÉF (8)",
    "grup": 2
  },
  {
    "id": 4,
    "name": "PV (1.73 %)",
    "grup": 2
  },
  {
    "id": 5,
    "name": "ATQ (1.73 %)",
    "grup": 2
  },
  {
    "id": 6,
    "name": "DÉF (2.16 %)",
    "grup": 2
  },
  {
    "id": 7,
    "name": "VIT (1)",
    "grup": 2
  },
  {
    "id": 8,
    "name": "Chances de coup critique (1.30 %)",
    "grup": 2
  },
  {
    "id": 9,
    "name": "DGT CRIT (2.59 %)",
    "grup": 2
  },
  {
    "id": 10,
    "name": "Chances d'app. des effets (1.73 %)",
    "grup": 2
  },
  {
    "id": 11,
    "name": "RÉS aux effets (1.73 %)",
    "grup": 2
  },
  {
    "id": 12,
    "name": "Effet de Rupture (2.59 %)",
    "grup": 2
  },
  {
    "id": 1,
    "name": "PV (25)",
    "grup": 3
  },
  {
    "id": 2,
    "name": "ATQ (12)",
    "grup": 3
  },
  {
    "id": 3,
    "name": "DÉF (12)",
    "grup": 3
  },
  {
    "id": 4,
    "name": "PV (2.59 %)",
    "grup": 3
  },
  {
    "id": 5,
    "name": "ATQ (2.59 %)",
    "grup": 3
  },
  {
    "id": 6,
    "name": "DÉF (3.24 %)",
    "grup": 3
  },
  {
    "id": 7,
    "name": "VIT (1)",
    "grup": 3
  },
  {
    "id": 8,
    "name": "Chances de coup critique (1.94 %)",
    "grup": 3
  },
  {
    "id": 9,
    "name": "DGT CRIT (3.89 %)",
    "grup": 3
  },
  {
    "id": 10,
    "name": "Chances d'app. des effets (2.59 %)",
    "grup": 3
  },
  {
    "id": 11,
    "name": "RÉS aux effets (2.59 %)",
    "grup": 3
  },
  {
    "id": 12,
    "name": "Effet de Rupture (3.89 %)",
    "grup": 3
  },
  {
    "id": 1,
    "name": "PV (33)",
    "grup": 4
  },
  {
    "id": 2,
    "name": "ATQ (16)",
    "grup": 4
  },
  {
    "id": 3,
    "name": "DÉF (16)",
    "grup": 4
  },
  {
    "id": 4,
    "name": "PV (3.46 %)",
    "grup": 4
  },
  {
    "id": 5,
    "name": "ATQ (3.46 %)",
    "grup": 4
  },
  {
    "id": 6,
    "name": "DÉF (4.32 %)",
    "grup": 4
  },
  {
    "id": 7,
    "name": "VIT (2)",
    "grup": 4
  },
  {
    "id": 8,
    "name": "Chances de coup critique (2.59 %)",
    "grup": 4
  },
  {
    "id": 9,
    "name": "DGT CRIT (5.18 %)",
    "grup": 4
  },
  {
    "id": 10,
    "name": "Chances d'app. des effets (3.46 %)",
    "grup": 4
  },
  {
    "id": 11,
    "name": "RÉS aux effets (3.46 %)",
    "grup": 4
  },
  {
    "id": 12,
    "name": "Effet de Rupture (5.18 %)",
    "grup": 4
  },
  {
    "id": 1,
    "name": "PV (42)",
    "grup": 5
  },
  {
    "id": 2,
    "name": "ATQ (21)",
    "grup": 5
  },
  {
    "id": 3,
    "name": "DÉF (21)",
    "grup": 5
  },
  {
    "id": 4,
    "name": "PV (4.32 %)",
    "grup": 5
  },
  {
    "id": 5,
    "name": "ATQ (4.32 %)",
    "grup": 5
  },
  {
    "id": 6,
    "name": "DÉF (5.40 %)",
    "grup": 5
  },
  {
    "id": 7,
    "name": "VIT (2)",
    "grup": 5
  },
  {
    "id": 8,
    "name": "Chances de coup critique (3.24 %)",
    "grup": 5
  },
  {
    "id": 9,
    "name": "DGT CRIT (6.48 %)",
    "grup": 5
  },
  {
    "id": 10,
    "name": "Chances d'app. des effets (4.32 %)",
    "grup": 5
  },
  {
    "id": 11,
    "name": "RÉS aux effets (4.32 %)",
    "grup": 5
  },
  {
    "id": 12,
    "name": "Effet de Rupture (6.48 %)",
    "grup": 5
  }
]