[
  {
    "id": 1002040,
    "name": "Soldado Crinargenta",
    "type": "MinionLv2",
    "img": "/image/game/starrails/monster/Monster_1002040.png"
  },
  {
    "id": 1002041,
    "name": "Soldado Crinargenta",
    "type": "MinionLv2",
    "img": "/image/game/starrails/monster/Monster_1002040.png"
  },
  {
    "id": 1002050,
    "name": "Tirador Crinargenta",
    "type": "MinionLv2",
    "img": "/image/game/starrails/monster/Monster_1002050.png"
  },
  {
    "id": 1002011,
    "name": "Pica Glacial",
    "type": "MinionLv2",
    "img": "/image/game/starrails/monster/Monster_1002011.png"
  },
  {
    "id": 1002012,
    "name": "Pica Glacial",
    "type": "MinionLv2",
    "img": "/image/game/starrails/monster/Monster_1002011.png"
  },
  {
    "id": 1002013,
    "name": "Lanza del Frío Infinito",
    "type": "MinionLv2",
    "img": "/image/game/starrails/monster/Monster_1002013.png"
  },
  {
    "id": 1002014,
    "name": "Lanza del Frío Infinito",
    "type": "MinionLv2",
    "img": "/image/game/starrails/monster/Monster_1002013.png"
  },
  {
    "id": 1002015,
    "name": "Pica Glacial",
    "type": "MinionLv2",
    "img": "/image/game/starrails/monster/Monster_1002011.png"
  },
  {
    "id": 1002016,
    "name": "Pica Glacial",
    "type": "MinionLv2",
    "img": "/image/game/starrails/monster/Monster_1002011.png"
  },
  {
    "id": 1002017,
    "name": "Lanza del Frío Infinito",
    "type": "MinionLv2",
    "img": "/image/game/starrails/monster/Monster_1002013.png"
  },
  {
    "id": 1002018,
    "name": "Lanza del Frío Infinito",
    "type": "MinionLv2",
    "img": "/image/game/starrails/monster/Monster_1002013.png"
  },
  {
    "id": 1002020,
    "name": "Vagabundo",
    "type": "MinionLv2",
    "img": "/image/game/starrails/monster/Monster_1002020.png"
  },
  {
    "id": 1002030,
    "name": "Artillero Crinargenta",
    "type": "MinionLv2",
    "img": "/image/game/starrails/monster/Monster_1002030.png"
  },
  {
    "id": 1003010,
    "name": "Teniente Crinargenta",
    "type": "Elite",
    "img": "/image/game/starrails/monster/Monster_1003010.png"
  },
  {
    "id": 1003011,
    "name": "Teniente Crinargenta (error)",
    "type": "Elite",
    "img": "/image/game/starrails/monster/Monster_1003010.png"
  },
  {
    "id": 1003012,
    "name": "Teniente Crinargenta (intacto)",
    "type": "Elite",
    "img": "/image/game/starrails/monster/Monster_1003010.png"
  },
  {
    "id": 1003013,
    "name": "Teniente Crinargenta (intacto)",
    "type": "Elite",
    "img": "/image/game/starrails/monster/Monster_1003010.png"
  },
  {
    "id": 1004010,
    "name": "Cocolia",
    "type": "LittleBoss",
    "img": "/image/game/starrails/monster/Monster_1004010.png"
  },
  {
    "id": 1004011,
    "name": "Cocolia (intacta)",
    "type": "LittleBoss",
    "img": "/image/game/starrails/monster/Monster_1004010.png"
  },
  {
    "id": 1004012,
    "name": "Cocolia (intacta)",
    "type": "LittleBoss",
    "img": "/image/game/starrails/monster/Monster_1004010.png"
  },
  {
    "id": 1014010,
    "name": "Svarog",
    "type": "LittleBoss",
    "img": "/image/game/starrails/monster/Monster_1014010.png"
  },
  {
    "id": 1014011,
    "name": "Svarog (intacto)",
    "type": "LittleBoss",
    "img": "/image/game/starrails/monster/Monster_1014010.png"
  },
  {
    "id": 1014012,
    "name": "Svarog (intacto)",
    "type": "LittleBoss",
    "img": "/image/game/starrails/monster/Monster_1014010.png"
  },
  {
    "id": 1012040,
    "name": "Brazo Robótico Auxiliar",
    "type": "MinionLv2",
    "img": "/image/game/starrails/monster/Monster_1012040.png"
  },
  {
    "id": 1012041,
    "name": "Brazo Robótico Auxiliar",
    "type": "MinionLv2",
    "img": "/image/game/starrails/monster/Monster_1012040.png"
  },
  {
    "id": 1012042,
    "name": "Brazo Robótico Auxiliar",
    "type": "MinionLv2",
    "img": "/image/game/starrails/monster/Monster_1012040.png"
  },
  {
    "id": 1004030,
    "name": "Bronya",
    "type": "LittleBoss",
    "img": "/image/game/starrails/monster/Monster_1004030.png"
  },
  {
    "id": 1004031,
    "name": "Bronya (intacta)",
    "type": "LittleBoss",
    "img": "/image/game/starrails/monster/Monster_1004030.png"
  },
  {
    "id": 1005010,
    "name": "Cocolia, Madre de Falsedades",
    "type": "BigBoss",
    "img": "/image/game/starrails/monster/Monster_1005010.png"
  },
  {
    "id": 1005011,
    "name": "Cocolia, Madre de Falsedades",
    "type": "BigBoss",
    "img": "/image/game/starrails/monster/Monster_1005010.png"
  },
  {
    "id": 1005012,
    "name": "Cocolia, Madre de Falsedades",
    "type": "BigBoss",
    "img": "/image/game/starrails/monster/Monster_1005010.png"
  },
  {
    "id": 1012010,
    "name": "Sabueso Autómata",
    "type": "MinionLv2",
    "img": "/image/game/starrails/monster/Monster_1012010.png"
  },
  {
    "id": 1012011,
    "name": "Sabueso Autómata",
    "type": "MinionLv2",
    "img": "/image/game/starrails/monster/Monster_1012010.png"
  },
  {
    "id": 1012020,
    "name": "Araña Autómata",
    "type": "MinionLv2",
    "img": "/image/game/starrails/monster/Monster_1012020.png"
  },
  {
    "id": 1012021,
    "name": "Araña Autómata",
    "type": "MinionLv2",
    "img": "/image/game/starrails/monster/Monster_1012020.png"
  },
  {
    "id": 1012030,
    "name": "Escarabajo Autómata",
    "type": "MinionLv2",
    "img": "/image/game/starrails/monster/Monster_1012030.png"
  },
  {
    "id": 1013010,
    "name": "Oso Autómata",
    "type": "Elite",
    "img": "/image/game/starrails/monster/Monster_1013010.png"
  },
  {
    "id": 1013011,
    "name": "Oso Autómata (error)",
    "type": "Elite",
    "img": "/image/game/starrails/monster/Monster_1013010.png"
  },
  {
    "id": 1013012,
    "name": "Oso Autómata (intacto)",
    "type": "Elite",
    "img": "/image/game/starrails/monster/Monster_1013010.png"
  },
  {
    "id": 1013013,
    "name": "Oso Autómata (intacto)",
    "type": "Elite",
    "img": "/image/game/starrails/monster/Monster_1013010.png"
  },
  {
    "id": 1013020,
    "name": "Huargo Autómata",
    "type": "Elite",
    "img": "/image/game/starrails/monster/Monster_1013020.png"
  },
  {
    "id": 1013021,
    "name": "Huargo Autómata (error)",
    "type": "Elite",
    "img": "/image/game/starrails/monster/Monster_1013020.png"
  },
  {
    "id": 1013022,
    "name": "Huargo Autómata (intacto)",
    "type": "Elite",
    "img": "/image/game/starrails/monster/Monster_1013020.png"
  },
  {
    "id": 1013023,
    "name": "Huargo Autómata (intacto)",
    "type": "Elite",
    "img": "/image/game/starrails/monster/Monster_1013020.png"
  },
  {
    "id": 1022010,
    "name": "Sombra del Siempreinvierno",
    "type": "MinionLv2",
    "img": "/image/game/starrails/monster/Monster_1022010.png"
  },
  {
    "id": 1022020,
    "name": "Sombra de la Incineración",
    "type": "MinionLv2",
    "img": "/image/game/starrails/monster/Monster_1022020.png"
  },
  {
    "id": 1023010,
    "name": "Merodeador Ardiente",
    "type": "Elite",
    "img": "/image/game/starrails/monster/Monster_1023010.png"
  },
  {
    "id": 1023011,
    "name": "Merodeador Ardiente (error)",
    "type": "Elite",
    "img": "/image/game/starrails/monster/Monster_1023010.png"
  },
  {
    "id": 1023020,
    "name": "Merodeador Glacial",
    "type": "Elite",
    "img": "/image/game/starrails/monster/Monster_1023020.png"
  },
  {
    "id": 1023021,
    "name": "Merodeador Glacial (error)",
    "type": "Elite",
    "img": "/image/game/starrails/monster/Monster_1023020.png"
  },
  {
    "id": 2002010,
    "name": "Patrullero de los Nimbocaballeros",
    "type": "MinionLv2",
    "img": "/image/game/starrails/monster/Monster_2002010.png"
  },
  {
    "id": 2002030,
    "name": "Oficial Espectral",
    "type": "MinionLv2",
    "img": "/image/game/starrails/monster/Monster_2002030.png"
  },
  {
    "id": 8001040,
    "name": "Engendro Eléctrico",
    "type": "Minion",
    "img": "/image/game/starrails/monster/Monster_8001040.png"
  },
  {
    "id": 8001050,
    "name": "Engendro Huracanado",
    "type": "Minion",
    "img": "/image/game/starrails/monster/Monster_8001050.png"
  },
  {
    "id": 2022010,
    "name": "Soldado poseído por Mara",
    "type": "MinionLv2",
    "img": "/image/game/starrails/monster/Monster_2022010.png"
  },
  {
    "id": 2022020,
    "name": "Discípulo de Sanctus Medicus: Alquimista Interno",
    "type": "MinionLv2",
    "img": "/image/game/starrails/monster/Monster_2022020.png"
  },
  {
    "id": 2022110,
    "name": "Oficial poseída por Mara",
    "type": "MinionLv2",
    "img": "/image/game/starrails/monster/Monster_2022110.png"
  },
  {
    "id": 2023010,
    "name": "Discípulo de Sanctus Medicus: Cambiaformas",
    "type": "Elite",
    "img": "/image/game/starrails/monster/Monster_2023010.png"
  },
  {
    "id": 2011010,
    "name": "Ingenio Encantado: Dracoleón",
    "type": "Minion",
    "img": "/image/game/starrails/monster/Monster_2011010.png"
  },
  {
    "id": 2011020,
    "name": "Ingenio Encantado: Sapo Nubedorada",
    "type": "Minion",
    "img": "/image/game/starrails/monster/Monster_2011020.png"
  },
  {
    "id": 2012010,
    "name": "Ingenio Encantado: Pezdragón Iluminador",
    "type": "MinionLv2",
    "img": "/image/game/starrails/monster/Monster_2012010.png"
  },
  {
    "id": 2013010,
    "name": "Guarda Aurúmata",
    "type": "Elite",
    "img": "/image/game/starrails/monster/Monster_2013010.png"
  },
  {
    "id": 2013020,
    "name": "Enviada Fantasmal Aurúmata",
    "type": "Elite",
    "img": "/image/game/starrails/monster/Monster_2013020.png"
  },
  {
    "id": 2004010,
    "name": "Cazadores de Estelaron | Kafka",
    "type": "LittleBoss",
    "img": "/image/game/starrails/monster/Monster_2004010.png"
  },
  {
    "id": 2004011,
    "name": "Cazadores de Estelaron | Kafka (intacta)",
    "type": "LittleBoss",
    "img": "/image/game/starrails/monster/Monster_2004010.png"
  },
  {
    "id": 2004012,
    "name": "Cazadores de Estelaron | Kafka (intacta)",
    "type": "LittleBoss",
    "img": "/image/game/starrails/monster/Monster_2004010.png"
  },
  {
    "id": 2002020,
    "name": "Espada Voladora",
    "type": "MinionLv2",
    "img": "/image/game/starrails/monster/Monster_2002020.png"
  },
  {
    "id": 2002021,
    "name": "Espada Voladora",
    "type": "MinionLv2",
    "img": "/image/game/starrails/monster/Monster_2002020.png"
  },
  {
    "id": 2024010,
    "name": "Cérvido Azabache de la Abundancia",
    "type": "LittleBoss",
    "img": "/image/game/starrails/monster/Monster_2024010.png"
  },
  {
    "id": 2024011,
    "name": "Cérvido Azabache de la Abundancia (intacto)",
    "type": "LittleBoss",
    "img": "/image/game/starrails/monster/Monster_2024010.png"
  },
  {
    "id": 2022070,
    "name": "Rama del viento solemne",
    "type": "MinionLv2",
    "img": "/image/game/starrails/monster/Monster_2022070.png"
  },
  {
    "id": 2022080,
    "name": "Rama de hojas gualdas",
    "type": "MinionLv2",
    "img": "/image/game/starrails/monster/Monster_2022080.png"
  },
  {
    "id": 2022090,
    "name": "Rama de la floración",
    "type": "MinionLv2",
    "img": "/image/game/starrails/monster/Monster_2022090.png"
  },
  {
    "id": 2022100,
    "name": "Rama del fruto abundante",
    "type": "MinionLv2",
    "img": "/image/game/starrails/monster/Monster_2022100.png"
  },
  {
    "id": 2022071,
    "name": "Rama del viento solemne",
    "type": "MinionLv2",
    "img": "/image/game/starrails/monster/Monster_2022070.png"
  },
  {
    "id": 2022081,
    "name": "Rama de hojas gualdas",
    "type": "MinionLv2",
    "img": "/image/game/starrails/monster/Monster_2022080.png"
  },
  {
    "id": 2022091,
    "name": "Rama de la floración",
    "type": "MinionLv2",
    "img": "/image/game/starrails/monster/Monster_2022090.png"
  },
  {
    "id": 2022101,
    "name": "Rama del fruto abundante",
    "type": "MinionLv2",
    "img": "/image/game/starrails/monster/Monster_2022100.png"
  },
  {
    "id": 8001010,
    "name": "Engendro Ígneo",
    "type": "Minion",
    "img": "/image/game/starrails/monster/Monster_8001010.png"
  },
  {
    "id": 8001020,
    "name": "Engendro Escarchado",
    "type": "Minion",
    "img": "/image/game/starrails/monster/Monster_8001020.png"
  },
  {
    "id": 8002010,
    "name": "Tejedora Imaginaria",
    "type": "MinionLv2",
    "img": "/image/game/starrails/monster/Monster_8002010.png"
  },
  {
    "id": 8001030,
    "name": "Máscara Impensativa",
    "type": "Minion",
    "img": "/image/game/starrails/monster/Monster_8001030.png"
  },
  {
    "id": 8002040,
    "name": "Chanchito Dimensional",
    "type": "MinionLv2",
    "img": "/image/game/starrails/monster/Monster_8002040.png"
  },
  {
    "id": 8002050,
    "name": "Chanchito Secuencial",
    "type": "MinionLv2",
    "img": "/image/game/starrails/monster/Monster_8002050.png"
  },
  {
    "id": 8002051,
    "name": "Chanchito Mayor",
    "type": "MinionLv2",
    "img": "/image/game/starrails/monster/Monster_8002050.png"
  },
  {
    "id": 8002052,
    "name": "Chanchito Mediano",
    "type": "MinionLv2",
    "img": "/image/game/starrails/monster/Monster_8002050.png"
  },
  {
    "id": 8002053,
    "name": "Chanchito Menor",
    "type": "MinionLv2",
    "img": "/image/game/starrails/monster/Monster_8002050.png"
  },
  {
    "id": 8002060,
    "name": "Chanchito de la Destrucción",
    "type": "MinionLv2",
    "img": "/image/game/starrails/monster/Monster_8002050.png"
  },
  {
    "id": 8002070,
    "name": "Chanchito de la Abundancia",
    "type": "MinionLv2",
    "img": "/image/game/starrails/monster/Monster_8002050.png"
  },
  {
    "id": 8002080,
    "name": "Chanchito de la Conservación",
    "type": "MinionLv2",
    "img": "/image/game/starrails/monster/Monster_8002050.png"
  },
  {
    "id": 8002081,
    "name": "Chanchito de la Conservación",
    "type": "MinionLv2",
    "img": "/image/game/starrails/monster/Monster_8002050.png"
  },
  {
    "id": 8002090,
    "name": "Chanchito Secuencial",
    "type": "MinionLv2",
    "img": "/image/game/starrails/monster/Monster_8002050.png"
  },
  {
    "id": 8003010,
    "name": "Hielo del Espacio Exterior",
    "type": "Elite",
    "img": "/image/game/starrails/monster/Monster_8003010.png"
  },
  {
    "id": 8003011,
    "name": "Hielo del Espacio Exterior (error)",
    "type": "Elite",
    "img": "/image/game/starrails/monster/Monster_8003010.png"
  },
  {
    "id": 8003020,
    "name": "Fuego del Espacio Exterior",
    "type": "Elite",
    "img": "/image/game/starrails/monster/Monster_8003020.png"
  },
  {
    "id": 8003021,
    "name": "Fuego del Espacio Exterior (error)",
    "type": "Elite",
    "img": "/image/game/starrails/monster/Monster_8003020.png"
  },
  {
    "id": 8003030,
    "name": "Sombra de la Guardiana",
    "type": "Elite",
    "img": "/image/game/starrails/monster/Monster_8003030.png"
  },
  {
    "id": 8003031,
    "name": "Sombra de la Guardiana (error)",
    "type": "Elite",
    "img": "/image/game/starrails/monster/Monster_8003030.png"
  },
  {
    "id": 8003040,
    "name": "Sombra de la Podredumbre",
    "type": "Elite",
    "img": "/image/game/starrails/monster/Monster_8003040.png"
  },
  {
    "id": 8003041,
    "name": "Sombra de la Podredumbre (error)",
    "type": "Elite",
    "img": "/image/game/starrails/monster/Monster_8003040.png"
  },
  {
    "id": 8011010,
    "name": "Barión",
    "type": "Minion",
    "img": "/image/game/starrails/monster/Monster_8011010.png"
  },
  {
    "id": 8011020,
    "name": "Antibarión",
    "type": "Minion",
    "img": "/image/game/starrails/monster/Monster_8011020.png"
  },
  {
    "id": 8012010,
    "name": "Saqueador del Vacío",
    "type": "MinionLv2",
    "img": "/image/game/starrails/monster/Monster_8012010.png"
  },
  {
    "id": 8012020,
    "name": "Distorsionador del Vacío",
    "type": "MinionLv2",
    "img": "/image/game/starrails/monster/Monster_8012020.png"
  },
  {
    "id": 8012021,
    "name": "Distorsionador del Vacío",
    "type": "MinionLv2",
    "img": "/image/game/starrails/monster/Monster_8012020.png"
  },
  {
    "id": 8012030,
    "name": "Eliminador del Vacío",
    "type": "MinionLv2",
    "img": "/image/game/starrails/monster/Monster_8012030.png"
  },
  {
    "id": 8013010,
    "name": "Aplastador del Vacío",
    "type": "Elite",
    "img": "/image/game/starrails/monster/Monster_8013010.png"
  },
  {
    "id": 8013011,
    "name": "Aplastador del Vacío (error)",
    "type": "Elite",
    "img": "/image/game/starrails/monster/Monster_8013010.png"
  },
  {
    "id": 8013012,
    "name": "Aplastador del Vacío",
    "type": "Elite",
    "img": "/image/game/starrails/monster/Monster_8013010.png"
  },
  {
    "id": 8015020,
    "name": "Phantylia la Inmortal",
    "type": "BigBoss",
    "img": "/image/game/starrails/monster/Monster_8015020.png"
  },
  {
    "id": 8015021,
    "name": "Phantylia la Inmortal",
    "type": "BigBoss",
    "img": "/image/game/starrails/monster/Monster_8015020.png"
  },
  {
    "id": 8012200,
    "name": "Loto de la Abundancia",
    "type": "MinionLv2",
    "img": "/image/game/starrails/monster/Monster_8012200.png"
  },
  {
    "id": 8012201,
    "name": "Loto de la Abundancia",
    "type": "MinionLv2",
    "img": "/image/game/starrails/monster/Monster_8012201.png"
  },
  {
    "id": 8012202,
    "name": "Loto de la Abundancia",
    "type": "MinionLv2",
    "img": "/image/game/starrails/monster/Monster_8012200.png"
  },
  {
    "id": 8012203,
    "name": "Loto de la Abundancia",
    "type": "MinionLv2",
    "img": "/image/game/starrails/monster/Monster_8012201.png"
  },
  {
    "id": 8012210,
    "name": "Loto de la Destrucción",
    "type": "MinionLv2",
    "img": "/image/game/starrails/monster/Monster_8012210.png"
  },
  {
    "id": 8012211,
    "name": "Loto de la Destrucción",
    "type": "MinionLv2",
    "img": "/image/game/starrails/monster/Monster_8012211.png"
  },
  {
    "id": 8012212,
    "name": "Loto de la Destrucción",
    "type": "MinionLv2",
    "img": "/image/game/starrails/monster/Monster_8012210.png"
  },
  {
    "id": 8012213,
    "name": "Loto de la Destrucción",
    "type": "MinionLv2",
    "img": "/image/game/starrails/monster/Monster_8012211.png"
  },
  {
    "id": 8022010,
    "name": "Insecto Aguijoneador Inmaduro",
    "type": "MinionLv2",
    "img": "/image/game/starrails/monster/Monster_8022010.png"
  },
  {
    "id": 8022020,
    "name": "Insecto Aguijoneador Menor",
    "type": "MinionLv2",
    "img": "/image/game/starrails/monster/Monster_8022020.png"
  },
  {
    "id": 8024010,
    "name": "Gran Insecto Aguijoneador del Enjambre (intacto)",
    "type": "LittleBoss",
    "img": "/image/game/starrails/monster/Monster_8024010.png"
  },
  {
    "id": 8032010,
    "name": "Personal subalterno: Trabajador",
    "type": "MinionLv2",
    "img": "/image/game/starrails/monster/Monster_8032010.png"
  },
  {
    "id": 8032020,
    "name": "Personal subalterno: Vigilante de seguridad",
    "type": "MinionLv2",
    "img": "/image/game/starrails/monster/Monster_8032020.png"
  },
  {
    "id": 8033010,
    "name": "Personal veterano: Jefe de equipo",
    "type": "Elite",
    "img": "/image/game/starrails/monster/Monster_8033010.png"
  },
  {
    "id": 8003050,
    "name": "Creavendavales",
    "type": "Elite",
    "img": "/image/game/starrails/monster/Monster_8003050.png"
  },
  {
    "id": 8003051,
    "name": "Creavendavales (error)",
    "type": "Elite",
    "img": "/image/game/starrails/monster/Monster_8003050.png"
  },
  {
    "id": 2023030,
    "name": "La Elevada",
    "type": "Elite",
    "img": "/image/game/starrails/monster/Monster_2023030.png"
  },
  {
    "id": 8015010,
    "name": "Bestia del Juicio Final",
    "type": "BigBoss",
    "img": "/image/game/starrails/monster/Monster_8015010.png"
  },
  {
    "id": 8012140,
    "name": "Mano Derecha del Cataclismo",
    "type": "MinionLv2",
    "img": "/image/game/starrails/monster/Monster_8012140.png"
  },
  {
    "id": 8013141,
    "name": "Motor Antimateria",
    "type": "Elite",
    "img": "/image/game/starrails/monster/Monster_8012141.png"
  },
  {
    "id": 8012142,
    "name": "Mano Izquierda de la Aurora",
    "type": "MinionLv2",
    "img": "/image/game/starrails/monster/Monster_8012142.png"
  },
  {
    "id": 8015011,
    "name": "Bestia del Juicio Final",
    "type": "BigBoss",
    "img": "/image/game/starrails/monster/Monster_8015010.png"
  },
  {
    "id": 8012143,
    "name": "Mano Derecha del Cataclismo",
    "type": "MinionLv2",
    "img": "/image/game/starrails/monster/Monster_8012140.png"
  },
  {
    "id": 8013144,
    "name": "Motor Antimateria",
    "type": "Elite",
    "img": "/image/game/starrails/monster/Monster_8012141.png"
  },
  {
    "id": 8012145,
    "name": "Mano Izquierda de la Aurora",
    "type": "MinionLv2",
    "img": "/image/game/starrails/monster/Monster_8012142.png"
  },
  {
    "id": 2022040,
    "name": "Espíritu de la Abundancia: Cánido Dorado",
    "type": "MinionLv2",
    "img": "/image/game/starrails/monster/Monster_2022040.png"
  },
  {
    "id": 2022050,
    "name": "Espíritu de la Abundancia: Lupo Silvano",
    "type": "MinionLv2",
    "img": "/image/game/starrails/monster/Monster_2022050.png"
  },
  {
    "id": 2022051,
    "name": "Lobohiena Sombría",
    "type": "MinionLv2",
    "img": "/image/game/starrails/monster/Monster_2022051.png"
  },
  {
    "id": 2022060,
    "name": "Discípulo de Sanctus Medicus: Ballistarius",
    "type": "MinionLv2",
    "img": "/image/game/starrails/monster/Monster_2022060.png"
  },
  {
    "id": 2023020,
    "name": "Espíritu de la Abundancia: Simio Desgarbado",
    "type": "Elite",
    "img": "/image/game/starrails/monster/Monster_2023020.png"
  },
  {
    "id": 8002041,
    "name": "N/A",
    "type": "MinionLv2",
    "img": "/image/game/starrails/monster/Monster_8002040.png"
  },
  {
    "id": 3001010,
    "name": "Crupier de la Compañía Teatral de Terrores",
    "type": "Minion",
    "img": "/image/game/starrails/monster/Monster_3001010.png"
  },
  {
    "id": 3001020,
    "name": "Máscara Bailarina de la Compañía Teatral de Terrores",
    "type": "Minion",
    "img": "/image/game/starrails/monster/Monster_3001020.png"
  },
  {
    "id": 2013011,
    "name": "Guarda Aurúmata (error)",
    "type": "Elite",
    "img": "/image/game/starrails/monster/Monster_2013010.png"
  },
  {
    "id": 2023011,
    "name": "Discípulo de Sanctus Medicus: Cambiaformas (error)",
    "type": "Elite",
    "img": "/image/game/starrails/monster/Monster_2023010.png"
  },
  {
    "id": 8002054,
    "name": "Chanchito Secuencial",
    "type": "MinionLv2",
    "img": "/image/game/starrails/monster/Monster_8002050.png"
  },
  {
    "id": 8002061,
    "name": "Chanchito de la Destrucción",
    "type": "MinionLv2",
    "img": "/image/game/starrails/monster/Monster_8002050.png"
  },
  {
    "id": 8002071,
    "name": "Chanchito de la Abundancia",
    "type": "MinionLv2",
    "img": "/image/game/starrails/monster/Monster_8002050.png"
  },
  {
    "id": 8002082,
    "name": "Chanchito de la Conservación",
    "type": "MinionLv2",
    "img": "/image/game/starrails/monster/Monster_8002050.png"
  },
  {
    "id": 8002055,
    "name": "Chanchito Mayor",
    "type": "MinionLv2",
    "img": "/image/game/starrails/monster/Monster_8002050.png"
  },
  {
    "id": 8002056,
    "name": "Chanchito Mediano",
    "type": "MinionLv2",
    "img": "/image/game/starrails/monster/Monster_8002050.png"
  },
  {
    "id": 8002057,
    "name": "Chanchito Menor",
    "type": "MinionLv2",
    "img": "/image/game/starrails/monster/Monster_8002050.png"
  },
  {
    "id": 3002089,
    "name": "N/A",
    "type": "MinionLv2",
    "img": "/image/game/starrails/monster/Monster_2022040.png"
  },
  {
    "id": 8002091,
    "name": "Chanchito Secuencial",
    "type": "MinionLv2",
    "img": "/image/game/starrails/monster/Monster_8002050.png"
  },
  {
    "id": 8003052,
    "name": "Creavendavales",
    "type": "Elite",
    "img": "/image/game/starrails/monster/Monster_8003050.png"
  },
  {
    "id": 8013013,
    "name": "Aplastador del Vacío",
    "type": "Elite",
    "img": "/image/game/starrails/monster/Monster_8013010.png"
  },
  {
    "id": 3002030,
    "name": "Cánido Burbujeante de la Compañía Teatral de Terrores",
    "type": "MinionLv2",
    "img": "/image/game/starrails/monster/Monster_3002030.png"
  },
  {
    "id": 8002058,
    "name": "Chanchito Secuencial",
    "type": "MinionLv2",
    "img": "/image/game/starrails/monster/Monster_8002050.png"
  },
  {
    "id": 8002059,
    "name": "Chanchito Secuencial (raro)",
    "type": "MinionLv2",
    "img": "/image/game/starrails/monster/Monster_8002050.png"
  },
  {
    "id": 8002100,
    "name": "Chanchito Mayor",
    "type": "MinionLv2",
    "img": "/image/game/starrails/monster/Monster_8002050.png"
  },
  {
    "id": 8002101,
    "name": "Chanchito Mediano",
    "type": "MinionLv2",
    "img": "/image/game/starrails/monster/Monster_8002050.png"
  },
  {
    "id": 8002102,
    "name": "Chanchito Menor",
    "type": "MinionLv2",
    "img": "/image/game/starrails/monster/Monster_8002050.png"
  },
  {
    "id": 3024010,
    "name": "Argenti",
    "type": "LittleBoss",
    "img": "/image/game/starrails/monster/Monster_3024010.png"
  },
  {
    "id": 2023021,
    "name": "Espíritu de la Abundancia: Simio Desgarbado (error)",
    "type": "Elite",
    "img": "/image/game/starrails/monster/Monster_2023020.png"
  },
  {
    "id": 2023031,
    "name": "La Elevada (error)",
    "type": "Elite",
    "img": "/image/game/starrails/monster/Monster_2023030.png"
  },
  {
    "id": 8003042,
    "name": "Sombra de la Podredumbre",
    "type": "Elite",
    "img": "/image/game/starrails/monster/Monster_8003040.png"
  },
  {
    "id": 2002031,
    "name": "Oficial Espectral",
    "type": "MinionLv2",
    "img": "/image/game/starrails/monster/Monster_2002030.png"
  },
  {
    "id": 8024011,
    "name": "Gran Insecto Aguijoneador del Enjambre",
    "type": "LittleBoss",
    "img": "/image/game/starrails/monster/Monster_8024010.png"
  },
  {
    "id": 3012030,
    "name": "Tumba del Sueño Eterno",
    "type": "MinionLv2",
    "img": "/image/game/starrails/monster/Monster_3012030.png"
  },
  {
    "id": 3021020,
    "name": "La Distinguida",
    "type": "Minion",
    "img": "/image/game/starrails/monster/Monster_3021020.png"
  },
  {
    "id": 3021030,
    "name": "Punta de Lanza",
    "type": "Minion",
    "img": "/image/game/starrails/monster/Monster_3021030.png"
  },
  {
    "id": 3021040,
    "name": "El Escudo",
    "type": "Minion",
    "img": "/image/game/starrails/monster/Monster_3021040.png"
  },
  {
    "id": 3002010,
    "name": "Sr. Pantallarredonda de la Compañía Teatral de Terrores",
    "type": "MinionLv2",
    "img": "/image/game/starrails/monster/Monster_3002010.png"
  },
  {
    "id": 8022030,
    "name": "Insecto Aguijoneador Corrosivo",
    "type": "MinionLv2",
    "img": "/image/game/starrails/monster/Monster_8022030.png"
  },
  {
    "id": 8025010,
    "name": "Rey del Enjambre Trituraestrellas: Skaracabaz (simulación)",
    "type": "BigBoss",
    "img": "/image/game/starrails/monster/Monster_8025010.png"
  },
  {
    "id": 2024012,
    "name": "Cérvido Azabache de la Abundancia (intacto)",
    "type": "LittleBoss",
    "img": "/image/game/starrails/monster/Monster_2024010.png"
  },
  {
    "id": 3014020,
    "name": "Meme de la Zona de los Recuerdos: Algo Hacia la Muerte",
    "type": "LittleBoss",
    "img": "/image/game/starrails/monster/Monster_3014020.png"
  },
  {
    "id": 1002021,
    "name": "Vagabundo",
    "type": "MinionLv2",
    "img": "/image/game/starrails/monster/Monster_1002020.png"
  },
  {
    "id": 2013021,
    "name": "Enviada Fantasmal Aurúmata (error)",
    "type": "Elite",
    "img": "/image/game/starrails/monster/Monster_2013020.png"
  },
  {
    "id": 8033011,
    "name": "Personal veterano: Jefe de equipo (error)",
    "type": "Elite",
    "img": "/image/game/starrails/monster/Monster_8033010.png"
  },
  {
    "id": 2013012,
    "name": "Guarda Aurúmata",
    "type": "Elite",
    "img": "/image/game/starrails/monster/Monster_2013010.png"
  },
  {
    "id": 2024020,
    "name": "Cirrus",
    "type": "LittleBoss",
    "img": "/image/game/starrails/monster/Monster_2024020.png"
  },
  {
    "id": 3003020,
    "name": "Gorila Dulce de la Compañía Teatral de Terrores",
    "type": "Elite",
    "img": "/image/game/starrails/monster/Monster_3003020.png"
  },
  {
    "id": 8034010,
    "name": "Diez Corazones de Piedra | Aventurino de las Estratagemas",
    "type": "LittleBoss",
    "img": "/image/game/starrails/monster/Monster_8034010.png"
  },
  {
    "id": 8032030,
    "name": "Todo o Nada",
    "type": "MinionLv2",
    "img": "/image/game/starrails/monster/Monster_8032030.png"
  },
  {
    "id": 2002032,
    "name": "Oficial Espectral",
    "type": "MinionLv2",
    "img": "/image/game/starrails/monster/Monster_2002030.png"
  },
  {
    "id": 3003010,
    "name": "Achicharrado de la Compañía Teatral de Terrores",
    "type": "Elite",
    "img": "/image/game/starrails/monster/Monster_3003010.png"
  },
  {
    "id": 3012020,
    "name": "Meme de la Zona de los Recuerdos: Rompecorazones",
    "type": "MinionLv2",
    "img": "/image/game/starrails/monster/Monster_3012020.png"
  },
  {
    "id": 3002040,
    "name": "Rufián del Tiempo de la Compañía Teatral de Terrores",
    "type": "MinionLv2",
    "img": "/image/game/starrails/monster/Monster_3002040.png"
  },
  {
    "id": 3024020,
    "name": "Cazadores de Estelaron | Sam",
    "type": "LittleBoss",
    "img": "/image/game/starrails/monster/Monster_3024020.png"
  },
  {
    "id": 3021021,
    "name": "La Distinguida",
    "type": "Minion",
    "img": "/image/game/starrails/monster/Monster_3021020.png"
  },
  {
    "id": 3021031,
    "name": "Punta de Lanza",
    "type": "Minion",
    "img": "/image/game/starrails/monster/Monster_3021030.png"
  },
  {
    "id": 3021041,
    "name": "El Escudo",
    "type": "Minion",
    "img": "/image/game/starrails/monster/Monster_3021040.png"
  },
  {
    "id": 3024011,
    "name": "Argenti (intacto)",
    "type": "LittleBoss",
    "img": "/image/game/starrails/monster/Monster_3024010.png"
  },
  {
    "id": 3002050,
    "name": "Cubo de basura señorial",
    "type": "MinionLv2",
    "img": "/image/game/starrails/monster/Monster_3002050.png"
  },
  {
    "id": 1013014,
    "name": "Oso Autómata (intacto)",
    "type": "Elite",
    "img": "/image/game/starrails/monster/Monster_1013010.png"
  },
  {
    "id": 1013024,
    "name": "Huargo Autómata (intacto)",
    "type": "Elite",
    "img": "/image/game/starrails/monster/Monster_1013020.png"
  },
  {
    "id": 8024012,
    "name": "Gran Insecto Aguijoneador del Enjambre (intacto)",
    "type": "LittleBoss",
    "img": "/image/game/starrails/monster/Monster_8024010.png"
  },
  {
    "id": 1004013,
    "name": "Cocolia (ilusión)",
    "type": "LittleBoss",
    "img": "/image/game/starrails/monster/Monster_1004010.png"
  },
  {
    "id": 1005013,
    "name": "Cocolia, Madre de Falsedades (ilusión)",
    "type": "BigBoss",
    "img": "/image/game/starrails/monster/Monster_1005010.png"
  },
  {
    "id": 2004013,
    "name": "Cazadores de Estelaron: Kafka (ilusión)",
    "type": "LittleBoss",
    "img": "/image/game/starrails/monster/Monster_2004010.png"
  },
  {
    "id": 2004023,
    "name": "Teniente de los Nimbocaballeros: Yanqing (ilusión)",
    "type": "LittleBoss",
    "img": "/image/game/starrails/monster/Monster_2004020.png"
  },
  {
    "id": 2024013,
    "name": "Cérvido Azabache de la Abundancia (ilusión)",
    "type": "LittleBoss",
    "img": "/image/game/starrails/monster/Monster_2024010.png"
  },
  {
    "id": 3025010,
    "name": "El Gran Septimus, \"Coro Armonioso\"",
    "type": "BigBoss",
    "img": "/image/game/starrails/monster/Monster_3025010.png"
  },
  {
    "id": 3025011,
    "name": "El Gran Septimus, \"Coro Armonioso\"",
    "type": "BigBoss",
    "img": "/image/game/starrails/monster/Monster_3025010.png"
  },
  {
    "id": 3022010,
    "name": "Eco de Sueños Pasados",
    "type": "MinionLv2",
    "img": "/image/game/starrails/monster/Monster_3022010.png"
  },
  {
    "id": 1004032,
    "name": "Bronya (ilusión)",
    "type": "LittleBoss",
    "img": "/image/game/starrails/monster/Monster_1004030.png"
  },
  {
    "id": 3012010,
    "name": "Meme de la Zona de los Recuerdos: Algo en el Espejo",
    "type": "MinionLv2",
    "img": "/image/game/starrails/monster/Monster_3012010.png"
  },
  {
    "id": 3024012,
    "name": "Argenti",
    "type": "LittleBoss",
    "img": "/image/game/starrails/monster/Monster_3024010.png"
  },
  {
    "id": 3011010,
    "name": "Meme de la Zona de los Recuerdos: Omnividente",
    "type": "Minion",
    "img": "/image/game/starrails/monster/Monster_3011010.png"
  },
  {
    "id": 8033012,
    "name": "Personal veterano: Jefe de equipo",
    "type": "Elite",
    "img": "/image/game/starrails/monster/Monster_8033010.png"
  },
  {
    "id": 3003030,
    "name": "Pasado enjaulado",
    "type": "Elite",
    "img": "/image/game/starrails/monster/Monster_3003030.png"
  },
  {
    "id": 3003040,
    "name": "Futuro unisonante",
    "type": "Elite",
    "img": "/image/game/starrails/monster/Monster_3003040.png"
  },
  {
    "id": 3003050,
    "name": "Presente festejador",
    "type": "Elite",
    "img": "/image/game/starrails/monster/Monster_3003050.png"
  },
  {
    "id": 3002020,
    "name": "Vendefortunas de la Compañía Teatral de Terrores",
    "type": "MinionLv2",
    "img": "/image/game/starrails/monster/Monster_3002020.png"
  },
  {
    "id": 3012031,
    "name": "Tumba del Sueño Eterno",
    "type": "MinionLv2",
    "img": "/image/game/starrails/monster/Monster_3012030.png"
  },
  {
    "id": 3012040,
    "name": "Meme de la Zona de los Recuerdos: Vanidad insaciable",
    "type": "MinionLv2",
    "img": "/image/game/starrails/monster/Monster_3012040.png"
  },
  {
    "id": 3003011,
    "name": "Achicharrado de la Compañía Teatral de Terrores (proyección)",
    "type": "Elite",
    "img": "/image/game/starrails/monster/Monster_3003010.png"
  },
  {
    "id": 3003021,
    "name": "Gorila Dulce de la Compañía Teatral de Terrores (proyección)",
    "type": "Elite",
    "img": "/image/game/starrails/monster/Monster_3003020.png"
  },
  {
    "id": 3024021,
    "name": "Cazadores de Estelaron | Sam",
    "type": "LittleBoss",
    "img": "/image/game/starrails/monster/Monster_3024020.png"
  },
  {
    "id": 2024014,
    "name": "Cérvido Azabache de la Abundancia",
    "type": "LittleBoss",
    "img": "/image/game/starrails/monster/Monster_2024010.png"
  },
  {
    "id": 3002051,
    "name": "Cubo de basura señorial (proyección)",
    "type": "MinionLv2",
    "img": "/image/game/starrails/monster/Monster_3002050.png"
  },
  {
    "id": 3014021,
    "name": "Meme de la Zona de los Recuerdos: Algo Hacia la Muerte (proyección)",
    "type": "LittleBoss",
    "img": "/image/game/starrails/monster/Monster_3014020.png"
  },
  {
    "id": 3013010,
    "name": "Meme de la Zona de los Recuerdos: Coraza de Furia Desvaída",
    "type": "Elite",
    "img": "/image/game/starrails/monster/Monster_3013010.png"
  },
  {
    "id": 1014013,
    "name": "Svarog",
    "type": "LittleBoss",
    "img": "/image/game/starrails/monster/Monster_1014010.png"
  },
  {
    "id": 3003031,
    "name": "Pasado enjaulado",
    "type": "Elite",
    "img": "/image/game/starrails/monster/Monster_3003030.png"
  },
  {
    "id": 3003041,
    "name": "Futuro unisonante",
    "type": "Elite",
    "img": "/image/game/starrails/monster/Monster_3003040.png"
  },
  {
    "id": 3003051,
    "name": "Presente festejador",
    "type": "Elite",
    "img": "/image/game/starrails/monster/Monster_3003050.png"
  },
  {
    "id": 2033010,
    "name": "Ataúd Aullante",
    "type": "Elite",
    "img": "/image/game/starrails/monster/Monster_2033010.png"
  },
  {
    "id": 3003032,
    "name": "Pasado enjaulado (error)",
    "type": "Elite",
    "img": "/image/game/starrails/monster/Monster_3003030.png"
  },
  {
    "id": 2032010,
    "name": "Soldado Lobo Garranegra",
    "type": "MinionLv2",
    "img": "/image/game/starrails/monster/Monster_2032010.png"
  },
  {
    "id": 2034010,
    "name": "Señor de la Guerra Borisin: Hoolay",
    "type": "LittleBoss",
    "img": "/image/game/starrails/monster/Monster_2034010.png"
  },
  {
    "id": 3024013,
    "name": "Caballero Argénteo de la Virtuosa Gallardía",
    "type": "LittleBoss",
    "img": "/image/game/starrails/monster/Monster_3024010.png"
  },
  {
    "id": 3014022,
    "name": "Meme de la Zona de los Recuerdos: Algo Hacia la Muerte (intacto)",
    "type": "LittleBoss",
    "img": "/image/game/starrails/monster/Monster_3014020.png"
  },
  {
    "id": 3003012,
    "name": "Achicharrado de la Compañía Teatral de Terrores (error)",
    "type": "Elite",
    "img": "/image/game/starrails/monster/Monster_3003010.png"
  },
  {
    "id": 3003022,
    "name": "Gorila Dulce de la Compañía Teatral de Terrores (error)",
    "type": "Elite",
    "img": "/image/game/starrails/monster/Monster_3003020.png"
  },
  {
    "id": 3021022,
    "name": "La Distinguida",
    "type": "Minion",
    "img": "/image/game/starrails/monster/Monster_3021020.png"
  },
  {
    "id": 3021032,
    "name": "Punta de Lanza",
    "type": "Minion",
    "img": "/image/game/starrails/monster/Monster_3021030.png"
  },
  {
    "id": 3021042,
    "name": "Escudo",
    "type": "Minion",
    "img": "/image/game/starrails/monster/Monster_3021040.png"
  },
  {
    "id": 3013011,
    "name": "Meme de la Zona de los Recuerdos: Coraza de Furia Desvaída",
    "type": "Elite",
    "img": "/image/game/starrails/monster/Monster_3013010.png"
  },
  {
    "id": 2032020,
    "name": "Soldado Lobo Devoralunas",
    "type": "MinionLv2",
    "img": "/image/game/starrails/monster/Monster_2032020.png"
  },
  {
    "id": 3025012,
    "name": "El Gran Septimus, \"Coro Armonioso\"",
    "type": "BigBoss",
    "img": "/image/game/starrails/monster/Monster_3025010.png"
  },
  {
    "id": 3003052,
    "name": "Presente festejador (error)",
    "type": "Elite",
    "img": "/image/game/starrails/monster/Monster_3003050.png"
  },
  {
    "id": 3003042,
    "name": "Futuro unisonante (error)",
    "type": "Elite",
    "img": "/image/game/starrails/monster/Monster_3003040.png"
  },
  {
    "id": 3004010,
    "name": "Repertorio pasado, presente y eterno",
    "type": "LittleBoss",
    "img": "/image/game/starrails/monster/Monster_3004010.png"
  },
  {
    "id": 3004011,
    "name": "Repertorio pasado, presente y eterno (intacto)",
    "type": "LittleBoss",
    "img": "/image/game/starrails/monster/Monster_3004010.png"
  },
  {
    "id": 8032031,
    "name": "Todo o Nada",
    "type": "MinionLv2",
    "img": "/image/game/starrails/monster/Monster_8032030.png"
  },
  {
    "id": 8034011,
    "name": "Diez Corazones de Piedra | Aventurino de las Estratagemas (intacto)",
    "type": "LittleBoss",
    "img": "/image/game/starrails/monster/Monster_8034010.png"
  },
  {
    "id": 3003033,
    "name": "Pasado enjaulado (intacto)",
    "type": "Elite",
    "img": "/image/game/starrails/monster/Monster_3003030.png"
  },
  {
    "id": 3003043,
    "name": "Futuro unisonante (intacto)",
    "type": "Elite",
    "img": "/image/game/starrails/monster/Monster_3003040.png"
  },
  {
    "id": 3003053,
    "name": "Presente festejador (intacto)",
    "type": "Elite",
    "img": "/image/game/starrails/monster/Monster_3003050.png"
  },
  {
    "id": 3002052,
    "name": "Cubo de basura señorial",
    "type": "MinionLv2",
    "img": "/image/game/starrails/monster/Monster_3002052.png"
  },
  {
    "id": 1004014,
    "name": "Aniquiladora del Mistral Desolador",
    "type": "LittleBoss",
    "img": "/image/game/starrails/monster/Monster_1004010.png"
  },
  {
    "id": 1005014,
    "name": "Aniquiladora del Mistral Desolador: Madre de Falsedades",
    "type": "BigBoss",
    "img": "/image/game/starrails/monster/Monster_1005010.png"
  },
  {
    "id": 3024022,
    "name": "Cazadores de Estelaron | Sam",
    "type": "LittleBoss",
    "img": "/image/game/starrails/monster/Monster_3024020.png"
  },
  {
    "id": 3024023,
    "name": "Cazadores de Estelaron | Sam (intacto)",
    "type": "LittleBoss",
    "img": "/image/game/starrails/monster/Monster_3024020.png"
  },
  {
    "id": 3002011,
    "name": "Bananadjunto de la Oficina Platanoacadémica",
    "type": "MinionLv2",
    "img": "/image/game/starrails/monster/Monster_3002011.png"
  },
  {
    "id": 3002021,
    "name": "Maestro Plátano de Fortuna de la Oficina Platanoacadémica",
    "type": "MinionLv2",
    "img": "/image/game/starrails/monster/Monster_3002021.png"
  },
  {
    "id": 3002041,
    "name": "Maestro Plátano de Soñadores de la Oficina Platanoacadémica",
    "type": "MinionLv2",
    "img": "/image/game/starrails/monster/Monster_3002041.png"
  },
  {
    "id": 3003013,
    "name": "Maestro Plátano de Carismonía de la Oficina Platanoacadémica",
    "type": "Elite",
    "img": "/image/game/starrails/monster/Monster_3003013.png"
  },
  {
    "id": 3004020,
    "name": "Personal Platanoacadémico del Veleibosque",
    "type": "LittleBoss",
    "img": "/image/game/starrails/monster/Monster_3004020.png"
  },
  {
    "id": 2004014,
    "name": "Señor de Espíritus",
    "type": "LittleBoss",
    "img": "/image/game/starrails/monster/Monster_2004010.png"
  },
  {
    "id": 3014023,
    "name": "Meme de la Zona de los Recuerdos: Algo Hacia la Muerte",
    "type": "LittleBoss",
    "img": "/image/game/starrails/monster/Monster_3014020.png"
  },
  {
    "id": 4012010,
    "name": "Guerrero de la Furia",
    "type": "MinionLv2",
    "img": "/image/game/starrails/monster/Monster_4012010.png"
  },
  {
    "id": 3014024,
    "name": "Meme de la Zona de los Recuerdos: Algo Hacia la Muerte",
    "type": "LittleBoss",
    "img": "/image/game/starrails/monster/Monster_3014020.png"
  },
  {
    "id": 8032032,
    "name": "Todo o Nada",
    "type": "MinionLv2",
    "img": "/image/game/starrails/monster/Monster_8032030.png"
  },
  {
    "id": 1002060,
    "name": "Lanza del Frío Infinito",
    "type": "MinionLv2",
    "img": "/image/game/starrails/monster/Monster_1002013.png"
  },
  {
    "id": 1002061,
    "name": "Lanza del Frío Infinito",
    "type": "MinionLv2",
    "img": "/image/game/starrails/monster/Monster_1002013.png"
  },
  {
    "id": 1002062,
    "name": "Lanza del Frío Infinito",
    "type": "MinionLv2",
    "img": "/image/game/starrails/monster/Monster_1002013.png"
  },
  {
    "id": 1002063,
    "name": "Lanza del Frío Infinito",
    "type": "MinionLv2",
    "img": "/image/game/starrails/monster/Monster_1002013.png"
  },
  {
    "id": 2024015,
    "name": "Cérvido Azabache de la Abundancia (intacto)",
    "type": "LittleBoss",
    "img": "/image/game/starrails/monster/Monster_2024010.png"
  },
  {
    "id": 4012020,
    "name": "Filósofo de la Furia",
    "type": "MinionLv2",
    "img": "/image/game/starrails/monster/Monster_4012020.png"
  },
  {
    "id": 4013010,
    "name": "Pretor de la Furia",
    "type": "Elite",
    "img": "/image/game/starrails/monster/Monster_4013010.png"
  },
  {
    "id": 2024021,
    "name": "Cirrus (intacto)",
    "type": "LittleBoss",
    "img": "/image/game/starrails/monster/Monster_2024020.png"
  },
  {
    "id": 3003014,
    "name": "Achicharrado de la Compañía Teatral de Terrores",
    "type": "Elite",
    "img": "/image/game/starrails/monster/Monster_3003010.png"
  },
  {
    "id": 3013012,
    "name": "Meme de la Zona de los Recuerdos: Coraza de Furia Desvaída",
    "type": "Elite",
    "img": "/image/game/starrails/monster/Monster_3013010.png"
  },
  {
    "id": 8003012,
    "name": "Hielo del Espacio Exterior",
    "type": "Elite",
    "img": "/image/game/starrails/monster/Monster_8003010.png"
  },
  {
    "id": 8003022,
    "name": "Fuego del Espacio Exterior",
    "type": "Elite",
    "img": "/image/game/starrails/monster/Monster_8003020.png"
  },
  {
    "id": 8015022,
    "name": "Provocador Oportunista",
    "type": "BigBoss",
    "img": "/image/game/starrails/monster/Monster_8015020.png"
  },
  {
    "id": 2005010,
    "name": "Feixiao Enloquecida",
    "type": "BigBoss",
    "img": "/image/game/starrails/monster/Monster_2035010.png"
  },
  {
    "id": 2035010,
    "name": "Sombra de \"Feixiao\"",
    "type": "BigBoss",
    "img": "/image/game/starrails/monster/Monster_2035010.png"
  },
  {
    "id": 2035011,
    "name": "Sombra de \"Feixiao\"",
    "type": "BigBoss",
    "img": "/image/game/starrails/monster/Monster_2035010.png"
  },
  {
    "id": 2004020,
    "name": "Teniente de los Nimbocaballeros - Yanqing",
    "type": "LittleBoss",
    "img": "/image/game/starrails/monster/Monster_2004020.png"
  },
  {
    "id": 2004021,
    "name": "Teniente de los Nimbocaballeros - Yanqing (intacto)",
    "type": "LittleBoss",
    "img": "/image/game/starrails/monster/Monster_2004020.png"
  },
  {
    "id": 2004022,
    "name": "Teniente de los Nimbocaballeros - Yanqing (intacto)",
    "type": "LittleBoss",
    "img": "/image/game/starrails/monster/Monster_2004020.png"
  },
  {
    "id": 2004024,
    "name": "Teniente de los Nimbocaballeros - Yanqing",
    "type": "LittleBoss",
    "img": "/image/game/starrails/monster/Monster_2004020.png"
  },
  {
    "id": 8012204,
    "name": "Loto de la Abundancia",
    "type": "MinionLv2",
    "img": "/image/game/starrails/monster/Monster_8012200.png"
  },
  {
    "id": 8012205,
    "name": "Loto de la Abundancia",
    "type": "MinionLv2",
    "img": "/image/game/starrails/monster/Monster_8012201.png"
  },
  {
    "id": 8012214,
    "name": "Loto de la Destrucción",
    "type": "MinionLv2",
    "img": "/image/game/starrails/monster/Monster_8012210.png"
  },
  {
    "id": 8012215,
    "name": "Loto de la Destrucción",
    "type": "MinionLv2",
    "img": "/image/game/starrails/monster/Monster_8012211.png"
  },
  {
    "id": 1004015,
    "name": "Cocolia",
    "type": "LittleBoss",
    "img": "/image/game/starrails/monster/Monster_1004010.png"
  },
  {
    "id": 2034011,
    "name": "Señor de la Guerra Borisin: Hoolay",
    "type": "LittleBoss",
    "img": "/image/game/starrails/monster/Monster_2034010.png"
  },
  {
    "id": 2032040,
    "name": "Cabeza Devoradora de Nebulosas",
    "type": "MinionLv2",
    "img": "/image/game/starrails/monster/Monster_2032040.png"
  },
  {
    "id": 2032041,
    "name": "Cabeza Devoradora de Nebulosas",
    "type": "MinionLv2",
    "img": "/image/game/starrails/monster/Monster_2032040.png"
  },
  {
    "id": 2032050,
    "name": "Garra Desgarradora de Planos",
    "type": "MinionLv2",
    "img": "/image/game/starrails/monster/Monster_2032050.png"
  },
  {
    "id": 2032051,
    "name": "Garra Desgarradora de Planos",
    "type": "MinionLv2",
    "img": "/image/game/starrails/monster/Monster_2032050.png"
  },
  {
    "id": 2032060,
    "name": "Cola Purgadora de Mundos",
    "type": "MinionLv2",
    "img": "/image/game/starrails/monster/Monster_2032060.png"
  },
  {
    "id": 2032061,
    "name": "Cola Purgadora de Mundos",
    "type": "MinionLv2",
    "img": "/image/game/starrails/monster/Monster_2032060.png"
  },
  {
    "id": 4012030,
    "name": "Arquera de la Furia",
    "type": "MinionLv2",
    "img": "/image/game/starrails/monster/Monster_4012030.png"
  },
  {
    "id": 4012040,
    "name": "Coro de la Furia",
    "type": "MinionLv2",
    "img": "/image/game/starrails/monster/Monster_4012040.png"
  },
  {
    "id": 8033013,
    "name": "Personal veterano: Jefe de equipo",
    "type": "Elite",
    "img": "/image/game/starrails/monster/Monster_8033010.png"
  },
  {
    "id": 3002053,
    "name": "Cubo de basura señorial (proyección)",
    "type": "MinionLv2",
    "img": "/image/game/starrails/monster/Monster_3002050.png"
  },
  {
    "id": 1014014,
    "name": "Svarog",
    "type": "LittleBoss",
    "img": "/image/game/starrails/monster/Monster_1014010.png"
  },
  {
    "id": 8032033,
    "name": "Todo o Nada",
    "type": "MinionLv2",
    "img": "/image/game/starrails/monster/Monster_8032030.png"
  },
  {
    "id": 8034012,
    "name": "Lanzador de Dados Audaz",
    "type": "LittleBoss",
    "img": "/image/game/starrails/monster/Monster_8034010.png"
  },
  {
    "id": 3022011,
    "name": "Eco de Sueños Pasados",
    "type": "MinionLv2",
    "img": "/image/game/starrails/monster/Monster_3022010.png"
  },
  {
    "id": 3025013,
    "name": "Director Cacofónico",
    "type": "BigBoss",
    "img": "/image/game/starrails/monster/Monster_3025010.png"
  },
  {
    "id": 3012032,
    "name": "Tumba del Sueño Eterno",
    "type": "MinionLv2",
    "img": "/image/game/starrails/monster/Monster_3012030.png"
  },
  {
    "id": 1002064,
    "name": "Lanza del Frío Infinito",
    "type": "MinionLv2",
    "img": "/image/game/starrails/monster/Monster_1002013.png"
  },
  {
    "id": 1023022,
    "name": "Merodeador Glacial",
    "type": "Elite",
    "img": "/image/game/starrails/monster/Monster_1023020.png"
  },
  {
    "id": 8032034,
    "name": "Todo o Nada: Doble Fortuna",
    "type": "MinionLv2",
    "img": "/image/game/starrails/monster/Monster_8032034.png"
  },
  {
    "id": 3024014,
    "name": "Argenti",
    "type": "LittleBoss",
    "img": "/image/game/starrails/monster/Monster_3024010.png"
  },
  {
    "id": 3014025,
    "name": "Meme de la Zona de los Recuerdos: Algo Hacia la Muerte",
    "type": "LittleBoss",
    "img": "/image/game/starrails/monster/Monster_3014020.png"
  },
  {
    "id": 1014015,
    "name": "Svarog",
    "type": "LittleBoss",
    "img": "/image/game/starrails/monster/Monster_1014010.png"
  },
  {
    "id": 2032021,
    "name": "Soldado Lobo Devoralunas",
    "type": "MinionLv2",
    "img": "/image/game/starrails/monster/Monster_2032020.png"
  },
  {
    "id": 2033020,
    "name": "Bestia del Corazón Devoralunas y Sombra de \"Feixiao\"",
    "type": "Elite",
    "img": "/image/game/starrails/monster/Monster_2033020.png"
  },
  {
    "id": 2033021,
    "name": "Bestia del Corazón Devoralunas y Sombra de \"Feixiao\"",
    "type": "Elite",
    "img": "/image/game/starrails/monster/Monster_2033020.png"
  },
  {
    "id": 4012050,
    "name": "Bartholos, el espirizuelo",
    "type": "MinionLv2",
    "img": "/image/game/starrails/monster/Monster_4012050.png"
  },
  {
    "id": 2034012,
    "name": "Señor de la Guerra Borisin: Hoolay (intacto)",
    "type": "LittleBoss",
    "img": "/image/game/starrails/monster/Monster_2034010.png"
  },
  {
    "id": 3025014,
    "name": "El Gran Septimus, \"Coro Armonioso\"",
    "type": "BigBoss",
    "img": "/image/game/starrails/monster/Monster_3025010.png"
  },
  {
    "id": 2034013,
    "name": "Señor de la Guerra Borisin: Hoolay",
    "type": "LittleBoss",
    "img": "/image/game/starrails/monster/Monster_2034010.png"
  },
  {
    "id": 4014010,
    "name": "Dios Bárbaro, Rey Loco: Encarnación del Conflicto",
    "type": "LittleBoss",
    "img": "/image/game/starrails/monster/Monster_4014010.png"
  },
  {
    "id": 4014020,
    "name": "Otorgador, Capitán de Legiones: Lanza de la Furia",
    "type": "LittleBoss",
    "img": "/image/game/starrails/monster/Monster_4014020.png"
  },
  {
    "id": 2004025,
    "name": "Teniente de los Nimbocaballeros - Yanqing",
    "type": "LittleBoss",
    "img": "/image/game/starrails/monster/Monster_2004020.png"
  },
  {
    "id": 4012060,
    "name": "Conquistar o Ser Conquistado",
    "type": "MinionLv2",
    "img": "/image/game/starrails/monster/Monster_4012060.png"
  },
  {
    "id": 8003060,
    "name": "Conjunto imaginario",
    "type": "Elite",
    "img": "/image/game/starrails/monster/Monster_Unknown.png"
  },
  {
    "id": 4012031,
    "name": "Arquera de la Furia",
    "type": "MinionLv2",
    "img": "/image/game/starrails/monster/Monster_4012030.png"
  },
  {
    "id": 4012051,
    "name": "Bartholos, el espirizuelo",
    "type": "MinionLv2",
    "img": "/image/game/starrails/monster/Monster_4012050.png"
  },
  {
    "id": 4043010,
    "name": "Modelo fallido de Herta",
    "type": "Elite",
    "img": "/image/game/starrails/monster/Monster_4043010.png"
  },
  {
    "id": 4012041,
    "name": "Coro de la Furia",
    "type": "MinionLv2",
    "img": "/image/game/starrails/monster/Monster_4012040.png"
  },
  {
    "id": 4014011,
    "name": "Dios Bárbaro, Rey Loco: Encarnación del Conflicto",
    "type": "LittleBoss",
    "img": "/image/game/starrails/monster/Monster_4014010.png"
  },
  {
    "id": 4013011,
    "name": "Pretor de la Furia",
    "type": "Elite",
    "img": "/image/game/starrails/monster/Monster_4013010.png"
  },
  {
    "id": 4012021,
    "name": "Filósofo de la Furia",
    "type": "MinionLv2",
    "img": "/image/game/starrails/monster/Monster_4012020.png"
  },
  {
    "id": 8022011,
    "name": "Insecto Aguijoneador Inmaduro",
    "type": "MinionLv2",
    "img": "/image/game/starrails/monster/Monster_8022010.png"
  },
  {
    "id": 8022021,
    "name": "Insecto Aguijoneador Menor",
    "type": "MinionLv2",
    "img": "/image/game/starrails/monster/Monster_8022020.png"
  },
  {
    "id": 8022031,
    "name": "Insecto Aguijoneador Corrosivo",
    "type": "MinionLv2",
    "img": "/image/game/starrails/monster/Monster_8022030.png"
  },
  {
    "id": 8025011,
    "name": "Plaga Devoraestrellas Cubrecielos",
    "type": "BigBoss",
    "img": "/image/game/starrails/monster/Monster_8025010.png"
  },
  {
    "id": 4014012,
    "name": "Dios Bárbaro, Rey Loco: Encarnación del Conflicto",
    "type": "LittleBoss",
    "img": "/image/game/starrails/monster/Monster_4014010.png"
  },
  {
    "id": 4013012,
    "name": "Pretor de la Furia",
    "type": "Elite",
    "img": "/image/game/starrails/monster/Monster_4013010.png"
  },
  {
    "id": 1004020,
    "name": "Gepard",
    "type": "LittleBoss",
    "img": "/image/game/starrails/monster/Monster_1004020.png"
  },
  {
    "id": 1004021,
    "name": "Gepard",
    "type": "LittleBoss",
    "img": "/image/game/starrails/monster/Monster_1004020.png"
  },
  {
    "id": 1004022,
    "name": "Gepard (intacto)",
    "type": "LittleBoss",
    "img": "/image/game/starrails/monster/Monster_1004020.png"
  },
  {
    "id": 1004023,
    "name": "Gepard (intacto)",
    "type": "LittleBoss",
    "img": "/image/game/starrails/monster/Monster_1004020.png"
  },
  {
    "id": 1004024,
    "name": "Gepard (ilusión)",
    "type": "LittleBoss",
    "img": "/image/game/starrails/monster/Monster_1004020.png"
  },
  {
    "id": 1004025,
    "name": "Gepard (ilusión)",
    "type": "LittleBoss",
    "img": "/image/game/starrails/monster/Monster_1004020.png"
  },
  {
    "id": 1004026,
    "name": "Gepard",
    "type": "LittleBoss",
    "img": "/image/game/starrails/monster/Monster_1004020.png"
  },
  {
    "id": 1004027,
    "name": "Gepard",
    "type": "LittleBoss",
    "img": "/image/game/starrails/monster/Monster_1004020.png"
  },
  {
    "id": 3004021,
    "name": "Truco del Fuegoplátano",
    "type": "LittleBoss",
    "img": "/image/game/starrails/monster/Monster_3004020.png"
  },
  {
    "id": 8012146,
    "name": "Mano Derecha del Cataclismo",
    "type": "MinionLv2",
    "img": "/image/game/starrails/monster/Monster_8012140.png"
  },
  {
    "id": 8012147,
    "name": "Mano Izquierda de la Aurora",
    "type": "MinionLv2",
    "img": "/image/game/starrails/monster/Monster_8012142.png"
  },
  {
    "id": 8013145,
    "name": "Motor Antimateria",
    "type": "Elite",
    "img": "/image/game/starrails/monster/Monster_8012141.png"
  },
  {
    "id": 8015012,
    "name": "Bestia de la Aniquilación Estelar",
    "type": "BigBoss",
    "img": "/image/game/starrails/monster/Monster_8015010.png"
  },
  {
    "id": 3002012,
    "name": "Bananadjunto de la Oficina Platanoacadémica",
    "type": "MinionLv2",
    "img": "/image/game/starrails/monster/Monster_3002011.png"
  },
  {
    "id": 3002022,
    "name": "Maestro Plátano de Fortuna de la Oficina Platanoacadémica",
    "type": "MinionLv2",
    "img": "/image/game/starrails/monster/Monster_3002021.png"
  },
  {
    "id": 3002042,
    "name": "Maestro Plátano de Soñadores de la Oficina Platanoacadémica",
    "type": "MinionLv2",
    "img": "/image/game/starrails/monster/Monster_3002041.png"
  },
  {
    "id": 3003015,
    "name": "Maestro Plátano de Carismonía de la Oficina Platanoacadémica",
    "type": "Elite",
    "img": "/image/game/starrails/monster/Monster_3003013.png"
  }
]