[
  {
    "id": 1001,
    "name": "Mar. 7th",
    "img": "/image/game/starrails/avatar/1001.png",
    "rank": "CombatPowerAvatarRarityType4"
  },
  {
    "id": 1002,
    "name": "단항",
    "img": "/image/game/starrails/avatar/1002.png",
    "rank": "CombatPowerAvatarRarityType4"
  },
  {
    "id": 1003,
    "name": "히메코",
    "img": "/image/game/starrails/avatar/1003.png",
    "rank": "CombatPowerAvatarRarityType5"
  },
  {
    "id": 1004,
    "name": "웰트",
    "img": "/image/game/starrails/avatar/1004.png",
    "rank": "CombatPowerAvatarRarityType5"
  },
  {
    "id": 1005,
    "name": "카프카",
    "img": "/image/game/starrails/avatar/1005.png",
    "rank": "CombatPowerAvatarRarityType5"
  },
  {
    "id": 1006,
    "name": "은랑",
    "img": "/image/game/starrails/avatar/1006.png",
    "rank": "CombatPowerAvatarRarityType5"
  },
  {
    "id": 1008,
    "name": "아를란",
    "img": "/image/game/starrails/avatar/1008.png",
    "rank": "CombatPowerAvatarRarityType4"
  },
  {
    "id": 1009,
    "name": "아스타",
    "img": "/image/game/starrails/avatar/1009.png",
    "rank": "CombatPowerAvatarRarityType4"
  },
  {
    "id": 1013,
    "name": "헤르타",
    "img": "/image/game/starrails/avatar/1013.png",
    "rank": "CombatPowerAvatarRarityType4"
  },
  {
    "id": 1101,
    "name": "브로냐",
    "img": "/image/game/starrails/avatar/1101.png",
    "rank": "CombatPowerAvatarRarityType5"
  },
  {
    "id": 1102,
    "name": "제레",
    "img": "/image/game/starrails/avatar/1102.png",
    "rank": "CombatPowerAvatarRarityType5"
  },
  {
    "id": 1103,
    "name": "서벌",
    "img": "/image/game/starrails/avatar/1103.png",
    "rank": "CombatPowerAvatarRarityType4"
  },
  {
    "id": 1104,
    "name": "게파드",
    "img": "/image/game/starrails/avatar/1104.png",
    "rank": "CombatPowerAvatarRarityType5"
  },
  {
    "id": 1105,
    "name": "나타샤",
    "img": "/image/game/starrails/avatar/1105.png",
    "rank": "CombatPowerAvatarRarityType4"
  },
  {
    "id": 1106,
    "name": "페라",
    "img": "/image/game/starrails/avatar/1106.png",
    "rank": "CombatPowerAvatarRarityType4"
  },
  {
    "id": 1107,
    "name": "클라라",
    "img": "/image/game/starrails/avatar/1107.png",
    "rank": "CombatPowerAvatarRarityType5"
  },
  {
    "id": 1108,
    "name": "삼포",
    "img": "/image/game/starrails/avatar/1108.png",
    "rank": "CombatPowerAvatarRarityType4"
  },
  {
    "id": 1109,
    "name": "후크",
    "img": "/image/game/starrails/avatar/1109.png",
    "rank": "CombatPowerAvatarRarityType4"
  },
  {
    "id": 1110,
    "name": "링스",
    "img": "/image/game/starrails/avatar/1110.png",
    "rank": "CombatPowerAvatarRarityType4"
  },
  {
    "id": 1111,
    "name": "루카",
    "img": "/image/game/starrails/avatar/1111.png",
    "rank": "CombatPowerAvatarRarityType4"
  },
  {
    "id": 1112,
    "name": "토파즈&복순이",
    "img": "/image/game/starrails/avatar/1112.png",
    "rank": "CombatPowerAvatarRarityType5"
  },
  {
    "id": 1201,
    "name": "청작",
    "img": "/image/game/starrails/avatar/1201.png",
    "rank": "CombatPowerAvatarRarityType4"
  },
  {
    "id": 1202,
    "name": "정운",
    "img": "/image/game/starrails/avatar/1202.png",
    "rank": "CombatPowerAvatarRarityType4"
  },
  {
    "id": 1203,
    "name": "나찰",
    "img": "/image/game/starrails/avatar/1203.png",
    "rank": "CombatPowerAvatarRarityType5"
  },
  {
    "id": 1204,
    "name": "경원",
    "img": "/image/game/starrails/avatar/1204.png",
    "rank": "CombatPowerAvatarRarityType5"
  },
  {
    "id": 1205,
    "name": "블레이드",
    "img": "/image/game/starrails/avatar/1205.png",
    "rank": "CombatPowerAvatarRarityType5"
  },
  {
    "id": 1206,
    "name": "소상",
    "img": "/image/game/starrails/avatar/1206.png",
    "rank": "CombatPowerAvatarRarityType4"
  },
  {
    "id": 1207,
    "name": "어공",
    "img": "/image/game/starrails/avatar/1207.png",
    "rank": "CombatPowerAvatarRarityType4"
  },
  {
    "id": 1208,
    "name": "부현",
    "img": "/image/game/starrails/avatar/1208.png",
    "rank": "CombatPowerAvatarRarityType5"
  },
  {
    "id": 1209,
    "name": "연경",
    "img": "/image/game/starrails/avatar/1209.png",
    "rank": "CombatPowerAvatarRarityType5"
  },
  {
    "id": 1210,
    "name": "계네빈",
    "img": "/image/game/starrails/avatar/1210.png",
    "rank": "CombatPowerAvatarRarityType4"
  },
  {
    "id": 1211,
    "name": "백로",
    "img": "/image/game/starrails/avatar/1211.png",
    "rank": "CombatPowerAvatarRarityType5"
  },
  {
    "id": 1212,
    "name": "경류",
    "img": "/image/game/starrails/avatar/1212.png",
    "rank": "CombatPowerAvatarRarityType5"
  },
  {
    "id": 1213,
    "name": "단항•음월",
    "img": "/image/game/starrails/avatar/1213.png",
    "rank": "CombatPowerAvatarRarityType5"
  },
  {
    "id": 1214,
    "name": "설의",
    "img": "/image/game/starrails/avatar/1214.png",
    "rank": "CombatPowerAvatarRarityType4"
  },
  {
    "id": 1215,
    "name": "한아",
    "img": "/image/game/starrails/avatar/1215.png",
    "rank": "CombatPowerAvatarRarityType4"
  },
  {
    "id": 1217,
    "name": "곽향",
    "img": "/image/game/starrails/avatar/1217.png",
    "rank": "CombatPowerAvatarRarityType5"
  },
  {
    "id": 1218,
    "name": "초구",
    "img": "/image/game/starrails/avatar/1218.png",
    "rank": "CombatPowerAvatarRarityType5"
  },
  {
    "id": 1220,
    "name": "비소",
    "img": "/image/game/starrails/avatar/1220.png",
    "rank": "CombatPowerAvatarRarityType5"
  },
  {
    "id": 1221,
    "name": "운리",
    "img": "/image/game/starrails/avatar/1221.png",
    "rank": "CombatPowerAvatarRarityType5"
  },
  {
    "id": 1222,
    "name": "영사",
    "img": "/image/game/starrails/avatar/1222.png",
    "rank": "CombatPowerAvatarRarityType5"
  },
  {
    "id": 1223,
    "name": "맥택",
    "img": "/image/game/starrails/avatar/1223.png",
    "rank": "CombatPowerAvatarRarityType4"
  },
  {
    "id": 1224,
    "name": "Mar. 7th",
    "img": "/image/game/starrails/avatar/1224.png",
    "rank": "CombatPowerAvatarRarityType4"
  },
  {
    "id": 1225,
    "name": "망귀인",
    "img": "/image/game/starrails/avatar/1225.png",
    "rank": "CombatPowerAvatarRarityType5"
  },
  {
    "id": 1301,
    "name": "갤러거",
    "img": "/image/game/starrails/avatar/1301.png",
    "rank": "CombatPowerAvatarRarityType4"
  },
  {
    "id": 1302,
    "name": "아젠티",
    "img": "/image/game/starrails/avatar/1302.png",
    "rank": "CombatPowerAvatarRarityType5"
  },
  {
    "id": 1303,
    "name": "완•매",
    "img": "/image/game/starrails/avatar/1303.png",
    "rank": "CombatPowerAvatarRarityType5"
  },
  {
    "id": 1304,
    "name": "어벤츄린",
    "img": "/image/game/starrails/avatar/1304.png",
    "rank": "CombatPowerAvatarRarityType5"
  },
  {
    "id": 1305,
    "name": "Dr. 레이시오",
    "img": "/image/game/starrails/avatar/1305.png",
    "rank": "CombatPowerAvatarRarityType5"
  },
  {
    "id": 1306,
    "name": "스파클",
    "img": "/image/game/starrails/avatar/1306.png",
    "rank": "CombatPowerAvatarRarityType5"
  },
  {
    "id": 1307,
    "name": "블랙 스완",
    "img": "/image/game/starrails/avatar/1307.png",
    "rank": "CombatPowerAvatarRarityType5"
  },
  {
    "id": 1308,
    "name": "아케론",
    "img": "/image/game/starrails/avatar/1308.png",
    "rank": "CombatPowerAvatarRarityType5"
  },
  {
    "id": 1309,
    "name": "로빈",
    "img": "/image/game/starrails/avatar/1309.png",
    "rank": "CombatPowerAvatarRarityType5"
  },
  {
    "id": 1310,
    "name": "반디",
    "img": "/image/game/starrails/avatar/1310.png",
    "rank": "CombatPowerAvatarRarityType5"
  },
  {
    "id": 1312,
    "name": "미샤",
    "img": "/image/game/starrails/avatar/1312.png",
    "rank": "CombatPowerAvatarRarityType4"
  },
  {
    "id": 1313,
    "name": "선데이",
    "img": "/image/game/starrails/avatar/1313.png",
    "rank": "CombatPowerAvatarRarityType5"
  },
  {
    "id": 1314,
    "name": "제이드",
    "img": "/image/game/starrails/avatar/1314.png",
    "rank": "CombatPowerAvatarRarityType5"
  },
  {
    "id": 1315,
    "name": "부트힐",
    "img": "/image/game/starrails/avatar/1315.png",
    "rank": "CombatPowerAvatarRarityType5"
  },
  {
    "id": 1317,
    "name": "라파",
    "img": "/image/game/starrails/avatar/1317.png",
    "rank": "CombatPowerAvatarRarityType5"
  },
  {
    "id": 1401,
    "name": "더 헤르타",
    "img": "/image/game/starrails/avatar/1401.png",
    "rank": "CombatPowerAvatarRarityType5"
  },
  {
    "id": 1402,
    "name": "아글라이아",
    "img": "/image/game/starrails/avatar/1402.png",
    "rank": "CombatPowerAvatarRarityType5"
  },
  {
    "id": 8001,
    "name": "{NICKNAME}",
    "img": "/image/game/starrails/avatar/8001.png",
    "rank": "CombatPowerAvatarRarityType5"
  },
  {
    "id": 8002,
    "name": "{NICKNAME}",
    "img": "/image/game/starrails/avatar/8002.png",
    "rank": "CombatPowerAvatarRarityType5"
  },
  {
    "id": 8003,
    "name": "{NICKNAME}",
    "img": "/image/game/starrails/avatar/8003.png",
    "rank": "CombatPowerAvatarRarityType5"
  },
  {
    "id": 8004,
    "name": "{NICKNAME}",
    "img": "/image/game/starrails/avatar/8004.png",
    "rank": "CombatPowerAvatarRarityType5"
  },
  {
    "id": 8005,
    "name": "{NICKNAME}",
    "img": "/image/game/starrails/avatar/8005.png",
    "rank": "CombatPowerAvatarRarityType5"
  },
  {
    "id": 8006,
    "name": "{NICKNAME}",
    "img": "/image/game/starrails/avatar/8006.png",
    "rank": "CombatPowerAvatarRarityType5"
  },
  {
    "id": 8007,
    "name": "{NICKNAME}",
    "img": "/image/game/starrails/avatar/8007.png",
    "rank": "CombatPowerAvatarRarityType5"
  },
  {
    "id": 8008,
    "name": "{NICKNAME}",
    "img": "/image/game/starrails/avatar/8008.png",
    "rank": "CombatPowerAvatarRarityType5"
  }
]