[
  {
    "id": 1001,
    "name": "7. März",
    "img": "/image/game/starrails/avatar/1001.png",
    "rank": "CombatPowerAvatarRarityType4"
  },
  {
    "id": 1002,
    "name": "Dan Heng",
    "img": "/image/game/starrails/avatar/1002.png",
    "rank": "CombatPowerAvatarRarityType4"
  },
  {
    "id": 1003,
    "name": "Himeko",
    "img": "/image/game/starrails/avatar/1003.png",
    "rank": "CombatPowerAvatarRarityType5"
  },
  {
    "id": 1004,
    "name": "Welt",
    "img": "/image/game/starrails/avatar/1004.png",
    "rank": "CombatPowerAvatarRarityType5"
  },
  {
    "id": 1005,
    "name": "Kafka",
    "img": "/image/game/starrails/avatar/1005.png",
    "rank": "CombatPowerAvatarRarityType5"
  },
  {
    "id": 1006,
    "name": "Silberwolf",
    "img": "/image/game/starrails/avatar/1006.png",
    "rank": "CombatPowerAvatarRarityType5"
  },
  {
    "id": 1008,
    "name": "Arlan",
    "img": "/image/game/starrails/avatar/1008.png",
    "rank": "CombatPowerAvatarRarityType4"
  },
  {
    "id": 1009,
    "name": "Asta",
    "img": "/image/game/starrails/avatar/1009.png",
    "rank": "CombatPowerAvatarRarityType4"
  },
  {
    "id": 1013,
    "name": "Herta",
    "img": "/image/game/starrails/avatar/1013.png",
    "rank": "CombatPowerAvatarRarityType4"
  },
  {
    "id": 1101,
    "name": "Bronya",
    "img": "/image/game/starrails/avatar/1101.png",
    "rank": "CombatPowerAvatarRarityType5"
  },
  {
    "id": 1102,
    "name": "Seele",
    "img": "/image/game/starrails/avatar/1102.png",
    "rank": "CombatPowerAvatarRarityType5"
  },
  {
    "id": 1103,
    "name": "Serval",
    "img": "/image/game/starrails/avatar/1103.png",
    "rank": "CombatPowerAvatarRarityType4"
  },
  {
    "id": 1104,
    "name": "Gepard",
    "img": "/image/game/starrails/avatar/1104.png",
    "rank": "CombatPowerAvatarRarityType5"
  },
  {
    "id": 1105,
    "name": "Natasha",
    "img": "/image/game/starrails/avatar/1105.png",
    "rank": "CombatPowerAvatarRarityType4"
  },
  {
    "id": 1106,
    "name": "Pela",
    "img": "/image/game/starrails/avatar/1106.png",
    "rank": "CombatPowerAvatarRarityType4"
  },
  {
    "id": 1107,
    "name": "Clara",
    "img": "/image/game/starrails/avatar/1107.png",
    "rank": "CombatPowerAvatarRarityType5"
  },
  {
    "id": 1108,
    "name": "Sampo",
    "img": "/image/game/starrails/avatar/1108.png",
    "rank": "CombatPowerAvatarRarityType4"
  },
  {
    "id": 1109,
    "name": "Hook",
    "img": "/image/game/starrails/avatar/1109.png",
    "rank": "CombatPowerAvatarRarityType4"
  },
  {
    "id": 1110,
    "name": "Lynx",
    "img": "/image/game/starrails/avatar/1110.png",
    "rank": "CombatPowerAvatarRarityType4"
  },
  {
    "id": 1111,
    "name": "Luka",
    "img": "/image/game/starrails/avatar/1111.png",
    "rank": "CombatPowerAvatarRarityType4"
  },
  {
    "id": 1112,
    "name": "Topaz & Kontie",
    "img": "/image/game/starrails/avatar/1112.png",
    "rank": "CombatPowerAvatarRarityType5"
  },
  {
    "id": 1201,
    "name": "Qingque",
    "img": "/image/game/starrails/avatar/1201.png",
    "rank": "CombatPowerAvatarRarityType4"
  },
  {
    "id": 1202,
    "name": "Tingyun",
    "img": "/image/game/starrails/avatar/1202.png",
    "rank": "CombatPowerAvatarRarityType4"
  },
  {
    "id": 1203,
    "name": "Luocha",
    "img": "/image/game/starrails/avatar/1203.png",
    "rank": "CombatPowerAvatarRarityType5"
  },
  {
    "id": 1204,
    "name": "Jing Yuan",
    "img": "/image/game/starrails/avatar/1204.png",
    "rank": "CombatPowerAvatarRarityType5"
  },
  {
    "id": 1205,
    "name": "Blade",
    "img": "/image/game/starrails/avatar/1205.png",
    "rank": "CombatPowerAvatarRarityType5"
  },
  {
    "id": 1206,
    "name": "Sushang",
    "img": "/image/game/starrails/avatar/1206.png",
    "rank": "CombatPowerAvatarRarityType4"
  },
  {
    "id": 1207,
    "name": "Yukong",
    "img": "/image/game/starrails/avatar/1207.png",
    "rank": "CombatPowerAvatarRarityType4"
  },
  {
    "id": 1208,
    "name": "Fu Xuan",
    "img": "/image/game/starrails/avatar/1208.png",
    "rank": "CombatPowerAvatarRarityType5"
  },
  {
    "id": 1209,
    "name": "Yanqing",
    "img": "/image/game/starrails/avatar/1209.png",
    "rank": "CombatPowerAvatarRarityType5"
  },
  {
    "id": 1210,
    "name": "Guinaifen",
    "img": "/image/game/starrails/avatar/1210.png",
    "rank": "CombatPowerAvatarRarityType4"
  },
  {
    "id": 1211,
    "name": "Bailu",
    "img": "/image/game/starrails/avatar/1211.png",
    "rank": "CombatPowerAvatarRarityType5"
  },
  {
    "id": 1212,
    "name": "Jingliu",
    "img": "/image/game/starrails/avatar/1212.png",
    "rank": "CombatPowerAvatarRarityType5"
  },
  {
    "id": 1213,
    "name": "Dan Heng – Imbibitor Lunae",
    "img": "/image/game/starrails/avatar/1213.png",
    "rank": "CombatPowerAvatarRarityType5"
  },
  {
    "id": 1214,
    "name": "Xueyi",
    "img": "/image/game/starrails/avatar/1214.png",
    "rank": "CombatPowerAvatarRarityType4"
  },
  {
    "id": 1215,
    "name": "Hanya",
    "img": "/image/game/starrails/avatar/1215.png",
    "rank": "CombatPowerAvatarRarityType4"
  },
  {
    "id": 1217,
    "name": "Huohuo",
    "img": "/image/game/starrails/avatar/1217.png",
    "rank": "CombatPowerAvatarRarityType5"
  },
  {
    "id": 1218,
    "name": "Jiaoqiu",
    "img": "/image/game/starrails/avatar/1218.png",
    "rank": "CombatPowerAvatarRarityType5"
  },
  {
    "id": 1220,
    "name": "Feixiao",
    "img": "/image/game/starrails/avatar/1220.png",
    "rank": "CombatPowerAvatarRarityType5"
  },
  {
    "id": 1221,
    "name": "Yunli",
    "img": "/image/game/starrails/avatar/1221.png",
    "rank": "CombatPowerAvatarRarityType5"
  },
  {
    "id": 1222,
    "name": "Lingsha",
    "img": "/image/game/starrails/avatar/1222.png",
    "rank": "CombatPowerAvatarRarityType5"
  },
  {
    "id": 1223,
    "name": "Moze",
    "img": "/image/game/starrails/avatar/1223.png",
    "rank": "CombatPowerAvatarRarityType4"
  },
  {
    "id": 1224,
    "name": "7. März",
    "img": "/image/game/starrails/avatar/1224.png",
    "rank": "CombatPowerAvatarRarityType4"
  },
  {
    "id": 1225,
    "name": "Fugue",
    "img": "/image/game/starrails/avatar/1225.png",
    "rank": "CombatPowerAvatarRarityType5"
  },
  {
    "id": 1301,
    "name": "Gallagher",
    "img": "/image/game/starrails/avatar/1301.png",
    "rank": "CombatPowerAvatarRarityType4"
  },
  {
    "id": 1302,
    "name": "Argenti",
    "img": "/image/game/starrails/avatar/1302.png",
    "rank": "CombatPowerAvatarRarityType5"
  },
  {
    "id": 1303,
    "name": "Ruan Mei",
    "img": "/image/game/starrails/avatar/1303.png",
    "rank": "CombatPowerAvatarRarityType5"
  },
  {
    "id": 1304,
    "name": "Aventurin",
    "img": "/image/game/starrails/avatar/1304.png",
    "rank": "CombatPowerAvatarRarityType5"
  },
  {
    "id": 1305,
    "name": "Dr. Wahrheit",
    "img": "/image/game/starrails/avatar/1305.png",
    "rank": "CombatPowerAvatarRarityType5"
  },
  {
    "id": 1306,
    "name": "Sparkle",
    "img": "/image/game/starrails/avatar/1306.png",
    "rank": "CombatPowerAvatarRarityType5"
  },
  {
    "id": 1307,
    "name": "Schwarzer Schwan",
    "img": "/image/game/starrails/avatar/1307.png",
    "rank": "CombatPowerAvatarRarityType5"
  },
  {
    "id": 1308,
    "name": "Acheron",
    "img": "/image/game/starrails/avatar/1308.png",
    "rank": "CombatPowerAvatarRarityType5"
  },
  {
    "id": 1309,
    "name": "Robin",
    "img": "/image/game/starrails/avatar/1309.png",
    "rank": "CombatPowerAvatarRarityType5"
  },
  {
    "id": 1310,
    "name": "Glühwürmchen",
    "img": "/image/game/starrails/avatar/1310.png",
    "rank": "CombatPowerAvatarRarityType5"
  },
  {
    "id": 1312,
    "name": "Misha",
    "img": "/image/game/starrails/avatar/1312.png",
    "rank": "CombatPowerAvatarRarityType4"
  },
  {
    "id": 1313,
    "name": "Sonntag",
    "img": "/image/game/starrails/avatar/1313.png",
    "rank": "CombatPowerAvatarRarityType5"
  },
  {
    "id": 1314,
    "name": "Jade",
    "img": "/image/game/starrails/avatar/1314.png",
    "rank": "CombatPowerAvatarRarityType5"
  },
  {
    "id": 1315,
    "name": "Boothill",
    "img": "/image/game/starrails/avatar/1315.png",
    "rank": "CombatPowerAvatarRarityType5"
  },
  {
    "id": 1317,
    "name": "Rappa",
    "img": "/image/game/starrails/avatar/1317.png",
    "rank": "CombatPowerAvatarRarityType5"
  },
  {
    "id": 1401,
    "name": "Große Herta",
    "img": "/image/game/starrails/avatar/1401.png",
    "rank": "CombatPowerAvatarRarityType5"
  },
  {
    "id": 1402,
    "name": "Aglaea",
    "img": "/image/game/starrails/avatar/1402.png",
    "rank": "CombatPowerAvatarRarityType5"
  },
  {
    "id": 8001,
    "name": "{NICKNAME}",
    "img": "/image/game/starrails/avatar/8001.png",
    "rank": "CombatPowerAvatarRarityType5"
  },
  {
    "id": 8002,
    "name": "{NICKNAME}",
    "img": "/image/game/starrails/avatar/8002.png",
    "rank": "CombatPowerAvatarRarityType5"
  },
  {
    "id": 8003,
    "name": "{NICKNAME}",
    "img": "/image/game/starrails/avatar/8003.png",
    "rank": "CombatPowerAvatarRarityType5"
  },
  {
    "id": 8004,
    "name": "{NICKNAME}",
    "img": "/image/game/starrails/avatar/8004.png",
    "rank": "CombatPowerAvatarRarityType5"
  },
  {
    "id": 8005,
    "name": "{NICKNAME}",
    "img": "/image/game/starrails/avatar/8005.png",
    "rank": "CombatPowerAvatarRarityType5"
  },
  {
    "id": 8006,
    "name": "{NICKNAME}",
    "img": "/image/game/starrails/avatar/8006.png",
    "rank": "CombatPowerAvatarRarityType5"
  },
  {
    "id": 8007,
    "name": "{NICKNAME}",
    "img": "/image/game/starrails/avatar/8007.png",
    "rank": "CombatPowerAvatarRarityType5"
  },
  {
    "id": 8008,
    "name": "{NICKNAME}",
    "img": "/image/game/starrails/avatar/8008.png",
    "rank": "CombatPowerAvatarRarityType5"
  }
]