[
  {
    "id": 1,
    "name": "LP (16)",
    "grup": 2
  },
  {
    "id": 2,
    "name": "ANG (8)",
    "grup": 2
  },
  {
    "id": 3,
    "name": "VTD (8)",
    "grup": 2
  },
  {
    "id": 4,
    "name": "LP (1.73 %)",
    "grup": 2
  },
  {
    "id": 5,
    "name": "ANG (1.73 %)",
    "grup": 2
  },
  {
    "id": 6,
    "name": "VTD (2.16 %)",
    "grup": 2
  },
  {
    "id": 7,
    "name": "GES (1)",
    "grup": 2
  },
  {
    "id": 8,
    "name": "KRIT-Rate (1.30 %)",
    "grup": 2
  },
  {
    "id": 9,
    "name": "KRIT-SCH (2.59 %)",
    "grup": 2
  },
  {
    "id": 10,
    "name": "Effekt-Trefferrate (1.73 %)",
    "grup": 2
  },
  {
    "id": 11,
    "name": "Effekt-WDS (1.73 %)",
    "grup": 2
  },
  {
    "id": 12,
    "name": "Brucheffekt (2.59 %)",
    "grup": 2
  },
  {
    "id": 1,
    "name": "LP (25)",
    "grup": 3
  },
  {
    "id": 2,
    "name": "ANG (12)",
    "grup": 3
  },
  {
    "id": 3,
    "name": "VTD (12)",
    "grup": 3
  },
  {
    "id": 4,
    "name": "LP (2.59 %)",
    "grup": 3
  },
  {
    "id": 5,
    "name": "ANG (2.59 %)",
    "grup": 3
  },
  {
    "id": 6,
    "name": "VTD (3.24 %)",
    "grup": 3
  },
  {
    "id": 7,
    "name": "GES (1)",
    "grup": 3
  },
  {
    "id": 8,
    "name": "KRIT-Rate (1.94 %)",
    "grup": 3
  },
  {
    "id": 9,
    "name": "KRIT-SCH (3.89 %)",
    "grup": 3
  },
  {
    "id": 10,
    "name": "Effekt-Trefferrate (2.59 %)",
    "grup": 3
  },
  {
    "id": 11,
    "name": "Effekt-WDS (2.59 %)",
    "grup": 3
  },
  {
    "id": 12,
    "name": "Brucheffekt (3.89 %)",
    "grup": 3
  },
  {
    "id": 1,
    "name": "LP (33)",
    "grup": 4
  },
  {
    "id": 2,
    "name": "ANG (16)",
    "grup": 4
  },
  {
    "id": 3,
    "name": "VTD (16)",
    "grup": 4
  },
  {
    "id": 4,
    "name": "LP (3.46 %)",
    "grup": 4
  },
  {
    "id": 5,
    "name": "ANG (3.46 %)",
    "grup": 4
  },
  {
    "id": 6,
    "name": "VTD (4.32 %)",
    "grup": 4
  },
  {
    "id": 7,
    "name": "GES (2)",
    "grup": 4
  },
  {
    "id": 8,
    "name": "KRIT-Rate (2.59 %)",
    "grup": 4
  },
  {
    "id": 9,
    "name": "KRIT-SCH (5.18 %)",
    "grup": 4
  },
  {
    "id": 10,
    "name": "Effekt-Trefferrate (3.46 %)",
    "grup": 4
  },
  {
    "id": 11,
    "name": "Effekt-WDS (3.46 %)",
    "grup": 4
  },
  {
    "id": 12,
    "name": "Brucheffekt (5.18 %)",
    "grup": 4
  },
  {
    "id": 1,
    "name": "LP (42)",
    "grup": 5
  },
  {
    "id": 2,
    "name": "ANG (21)",
    "grup": 5
  },
  {
    "id": 3,
    "name": "VTD (21)",
    "grup": 5
  },
  {
    "id": 4,
    "name": "LP (4.32 %)",
    "grup": 5
  },
  {
    "id": 5,
    "name": "ANG (4.32 %)",
    "grup": 5
  },
  {
    "id": 6,
    "name": "VTD (5.40 %)",
    "grup": 5
  },
  {
    "id": 7,
    "name": "GES (2)",
    "grup": 5
  },
  {
    "id": 8,
    "name": "KRIT-Rate (3.24 %)",
    "grup": 5
  },
  {
    "id": 9,
    "name": "KRIT-SCH (6.48 %)",
    "grup": 5
  },
  {
    "id": 10,
    "name": "Effekt-Trefferrate (4.32 %)",
    "grup": 5
  },
  {
    "id": 11,
    "name": "Effekt-WDS (4.32 %)",
    "grup": 5
  },
  {
    "id": 12,
    "name": "Brucheffekt (6.48 %)",
    "grup": 5
  }
]