[
  {
    "RaidCollectionTabID": 1,
    "RaidCollectionType": "Penacony",
    "RaidCollectionGroupList": [
      101,
      102,
      103,
      104
    ],
    "RaidCollectionTabName": {
      "Hash": 872856083
    }
  },
  {
    "RaidCollectionTabID": 2,
    "RaidCollectionType": "Penacony",
    "RaidCollectionGroupList": [
      105,
      106,
      107,
      108
    ],
    "RaidCollectionTabName": {
      "Hash": 872856080
    }
  },
  {
    "RaidCollectionTabID": 3,
    "RaidCollectionType": "LuoFu",
    "RaidCollectionGroupList": [
      201,
      202,
      203,
      204
    ],
    "RaidCollectionTabName": {
      "Hash": 872856081
    }
  },
  {
    "RaidCollectionTabID": 4,
    "RaidCollectionType": "LuoFu",
    "RaidCollectionGroupList": [
      205,
      206,
      207,
      208
    ],
    "RaidCollectionTabName": {
      "Hash": 872856078
    }
  },
  {
    "RaidCollectionTabID": 5,
    "RaidCollectionType": "Amphoreus",
    "RaidCollectionGroupList": [
      301,
      302,
      303,
      304
    ],
    "RaidCollectionTabName": {
      "Hash": 872856079
    }
  },
  {
    "RaidCollectionTabID": 6,
    "RaidCollectionType": "Amphoreus",
    "RaidCollectionGroupList": [
      305,
      306,
      307,
      308
    ],
    "RaidCollectionTabName": {
      "Hash": 872856076
    }
  }
]