[
  {
    "ID": 1001,
    "AvatarID": 1001,
    "PlayerName": {
      "Hash": -531793651
    },
    "PlayerPrefabPath": "Characters/CharacterPrefabs/Player/Mar_7th_00/Player_Maid_Mar_7th_00.prefab",
    "PlayerJsonPath": "Config/ConfigCharacter/LocalPlayer/LocalPlayer_Mar_7th_00_Config.json",
    "DefaultAvatarHeadIconPath": "SpriteOutput/AvatarIconTeam/1001.png",
    "MazeSkillIdList": [
      100101,
      100102
    ]
  },
  {
    "ID": 1002,
    "AvatarID": 1002,
    "PlayerName": {
      "Hash": -935078178
    },
    "PlayerPrefabPath": "Characters/CharacterPrefabs/Player/DanHeng_00/Player_Lad_DanHeng_00.prefab",
    "PlayerJsonPath": "Config/ConfigCharacter/LocalPlayer/LocalPlayer_DanHeng_00_Config.json",
    "DefaultAvatarHeadIconPath": "SpriteOutput/AvatarIconTeam/1002.png",
    "MazeSkillIdList": [
      100201,
      100202
    ]
  },
  {
    "ID": 1003,
    "AvatarID": 1003,
    "PlayerName": {
      "Hash": 631005763
    },
    "PlayerPrefabPath": "Characters/CharacterPrefabs/Player/Himeko_00/Player_Lady_Himeko_00.prefab",
    "PlayerJsonPath": "Config/ConfigCharacter/LocalPlayer/LocalPlayer_Himeko_00_Config.json",
    "DefaultAvatarHeadIconPath": "SpriteOutput/AvatarIconTeam/1003.png",
    "MazeSkillIdList": [
      100301,
      100302
    ]
  },
  {
    "ID": 1004,
    "AvatarID": 1004,
    "PlayerName": {
      "Hash": 227721236
    },
    "PlayerPrefabPath": "Characters/CharacterPrefabs/Player/Welt_00/Player_Male_Welt_00.prefab",
    "PlayerJsonPath": "Config/ConfigCharacter/LocalPlayer/LocalPlayer_Welt_00_Config.json",
    "DefaultAvatarHeadIconPath": "SpriteOutput/AvatarIconTeam/1004.png",
    "MazeSkillIdList": [
      100401,
      100402
    ]
  },
  {
    "ID": 1005,
    "AvatarID": 1005,
    "PlayerName": {
      "Hash": 1793805177
    },
    "PlayerPrefabPath": "Characters/CharacterPrefabs/Player/Kafka_00/Player_Lady_Kafka_00.prefab",
    "PlayerJsonPath": "Config/ConfigCharacter/LocalPlayer/LocalPlayer_Kafka_00_Config.json",
    "DefaultAvatarHeadIconPath": "SpriteOutput/AvatarIconTeam/1005.png",
    "MazeSkillIdList": [
      100501,
      100502
    ]
  },
  {
    "ID": 1006,
    "AvatarID": 1006,
    "PlayerName": {
      "Hash": 1390520650
    },
    "PlayerPrefabPath": "Characters/CharacterPrefabs/Player/Silwolf_00/Player_Girl_Silwolf_00.prefab",
    "PlayerJsonPath": "Config/ConfigCharacter/LocalPlayer/LocalPlayer_Silwolf_00_Config.json",
    "DefaultAvatarHeadIconPath": "SpriteOutput/AvatarIconTeam/1006.png",
    "MazeSkillIdList": [
      100601,
      100602
    ]
  },
  {
    "ID": 1008,
    "AvatarID": 1008,
    "PlayerName": {
      "Hash": 1840859344
    },
    "PlayerPrefabPath": "Characters/CharacterPrefabs/Player/Arlan_00/Player_Boy_Arlan_00.prefab",
    "PlayerJsonPath": "Config/ConfigCharacter/LocalPlayer/LocalPlayer_Arlan_00_Config.json",
    "DefaultAvatarHeadIconPath": "SpriteOutput/AvatarIconTeam/1008.png",
    "MazeSkillIdList": [
      100801,
      100802
    ]
  },
  {
    "ID": 1009,
    "AvatarID": 1009,
    "PlayerName": {
      "Hash": -888024011
    },
    "PlayerPrefabPath": "Characters/CharacterPrefabs/Player/Asta_00/Player_Maid_Asta_00.prefab",
    "PlayerJsonPath": "Config/ConfigCharacter/LocalPlayer/LocalPlayer_Asta_00_Config.json",
    "DefaultAvatarHeadIconPath": "SpriteOutput/AvatarIconTeam/1009.png",
    "MazeSkillIdList": [
      100901,
      100902
    ]
  },
  {
    "ID": 1013,
    "AvatarID": 1013,
    "PlayerName": {
      "Hash": 631005764
    },
    "PlayerPrefabPath": "Characters/CharacterPrefabs/Player/Herta_00/Player_Girl_Herta_00.prefab",
    "PlayerJsonPath": "Config/ConfigCharacter/LocalPlayer/LocalPlayer_Herta_00_Config.json",
    "DefaultAvatarHeadIconPath": "SpriteOutput/AvatarIconTeam/1013.png",
    "MazeSkillIdList": [
      101301,
      101302
    ]
  },
  {
    "ID": 1101,
    "AvatarID": 1101,
    "PlayerName": {
      "Hash": -2077674616
    },
    "PlayerPrefabPath": "Characters/CharacterPrefabs/Player/Bronya_00/Player_Maid_Bronya_00.prefab",
    "PlayerJsonPath": "Config/ConfigCharacter/LocalPlayer/LocalPlayer_Bronya_00_Config.json",
    "DefaultAvatarHeadIconPath": "SpriteOutput/AvatarIconTeam/1101.png",
    "MazeSkillIdList": [
      110101,
      110102
    ]
  },
  {
    "ID": 1102,
    "AvatarID": 1102,
    "PlayerName": {
      "Hash": 651208739
    },
    "PlayerPrefabPath": "Characters/CharacterPrefabs/Player/Seele_00/Player_Maid_Seele_00.prefab",
    "PlayerJsonPath": "Config/ConfigCharacter/LocalPlayer/LocalPlayer_Seele_00_Config.json",
    "DefaultAvatarHeadIconPath": "SpriteOutput/AvatarIconTeam/1102.png",
    "MazeSkillIdList": [
      110201,
      110202
    ]
  },
  {
    "ID": 1103,
    "AvatarID": 1103,
    "PlayerName": {
      "Hash": -914875202
    },
    "PlayerPrefabPath": "Characters/CharacterPrefabs/Player/Serval_00/Player_Lady_Serval_00.prefab",
    "PlayerJsonPath": "Config/ConfigCharacter/LocalPlayer/LocalPlayer_Serval_00_Config.json",
    "DefaultAvatarHeadIconPath": "SpriteOutput/AvatarIconTeam/1103.png",
    "MazeSkillIdList": [
      110301,
      110302
    ]
  },
  {
    "ID": 1104,
    "AvatarID": 1104,
    "PlayerName": {
      "Hash": 1814008153
    },
    "PlayerPrefabPath": "Characters/CharacterPrefabs/Player/Gepard_00/Player_Male_Gepard_00.prefab",
    "PlayerJsonPath": "Config/ConfigCharacter/LocalPlayer/LocalPlayer_Gepard_00_Config.json",
    "DefaultAvatarHeadIconPath": "SpriteOutput/AvatarIconTeam/1104.png",
    "MazeSkillIdList": [
      110401,
      110402
    ]
  },
  {
    "ID": 1105,
    "AvatarID": 1105,
    "PlayerName": {
      "Hash": 247924212
    },
    "PlayerPrefabPath": "Characters/CharacterPrefabs/Player/Natasha_00/Player_Lady_Natasha_00.prefab",
    "PlayerJsonPath": "Config/ConfigCharacter/LocalPlayer/LocalPlayer_Natasha_00_Config.json",
    "DefaultAvatarHeadIconPath": "SpriteOutput/AvatarIconTeam/1105.png",
    "MazeSkillIdList": [
      110501,
      110502
    ]
  },
  {
    "ID": 1106,
    "AvatarID": 1106,
    "PlayerName": {
      "Hash": -1318159729
    },
    "PlayerPrefabPath": "Characters/CharacterPrefabs/Player/Pela_00/Player_Girl_Pela_00.prefab",
    "PlayerJsonPath": "Config/ConfigCharacter/LocalPlayer/LocalPlayer_Pela_00_Config.json",
    "DefaultAvatarHeadIconPath": "SpriteOutput/AvatarIconTeam/1106.png",
    "MazeSkillIdList": [
      110601,
      110602
    ]
  },
  {
    "ID": 1107,
    "AvatarID": 1107,
    "PlayerName": {
      "Hash": 1410723626
    },
    "PlayerPrefabPath": "Characters/CharacterPrefabs/Player/Klara_00/Player_Girl_Klara_00.prefab",
    "PlayerJsonPath": "Config/ConfigCharacter/LocalPlayer/LocalPlayer_Klara_00_Config.json",
    "DefaultAvatarHeadIconPath": "SpriteOutput/AvatarIconTeam/1107.png",
    "MazeSkillIdList": [
      110701,
      110702
    ]
  },
  {
    "ID": 1108,
    "AvatarID": 1108,
    "PlayerName": {
      "Hash": -867821035
    },
    "PlayerPrefabPath": "Characters/CharacterPrefabs/Player/Sampo_00/Player_Male_Sampo_00.prefab",
    "PlayerJsonPath": "Config/ConfigCharacter/LocalPlayer/LocalPlayer_Sampo_00_Config.json",
    "DefaultAvatarHeadIconPath": "SpriteOutput/AvatarIconTeam/1108.png",
    "MazeSkillIdList": [
      110801,
      110802
    ]
  },
  {
    "ID": 1109,
    "AvatarID": 1109,
    "PlayerName": {
      "Hash": 1861062320
    },
    "PlayerPrefabPath": "Characters/CharacterPrefabs/Player/Hook_00/Player_Kid_Hook_00.prefab",
    "PlayerJsonPath": "Config/ConfigCharacter/LocalPlayer/LocalPlayer_Hook_00_Config.json",
    "DefaultAvatarHeadIconPath": "SpriteOutput/AvatarIconTeam/1109.png",
    "MazeSkillIdList": [
      110901,
      110902
    ]
  },
  {
    "ID": 1110,
    "AvatarID": 1110,
    "PlayerName": {
      "Hash": -511590674
    },
    "PlayerPrefabPath": "Characters/CharacterPrefabs/Player/Lynx_00/Player_Girl_Lynx_00.prefab",
    "PlayerJsonPath": "Config/ConfigCharacter/LocalPlayer/LocalPlayer_Lynx_00_Config.json",
    "DefaultAvatarHeadIconPath": "SpriteOutput/AvatarIconTeam/1110.png",
    "MazeSkillIdList": [
      111001,
      111002
    ]
  },
  {
    "ID": 1111,
    "AvatarID": 1111,
    "PlayerName": {
      "Hash": -2077674615
    },
    "PlayerPrefabPath": "Characters/CharacterPrefabs/Player/Luka_00/Player_Lad_Luka_00.prefab",
    "PlayerJsonPath": "Config/ConfigCharacter/LocalPlayer/LocalPlayer_Luka_00_Config.json",
    "DefaultAvatarHeadIconPath": "SpriteOutput/AvatarIconTeam/1111.png",
    "MazeSkillIdList": [
      111101,
      111102
    ]
  },
  {
    "ID": 1112,
    "AvatarID": 1112,
    "PlayerName": {
      "Hash": 651208740
    },
    "PlayerPrefabPath": "Characters/CharacterPrefabs/Player/Topaz_00/Player_Maid_Topaz_00.prefab",
    "PlayerJsonPath": "Config/ConfigCharacter/LocalPlayer/LocalPlayer_Topaz_00_Config.json",
    "DefaultAvatarHeadIconPath": "SpriteOutput/AvatarIconTeam/1112.png",
    "MazeSkillIdList": [
      111201,
      111202
    ]
  },
  {
    "ID": 1201,
    "AvatarID": 1201,
    "PlayerName": {
      "Hash": -814118653
    },
    "PlayerPrefabPath": "Characters/CharacterPrefabs/Player/Qingque_00/Player_Girl_Qingque_00.prefab",
    "PlayerJsonPath": "Config/ConfigCharacter/LocalPlayer/LocalPlayer_Qingque_00_Config.json",
    "DefaultAvatarHeadIconPath": "SpriteOutput/AvatarIconTeam/1201.png",
    "MazeSkillIdList": [
      120101,
      120102
    ]
  },
  {
    "ID": 1202,
    "AvatarID": 1202,
    "PlayerName": {
      "Hash": 751965288
    },
    "PlayerPrefabPath": "Characters/CharacterPrefabs/Player/Tingyun_00/Player_Maid_Tingyun_00.prefab",
    "PlayerJsonPath": "Config/ConfigCharacter/LocalPlayer/LocalPlayer_Tingyun_00_Config.json",
    "DefaultAvatarHeadIconPath": "SpriteOutput/AvatarIconTeam/1202.png",
    "MazeSkillIdList": [
      120201,
      120202
    ]
  },
  {
    "ID": 1203,
    "AvatarID": 1203,
    "PlayerName": {
      "Hash": -1976918067
    },
    "PlayerPrefabPath": "Characters/CharacterPrefabs/Player/Luocha_00/Player_Male_Luocha_00.prefab",
    "PlayerJsonPath": "Config/ConfigCharacter/LocalPlayer/LocalPlayer_Luocha_00_Config.json",
    "DefaultAvatarHeadIconPath": "SpriteOutput/AvatarIconTeam/1203.png",
    "MazeSkillIdList": [
      120301,
      120302
    ]
  },
  {
    "ID": 1204,
    "AvatarID": 1204,
    "PlayerName": {
      "Hash": -54603766
    },
    "PlayerPrefabPath": "Characters/CharacterPrefabs/Player/JingYuan_00/Player_Male_JingYuan_00.prefab",
    "PlayerJsonPath": "Config/ConfigCharacter/LocalPlayer/LocalPlayer_JingYuan_00_Config.json",
    "DefaultAvatarHeadIconPath": "SpriteOutput/AvatarIconTeam/1204.png",
    "MazeSkillIdList": [
      120401,
      120402
    ]
  },
  {
    "ID": 1205,
    "AvatarID": 1205,
    "PlayerName": {
      "Hash": 1511480175
    },
    "PlayerPrefabPath": "Characters/CharacterPrefabs/Player/Ren_00/Player_Male_Ren_00.prefab",
    "PlayerJsonPath": "Config/ConfigCharacter/LocalPlayer/LocalPlayer_Ren_00_Config.json",
    "DefaultAvatarHeadIconPath": "SpriteOutput/AvatarIconTeam/1205.png",
    "MazeSkillIdList": [
      120501,
      120502
    ]
  },
  {
    "ID": 1206,
    "AvatarID": 1206,
    "PlayerName": {
      "Hash": -1217403180
    },
    "PlayerPrefabPath": "Characters/CharacterPrefabs/Player/Sushang_00/Player_Maid_Sushang_00.prefab",
    "PlayerJsonPath": "Config/ConfigCharacter/LocalPlayer/LocalPlayer_Sushang_00_Config.json",
    "DefaultAvatarHeadIconPath": "SpriteOutput/AvatarIconTeam/1206.png",
    "MazeSkillIdList": [
      120601,
      120602
    ]
  },
  {
    "ID": 1207,
    "AvatarID": 1207,
    "PlayerName": {
      "Hash": 348680761
    },
    "PlayerPrefabPath": "Characters/CharacterPrefabs/Player/Yukong_00/Player_Lady_Yukong_00.prefab",
    "PlayerJsonPath": "Config/ConfigCharacter/LocalPlayer/LocalPlayer_Yukong_00_Config.json",
    "DefaultAvatarHeadIconPath": "SpriteOutput/AvatarIconTeam/1207.png",
    "MazeSkillIdList": [
      120701,
      120702
    ]
  },
  {
    "ID": 1208,
    "AvatarID": 1208,
    "PlayerName": {
      "Hash": 1558534342
    },
    "PlayerPrefabPath": "Characters/CharacterPrefabs/Player/FuXuan_00/Player_Girl_FuXuan_00.prefab",
    "PlayerJsonPath": "Config/ConfigCharacter/LocalPlayer/LocalPlayer_FuXuan_00_Config.json",
    "DefaultAvatarHeadIconPath": "SpriteOutput/AvatarIconTeam/1208.png",
    "MazeSkillIdList": [
      120801,
      120802
    ]
  },
  {
    "ID": 1209,
    "AvatarID": 1209,
    "PlayerName": {
      "Hash": -1170349013
    },
    "PlayerPrefabPath": "Characters/CharacterPrefabs/Player/Yanqing_00/Player_Boy_Yanqing_00.prefab",
    "PlayerJsonPath": "Config/ConfigCharacter/LocalPlayer/LocalPlayer_Yanqing_00_Config.json",
    "DefaultAvatarHeadIconPath": "SpriteOutput/AvatarIconTeam/1209.png",
    "MazeSkillIdList": [
      120901,
      120902
    ]
  },
  {
    "ID": 1210,
    "AvatarID": 1210,
    "PlayerName": {
      "Hash": 1914764703
    },
    "PlayerPrefabPath": "Characters/CharacterPrefabs/Player/Guinaifen_00/Player_Maid_Guinaifen_00.prefab",
    "PlayerJsonPath": "Config/ConfigCharacter/LocalPlayer/LocalPlayer_Guinaifen_00_Config.json",
    "DefaultAvatarHeadIconPath": "SpriteOutput/AvatarIconTeam/1210.png",
    "MazeSkillIdList": [
      121001,
      121002
    ]
  },
  {
    "ID": 1211,
    "AvatarID": 1211,
    "PlayerName": {
      "Hash": -814118652
    },
    "PlayerPrefabPath": "Characters/CharacterPrefabs/Player/Bailu_00/Player_Kid_Bailu_00.prefab",
    "PlayerJsonPath": "Config/ConfigCharacter/LocalPlayer/LocalPlayer_Bailu_00_Config.json",
    "DefaultAvatarHeadIconPath": "SpriteOutput/AvatarIconTeam/1211.png",
    "MazeSkillIdList": [
      121101,
      121102
    ]
  },
  {
    "ID": 1212,
    "AvatarID": 1212,
    "PlayerName": {
      "Hash": 751965289
    },
    "PlayerPrefabPath": "Characters/CharacterPrefabs/Player/Jingliu_00/Player_Maid_Jingliu_00.prefab",
    "PlayerJsonPath": "Config/ConfigCharacter/LocalPlayer/LocalPlayer_Jingliu_00_Config.json",
    "DefaultAvatarHeadIconPath": "SpriteOutput/AvatarIconTeam/1212.png",
    "MazeSkillIdList": [
      121201,
      121202
    ]
  },
  {
    "ID": 1213,
    "AvatarID": 1213,
    "PlayerName": {
      "Hash": -1976918066
    },
    "PlayerPrefabPath": "Characters/CharacterPrefabs/Player/DanHengIL_00/Player_Lad_DanHengIL_00.prefab",
    "PlayerJsonPath": "Config/ConfigCharacter/LocalPlayer/LocalPlayer_DanHengIL_00_Config.json",
    "DefaultAvatarHeadIconPath": "SpriteOutput/AvatarIconTeam/1213.png",
    "MazeSkillIdList": [
      121301,
      121302
    ]
  },
  {
    "ID": 1214,
    "AvatarID": 1214,
    "PlayerName": {
      "Hash": -54603765
    },
    "PlayerPrefabPath": "Characters/CharacterPrefabs/Player/Xueyi_00/Player_Maid_Xueyi_00.prefab",
    "PlayerJsonPath": "Config/ConfigCharacter/LocalPlayer/LocalPlayer_Xueyi_00_Config.json",
    "DefaultAvatarHeadIconPath": "SpriteOutput/AvatarIconTeam/1214.png",
    "MazeSkillIdList": [
      121401,
      121402
    ]
  },
  {
    "ID": 1215,
    "AvatarID": 1215,
    "PlayerName": {
      "Hash": 1511480176
    },
    "PlayerPrefabPath": "Characters/CharacterPrefabs/Player/Hanya_00/Player_Lady_Hanya_00.prefab",
    "PlayerJsonPath": "Config/ConfigCharacter/LocalPlayer/LocalPlayer_Hanya_00_Config.json",
    "DefaultAvatarHeadIconPath": "SpriteOutput/AvatarIconTeam/1215.png",
    "MazeSkillIdList": [
      121501,
      121502
    ]
  },
  {
    "ID": 1217,
    "AvatarID": 1217,
    "PlayerName": {
      "Hash": 348680762
    },
    "PlayerPrefabPath": "Characters/CharacterPrefabs/Player/Huohuo_00/Player_Girl_Huohuo_00.prefab",
    "PlayerJsonPath": "Config/ConfigCharacter/LocalPlayer/LocalPlayer_Huohuo_00_Config.json",
    "DefaultAvatarHeadIconPath": "SpriteOutput/AvatarIconTeam/1217.png",
    "MazeSkillIdList": [
      121701,
      121702
    ]
  },
  {
    "ID": 1301,
    "AvatarID": 1301,
    "PlayerName": {
      "Hash": 1934967678
    },
    "PlayerPrefabPath": "Characters/CharacterPrefabs/Player/Gallagher_00/Player_Male_Gallagher_00.prefab",
    "PlayerJsonPath": "Config/ConfigCharacter/LocalPlayer/LocalPlayer_Gallagher_00_Config.json",
    "DefaultAvatarHeadIconPath": "SpriteOutput/AvatarIconTeam/1301.png",
    "MazeSkillIdList": [
      130101,
      130102
    ]
  },
  {
    "ID": 1302,
    "AvatarID": 1302,
    "PlayerName": {
      "Hash": -1956715091
    },
    "PlayerPrefabPath": "Characters/CharacterPrefabs/Player/Argenti_00/Player_Male_Argenti_00.prefab",
    "PlayerJsonPath": "Config/ConfigCharacter/LocalPlayer/LocalPlayer_Argenti_00_Config.json",
    "DefaultAvatarHeadIconPath": "SpriteOutput/AvatarIconTeam/1302.png",
    "MazeSkillIdList": [
      130201,
      130202
    ]
  },
  {
    "ID": 1303,
    "AvatarID": 1303,
    "PlayerName": {
      "Hash": 772168264
    },
    "PlayerPrefabPath": "Characters/CharacterPrefabs/Player/RuanMei_00/Player_Maid_RuanMei_00.prefab",
    "PlayerJsonPath": "Config/ConfigCharacter/LocalPlayer/LocalPlayer_RuanMei_00_Config.json",
    "DefaultAvatarHeadIconPath": "SpriteOutput/AvatarIconTeam/1303.png",
    "MazeSkillIdList": [
      130301,
      130302
    ]
  },
  {
    "ID": 1304,
    "AvatarID": 1304,
    "PlayerName": {
      "Hash": 1531683151
    },
    "PlayerPrefabPath": "Characters/CharacterPrefabs/Player/Aventurine_00/Player_Lad_Aventurine_00.prefab",
    "PlayerJsonPath": "Config/ConfigCharacter/LocalPlayer/LocalPlayer_Aventurine_00_Config.json",
    "DefaultAvatarHeadIconPath": "SpriteOutput/AvatarIconTeam/1304.png",
    "MazeSkillIdList": [
      130401,
      130402
    ]
  },
  {
    "ID": 1305,
    "AvatarID": 1305,
    "PlayerName": {
      "Hash": -34400790
    },
    "PlayerPrefabPath": "Characters/CharacterPrefabs/Player/Dr_Ratio_00/Player_Male_Dr_Ratio_00.prefab",
    "PlayerJsonPath": "Config/ConfigCharacter/LocalPlayer/LocalPlayer_Dr_Ratio_00_Config.json",
    "DefaultAvatarHeadIconPath": "SpriteOutput/AvatarIconTeam/1305.png",
    "MazeSkillIdList": [
      130501,
      130502
    ]
  },
  {
    "ID": 1307,
    "AvatarID": 1307,
    "PlayerName": {
      "Hash": -1197200204
    },
    "PlayerPrefabPath": "Characters/CharacterPrefabs/Player/BlackSwan_00/Player_Lady_BlackSwan_00.prefab",
    "PlayerJsonPath": "Config/ConfigCharacter/LocalPlayer/LocalPlayer_BlackSwan_00_Config.json",
    "DefaultAvatarHeadIconPath": "SpriteOutput/AvatarIconTeam/1307.png",
    "MazeSkillIdList": [
      130701,
      130702
    ]
  },
  {
    "ID": 1308,
    "AvatarID": 1308,
    "PlayerName": {
      "Hash": -1150146037
    },
    "PlayerPrefabPath": "Characters/CharacterPrefabs/Player/Acheron_00/Player_Lady_Acheron_00.prefab",
    "PlayerJsonPath": "Config/ConfigCharacter/LocalPlayer/LocalPlayer_Acheron_00_Config.json",
    "DefaultAvatarHeadIconPath": "SpriteOutput/AvatarIconTeam/1308.png",
    "MazeSkillIdList": [
      130801,
      130802
    ]
  },
  {
    "ID": 1309,
    "AvatarID": 1309,
    "PlayerName": {
      "Hash": 1578737318
    },
    "PlayerPrefabPath": "Characters/CharacterPrefabs/Player/Robin_00/Player_Maid_Robin_00.prefab",
    "PlayerJsonPath": "Config/ConfigCharacter/LocalPlayer/LocalPlayer_Robin_00_Config.json",
    "DefaultAvatarHeadIconPath": "SpriteOutput/AvatarIconTeam/1309.png",
    "MazeSkillIdList": [
      130901,
      130902
    ]
  },
  {
    "ID": 1310,
    "AvatarID": 1310,
    "PlayerName": {
      "Hash": -793915676
    },
    "PlayerPrefabPath": "Characters/CharacterPrefabs/Player/Firefly_00/Player_Maid_Firefly_00.prefab",
    "PlayerJsonPath": "Config/ConfigCharacter/LocalPlayer/LocalPlayer_Firefly_00_Config.json",
    "DefaultAvatarHeadIconPath": "SpriteOutput/AvatarIconTeam/1310.png",
    "MazeSkillIdList": [
      131001,
      131002
    ]
  },
  {
    "ID": 1312,
    "AvatarID": 1312,
    "PlayerName": {
      "Hash": -1956715090
    },
    "PlayerPrefabPath": "Characters/CharacterPrefabs/Player/Misha_00/Player_Boy_Misha_00.prefab",
    "PlayerJsonPath": "Config/ConfigCharacter/LocalPlayer/LocalPlayer_Misha_00_Config.json",
    "DefaultAvatarHeadIconPath": "SpriteOutput/AvatarIconTeam/1312.png",
    "MazeSkillIdList": [
      131201,
      131202
    ]
  },
  {
    "ID": 1314,
    "AvatarID": 1314,
    "PlayerName": {
      "Hash": 1531683152
    },
    "PlayerPrefabPath": "Characters/CharacterPrefabs/Player/Jade_00/Player_Lady_Jade_00.prefab",
    "PlayerJsonPath": "Config/ConfigCharacter/LocalPlayer/LocalPlayer_Jade_00_Config.json",
    "DefaultAvatarHeadIconPath": "SpriteOutput/AvatarIconTeam/1314.png",
    "MazeSkillIdList": [
      131401,
      131402
    ]
  },
  {
    "ID": 1315,
    "AvatarID": 1315,
    "PlayerName": {
      "Hash": -34400789
    },
    "PlayerPrefabPath": "Characters/CharacterPrefabs/Player/Boothill_00/Player_Male_Boothill_00.prefab",
    "PlayerJsonPath": "Config/ConfigCharacter/LocalPlayer/LocalPlayer_Boothill_00_Config.json",
    "DefaultAvatarHeadIconPath": "SpriteOutput/AvatarIconTeam/1315.png",
    "MazeSkillIdList": [
      131501,
      131502
    ]
  },
  {
    "ID": 8001,
    "AvatarID": 8001,
    "PlayerName": {
      "Hash": -531793818
    },
    "PlayerPrefabPath": "Characters/CharacterPrefabs/Player/PlayerBoy_00/Player_Lad_PlayerBoy_00.prefab",
    "PlayerJsonPath": "Config/ConfigCharacter/LocalPlayer/LocalPlayer_PlayerBoy_00_Config.json",
    "DefaultAvatarHeadIconPath": "SpriteOutput/AvatarIconTeam/8001.png",
    "MazeSkillIdList": [
      800101,
      800102
    ]
  },
  {
    "ID": 8002,
    "AvatarID": 8002,
    "PlayerName": {
      "Hash": -935078345
    },
    "PlayerPrefabPath": "Characters/CharacterPrefabs/Player/PlayerGirl_00/Player_Miss_PlayerGirl_00.prefab",
    "PlayerJsonPath": "Config/ConfigCharacter/LocalPlayer/LocalPlayer_PlayerGirl_00_Config.json",
    "DefaultAvatarHeadIconPath": "SpriteOutput/AvatarIconTeam/8002.png",
    "MazeSkillIdList": [
      800201,
      800202
    ]
  },
  {
    "ID": 8003,
    "AvatarID": 8003,
    "PlayerName": {
      "Hash": 631005596
    },
    "PlayerPrefabPath": "Characters/CharacterPrefabs/Player/PlayerBoy_10/Player_Lad_PlayerBoy_10.prefab",
    "PlayerJsonPath": "Config/ConfigCharacter/LocalPlayer/LocalPlayer_PlayerBoy_10_Config.json",
    "DefaultAvatarHeadIconPath": "SpriteOutput/AvatarIconTeam/8003.png",
    "MazeSkillIdList": [
      800301,
      800302
    ]
  },
  {
    "ID": 8004,
    "AvatarID": 8004,
    "PlayerName": {
      "Hash": 227721069
    },
    "PlayerPrefabPath": "Characters/CharacterPrefabs/Player/PlayerGirl_10/Player_Miss_PlayerGirl_10.prefab",
    "PlayerJsonPath": "Config/ConfigCharacter/LocalPlayer/LocalPlayer_PlayerGirl_10_Config.json",
    "DefaultAvatarHeadIconPath": "SpriteOutput/AvatarIconTeam/8004.png",
    "MazeSkillIdList": [
      800401,
      800402
    ]
  },
  {
    "ID": 8005,
    "AvatarID": 8005,
    "PlayerName": {
      "Hash": 1793805010
    },
    "PlayerPrefabPath": "Characters/CharacterPrefabs/Player/PlayerBoy_20/Player_Lad_PlayerBoy_20.prefab",
    "PlayerJsonPath": "Config/ConfigCharacter/LocalPlayer/LocalPlayer_PlayerBoy_20_Config.json",
    "DefaultAvatarHeadIconPath": "SpriteOutput/AvatarIconTeam/8005.png",
    "MazeSkillIdList": [
      800501,
      800502
    ]
  },
  {
    "ID": 8006,
    "AvatarID": 8006,
    "PlayerName": {
      "Hash": 1390520483
    },
    "PlayerPrefabPath": "Characters/CharacterPrefabs/Player/PlayerGirl_20/Player_Miss_PlayerGirl_20.prefab",
    "PlayerJsonPath": "Config/ConfigCharacter/LocalPlayer/LocalPlayer_PlayerGirl_20_Config.json",
    "DefaultAvatarHeadIconPath": "SpriteOutput/AvatarIconTeam/8006.png",
    "MazeSkillIdList": [
      800601,
      800602
    ]
  },
  {
    "ID": 1306,
    "AvatarID": 1306,
    "PlayerName": {
      "Hash": 368883737
    },
    "PlayerPrefabPath": "Characters/CharacterPrefabs/Player/Sparkle_00/Player_Girl_Sparkle_00.prefab",
    "PlayerJsonPath": "Config/ConfigCharacter/LocalPlayer/LocalPlayer_Sparkle_00_Config.json",
    "DefaultAvatarHeadIconPath": "SpriteOutput/AvatarIconTeam/1306.png",
    "MazeSkillIdList": [
      130601,
      130602
    ]
  },
  {
    "ID": 1218,
    "AvatarID": 1218,
    "PlayerName": {
      "Hash": 1558534343
    },
    "PlayerPrefabPath": "Characters/CharacterPrefabs/Player/Jiaoqiu_00/Player_Lad_Jiaoqiu_00.prefab",
    "PlayerJsonPath": "Config/ConfigCharacter/LocalPlayer/LocalPlayer_Jiaoqiu_00_Config.json",
    "DefaultAvatarHeadIconPath": "SpriteOutput/AvatarIconTeam/1218.png",
    "MazeSkillIdList": [
      121801,
      121802
    ]
  },
  {
    "ID": 1224,
    "AvatarID": 1224,
    "PlayerName": {
      "Hash": -54603768
    },
    "PlayerPrefabPath": "Characters/CharacterPrefabs/Player/Mar_7th_10/Player_Maid_Mar_7th_10.prefab",
    "PlayerJsonPath": "Config/ConfigCharacter/LocalPlayer/LocalPlayer_Mar_7th_10_Config.json",
    "DefaultAvatarHeadIconPath": "SpriteOutput/AvatarIconTeam/1224.png",
    "MazeSkillIdList": [
      122401,
      122402
    ]
  },
  {
    "ID": 1313,
    "AvatarID": 1313,
    "PlayerName": {
      "Hash": 772168265
    },
    "PlayerPrefabPath": "Characters/CharacterPrefabs/Player/Sunday_10/Player_Lad_Sunday_10.prefab",
    "PlayerJsonPath": "Config/ConfigCharacter/LocalPlayer/LocalPlayer_Sunday_10_Config.json",
    "DefaultAvatarHeadIconPath": "SpriteOutput/AvatarIconTeam/1313.png",
    "MazeSkillIdList": [
      131301,
      131302
    ]
  },
  {
    "ID": 1221,
    "AvatarID": 1221,
    "PlayerName": {
      "Hash": -814118655
    },
    "PlayerPrefabPath": "Characters/CharacterPrefabs/Player/Yunli_00/Player_Girl_Yunli_00.prefab",
    "PlayerJsonPath": "Config/ConfigCharacter/LocalPlayer/LocalPlayer_Yunli_00_Config.json",
    "DefaultAvatarHeadIconPath": "SpriteOutput/AvatarIconTeam/1221.png",
    "MazeSkillIdList": [
      122101,
      122102
    ]
  },
  {
    "ID": 1220,
    "AvatarID": 1220,
    "PlayerName": {
      "Hash": 1914764700
    },
    "PlayerPrefabPath": "Characters/CharacterPrefabs/Player/Feixiao_00/Player_Lady_Feixiao_00.prefab",
    "PlayerJsonPath": "Config/ConfigCharacter/LocalPlayer/LocalPlayer_Feixiao_00_Config.json",
    "DefaultAvatarHeadIconPath": "SpriteOutput/AvatarIconTeam/1220.png",
    "MazeSkillIdList": [
      122001,
      122002
    ]
  },
  {
    "ID": 1317,
    "AvatarID": 1317,
    "PlayerName": {
      "Hash": -1197200203
    },
    "PlayerPrefabPath": "Characters/CharacterPrefabs/Player/Rappa_00/Player_Maid_Rappa_00.prefab",
    "PlayerJsonPath": "Config/ConfigCharacter/LocalPlayer/LocalPlayer_Rappa_00_Config.json",
    "DefaultAvatarHeadIconPath": "SpriteOutput/AvatarIconTeam/1317.png",
    "MazeSkillIdList": [
      131701,
      131702
    ]
  },
  {
    "ID": 1223,
    "AvatarID": 1223,
    "PlayerName": {
      "Hash": -1976918069
    },
    "PlayerPrefabPath": "Characters/CharacterPrefabs/Player/Moze_00/Player_Male_Moze_00.prefab",
    "PlayerJsonPath": "Config/ConfigCharacter/LocalPlayer/LocalPlayer_Moze_00_Config.json",
    "DefaultAvatarHeadIconPath": "SpriteOutput/AvatarIconTeam/1223.png",
    "MazeSkillIdList": [
      122301,
      122302
    ]
  },
  {
    "ID": 1222,
    "AvatarID": 1222,
    "PlayerName": {
      "Hash": 751965286
    },
    "PlayerPrefabPath": "Characters/CharacterPrefabs/Player/Lingsha_00/Player_Maid_Lingsha_00.prefab",
    "PlayerJsonPath": "Config/ConfigCharacter/LocalPlayer/LocalPlayer_Lingsha_00_Config.json",
    "DefaultAvatarHeadIconPath": "SpriteOutput/AvatarIconTeam/1222.png",
    "MazeSkillIdList": [
      122201,
      122202
    ]
  },
  {
    "ID": 1225,
    "AvatarID": 1225,
    "PlayerName": {
      "Hash": 1511480173
    },
    "PlayerPrefabPath": "Characters/CharacterPrefabs/Player/Fugue_00/Player_Maid_Fugue_00.prefab",
    "PlayerJsonPath": "Config/ConfigCharacter/LocalPlayer/LocalPlayer_Fugue_00_Config.json",
    "DefaultAvatarHeadIconPath": "SpriteOutput/AvatarIconTeam/1225.png",
    "MazeSkillIdList": [
      122501,
      122502
    ]
  },
  {
    "ID": 1402,
    "AvatarID": 1402,
    "PlayerName": {
      "Hash": -1499728182
    },
    "PlayerPrefabPath": "Characters/CharacterPrefabs/Player/Aglaea_00/Player_Lady_Aglaea_00.prefab",
    "PlayerJsonPath": "Config/ConfigCharacter/LocalPlayer/LocalPlayer_Aglaea_00_Config.json",
    "DefaultAvatarHeadIconPath": "SpriteOutput/AvatarIconTeam/1402.png",
    "MazeSkillIdList": [
      140201,
      140202
    ]
  },
  {
    "ID": 1401,
    "AvatarID": 1401,
    "PlayerName": {
      "Hash": -1096443655
    },
    "PlayerPrefabPath": "Characters/CharacterPrefabs/Player/TheHerta_00/Player_Maid_TheHerta_00.prefab",
    "PlayerJsonPath": "Config/ConfigCharacter/LocalPlayer/LocalPlayer_TheHerta_00_Config.json",
    "DefaultAvatarHeadIconPath": "SpriteOutput/AvatarIconTeam/1401.png",
    "MazeSkillIdList": [
      140101,
      140102
    ]
  },
  {
    "ID": 8007,
    "AvatarID": 8007,
    "PlayerName": {
      "Hash": -1338362872
    },
    "PlayerPrefabPath": "Characters/CharacterPrefabs/Player/PlayerBoy_30/Player_Lad_PlayerBoy_30.prefab",
    "PlayerJsonPath": "Config/ConfigCharacter/LocalPlayer/LocalPlayer_PlayerBoy_30_Config.json",
    "DefaultAvatarHeadIconPath": "SpriteOutput/AvatarIconTeam/8007.png",
    "MazeSkillIdList": [
      800701,
      800702
    ]
  },
  {
    "ID": 8008,
    "AvatarID": 8008,
    "PlayerName": {
      "Hash": 1840859177
    },
    "PlayerPrefabPath": "Characters/CharacterPrefabs/Player/PlayerGirl_30/Player_Miss_PlayerGirl_30.prefab",
    "PlayerJsonPath": "Config/ConfigCharacter/LocalPlayer/LocalPlayer_PlayerGirl_30_Config.json",
    "DefaultAvatarHeadIconPath": "SpriteOutput/AvatarIconTeam/8008.png",
    "MazeSkillIdList": [
      800801,
      800802
    ]
  }
]