[
  {
    "ID": 2001,
    "Type": "PassTarget",
    "AbilityName": "BattleTarget_FantasticStoryBattleScore1",
    "ParamType": "GreaterEqual",
    "TargetParam": 30000,
    "HintStep": [
      0,
      30000
    ],
    "IsFixableHeight": false,
    "TargetName": {
      "Hash": -1687625818
    },
    "TargetNameSimple": {
      "Hash": -1189776312
    },
    "MultiTarget": [],
    "IconType": "Round"
  },
  {
    "ID": 2002,
    "Type": "ChallengeTarget",
    "AbilityName": "BattleTarget_FantasticStoryBattleScore2",
    "ParamType": "GreaterEqual",
    "TargetParam": 60000,
    "HintStep": [
      0,
      60000
    ],
    "IsFixableHeight": false,
    "TargetName": {
      "Hash": -2090910345
    },
    "TargetNameSimple": {
      "Hash": 376307629
    },
    "MultiTarget": [
      40000,
      50000
    ],
    "ShowInScoreCounter": true
  },
  {
    "ID": 5000401,
    "Type": "ChallengeTarget",
    "AbilityName": "",
    "ParamType": "GreaterEqual",
    "TargetParam": 1,
    "HintStep": [
      0,
      1
    ],
    "IsFixableHeight": false,
    "TargetName": {
      "Hash": -293001425
    },
    "TargetNameSimple": {
      "Hash": -1164450255
    },
    "MultiTarget": []
  },
  {
    "ID": 5000402,
    "Type": "ChallengeTarget",
    "AbilityName": "",
    "ParamType": "GreaterEqual",
    "TargetParam": 1,
    "HintStep": [
      0,
      1
    ],
    "IsFixableHeight": false,
    "TargetName": {
      "Hash": -293001424
    },
    "TargetNameSimple": {
      "Hash": -1164450254
    },
    "MultiTarget": []
  },
  {
    "ID": 5000403,
    "Type": "ChallengeTarget",
    "AbilityName": "",
    "ParamType": "GreaterEqual",
    "TargetParam": 1,
    "HintStep": [
      0,
      1
    ],
    "IsFixableHeight": false,
    "TargetName": {
      "Hash": -293001423
    },
    "TargetNameSimple": {
      "Hash": -1164450253
    },
    "MultiTarget": []
  },
  {
    "ID": 5000404,
    "Type": "ChallengeTarget",
    "AbilityName": "",
    "ParamType": "GreaterEqual",
    "TargetParam": 1,
    "HintStep": [
      0,
      1
    ],
    "IsFixableHeight": false,
    "TargetName": {
      "Hash": -293001422
    },
    "TargetNameSimple": {
      "Hash": -1164450260
    },
    "MultiTarget": []
  },
  {
    "ID": 5000405,
    "Type": "ChallengeTarget",
    "AbilityName": "",
    "ParamType": "GreaterEqual",
    "TargetParam": 1,
    "HintStep": [
      0,
      1
    ],
    "IsFixableHeight": false,
    "TargetName": {
      "Hash": -293001421
    },
    "TargetNameSimple": {
      "Hash": -1164450259
    },
    "MultiTarget": []
  },
  {
    "ID": 5000501,
    "Type": "ChallengeTarget",
    "AbilityName": "",
    "ParamType": "GreaterEqual",
    "TargetParam": 55000,
    "HintStep": [
      0,
      55000
    ],
    "IsShowProgress": 1,
    "IsFixableHeight": false,
    "TargetName": {
      "Hash": -293001458
    },
    "TargetNameSimple": {
      "Hash": -1164450288
    },
    "MultiTarget": [
      30000,
      40000
    ]
  },
  {
    "ID": 5000502,
    "Type": "ChallengeTarget",
    "AbilityName": "",
    "ParamType": "GreaterEqual",
    "TargetParam": 40000,
    "HintStep": [
      0,
      40000
    ],
    "IsShowProgress": 1,
    "IsFixableHeight": false,
    "TargetName": {
      "Hash": -293001455
    },
    "TargetNameSimple": {
      "Hash": -1164450285
    },
    "MultiTarget": []
  },
  {
    "ID": 5000503,
    "Type": "ChallengeTarget",
    "AbilityName": "",
    "ParamType": "GreaterEqual",
    "TargetParam": 60000,
    "HintStep": [
      0,
      60000
    ],
    "IsShowProgress": 1,
    "IsFixableHeight": false,
    "TargetName": {
      "Hash": -293001456
    },
    "TargetNameSimple": {
      "Hash": -1164450286
    },
    "MultiTarget": []
  },
  {
    "ID": 50006011,
    "Type": "ChallengeTarget",
    "AbilityName": "BattleTarget_EnemyActionEventCount",
    "ParamType": "LessEqual",
    "TargetParam": 2,
    "HintStep": [
      0,
      1,
      2
    ],
    "IsShowProgress": 1,
    "TargetName": {
      "Hash": 300373062
    },
    "TargetNameSimple": {
      "Hash": -1355493528
    },
    "MultiTarget": []
  },
  {
    "ID": 50006012,
    "Type": "ChallengeTarget",
    "AbilityName": "BattleTarget_EnemyActionEventCount",
    "ParamType": "LessEqual",
    "TargetParam": 1,
    "HintStep": [
      0,
      1
    ],
    "IsShowProgress": 1,
    "TargetName": {
      "Hash": -102911465
    },
    "TargetNameSimple": {
      "Hash": 210590413
    },
    "MultiTarget": []
  },
  {
    "ID": 5000602,
    "Type": "ChallengeTarget",
    "AbilityName": "BattleTarget_DeathCount",
    "ParamType": "LessEqual",
    "HintStep": [],
    "IsShowProgress": 1,
    "TargetName": {
      "Hash": -293001362
    },
    "TargetNameSimple": {
      "Hash": -1164450192
    },
    "MultiTarget": []
  },
  {
    "ID": 50006071,
    "Type": "ChallengeTarget",
    "AbilityName": "BattleTarget_TurnLimit",
    "ParamType": "LessEqual",
    "TargetParam": 4,
    "HintStep": [
      1,
      2,
      3
    ],
    "IsShowProgress": 1,
    "TargetName": {
      "Hash": 300373064
    },
    "TargetNameSimple": {
      "Hash": -1355493534
    },
    "MultiTarget": []
  },
  {
    "ID": 50006072,
    "Type": "ChallengeTarget",
    "AbilityName": "BattleTarget_TurnLimit",
    "ParamType": "LessEqual",
    "TargetParam": 4,
    "HintStep": [
      1,
      2,
      3
    ],
    "IsShowProgress": 1,
    "TargetName": {
      "Hash": -102911463
    },
    "TargetNameSimple": {
      "Hash": 210590407
    },
    "MultiTarget": []
  },
  {
    "ID": 50006073,
    "Type": "ChallengeTarget",
    "AbilityName": "BattleTarget_TurnLimit",
    "ParamType": "LessEqual",
    "TargetParam": 5,
    "HintStep": [
      1,
      2,
      3,
      4
    ],
    "IsShowProgress": 1,
    "TargetName": {
      "Hash": 1463172478
    },
    "TargetNameSimple": {
      "Hash": 1776674348
    },
    "MultiTarget": []
  },
  {
    "ID": 50006074,
    "Type": "ChallengeTarget",
    "AbilityName": "BattleTarget_TurnLimit",
    "ParamType": "LessEqual",
    "TargetParam": 5,
    "HintStep": [
      1,
      2,
      3,
      4
    ],
    "IsShowProgress": 1,
    "TargetName": {
      "Hash": 1059887951
    },
    "TargetNameSimple": {
      "Hash": -595978647
    },
    "MultiTarget": []
  },
  {
    "ID": 5000701,
    "Type": "ChallengeTarget",
    "AbilityName": "",
    "ParamType": "GreaterEqual",
    "TargetParam": 80000,
    "HintStep": [
      0,
      80000
    ],
    "IsShowProgress": 1,
    "IsFixableHeight": false,
    "TargetName": {
      "Hash": -293001392
    },
    "TargetNameSimple": {
      "Hash": -1164450222
    },
    "MultiTarget": [
      30000,
      40000,
      60000
    ],
    "IconType": "Round"
  },
  {
    "ID": 5000702,
    "Type": "ChallengeTarget",
    "AbilityName": "",
    "ParamType": "GreaterEqual",
    "TargetParam": 80000,
    "HintStep": [
      0,
      80000
    ],
    "IsShowProgress": 1,
    "IsFixableHeight": false,
    "TargetName": {
      "Hash": -293001393
    },
    "TargetNameSimple": {
      "Hash": -1164450223
    },
    "MultiTarget": [
      40000,
      60000
    ],
    "IconType": "Round"
  },
  {
    "ID": 5000703,
    "Type": "ChallengeTarget",
    "AbilityName": "",
    "ParamType": "GreaterEqual",
    "TargetParam": 5,
    "HintStep": [
      0,
      5
    ],
    "IsShowProgress": 1,
    "IsFixableHeight": false,
    "TargetName": {
      "Hash": -293001394
    },
    "TargetNameSimple": {
      "Hash": -1164450224
    },
    "MultiTarget": [],
    "IconType": "Round"
  },
  {
    "ID": 5000704,
    "Type": "ChallengeTarget",
    "AbilityName": "",
    "ParamType": "GreaterEqual",
    "TargetParam": 20,
    "HintStep": [
      0,
      20
    ],
    "IsShowProgress": 1,
    "IsFixableHeight": false,
    "TargetName": {
      "Hash": -293001387
    },
    "TargetNameSimple": {
      "Hash": -1164450225
    },
    "MultiTarget": [],
    "IconType": "Round"
  },
  {
    "ID": 5000705,
    "Type": "ChallengeTarget",
    "AbilityName": "",
    "ParamType": "GreaterEqual",
    "TargetParam": 12,
    "HintStep": [
      0,
      12
    ],
    "IsShowProgress": 1,
    "IsFixableHeight": false,
    "TargetName": {
      "Hash": -293001388
    },
    "TargetNameSimple": {
      "Hash": -1164450226
    },
    "MultiTarget": [],
    "IconType": "Round"
  },
  {
    "ID": 5000706,
    "Type": "ChallengeTarget",
    "AbilityName": "",
    "ParamType": "GreaterEqual",
    "TargetParam": 4,
    "HintStep": [
      0,
      4
    ],
    "IsShowProgress": 1,
    "IsFixableHeight": false,
    "TargetName": {
      "Hash": -293001389
    },
    "TargetNameSimple": {
      "Hash": -1164450227
    },
    "MultiTarget": [],
    "IconType": "Round"
  },
  {
    "ID": 5000800,
    "Type": "ChallengeTarget",
    "AbilityName": "BattleTarget_FeverTime_Fever",
    "ParamType": "GreaterEqual",
    "TargetParam": 1,
    "HintStep": [
      0,
      1
    ],
    "IsFixableHeight": false,
    "TargetName": {
      "Hash": -293001030
    },
    "TargetNameSimple": {
      "Hash": -1164450652
    },
    "MultiTarget": [],
    "IconType": "Round"
  },
  {
    "ID": 5000801,
    "Type": "ChallengeTarget",
    "AbilityName": "BattleTarget_FeverTime_Wave1",
    "ParamType": "GreaterEqual",
    "TargetParam": 1,
    "HintStep": [
      0,
      1
    ],
    "IsFixableHeight": false,
    "TargetName": {
      "Hash": -293001029
    },
    "TargetNameSimple": {
      "Hash": -1164450651
    },
    "MultiTarget": [],
    "IconType": "Round"
  },
  {
    "ID": 5000802,
    "Type": "ChallengeTarget",
    "AbilityName": "BattleTarget_FeverTime_Wave2",
    "ParamType": "GreaterEqual",
    "TargetParam": 1,
    "HintStep": [
      0,
      1
    ],
    "IsFixableHeight": false,
    "TargetName": {
      "Hash": -293001028
    },
    "TargetNameSimple": {
      "Hash": -1164450650
    },
    "MultiTarget": [],
    "IconType": "Round"
  },
  {
    "ID": 5000803,
    "Type": "ChallengeTarget",
    "AbilityName": "BattleTarget_FeverTime_Wave3",
    "ParamType": "GreaterEqual",
    "TargetParam": 1,
    "HintStep": [
      0,
      1
    ],
    "IsFixableHeight": false,
    "TargetName": {
      "Hash": -293001027
    },
    "TargetNameSimple": {
      "Hash": -1164450649
    },
    "MultiTarget": [],
    "IconType": "Round"
  },
  {
    "ID": 5000901,
    "Type": "ChallengeTarget",
    "AbilityName": "",
    "ParamType": "GreaterEqual",
    "TargetParam": 1,
    "HintStep": [
      0,
      1
    ],
    "IsFixableHeight": false,
    "TargetName": {
      "Hash": -293001062
    },
    "TargetNameSimple": {
      "Hash": -1164450684
    },
    "MultiTarget": [],
    "IconType": "Round"
  },
  {
    "ID": 5000902,
    "Type": "ChallengeTarget",
    "AbilityName": "",
    "ParamType": "GreaterEqual",
    "TargetParam": 1,
    "HintStep": [
      0,
      1
    ],
    "IsFixableHeight": false,
    "TargetName": {
      "Hash": -293001059
    },
    "TargetNameSimple": {
      "Hash": -1164450681
    },
    "MultiTarget": [],
    "IconType": "Round"
  },
  {
    "ID": 5001001,
    "Type": "ChallengeTarget",
    "AbilityName": "",
    "ParamType": "GreaterEqual",
    "TargetParam": 1500,
    "HintStep": [
      0,
      1500
    ],
    "IsFixableHeight": false,
    "TargetName": {
      "Hash": -1596963208
    },
    "TargetNameSimple": {
      "Hash": 1826554994
    },
    "MultiTarget": [],
    "ShowInScoreCounter": true
  },
  {
    "ID": 5001002,
    "Type": "ChallengeTarget",
    "AbilityName": "",
    "ParamType": "GreaterEqual",
    "TargetParam": 15,
    "HintStep": [
      0,
      15
    ],
    "IsShowProgress": 1,
    "IsFixableHeight": false,
    "TargetName": {
      "Hash": -1596963207
    },
    "TargetNameSimple": {
      "Hash": 1826554995
    },
    "MultiTarget": []
  },
  {
    "ID": 5001003,
    "Type": "ChallengeTarget",
    "AbilityName": "",
    "ParamType": "GreaterEqual",
    "TargetParam": 500,
    "HintStep": [
      0,
      500
    ],
    "IsShowProgress": 1,
    "IsFixableHeight": false,
    "TargetName": {
      "Hash": -1596963206
    },
    "TargetNameSimple": {
      "Hash": 1826554996
    },
    "MultiTarget": []
  },
  {
    "ID": 5001004,
    "Type": "ChallengeTarget",
    "AbilityName": "",
    "ParamType": "GreaterEqual",
    "TargetParam": 4000,
    "HintStep": [
      0,
      4000
    ],
    "IsFixableHeight": false,
    "TargetName": {
      "Hash": -1596963213
    },
    "TargetNameSimple": {
      "Hash": 1826554997
    },
    "MultiTarget": [],
    "ShowInScoreCounter": true
  },
  {
    "ID": 5001005,
    "Type": "ChallengeTarget",
    "AbilityName": "",
    "ParamType": "GreaterEqual",
    "TargetParam": 10000,
    "HintStep": [
      0,
      10000
    ],
    "IsFixableHeight": false,
    "TargetName": {
      "Hash": -1596963212
    },
    "TargetNameSimple": {
      "Hash": 1826554998
    },
    "MultiTarget": [],
    "ShowInScoreCounter": true
  },
  {
    "ID": 5001101,
    "Type": "ChallengeTarget",
    "AbilityName": "BattleTarget_StarBattle_1",
    "ParamType": "GreaterEqual",
    "TargetParam": 1,
    "HintStep": [
      0,
      1
    ],
    "IsFixableHeight": false,
    "TargetName": {
      "Hash": -1596963241
    },
    "TargetNameSimple": {
      "Hash": 1826554961
    },
    "MultiTarget": []
  },
  {
    "ID": 5001102,
    "Type": "ChallengeTarget",
    "AbilityName": "BattleTarget_StarBattle_2",
    "ParamType": "GreaterEqual",
    "TargetParam": 1,
    "HintStep": [
      0,
      1
    ],
    "IsFixableHeight": false,
    "TargetName": {
      "Hash": -1596963238
    },
    "TargetNameSimple": {
      "Hash": 1826554964
    },
    "MultiTarget": []
  },
  {
    "ID": 5001103,
    "Type": "ChallengeTarget",
    "AbilityName": "BattleTarget_StarBattle_3",
    "ParamType": "GreaterEqual",
    "TargetParam": 1,
    "HintStep": [
      0,
      1
    ],
    "IsFixableHeight": false,
    "TargetName": {
      "Hash": -1596963239
    },
    "TargetNameSimple": {
      "Hash": 1826554963
    },
    "MultiTarget": []
  },
  {
    "ID": 5001104,
    "Type": "ChallengeTarget",
    "AbilityName": "BattleTarget_StarBattle_Easy",
    "ParamType": "GreaterEqual",
    "TargetParam": 1,
    "HintStep": [
      0,
      1
    ],
    "IsFixableHeight": false,
    "TargetName": {
      "Hash": -1596963244
    },
    "TargetNameSimple": {
      "Hash": 1826554966
    },
    "MultiTarget": []
  },
  {
    "ID": 5001201,
    "Type": "ChallengeTarget",
    "AbilityName": "ActivitySummon_BattleTarget_Easy",
    "ParamType": "GreaterEqual",
    "TargetParam": 1,
    "HintStep": [
      0,
      1
    ],
    "IsFixableHeight": false,
    "TargetName": {
      "Hash": -1596963142
    },
    "TargetNameSimple": {
      "Hash": 1826555060
    },
    "MultiTarget": [],
    "IconType": "Round"
  },
  {
    "ID": 5001202,
    "Type": "ChallengeTarget",
    "AbilityName": "ActivitySummon_BattleTarget_LifeCount",
    "ParamType": "GreaterEqual",
    "TargetParam": 1,
    "HintStep": [
      0,
      1
    ],
    "IsFixableHeight": false,
    "TargetName": {
      "Hash": -1596963145
    },
    "TargetNameSimple": {
      "Hash": 1826555057
    },
    "MultiTarget": []
  },
  {
    "ID": 5001203,
    "Type": "ChallengeTarget",
    "AbilityName": "ActivitySummon_BattleTarget_2",
    "ParamType": "GreaterEqual",
    "TargetParam": 5,
    "HintStep": [
      0,
      1
    ],
    "IsFixableHeight": false,
    "TargetName": {
      "Hash": -1596963144
    },
    "TargetNameSimple": {
      "Hash": 1826555058
    },
    "MultiTarget": []
  },
  {
    "ID": 5001204,
    "Type": "ChallengeTarget",
    "AbilityName": "ActivitySummon_BattleTarget_3",
    "ParamType": "GreaterEqual",
    "TargetParam": 5,
    "HintStep": [
      0,
      1
    ],
    "IsFixableHeight": false,
    "TargetName": {
      "Hash": -1596963147
    },
    "TargetNameSimple": {
      "Hash": 1826555063
    },
    "MultiTarget": []
  },
  {
    "ID": 5001205,
    "Type": "ChallengeTarget",
    "AbilityName": "ActivitySummon_BattleTarget_Upgrade",
    "ParamType": "GreaterEqual",
    "TargetParam": 1,
    "HintStep": [
      0,
      1
    ],
    "IsFixableHeight": false,
    "TargetName": {
      "Hash": -1596963146
    },
    "TargetNameSimple": {
      "Hash": 1826555064
    },
    "MultiTarget": []
  },
  {
    "ID": 5001206,
    "Type": "ChallengeTarget",
    "AbilityName": "ActivitySummon_BattleTarget_2",
    "ParamType": "GreaterEqual",
    "TargetParam": 5,
    "HintStep": [
      0,
      1
    ],
    "IsFixableHeight": false,
    "TargetName": {
      "Hash": -1596963149
    },
    "TargetNameSimple": {
      "Hash": 1826555061
    },
    "MultiTarget": []
  },
  {
    "ID": 5001207,
    "Type": "ChallengeTarget",
    "AbilityName": "ActivitySummon_BattleTarget_3",
    "ParamType": "GreaterEqual",
    "TargetParam": 5,
    "HintStep": [
      0,
      1
    ],
    "IsFixableHeight": false,
    "TargetName": {
      "Hash": -1596963148
    },
    "TargetNameSimple": {
      "Hash": 1826555062
    },
    "MultiTarget": []
  },
  {
    "ID": 5001208,
    "Type": "ChallengeTarget",
    "AbilityName": "ActivitySummon_BattleTarget_LifeCount",
    "ParamType": "GreaterEqual",
    "TargetParam": 2,
    "HintStep": [
      0,
      1
    ],
    "IsFixableHeight": false,
    "TargetName": {
      "Hash": -1596963135
    },
    "TargetNameSimple": {
      "Hash": 1826555051
    },
    "MultiTarget": []
  },
  {
    "ID": 5001209,
    "Type": "ChallengeTarget",
    "AbilityName": "ActivitySummon_BattleTarget_2",
    "ParamType": "GreaterEqual",
    "TargetParam": 5,
    "HintStep": [
      0,
      1
    ],
    "IsFixableHeight": false,
    "TargetName": {
      "Hash": -1596963134
    },
    "TargetNameSimple": {
      "Hash": 1826555052
    },
    "MultiTarget": []
  },
  {
    "ID": 5001210,
    "Type": "ChallengeTarget",
    "AbilityName": "ActivitySummon_BattleTarget_3",
    "ParamType": "GreaterEqual",
    "TargetParam": 5,
    "HintStep": [
      0,
      1
    ],
    "IsFixableHeight": false,
    "TargetName": {
      "Hash": 1131920212
    },
    "TargetNameSimple": {
      "Hash": 260471118
    },
    "MultiTarget": []
  },
  {
    "ID": 5001211,
    "Type": "ChallengeTarget",
    "AbilityName": "ActivitySummon_BattleTarget_Upgrade",
    "ParamType": "GreaterEqual",
    "TargetParam": 1,
    "HintStep": [
      0,
      1
    ],
    "IsFixableHeight": false,
    "TargetName": {
      "Hash": 1131920213
    },
    "TargetNameSimple": {
      "Hash": 260471119
    },
    "MultiTarget": []
  },
  {
    "ID": 5001212,
    "Type": "ChallengeTarget",
    "AbilityName": "ActivitySummon_BattleTarget_2",
    "ParamType": "GreaterEqual",
    "TargetParam": 5,
    "HintStep": [
      0,
      1
    ],
    "IsFixableHeight": false,
    "TargetName": {
      "Hash": 1131920210
    },
    "TargetNameSimple": {
      "Hash": 260471116
    },
    "MultiTarget": []
  },
  {
    "ID": 5001213,
    "Type": "ChallengeTarget",
    "AbilityName": "ActivitySummon_BattleTarget_3",
    "ParamType": "GreaterEqual",
    "TargetParam": 5,
    "HintStep": [
      0,
      1
    ],
    "IsFixableHeight": false,
    "TargetName": {
      "Hash": 1131920211
    },
    "TargetNameSimple": {
      "Hash": 260471117
    },
    "MultiTarget": []
  },
  {
    "ID": 5001214,
    "Type": "ChallengeTarget",
    "AbilityName": "ActivitySummon_BattleTarget_BombCount",
    "ParamType": "GreaterEqual",
    "TargetParam": 1,
    "HintStep": [
      0,
      1
    ],
    "IsFixableHeight": false,
    "TargetName": {
      "Hash": 1131920208
    },
    "TargetNameSimple": {
      "Hash": 260471122
    },
    "MultiTarget": []
  },
  {
    "ID": 5001215,
    "Type": "ChallengeTarget",
    "AbilityName": "ActivitySummon_BattleTarget_2",
    "ParamType": "GreaterEqual",
    "TargetParam": 5,
    "HintStep": [
      0,
      1
    ],
    "IsFixableHeight": false,
    "TargetName": {
      "Hash": 1131920209
    },
    "TargetNameSimple": {
      "Hash": 260471123
    },
    "MultiTarget": []
  },
  {
    "ID": 5001216,
    "Type": "ChallengeTarget",
    "AbilityName": "ActivitySummon_BattleTarget_3",
    "ParamType": "GreaterEqual",
    "TargetParam": 5,
    "HintStep": [
      0,
      1
    ],
    "IsFixableHeight": false,
    "TargetName": {
      "Hash": 1131920206
    },
    "TargetNameSimple": {
      "Hash": 260471120
    },
    "MultiTarget": []
  },
  {
    "ID": 5001301,
    "Type": "ChallengeTarget",
    "AbilityName": "BattleTarget_FightFest_Wave1",
    "ParamType": "GreaterEqual",
    "TargetParam": 1,
    "HintStep": [
      0,
      1
    ],
    "IsFixableHeight": false,
    "TargetName": {
      "Hash": -1596963175
    },
    "TargetNameSimple": {
      "Hash": 1826555027
    },
    "MultiTarget": [],
    "IconType": "Round"
  },
  {
    "ID": 5001302,
    "Type": "ChallengeTarget",
    "AbilityName": "BattleTarget_FightFest_Wave2",
    "ParamType": "GreaterEqual",
    "TargetParam": 1,
    "HintStep": [
      0,
      1
    ],
    "IsFixableHeight": false,
    "TargetName": {
      "Hash": -1596963176
    },
    "TargetNameSimple": {
      "Hash": 1826555026
    },
    "MultiTarget": [],
    "IconType": "Round"
  },
  {
    "ID": 5001303,
    "Type": "ChallengeTarget",
    "AbilityName": "BattleTarget_FightFest_Wave3",
    "ParamType": "GreaterEqual",
    "TargetParam": 1,
    "HintStep": [
      0,
      1
    ],
    "IsFixableHeight": false,
    "TargetName": {
      "Hash": -1596963177
    },
    "TargetNameSimple": {
      "Hash": 1826555025
    },
    "MultiTarget": [],
    "IconType": "Round"
  },
  {
    "ID": 5001304,
    "Type": "ChallengeTarget",
    "AbilityName": "BattleTarget_FightFest_Fever",
    "ParamType": "GreaterEqual",
    "TargetParam": 1,
    "HintStep": [
      0,
      1
    ],
    "IsFixableHeight": false,
    "TargetName": {
      "Hash": -1596963178
    },
    "TargetNameSimple": {
      "Hash": 1826555032
    },
    "MultiTarget": [],
    "IconType": "Round"
  },
  {
    "ID": 5001401,
    "Type": "ChallengeTarget",
    "AbilityName": "BattleTarget_RogueMagic_MiddleElite_1",
    "ParamType": "GreaterEqual",
    "TargetParam": 1,
    "HintStep": [
      0,
      1
    ],
    "IsFixableHeight": false,
    "TargetName": {
      "Hash": -1596963340
    },
    "TargetNameSimple": {
      "Hash": 1826555126
    },
    "MultiTarget": [],
    "IconType": "Round"
  },
  {
    "ID": 5001402,
    "Type": "ChallengeTarget",
    "AbilityName": "BattleTarget_RogueMagic_MiddleElite_2",
    "ParamType": "GreaterEqual",
    "TargetParam": 1,
    "HintStep": [
      0,
      1
    ],
    "IsFixableHeight": false,
    "TargetName": {
      "Hash": -1596963339
    },
    "TargetNameSimple": {
      "Hash": 1826555127
    },
    "MultiTarget": [],
    "IconType": "Round"
  },
  {
    "ID": 5001501,
    "Type": "ChallengeTarget",
    "AbilityName": "",
    "ParamType": "GreaterEqual",
    "TargetParam": 80000,
    "HintStep": [
      0,
      80000
    ],
    "IsShowProgress": 1,
    "IsFixableHeight": false,
    "TargetName": {
      "Hash": -1596963373
    },
    "TargetNameSimple": {
      "Hash": 1826555093
    },
    "MultiTarget": [
      30000,
      40000,
      60000
    ],
    "IconType": "Round"
  },
  {
    "ID": 5001502,
    "Type": "ChallengeTarget",
    "AbilityName": "",
    "ParamType": "GreaterEqual",
    "TargetParam": 80000,
    "HintStep": [
      0,
      80000
    ],
    "IsShowProgress": 1,
    "IsFixableHeight": false,
    "TargetName": {
      "Hash": -1596963370
    },
    "TargetNameSimple": {
      "Hash": 1826555096
    },
    "MultiTarget": [
      40000,
      60000
    ],
    "IconType": "Round"
  },
  {
    "ID": 5001503,
    "Type": "ChallengeTarget",
    "AbilityName": "",
    "ParamType": "GreaterEqual",
    "TargetParam": 10,
    "HintStep": [
      0,
      5
    ],
    "IsShowProgress": 1,
    "IsFixableHeight": false,
    "TargetName": {
      "Hash": -1596963371
    },
    "TargetNameSimple": {
      "Hash": 1826555095
    },
    "MultiTarget": [],
    "IconType": "Round"
  },
  {
    "ID": 5001504,
    "Type": "ChallengeTarget",
    "AbilityName": "",
    "ParamType": "GreaterEqual",
    "TargetParam": 8,
    "HintStep": [
      0,
      5
    ],
    "IsShowProgress": 1,
    "IsFixableHeight": false,
    "TargetName": {
      "Hash": -1596963368
    },
    "TargetNameSimple": {
      "Hash": 1826555090
    },
    "MultiTarget": [],
    "IconType": "Round"
  },
  {
    "ID": 5001505,
    "Type": "ChallengeTarget",
    "AbilityName": "",
    "ParamType": "GreaterEqual",
    "TargetParam": 15,
    "HintStep": [
      0,
      5
    ],
    "IsShowProgress": 1,
    "IsFixableHeight": false,
    "TargetName": {
      "Hash": -1596963369
    },
    "TargetNameSimple": {
      "Hash": 1826555089
    },
    "MultiTarget": [],
    "IconType": "Round"
  },
  {
    "ID": 5001506,
    "Type": "ChallengeTarget",
    "AbilityName": "",
    "ParamType": "GreaterEqual",
    "TargetParam": 8,
    "HintStep": [
      0,
      5
    ],
    "IsShowProgress": 1,
    "IsFixableHeight": false,
    "TargetName": {
      "Hash": -1596963366
    },
    "TargetNameSimple": {
      "Hash": 1826555092
    },
    "MultiTarget": [],
    "IconType": "Round"
  },
  {
    "ID": 9000101,
    "Type": "ChallengeTarget",
    "AbilityName": "BattleTarget_DeathCount",
    "ParamType": "Less",
    "TargetParam": 2,
    "HintStep": [
      0,
      1
    ],
    "IsShowProgress": 1,
    "TargetName": {
      "Hash": -292857578
    },
    "TargetNameSimple": {
      "Hash": -1164594168
    },
    "MultiTarget": []
  }
]