[
  {
    "BattleEventID": 11203,
    "Config": "",
    "Prefab": "",
    "LevelAreaPrefab": "",
    "BEActionBarPrefab": "",
    "BasePoint": "",
    "SkillIDList": []
  },
  {
    "BattleEventID": 11207,
    "Config": "",
    "Prefab": "",
    "LevelAreaPrefab": "",
    "BEActionBarPrefab": "",
    "BasePoint": "",
    "SkillIDList": []
  },
  {
    "BattleEventID": 20001,
    "Config": "",
    "Prefab": "",
    "LevelAreaPrefab": "",
    "BEActionBarPrefab": "",
    "BasePoint": "",
    "SkillIDList": []
  },
  {
    "BattleEventID": 20002,
    "Config": "",
    "Prefab": "",
    "LevelAreaPrefab": "",
    "BEActionBarPrefab": "",
    "BasePoint": "",
    "SkillIDList": []
  },
  {
    "BattleEventID": 30001,
    "Config": "",
    "Prefab": "",
    "LevelAreaPrefab": "",
    "BEActionBarPrefab": "",
    "BasePoint": "",
    "SkillIDList": []
  },
  {
    "BattleEventID": 30002,
    "Config": "",
    "Prefab": "",
    "LevelAreaPrefab": "",
    "BEActionBarPrefab": "",
    "BasePoint": "",
    "SkillIDList": []
  },
  {
    "BattleEventID": 30003,
    "Config": "",
    "Prefab": "",
    "LevelAreaPrefab": "",
    "BEActionBarPrefab": "",
    "BasePoint": "",
    "SkillIDList": []
  },
  {
    "BattleEventID": 30004,
    "Config": "",
    "Prefab": "",
    "LevelAreaPrefab": "",
    "BEActionBarPrefab": "",
    "BasePoint": "",
    "SkillIDList": []
  },
  {
    "BattleEventID": 30005,
    "Config": "",
    "Prefab": "",
    "LevelAreaPrefab": "",
    "BEActionBarPrefab": "",
    "BasePoint": "",
    "SkillIDList": []
  },
  {
    "BattleEventID": 30011,
    "Config": "",
    "Prefab": "",
    "LevelAreaPrefab": "",
    "BEActionBarPrefab": "",
    "BasePoint": "",
    "SkillIDList": []
  },
  {
    "BattleEventID": 30016,
    "Config": "",
    "Prefab": "",
    "LevelAreaPrefab": "",
    "BEActionBarPrefab": "",
    "BasePoint": "",
    "SkillIDList": []
  },
  {
    "BattleEventID": 30017,
    "Config": "",
    "Prefab": "",
    "LevelAreaPrefab": "",
    "BEActionBarPrefab": "",
    "BasePoint": "",
    "SkillIDList": []
  },
  {
    "BattleEventID": 30101,
    "Config": "",
    "Prefab": "",
    "LevelAreaPrefab": "",
    "BEActionBarPrefab": "",
    "BasePoint": "",
    "SkillIDList": []
  },
  {
    "BattleEventID": 30102,
    "Config": "",
    "Prefab": "",
    "LevelAreaPrefab": "",
    "BEActionBarPrefab": "",
    "BasePoint": "",
    "SkillIDList": []
  },
  {
    "BattleEventID": 30103,
    "Config": "",
    "Prefab": "",
    "LevelAreaPrefab": "",
    "BEActionBarPrefab": "",
    "BasePoint": "",
    "SkillIDList": []
  },
  {
    "BattleEventID": 30104,
    "Config": "",
    "Prefab": "",
    "LevelAreaPrefab": "",
    "BEActionBarPrefab": "",
    "BasePoint": "",
    "SkillIDList": []
  },
  {
    "BattleEventID": 30105,
    "Config": "",
    "Prefab": "",
    "LevelAreaPrefab": "",
    "BEActionBarPrefab": "",
    "BasePoint": "",
    "SkillIDList": []
  },
  {
    "BattleEventID": 30106,
    "Config": "",
    "Prefab": "",
    "LevelAreaPrefab": "",
    "BEActionBarPrefab": "",
    "BasePoint": "",
    "SkillIDList": []
  },
  {
    "BattleEventID": 30107,
    "Config": "",
    "Prefab": "",
    "LevelAreaPrefab": "",
    "BEActionBarPrefab": "",
    "BasePoint": "",
    "SkillIDList": []
  },
  {
    "BattleEventID": 30108,
    "Config": "",
    "Prefab": "",
    "LevelAreaPrefab": "",
    "BEActionBarPrefab": "",
    "BasePoint": "",
    "SkillIDList": []
  },
  {
    "BattleEventID": 30109,
    "Config": "",
    "Prefab": "",
    "LevelAreaPrefab": "",
    "BEActionBarPrefab": "",
    "BasePoint": "",
    "SkillIDList": []
  },
  {
    "BattleEventID": 30110,
    "Config": "",
    "Prefab": "",
    "LevelAreaPrefab": "",
    "BEActionBarPrefab": "",
    "BasePoint": "",
    "SkillIDList": []
  },
  {
    "BattleEventID": 30111,
    "Config": "",
    "Prefab": "",
    "LevelAreaPrefab": "",
    "BEActionBarPrefab": "",
    "BasePoint": "",
    "SkillIDList": []
  },
  {
    "BattleEventID": 30112,
    "Config": "",
    "Prefab": "",
    "LevelAreaPrefab": "",
    "BEActionBarPrefab": "",
    "BasePoint": "",
    "SkillIDList": []
  },
  {
    "BattleEventID": 40001,
    "Config": "",
    "Prefab": "",
    "LevelAreaPrefab": "",
    "BEActionBarPrefab": "",
    "BasePoint": "",
    "SkillIDList": []
  },
  {
    "BattleEventID": 40002,
    "Config": "",
    "Prefab": "",
    "LevelAreaPrefab": "",
    "BEActionBarPrefab": "",
    "BasePoint": "",
    "SkillIDList": []
  },
  {
    "BattleEventID": 40003,
    "Config": "",
    "Prefab": "",
    "LevelAreaPrefab": "",
    "BEActionBarPrefab": "",
    "BasePoint": "",
    "SkillIDList": []
  },
  {
    "BattleEventID": 40004,
    "Config": "",
    "Prefab": "",
    "LevelAreaPrefab": "",
    "BEActionBarPrefab": "",
    "BasePoint": "",
    "SkillIDList": []
  },
  {
    "BattleEventID": 40005,
    "Config": "",
    "Prefab": "",
    "LevelAreaPrefab": "",
    "BEActionBarPrefab": "",
    "BasePoint": "",
    "SkillIDList": []
  },
  {
    "BattleEventID": 40006,
    "Config": "",
    "Prefab": "",
    "LevelAreaPrefab": "",
    "BEActionBarPrefab": "",
    "BasePoint": "",
    "SkillIDList": []
  },
  {
    "BattleEventID": 40007,
    "Config": "",
    "Prefab": "",
    "LevelAreaPrefab": "",
    "BEActionBarPrefab": "",
    "BasePoint": "",
    "SkillIDList": []
  },
  {
    "BattleEventID": 41001,
    "Config": "Config/ConfigCharacter/BattleEvent/Avatar_RogueBattleevent120_Config.json",
    "Prefab": "",
    "LevelAreaPrefab": "",
    "BEActionBarPrefab": "",
    "BasePoint": "",
    "SkillIDList": [
      4100101,
      4100102
    ],
    "IsSPReserved": true
  },
  {
    "BattleEventID": 41002,
    "Config": "Config/ConfigCharacter/BattleEvent/Avatar_RogueBattleevent122_Config.json",
    "Prefab": "",
    "LevelAreaPrefab": "",
    "BEActionBarPrefab": "",
    "BasePoint": "",
    "SkillIDList": [
      4100201,
      4100202
    ],
    "IsSPReserved": true
  },
  {
    "BattleEventID": 41003,
    "Config": "Config/ConfigCharacter/BattleEvent/Avatar_RogueBattleevent123_Config.json",
    "Prefab": "",
    "LevelAreaPrefab": "",
    "BEActionBarPrefab": "",
    "BasePoint": "",
    "SkillIDList": [
      4100301,
      4100302
    ],
    "IsSPReserved": true
  },
  {
    "BattleEventID": 41004,
    "Config": "Config/ConfigCharacter/BattleEvent/Avatar_RogueBattleevent124_Config.json",
    "Prefab": "",
    "LevelAreaPrefab": "",
    "BEActionBarPrefab": "",
    "BasePoint": "",
    "SkillIDList": [
      4100401,
      4100402
    ],
    "IsSPReserved": true
  },
  {
    "BattleEventID": 41005,
    "Config": "Config/ConfigCharacter/BattleEvent/Avatar_RogueBattleevent125_Config.json",
    "Prefab": "",
    "LevelAreaPrefab": "",
    "BEActionBarPrefab": "",
    "BasePoint": "",
    "SkillIDList": [
      4100501,
      4100502
    ],
    "IsSPReserved": true
  },
  {
    "BattleEventID": 41006,
    "Config": "Config/ConfigCharacter/BattleEvent/Avatar_RogueBattleevent121_Config.json",
    "Prefab": "",
    "LevelAreaPrefab": "",
    "BEActionBarPrefab": "",
    "BasePoint": "",
    "SkillIDList": [
      4100601,
      4100602
    ],
    "IsSPReserved": true
  },
  {
    "BattleEventID": 41007,
    "Config": "Config/ConfigCharacter/BattleEvent/Avatar_RogueBattleevent126_Config.json",
    "Prefab": "",
    "LevelAreaPrefab": "",
    "BEActionBarPrefab": "",
    "BasePoint": "",
    "SkillIDList": [
      4100701,
      4100702
    ],
    "IsSPReserved": true
  },
  {
    "BattleEventID": 48001,
    "Config": "",
    "Prefab": "",
    "LevelAreaPrefab": "",
    "BEActionBarPrefab": "",
    "BasePoint": "",
    "SkillIDList": []
  },
  {
    "BattleEventID": 49001,
    "Config": "",
    "Prefab": "",
    "LevelAreaPrefab": "",
    "BEActionBarPrefab": "",
    "BasePoint": "",
    "SkillIDList": []
  },
  {
    "BattleEventID": 60002,
    "Config": "",
    "Prefab": "",
    "LevelAreaPrefab": "",
    "BEActionBarPrefab": "",
    "BasePoint": "",
    "SkillIDList": [
      908003,
      908004
    ],
    "IsSPReserved": true
  },
  {
    "BattleEventID": 60003,
    "Config": "",
    "Prefab": "",
    "LevelAreaPrefab": "",
    "BEActionBarPrefab": "",
    "BasePoint": "",
    "SkillIDList": [
      909003,
      909004
    ],
    "IsSPReserved": true
  },
  {
    "BattleEventID": 90001,
    "Config": "",
    "Prefab": "Level/Maze/Puzzle/Challenge/ChallengeBattleEvent.prefab",
    "LevelAreaPrefab": "",
    "BEActionBarPrefab": "",
    "BasePoint": "BattleEventAnchor_1",
    "SkillIDList": []
  },
  {
    "BattleEventID": 90002,
    "Config": "",
    "Prefab": "",
    "LevelAreaPrefab": "",
    "BEActionBarPrefab": "",
    "BasePoint": "",
    "SkillIDList": []
  },
  {
    "BattleEventID": 90003,
    "Config": "",
    "Prefab": "",
    "LevelAreaPrefab": "",
    "BEActionBarPrefab": "",
    "BasePoint": "",
    "SkillIDList": []
  },
  {
    "BattleEventID": 90004,
    "Config": "",
    "Prefab": "",
    "LevelAreaPrefab": "",
    "BEActionBarPrefab": "",
    "BasePoint": "",
    "SkillIDList": []
  },
  {
    "BattleEventID": 90005,
    "Config": "",
    "Prefab": "",
    "LevelAreaPrefab": "",
    "BEActionBarPrefab": "",
    "BasePoint": "",
    "SkillIDList": []
  },
  {
    "BattleEventID": 95001,
    "Config": "",
    "Prefab": "",
    "LevelAreaPrefab": "",
    "BEActionBarPrefab": "",
    "BasePoint": "",
    "SkillIDList": []
  },
  {
    "BattleEventID": 95002,
    "Config": "",
    "Prefab": "",
    "LevelAreaPrefab": "",
    "BEActionBarPrefab": "",
    "BasePoint": "",
    "SkillIDList": []
  },
  {
    "BattleEventID": 95003,
    "Config": "",
    "Prefab": "",
    "LevelAreaPrefab": "",
    "BEActionBarPrefab": "",
    "BasePoint": "",
    "SkillIDList": []
  },
  {
    "BattleEventID": 95004,
    "Config": "",
    "Prefab": "",
    "LevelAreaPrefab": "",
    "BEActionBarPrefab": "",
    "BasePoint": "",
    "SkillIDList": []
  },
  {
    "BattleEventID": 95005,
    "Config": "",
    "Prefab": "",
    "LevelAreaPrefab": "",
    "BEActionBarPrefab": "",
    "BasePoint": "",
    "SkillIDList": []
  },
  {
    "BattleEventID": 96001,
    "Config": "",
    "Prefab": "",
    "LevelAreaPrefab": "",
    "BEActionBarPrefab": "",
    "BasePoint": "",
    "SkillIDList": []
  },
  {
    "BattleEventID": 96003,
    "Config": "Config/ConfigCharacter/WhiteBox/Avatar/W_Silwolf_BattleEvent_Config.json",
    "Prefab": "Characters/CharacterPrefabs/Avatar/Silwolf_00/Avatar_Silwolf_00.prefab",
    "LevelAreaPrefab": "",
    "BEActionBarPrefab": "",
    "BasePoint": "",
    "SkillIDList": [
      9600301,
      9600302,
      9600303,
      9600304,
      9600305
    ]
  },
  {
    "BattleEventID": 96004,
    "Config": "Config/ConfigCharacter/WhiteBox/Avatar/W_Activity_SummonMonster_BE_Config.json",
    "Prefab": "Characters/CharacterPrefabs/Avatar/Bronya_00/Avatar_Bronya_00.prefab",
    "LevelAreaPrefab": "",
    "BEActionBarPrefab": "",
    "BasePoint": "",
    "SkillIDList": [
      9600401,
      9600402,
      9600403,
      9600404,
      9600405
    ]
  },
  {
    "BattleEventID": 98001,
    "Config": "",
    "Prefab": "",
    "LevelAreaPrefab": "",
    "BEActionBarPrefab": "",
    "BasePoint": "",
    "SkillIDList": []
  },
  {
    "BattleEventID": 90006,
    "Config": "",
    "Prefab": "",
    "LevelAreaPrefab": "",
    "BEActionBarPrefab": "",
    "BasePoint": "",
    "SkillIDList": []
  },
  {
    "BattleEventID": 90007,
    "Config": "",
    "Prefab": "",
    "LevelAreaPrefab": "",
    "BEActionBarPrefab": "",
    "BasePoint": "",
    "SkillIDList": []
  },
  {
    "BattleEventID": 96005,
    "Config": "Config/ConfigCharacter/WhiteBox/Avatar/Vanish_BattleEvent_Config.json",
    "Prefab": "",
    "LevelAreaPrefab": "",
    "BEActionBarPrefab": "",
    "BasePoint": "",
    "SkillIDList": [
      9600501,
      9600305
    ]
  },
  {
    "BattleEventID": 96006,
    "Config": "Config/ConfigCharacter/WhiteBox/BattleEvent/W_AccelerateButton_Config.json",
    "Prefab": "",
    "LevelAreaPrefab": "",
    "BEActionBarPrefab": "",
    "BasePoint": "",
    "SkillIDList": [
      9600604,
      9600605
    ]
  },
  {
    "BattleEventID": 96007,
    "Config": "Config/ConfigCharacter/WhiteBox/BattleEvent/W_DelayMonsterButton_Config.json",
    "Prefab": "",
    "LevelAreaPrefab": "",
    "BEActionBarPrefab": "",
    "BasePoint": "",
    "SkillIDList": [
      9600704,
      9600705
    ]
  },
  {
    "BattleEventID": 90009,
    "Config": "",
    "Prefab": "",
    "LevelAreaPrefab": "",
    "BEActionBarPrefab": "",
    "BasePoint": "",
    "SkillIDList": []
  },
  {
    "BattleEventID": 96010,
    "Config": "Config/ConfigCharacter/WhiteBox/BattleEvent/W_AccelerateButtonByWeakBreak_Config.json",
    "Prefab": "",
    "LevelAreaPrefab": "",
    "BEActionBarPrefab": "",
    "BasePoint": "",
    "SkillIDList": [
      9601004,
      9601005
    ]
  },
  {
    "BattleEventID": 96011,
    "Config": "Config/ConfigCharacter/WhiteBox/BattleEvent/W_CreateStageBEButton_Config.json",
    "Prefab": "",
    "LevelAreaPrefab": "",
    "BEActionBarPrefab": "",
    "BasePoint": "",
    "SkillIDList": [
      9601104,
      9601105,
      9601106,
      9601107
    ]
  },
  {
    "BattleEventID": 96012,
    "Config": "Config/ConfigCharacter/WhiteBox/BattleEvent/W_AutoMemberExchange_Config.json",
    "Prefab": "",
    "LevelAreaPrefab": "",
    "BEActionBarPrefab": "",
    "BasePoint": "",
    "SkillIDList": [
      9601201,
      9601205
    ]
  },
  {
    "BattleEventID": 96013,
    "Config": "Config/ConfigCharacter/WhiteBox/BattleEvent/W_RollBackStateBEButton_Config.json",
    "Prefab": "",
    "LevelAreaPrefab": "",
    "BEActionBarPrefab": "",
    "BasePoint": "",
    "SkillIDList": [
      9601304,
      9601305,
      9601306,
      9601307
    ]
  },
  {
    "BattleEventID": 96014,
    "Config": "Config/ConfigCharacter/WhiteBox/BattleEvent/W_TimeLockButton_Config.json",
    "Prefab": "",
    "LevelAreaPrefab": "",
    "BEActionBarPrefab": "",
    "BasePoint": "",
    "SkillIDList": [
      9601404,
      9601405
    ]
  },
  {
    "BattleEventID": 96015,
    "Config": "",
    "Prefab": "",
    "LevelAreaPrefab": "",
    "BEActionBarPrefab": "",
    "BasePoint": "",
    "SkillIDList": []
  },
  {
    "BattleEventID": 96016,
    "Config": "Config/ConfigCharacter/WhiteBox/Avatar/W_Activity_Summon3Monster_BE_Config.json",
    "Prefab": "Characters/CharacterPrefabs/Avatar/PlayerGirl_00/Avatar_PlayerGirl_00.prefab",
    "LevelAreaPrefab": "",
    "BEActionBarPrefab": "",
    "BasePoint": "",
    "SkillIDList": [
      9601601,
      9601602,
      9601603,
      9601604,
      9601605
    ]
  },
  {
    "BattleEventID": 96017,
    "Config": "",
    "Prefab": "",
    "LevelAreaPrefab": "",
    "BEActionBarPrefab": "",
    "BasePoint": "",
    "SkillIDList": []
  },
  {
    "BattleEventID": 96018,
    "Config": "",
    "Prefab": "",
    "LevelAreaPrefab": "",
    "BEActionBarPrefab": "",
    "BasePoint": "",
    "SkillIDList": []
  },
  {
    "BattleEventID": 96019,
    "Config": "Config/ConfigCharacter/WhiteBox/BattleEvent/W_InBattleItemBE01_Config.json",
    "Prefab": "",
    "LevelAreaPrefab": "",
    "BEActionBarPrefab": "",
    "BasePoint": "",
    "SkillIDList": [
      9601904,
      9601905,
      9601906,
      9601907
    ]
  },
  {
    "BattleEventID": 96020,
    "Config": "Config/ConfigCharacter/WhiteBox/BattleEvent/W_InBattleItemBE02_Config.json",
    "Prefab": "",
    "LevelAreaPrefab": "",
    "BEActionBarPrefab": "",
    "BasePoint": "",
    "SkillIDList": [
      9602004,
      9602005,
      9602006,
      9602007
    ]
  },
  {
    "BattleEventID": 96021,
    "Config": "Config/ConfigCharacter/WhiteBox/BattleEvent/W_InBattleItemBE03_Config.json",
    "Prefab": "",
    "LevelAreaPrefab": "",
    "BEActionBarPrefab": "",
    "BasePoint": "",
    "SkillIDList": [
      9602104,
      9602105
    ]
  },
  {
    "BattleEventID": 96022,
    "Config": "",
    "Prefab": "",
    "LevelAreaPrefab": "",
    "BEActionBarPrefab": "",
    "BasePoint": "",
    "SkillIDList": []
  },
  {
    "BattleEventID": 98002,
    "Config": "",
    "Prefab": "",
    "LevelAreaPrefab": "",
    "BEActionBarPrefab": "",
    "BasePoint": "",
    "SkillIDList": []
  },
  {
    "BattleEventID": 30018,
    "Config": "",
    "Prefab": "",
    "LevelAreaPrefab": "",
    "BEActionBarPrefab": "",
    "BasePoint": "",
    "SkillIDList": []
  },
  {
    "BattleEventID": 30019,
    "Config": "",
    "Prefab": "",
    "LevelAreaPrefab": "",
    "BEActionBarPrefab": "",
    "BasePoint": "",
    "SkillIDList": []
  },
  {
    "BattleEventID": 30020,
    "Config": "",
    "Prefab": "",
    "LevelAreaPrefab": "",
    "BEActionBarPrefab": "",
    "BasePoint": "",
    "SkillIDList": []
  },
  {
    "BattleEventID": 30021,
    "Config": "",
    "Prefab": "",
    "LevelAreaPrefab": "",
    "BEActionBarPrefab": "",
    "BasePoint": "",
    "SkillIDList": []
  },
  {
    "BattleEventID": 30022,
    "Config": "",
    "Prefab": "",
    "LevelAreaPrefab": "",
    "BEActionBarPrefab": "",
    "BasePoint": "",
    "SkillIDList": []
  },
  {
    "BattleEventID": 30023,
    "Config": "",
    "Prefab": "",
    "LevelAreaPrefab": "",
    "BEActionBarPrefab": "",
    "BasePoint": "",
    "SkillIDList": []
  },
  {
    "BattleEventID": 30024,
    "Config": "",
    "Prefab": "",
    "LevelAreaPrefab": "",
    "BEActionBarPrefab": "",
    "BasePoint": "",
    "SkillIDList": []
  },
  {
    "BattleEventID": 96024,
    "Config": "Config/ConfigCharacter/BattleEvent/Activity_TreasureActivity_ExecuteItem.json",
    "Prefab": "",
    "LevelAreaPrefab": "",
    "BEActionBarPrefab": "",
    "BasePoint": "",
    "SkillIDList": [
      9602404,
      9602405
    ]
  },
  {
    "BattleEventID": 96025,
    "Config": "Config/ConfigCharacter/BattleEvent/Activity_TreasureActivity_SingleBuffItem.json",
    "Prefab": "",
    "LevelAreaPrefab": "",
    "BEActionBarPrefab": "",
    "BasePoint": "",
    "SkillIDList": [
      9602504,
      9602505
    ]
  },
  {
    "BattleEventID": 96026,
    "Config": "Config/ConfigCharacter/WhiteBox/BattleEvent/W_TreasureActivity_WeakDamageEnhanceItem.json",
    "Prefab": "",
    "LevelAreaPrefab": "",
    "BEActionBarPrefab": "",
    "BasePoint": "",
    "SkillIDList": [
      9602604,
      9602605
    ]
  },
  {
    "BattleEventID": 96027,
    "Config": "Config/ConfigCharacter/WhiteBox/BattleEvent/W_TreasureActivity_WeakBombItem.json",
    "Prefab": "",
    "LevelAreaPrefab": "",
    "BEActionBarPrefab": "",
    "BasePoint": "",
    "SkillIDList": [
      9602704,
      9602705
    ]
  },
  {
    "BattleEventID": 96028,
    "Config": "Config/ConfigCharacter/BattleEvent/Activity_TreasureActivity_RecoverSPItem.json",
    "Prefab": "",
    "LevelAreaPrefab": "",
    "BEActionBarPrefab": "",
    "BasePoint": "",
    "SkillIDList": [
      9602804,
      9602805
    ]
  },
  {
    "BattleEventID": 16007,
    "Config": "Config/ConfigCharacter/Avatar/Avatar_AetherDivide_W2_Beast01_02_Config.json",
    "Prefab": "Characters/CharacterPrefabs/Avatar/Activity/AetherDivide/AetherDivide_W2_Beast01_02/Avatar_AetherDivide_W2_Beast01_02.prefab",
    "LevelAreaPrefab": "",
    "BEActionBarPrefab": "",
    "BasePoint": "",
    "SkillIDList": [],
    "IsSPReserved": true
  },
  {
    "BattleEventID": 16010,
    "Config": "",
    "Prefab": "",
    "LevelAreaPrefab": "",
    "BEActionBarPrefab": "",
    "BasePoint": "",
    "SkillIDList": []
  },
  {
    "BattleEventID": 16011,
    "Config": "Config/ConfigCharacter/Avatar/Avatar_AetherDivide_W2_Mecha03_00_BE_Config.json",
    "Prefab": "Characters/CharacterPrefabs/Avatar/Activity/AetherDivide/AetherDivide_W2_Mecha02_00/Avatar_AetherDivide_W2_Mecha02_00.prefab",
    "LevelAreaPrefab": "",
    "BEActionBarPrefab": "",
    "BasePoint": "",
    "SkillIDList": [],
    "IsSPReserved": true
  },
  {
    "BattleEventID": 41008,
    "Config": "Config/ConfigCharacter/BattleEvent/Avatar_RogueBattleevent127_Config.json",
    "Prefab": "",
    "LevelAreaPrefab": "",
    "BEActionBarPrefab": "",
    "BasePoint": "",
    "SkillIDList": [
      4100801,
      4100802
    ],
    "IsSPReserved": true
  },
  {
    "BattleEventID": 60006,
    "Config": "Config/ConfigCharacter/BattleEvent/Avatar_MissionBattleEvent60006_Config.json",
    "Prefab": "Characters/CharacterPrefabs/Avatar/DanHengIL_00/Avatar_DanHengIL_00.prefab",
    "LevelAreaPrefab": "",
    "BEActionBarPrefab": "",
    "BasePoint": "",
    "SkillIDList": [
      6000601,
      6000602
    ]
  },
  {
    "BattleEventID": 96031,
    "Config": "Config/ConfigCharacter/WhiteBox/BattleEvent/W_TreasureActivity_SingleDamageItem.json",
    "Prefab": "",
    "LevelAreaPrefab": "",
    "BEActionBarPrefab": "",
    "BasePoint": "",
    "SkillIDList": [
      9603104,
      9603105
    ]
  },
  {
    "BattleEventID": 96032,
    "Config": "Config/ConfigCharacter/BattleEvent/Activity_TreasureActivity_BPSkillBoostItem.json",
    "Prefab": "",
    "LevelAreaPrefab": "",
    "BEActionBarPrefab": "",
    "BasePoint": "",
    "SkillIDList": [
      9603204,
      9603205
    ]
  },
  {
    "BattleEventID": 96033,
    "Config": "Config/ConfigCharacter/BattleEvent/Activity_TreasureActivity_AddWeakPointItem.json",
    "Prefab": "",
    "LevelAreaPrefab": "",
    "BEActionBarPrefab": "",
    "BasePoint": "",
    "SkillIDList": [
      9603304,
      9603305
    ]
  },
  {
    "BattleEventID": 96034,
    "Config": "Config/ConfigCharacter/WhiteBox/BattleEvent/W_TreasureActivity_NormalSkillBoostItem.json",
    "Prefab": "",
    "LevelAreaPrefab": "",
    "BEActionBarPrefab": "",
    "BasePoint": "",
    "SkillIDList": [
      9603404,
      9603405
    ]
  },
  {
    "BattleEventID": 96035,
    "Config": "Config/ConfigCharacter/WhiteBox/BattleEvent/W_TreasureActivity_DamageTakenAddItem.json",
    "Prefab": "",
    "LevelAreaPrefab": "",
    "BEActionBarPrefab": "",
    "BasePoint": "",
    "SkillIDList": [
      9603504,
      9603505
    ]
  },
  {
    "BattleEventID": 96036,
    "Config": "",
    "Prefab": "",
    "LevelAreaPrefab": "",
    "BEActionBarPrefab": "",
    "BasePoint": "",
    "SkillIDList": []
  },
  {
    "BattleEventID": 30031,
    "Config": "",
    "Prefab": "",
    "LevelAreaPrefab": "",
    "BEActionBarPrefab": "",
    "BasePoint": "",
    "SkillIDList": []
  },
  {
    "BattleEventID": 30032,
    "Config": "",
    "Prefab": "",
    "LevelAreaPrefab": "",
    "BEActionBarPrefab": "",
    "BasePoint": "",
    "SkillIDList": []
  },
  {
    "BattleEventID": 30033,
    "Config": "",
    "Prefab": "",
    "LevelAreaPrefab": "",
    "BEActionBarPrefab": "",
    "BasePoint": "",
    "SkillIDList": []
  },
  {
    "BattleEventID": 30034,
    "Config": "",
    "Prefab": "",
    "LevelAreaPrefab": "",
    "BEActionBarPrefab": "",
    "BasePoint": "",
    "SkillIDList": []
  },
  {
    "BattleEventID": 30035,
    "Config": "",
    "Prefab": "",
    "LevelAreaPrefab": "",
    "BEActionBarPrefab": "",
    "BasePoint": "",
    "SkillIDList": []
  },
  {
    "BattleEventID": 60007,
    "Config": "",
    "Prefab": "",
    "LevelAreaPrefab": "",
    "BEActionBarPrefab": "",
    "BasePoint": "",
    "SkillIDList": []
  },
  {
    "BattleEventID": 30036,
    "Config": "",
    "Prefab": "",
    "LevelAreaPrefab": "",
    "BEActionBarPrefab": "",
    "BasePoint": "",
    "SkillIDList": []
  },
  {
    "BattleEventID": 96029,
    "Config": "",
    "Prefab": "",
    "LevelAreaPrefab": "",
    "BEActionBarPrefab": "",
    "BasePoint": "",
    "SkillIDList": [
      9602905
    ]
  },
  {
    "BattleEventID": 11216,
    "Config": "Config/ConfigCharacter/Avatar/Avatar_Topaz_00_BE_Config.json",
    "Prefab": "Characters/CharacterPrefabs/Avatar/Topaz_00/Avatar_Topaz_00_BE.prefab",
    "LevelAreaPrefab": "",
    "BEActionBarPrefab": "",
    "BasePoint": "",
    "SkillIDList": [
      1121604
    ],
    "IsSPReserved": true
  },
  {
    "BattleEventID": 30113,
    "Config": "",
    "Prefab": "",
    "LevelAreaPrefab": "",
    "BEActionBarPrefab": "",
    "BasePoint": "",
    "SkillIDList": []
  },
  {
    "BattleEventID": 30114,
    "Config": "",
    "Prefab": "",
    "LevelAreaPrefab": "",
    "BEActionBarPrefab": "",
    "BasePoint": "",
    "SkillIDList": []
  },
  {
    "BattleEventID": 30115,
    "Config": "",
    "Prefab": "",
    "LevelAreaPrefab": "",
    "BEActionBarPrefab": "",
    "BasePoint": "",
    "SkillIDList": []
  },
  {
    "BattleEventID": 42001,
    "Config": "",
    "Prefab": "",
    "LevelAreaPrefab": "",
    "BEActionBarPrefab": "",
    "BasePoint": "",
    "SkillIDList": []
  },
  {
    "BattleEventID": 96038,
    "Config": "",
    "Prefab": "",
    "LevelAreaPrefab": "",
    "BEActionBarPrefab": "",
    "BasePoint": "",
    "SkillIDList": [
      9603801
    ],
    "IsSPReserved": true
  },
  {
    "BattleEventID": 48002,
    "Config": "",
    "Prefab": "",
    "LevelAreaPrefab": "",
    "BEActionBarPrefab": "",
    "BasePoint": "",
    "SkillIDList": []
  },
  {
    "BattleEventID": 42002,
    "Config": "Config/ConfigCharacter/BattleEvent/Avatar_RogueDLCBattleevent42002_Config.json",
    "Prefab": "",
    "LevelAreaPrefab": "",
    "BEActionBarPrefab": "",
    "BasePoint": "",
    "SkillIDList": []
  },
  {
    "BattleEventID": 42003,
    "Config": "Config/ConfigCharacter/BattleEvent/Avatar_RogueDLCBattleevent42003_Config.json",
    "Prefab": "",
    "LevelAreaPrefab": "",
    "BEActionBarPrefab": "",
    "BasePoint": "",
    "SkillIDList": []
  },
  {
    "BattleEventID": 61001,
    "Config": "Config/ConfigCharacter/BattleEvent/Avatar_HeliobusActionAbilityForceBreak_Config.json",
    "Prefab": "",
    "LevelAreaPrefab": "",
    "BEActionBarPrefab": "",
    "BasePoint": "",
    "SkillIDList": [
      6100101
    ]
  },
  {
    "BattleEventID": 61002,
    "Config": "Config/ConfigCharacter/BattleEvent/Avatar_HeliobusActionAbilityBPRecover_Config.json",
    "Prefab": "",
    "LevelAreaPrefab": "",
    "BEActionBarPrefab": "",
    "BasePoint": "",
    "SkillIDList": [
      6100201
    ]
  },
  {
    "BattleEventID": 61003,
    "Config": "Config/ConfigCharacter/BattleEvent/Avatar_HeliobusActionAbilitySPRecover_Config.json",
    "Prefab": "",
    "LevelAreaPrefab": "",
    "BEActionBarPrefab": "",
    "BasePoint": "",
    "SkillIDList": [
      6100301
    ]
  },
  {
    "BattleEventID": 61004,
    "Config": "Config/ConfigCharacter/BattleEvent/Avatar_HeliobusActionAbilityBoomerang_Config.json",
    "Prefab": "",
    "LevelAreaPrefab": "",
    "BEActionBarPrefab": "",
    "BasePoint": "",
    "SkillIDList": [
      6100401
    ]
  },
  {
    "BattleEventID": 61005,
    "Config": "Config/ConfigCharacter/BattleEvent/Avatar_HeliobusActionAbilityDelayAction_Config.json",
    "Prefab": "",
    "LevelAreaPrefab": "",
    "BEActionBarPrefab": "",
    "BasePoint": "",
    "SkillIDList": [
      6100501
    ]
  },
  {
    "BattleEventID": 61006,
    "Config": "Config/ConfigCharacter/BattleEvent/Avatar_HeliobusActionAbilitySetBoom_Config.json",
    "Prefab": "",
    "LevelAreaPrefab": "",
    "BEActionBarPrefab": "",
    "BasePoint": "",
    "SkillIDList": [
      6100601
    ]
  },
  {
    "BattleEventID": 61007,
    "Config": "Config/ConfigCharacter/BattleEvent/Avatar_HeliobusActionAbilityDamageReflect_Config.json",
    "Prefab": "",
    "LevelAreaPrefab": "",
    "BEActionBarPrefab": "",
    "BasePoint": "",
    "SkillIDList": [
      6100701
    ]
  },
  {
    "BattleEventID": 61008,
    "Config": "Config/ConfigCharacter/BattleEvent/Avatar_HeliobusActionAbilityFormChange_Config.json",
    "Prefab": "",
    "LevelAreaPrefab": "",
    "BEActionBarPrefab": "",
    "BasePoint": "",
    "SkillIDList": [
      6100801
    ]
  },
  {
    "BattleEventID": 96039,
    "Config": "",
    "Prefab": "",
    "LevelAreaPrefab": "",
    "BEActionBarPrefab": "",
    "BasePoint": "",
    "SkillIDList": []
  },
  {
    "BattleEventID": 60008,
    "Config": "Config/ConfigCharacter/BattleEvent/Avatar_MissionBattleEvent60008_Config.json",
    "Prefab": "Characters/CharacterPrefabs/Avatar/Huohuo_00/Avatar_Huohuo_00_NoTail.prefab",
    "LevelAreaPrefab": "",
    "BEActionBarPrefab": "",
    "BasePoint": "",
    "SkillIDList": [
      6000801
    ]
  },
  {
    "BattleEventID": 30116,
    "Config": "",
    "Prefab": "",
    "LevelAreaPrefab": "",
    "BEActionBarPrefab": "",
    "BasePoint": "",
    "SkillIDList": []
  },
  {
    "BattleEventID": 30117,
    "Config": "",
    "Prefab": "",
    "LevelAreaPrefab": "",
    "BEActionBarPrefab": "",
    "BasePoint": "",
    "SkillIDList": []
  },
  {
    "BattleEventID": 48003,
    "Config": "",
    "Prefab": "",
    "LevelAreaPrefab": "",
    "BEActionBarPrefab": "",
    "BasePoint": "",
    "SkillIDList": []
  },
  {
    "BattleEventID": 30119,
    "Config": "",
    "Prefab": "",
    "LevelAreaPrefab": "",
    "BEActionBarPrefab": "",
    "BasePoint": "",
    "SkillIDList": []
  },
  {
    "BattleEventID": 30120,
    "Config": "",
    "Prefab": "",
    "LevelAreaPrefab": "",
    "BEActionBarPrefab": "",
    "BasePoint": "",
    "SkillIDList": []
  },
  {
    "BattleEventID": 30121,
    "Config": "",
    "Prefab": "",
    "LevelAreaPrefab": "",
    "BEActionBarPrefab": "",
    "BasePoint": "",
    "SkillIDList": []
  },
  {
    "BattleEventID": 61009,
    "Config": "",
    "Prefab": "",
    "LevelAreaPrefab": "",
    "BEActionBarPrefab": "",
    "BasePoint": "",
    "SkillIDList": [
      6100901
    ]
  },
  {
    "BattleEventID": 61010,
    "Config": "Config/ConfigCharacter/BattleEvent/Avatar_BattleEvent61010_Config.json",
    "Prefab": "",
    "LevelAreaPrefab": "",
    "BEActionBarPrefab": "",
    "BasePoint": "",
    "SkillIDList": [
      6100901
    ]
  },
  {
    "BattleEventID": 41009,
    "Config": "Config/ConfigCharacter/BattleEvent/Avatar_RogueBattleevent128_Config.json",
    "Prefab": "",
    "LevelAreaPrefab": "",
    "BEActionBarPrefab": "",
    "BasePoint": "",
    "SkillIDList": [
      4100901,
      4100902
    ],
    "IsSPReserved": true
  },
  {
    "BattleEventID": 40008,
    "Config": "",
    "Prefab": "",
    "LevelAreaPrefab": "",
    "BEActionBarPrefab": "",
    "BasePoint": "",
    "SkillIDList": []
  },
  {
    "BattleEventID": 62001,
    "Config": "",
    "Prefab": "",
    "LevelAreaPrefab": "",
    "BEActionBarPrefab": "",
    "BasePoint": "",
    "SkillIDList": []
  },
  {
    "BattleEventID": 62002,
    "Config": "",
    "Prefab": "",
    "LevelAreaPrefab": "",
    "BEActionBarPrefab": "",
    "BasePoint": "",
    "SkillIDList": []
  },
  {
    "BattleEventID": 31002,
    "Config": "",
    "Prefab": "",
    "LevelAreaPrefab": "",
    "BEActionBarPrefab": "",
    "BasePoint": "",
    "SkillIDList": []
  },
  {
    "BattleEventID": 30118,
    "Config": "",
    "Prefab": "",
    "LevelAreaPrefab": "",
    "BEActionBarPrefab": "",
    "BasePoint": "",
    "SkillIDList": []
  },
  {
    "BattleEventID": 42004,
    "Config": "",
    "Prefab": "",
    "LevelAreaPrefab": "",
    "BEActionBarPrefab": "",
    "BasePoint": "",
    "SkillIDList": [],
    "IsSPReserved": true
  },
  {
    "BattleEventID": 96061,
    "Config": "",
    "Prefab": "",
    "LevelAreaPrefab": "",
    "BEActionBarPrefab": "",
    "BasePoint": "",
    "SkillIDList": [
      9602905
    ]
  },
  {
    "BattleEventID": 60011,
    "Config": "",
    "Prefab": "",
    "LevelAreaPrefab": "",
    "BEActionBarPrefab": "",
    "BasePoint": "",
    "SkillIDList": [
      6000801
    ]
  },
  {
    "BattleEventID": 20005,
    "Config": "",
    "Prefab": "",
    "LevelAreaPrefab": "",
    "BEActionBarPrefab": "",
    "BasePoint": "",
    "SkillIDList": []
  },
  {
    "BattleEventID": 31003,
    "Config": "",
    "Prefab": "",
    "LevelAreaPrefab": "",
    "BEActionBarPrefab": "",
    "BasePoint": "",
    "SkillIDList": []
  },
  {
    "BattleEventID": 11309,
    "Config": "",
    "Prefab": "",
    "LevelAreaPrefab": "",
    "BEActionBarPrefab": "UI/Battle/TimeLine/TimeLineMiniIcon_1309.prefab",
    "BasePoint": "",
    "SkillIDList": []
  },
  {
    "BattleEventID": 11310,
    "Config": "",
    "Prefab": "",
    "LevelAreaPrefab": "",
    "BEActionBarPrefab": "UI/Battle/TimeLine/Avatar/TimeLineMiniIcon_1310.prefab",
    "BasePoint": "",
    "SkillIDList": []
  },
  {
    "BattleEventID": 43001,
    "Config": "",
    "Prefab": "",
    "LevelAreaPrefab": "",
    "BEActionBarPrefab": "",
    "BasePoint": "",
    "SkillIDList": [
      4300101
    ],
    "IsSPReserved": true
  },
  {
    "BattleEventID": 43002,
    "Config": "",
    "Prefab": "",
    "LevelAreaPrefab": "",
    "BEActionBarPrefab": "",
    "BasePoint": "",
    "SkillIDList": [
      4300201
    ],
    "IsSPReserved": true
  },
  {
    "BattleEventID": 43003,
    "Config": "",
    "Prefab": "",
    "LevelAreaPrefab": "",
    "BEActionBarPrefab": "",
    "BasePoint": "",
    "SkillIDList": [
      4300301
    ],
    "IsSPReserved": true
  },
  {
    "BattleEventID": 43004,
    "Config": "",
    "Prefab": "",
    "LevelAreaPrefab": "",
    "BEActionBarPrefab": "",
    "BasePoint": "",
    "SkillIDList": [
      4300401
    ],
    "IsSPReserved": true
  },
  {
    "BattleEventID": 49002,
    "Config": "",
    "Prefab": "",
    "LevelAreaPrefab": "",
    "BEActionBarPrefab": "",
    "BasePoint": "",
    "SkillIDList": []
  },
  {
    "BattleEventID": 20006,
    "Config": "",
    "Prefab": "",
    "LevelAreaPrefab": "",
    "BEActionBarPrefab": "",
    "BasePoint": "",
    "SkillIDList": []
  },
  {
    "BattleEventID": 30123,
    "Config": "",
    "Prefab": "",
    "LevelAreaPrefab": "",
    "BEActionBarPrefab": "",
    "BasePoint": "",
    "SkillIDList": []
  },
  {
    "BattleEventID": 19133,
    "Config": "",
    "Prefab": "",
    "LevelAreaPrefab": "",
    "BEActionBarPrefab": "",
    "BasePoint": "",
    "SkillIDList": []
  },
  {
    "BattleEventID": 30124,
    "Config": "",
    "Prefab": "",
    "LevelAreaPrefab": "",
    "BEActionBarPrefab": "",
    "BasePoint": "",
    "SkillIDList": []
  },
  {
    "BattleEventID": 30125,
    "Config": "",
    "Prefab": "",
    "LevelAreaPrefab": "",
    "BEActionBarPrefab": "",
    "BasePoint": "",
    "SkillIDList": []
  },
  {
    "BattleEventID": 61011,
    "Config": "",
    "Prefab": "",
    "LevelAreaPrefab": "",
    "BEActionBarPrefab": "",
    "BasePoint": "",
    "SkillIDList": [
      6100901
    ]
  },
  {
    "BattleEventID": 19132,
    "Config": "",
    "Prefab": "",
    "LevelAreaPrefab": "",
    "BEActionBarPrefab": "",
    "BasePoint": "",
    "SkillIDList": []
  },
  {
    "BattleEventID": 61012,
    "Config": "Config/ConfigCharacter/BattleEvent/Common_NoActionDelay_Config.json",
    "Prefab": "",
    "LevelAreaPrefab": "",
    "BEActionBarPrefab": "",
    "BasePoint": "",
    "SkillIDList": [
      6100901
    ]
  },
  {
    "BattleEventID": 60010,
    "Config": "Config/ConfigCharacter/BattleEvent/Avatar_MissionBattleEvent60010_Config.json",
    "Prefab": "",
    "LevelAreaPrefab": "",
    "BEActionBarPrefab": "",
    "BasePoint": "",
    "SkillIDList": [
      6001001,
      6001002
    ],
    "IsSPReserved": true
  },
  {
    "BattleEventID": 62003,
    "Config": "",
    "Prefab": "",
    "LevelAreaPrefab": "",
    "BEActionBarPrefab": "",
    "BasePoint": "",
    "SkillIDList": []
  },
  {
    "BattleEventID": 96082,
    "Config": "Config/ConfigCharacter/BattleEvent/Common_NoActionDelay_Config.json",
    "Prefab": "",
    "LevelAreaPrefab": "",
    "BEActionBarPrefab": "",
    "BasePoint": "",
    "SkillIDList": [
      9602905
    ]
  },
  {
    "BattleEventID": 96083,
    "Config": "Config/ConfigCharacter/WhiteBox/BattleEvent/W_BattleEvent_SummonUnit1_Config.json",
    "Prefab": "Characters/CharacterPrefabs/Avatar/Activity/AetherDivide/AetherDivide_W2_Beast01_01/Avatar_AetherDivide_W2_Beast01_01.prefab",
    "LevelAreaPrefab": "",
    "BEActionBarPrefab": "",
    "BasePoint": "",
    "SkillIDList": [
      9608301,
      9608302,
      9608303
    ],
    "IsSPReserved": true
  },
  {
    "BattleEventID": 62004,
    "Config": "",
    "Prefab": "",
    "LevelAreaPrefab": "",
    "BEActionBarPrefab": "",
    "BasePoint": "",
    "SkillIDList": []
  },
  {
    "BattleEventID": 62005,
    "Config": "",
    "Prefab": "",
    "LevelAreaPrefab": "",
    "BEActionBarPrefab": "",
    "BasePoint": "",
    "SkillIDList": []
  },
  {
    "BattleEventID": 31001,
    "Config": "",
    "Prefab": "",
    "LevelAreaPrefab": "",
    "BEActionBarPrefab": "",
    "BasePoint": "",
    "SkillIDList": []
  },
  {
    "BattleEventID": 30126,
    "Config": "",
    "Prefab": "",
    "LevelAreaPrefab": "",
    "BEActionBarPrefab": "",
    "BasePoint": "",
    "SkillIDList": []
  },
  {
    "BattleEventID": 61013,
    "Config": "Config/ConfigCharacter/BattleEvent/Common_NoActionDelay_Config.json",
    "Prefab": "",
    "LevelAreaPrefab": "",
    "BEActionBarPrefab": "",
    "BasePoint": "",
    "SkillIDList": [
      6100901
    ]
  },
  {
    "BattleEventID": 62101,
    "Config": "",
    "Prefab": "",
    "LevelAreaPrefab": "",
    "BEActionBarPrefab": "",
    "BasePoint": "",
    "SkillIDList": []
  },
  {
    "BattleEventID": 62102,
    "Config": "",
    "Prefab": "",
    "LevelAreaPrefab": "",
    "BEActionBarPrefab": "",
    "BasePoint": "",
    "SkillIDList": []
  },
  {
    "BattleEventID": 62103,
    "Config": "",
    "Prefab": "",
    "LevelAreaPrefab": "",
    "BEActionBarPrefab": "",
    "BasePoint": "",
    "SkillIDList": []
  },
  {
    "BattleEventID": 62104,
    "Config": "",
    "Prefab": "",
    "LevelAreaPrefab": "",
    "BEActionBarPrefab": "",
    "BasePoint": "",
    "SkillIDList": []
  },
  {
    "BattleEventID": 62105,
    "Config": "",
    "Prefab": "",
    "LevelAreaPrefab": "",
    "BEActionBarPrefab": "",
    "BasePoint": "",
    "SkillIDList": []
  },
  {
    "BattleEventID": 62106,
    "Config": "",
    "Prefab": "",
    "LevelAreaPrefab": "",
    "BEActionBarPrefab": "",
    "BasePoint": "",
    "SkillIDList": []
  },
  {
    "BattleEventID": 62107,
    "Config": "",
    "Prefab": "",
    "LevelAreaPrefab": "",
    "BEActionBarPrefab": "",
    "BasePoint": "",
    "SkillIDList": []
  },
  {
    "BattleEventID": 44001,
    "Config": "",
    "Prefab": "",
    "LevelAreaPrefab": "",
    "BEActionBarPrefab": "",
    "BasePoint": "",
    "SkillIDList": [],
    "IsSPReserved": true
  },
  {
    "BattleEventID": 30127,
    "Config": "",
    "Prefab": "",
    "LevelAreaPrefab": "",
    "BEActionBarPrefab": "",
    "BasePoint": "",
    "SkillIDList": []
  },
  {
    "BattleEventID": 30128,
    "Config": "",
    "Prefab": "",
    "LevelAreaPrefab": "",
    "BEActionBarPrefab": "",
    "BasePoint": "",
    "SkillIDList": []
  },
  {
    "BattleEventID": 44002,
    "Config": "",
    "Prefab": "",
    "LevelAreaPrefab": "",
    "BEActionBarPrefab": "",
    "BasePoint": "",
    "SkillIDList": [],
    "IsSPReserved": true
  },
  {
    "BattleEventID": 96085,
    "Config": "",
    "Prefab": "",
    "LevelAreaPrefab": "",
    "BEActionBarPrefab": "",
    "BasePoint": "",
    "SkillIDList": []
  },
  {
    "BattleEventID": 20008,
    "Config": "",
    "Prefab": "",
    "LevelAreaPrefab": "",
    "BEActionBarPrefab": "",
    "BasePoint": "",
    "SkillIDList": []
  },
  {
    "BattleEventID": 20009,
    "Config": "",
    "Prefab": "",
    "LevelAreaPrefab": "",
    "BEActionBarPrefab": "",
    "BasePoint": "",
    "SkillIDList": []
  },
  {
    "BattleEventID": 62111,
    "Config": "Config/ConfigCharacter/BattleEvent/Common_NoActionDelay_Config.json",
    "Prefab": "",
    "LevelAreaPrefab": "",
    "BEActionBarPrefab": "",
    "BasePoint": "",
    "SkillIDList": []
  },
  {
    "BattleEventID": 96107,
    "Config": "",
    "Prefab": "",
    "LevelAreaPrefab": "",
    "BEActionBarPrefab": "",
    "BasePoint": "",
    "SkillIDList": []
  },
  {
    "BattleEventID": 61014,
    "Config": "",
    "Prefab": "",
    "LevelAreaPrefab": "",
    "BEActionBarPrefab": "",
    "BasePoint": "",
    "SkillIDList": [
      6100901
    ]
  },
  {
    "BattleEventID": 96113,
    "Config": "",
    "Prefab": "",
    "LevelAreaPrefab": "",
    "BEActionBarPrefab": "",
    "BasePoint": "",
    "SkillIDList": []
  },
  {
    "BattleEventID": 11222,
    "Config": "Config/ConfigCharacter/Avatar/Avatar_Lingsha_00_BE_Config.json",
    "Prefab": "Characters/CharacterPrefabs/Avatar/Lingsha_00/Avatar_Lingsha_00.prefab",
    "LevelAreaPrefab": "",
    "BEActionBarPrefab": "",
    "BasePoint": "",
    "SkillIDList": [
      1122204
    ]
  },
  {
    "BattleEventID": 30129,
    "Config": "",
    "Prefab": "",
    "LevelAreaPrefab": "",
    "BEActionBarPrefab": "",
    "BasePoint": "",
    "SkillIDList": []
  },
  {
    "BattleEventID": 48004,
    "Config": "",
    "Prefab": "",
    "LevelAreaPrefab": "",
    "BEActionBarPrefab": "",
    "BasePoint": "",
    "SkillIDList": []
  },
  {
    "BattleEventID": 96114,
    "Config": "",
    "Prefab": "",
    "LevelAreaPrefab": "",
    "BEActionBarPrefab": "",
    "BasePoint": "",
    "SkillIDList": []
  },
  {
    "BattleEventID": 60014,
    "Config": "Config/ConfigCharacter/BattleEvent/Avatar_MissionBattleEvent60014_Config.json",
    "Prefab": "Characters/CharacterPrefabs/Avatar/Yunli_00/Avatar_Yunli_00.prefab",
    "LevelAreaPrefab": "",
    "BEActionBarPrefab": "",
    "BasePoint": "",
    "SkillIDList": [
      6001401
    ],
    "IsSPReserved": true
  },
  {
    "BattleEventID": 41101,
    "Config": "Config/ConfigCharacter/BattleEvent/Avatar_RogueBattleevent_Shield_S1_Config.json",
    "Prefab": "",
    "LevelAreaPrefab": "",
    "BEActionBarPrefab": "",
    "BasePoint": "",
    "SkillIDList": [
      4110101,
      4110102
    ],
    "IsSPReserved": true
  },
  {
    "BattleEventID": 41102,
    "Config": "Config/ConfigCharacter/BattleEvent/Avatar_RogueBattleevent_Sandworm_S1_Config.json",
    "Prefab": "",
    "LevelAreaPrefab": "",
    "BEActionBarPrefab": "",
    "BasePoint": "",
    "SkillIDList": [
      4110201,
      4110202
    ],
    "IsSPReserved": true
  },
  {
    "BattleEventID": 41103,
    "Config": "Config/ConfigCharacter/BattleEvent/Avatar_RogueBattleevent_Abundance_S1_Config.json",
    "Prefab": "",
    "LevelAreaPrefab": "",
    "BEActionBarPrefab": "",
    "BasePoint": "",
    "SkillIDList": [
      4110301,
      4110302
    ],
    "IsSPReserved": true
  },
  {
    "BattleEventID": 41104,
    "Config": "Config/ConfigCharacter/BattleEvent/Avatar_RogueBattleevent_Hunting_S1_Config.json",
    "Prefab": "",
    "LevelAreaPrefab": "",
    "BEActionBarPrefab": "",
    "BasePoint": "",
    "SkillIDList": [
      4110401,
      4110402
    ],
    "IsSPReserved": true
  },
  {
    "BattleEventID": 41105,
    "Config": "Config/ConfigCharacter/BattleEvent/Avatar_RogueBattleevent_Ruin_S1_Config.json",
    "Prefab": "",
    "LevelAreaPrefab": "",
    "BEActionBarPrefab": "",
    "BasePoint": "",
    "SkillIDList": [
      4110501,
      4110502
    ],
    "IsSPReserved": true
  },
  {
    "BattleEventID": 41106,
    "Config": "Config/ConfigCharacter/BattleEvent/Avatar_RogueBattleevent_Remembrance_S1_Config.json",
    "Prefab": "",
    "LevelAreaPrefab": "",
    "BEActionBarPrefab": "",
    "BasePoint": "",
    "SkillIDList": [
      4110601,
      4110602
    ],
    "IsSPReserved": true
  },
  {
    "BattleEventID": 41107,
    "Config": "Config/ConfigCharacter/BattleEvent/Avatar_RogueBattleevent_Elation_S1_Config.json",
    "Prefab": "",
    "LevelAreaPrefab": "",
    "BEActionBarPrefab": "",
    "BasePoint": "",
    "SkillIDList": [
      4110701,
      4110702
    ],
    "IsSPReserved": true
  },
  {
    "BattleEventID": 41108,
    "Config": "Config/ConfigCharacter/BattleEvent/Avatar_RogueBattleevent_Breeding_S1_Config.json",
    "Prefab": "",
    "LevelAreaPrefab": "",
    "BEActionBarPrefab": "",
    "BasePoint": "",
    "SkillIDList": [
      4110801,
      4110802
    ],
    "IsSPReserved": true
  },
  {
    "BattleEventID": 41109,
    "Config": "Config/ConfigCharacter/BattleEvent/Avatar_RogueBattleevent_Erudition_S1_Config.json",
    "Prefab": "",
    "LevelAreaPrefab": "",
    "BEActionBarPrefab": "",
    "BasePoint": "",
    "SkillIDList": [
      4110901,
      4110902
    ],
    "IsSPReserved": true
  },
  {
    "BattleEventID": 96071,
    "Config": "",
    "Prefab": "",
    "LevelAreaPrefab": "",
    "BEActionBarPrefab": "",
    "BasePoint": "",
    "SkillIDList": []
  },
  {
    "BattleEventID": 30130,
    "Config": "",
    "Prefab": "",
    "LevelAreaPrefab": "",
    "BEActionBarPrefab": "",
    "BasePoint": "",
    "SkillIDList": []
  },
  {
    "BattleEventID": 48005,
    "Config": "",
    "Prefab": "",
    "LevelAreaPrefab": "",
    "BEActionBarPrefab": "",
    "BasePoint": "",
    "SkillIDList": []
  },
  {
    "BattleEventID": 20011,
    "Config": "",
    "Prefab": "",
    "LevelAreaPrefab": "",
    "BEActionBarPrefab": "",
    "BasePoint": "",
    "SkillIDList": []
  },
  {
    "BattleEventID": 96121,
    "Config": "Config/ConfigCharacter/BattleEvent/Avatar_RogueBattleevent120_Config.json",
    "Prefab": "",
    "LevelAreaPrefab": "",
    "BEActionBarPrefab": "",
    "BasePoint": "",
    "SkillIDList": [
      4100101,
      4100102
    ],
    "IsSPReserved": true
  },
  {
    "BattleEventID": 96122,
    "Config": "",
    "Prefab": "",
    "LevelAreaPrefab": "",
    "BEActionBarPrefab": "",
    "BasePoint": "",
    "SkillIDList": []
  },
  {
    "BattleEventID": 96123,
    "Config": "Config/ConfigCharacter/BattleEvent/Avatar_RogueBattleevent120_Config.json",
    "Prefab": "",
    "LevelAreaPrefab": "",
    "BEActionBarPrefab": "",
    "BasePoint": "",
    "SkillIDList": [
      4100101,
      4100102
    ],
    "IsSPReserved": true
  },
  {
    "BattleEventID": 96124,
    "Config": "",
    "Prefab": "",
    "LevelAreaPrefab": "",
    "BEActionBarPrefab": "",
    "BasePoint": "",
    "SkillIDList": []
  },
  {
    "BattleEventID": 61015,
    "Config": "",
    "Prefab": "",
    "LevelAreaPrefab": "",
    "BEActionBarPrefab": "",
    "BasePoint": "",
    "SkillIDList": [
      6100901
    ]
  },
  {
    "BattleEventID": 61016,
    "Config": "",
    "Prefab": "",
    "LevelAreaPrefab": "",
    "BEActionBarPrefab": "",
    "BasePoint": "",
    "SkillIDList": [
      6100901
    ]
  },
  {
    "BattleEventID": 48006,
    "Config": "",
    "Prefab": "",
    "LevelAreaPrefab": "",
    "BEActionBarPrefab": "",
    "BasePoint": "",
    "SkillIDList": []
  },
  {
    "BattleEventID": 20012,
    "Config": "",
    "Prefab": "",
    "LevelAreaPrefab": "",
    "BEActionBarPrefab": "",
    "BasePoint": "",
    "SkillIDList": []
  },
  {
    "BattleEventID": 61017,
    "Config": "Config/ConfigCharacter/BattleEvent/Avatar_BattleEvent61010_Config.json",
    "Prefab": "",
    "LevelAreaPrefab": "",
    "BEActionBarPrefab": "",
    "BasePoint": "",
    "SkillIDList": [
      6100901
    ]
  },
  {
    "BattleEventID": 60015,
    "Config": "Config/ConfigCharacter/BattleEvent/Avatar_MissionBattleEvent419001_Config.json",
    "Prefab": "Characters/CharacterPrefabs/Avatar/Topaz_00/Avatar_Topaz_00.prefab",
    "LevelAreaPrefab": "",
    "BEActionBarPrefab": "",
    "BasePoint": "",
    "SkillIDList": []
  },
  {
    "BattleEventID": 60016,
    "Config": "Config/ConfigCharacter/BattleEvent/Avatar_MissionBattleEvent419001_Config.json",
    "Prefab": "Characters/CharacterPrefabs/Monster/W1_CocoliaP1_00/Monster_W1_CocoliaP1_00.prefab",
    "LevelAreaPrefab": "",
    "BEActionBarPrefab": "",
    "BasePoint": "",
    "SkillIDList": []
  },
  {
    "BattleEventID": 96135,
    "Config": "",
    "Prefab": "",
    "LevelAreaPrefab": "",
    "BEActionBarPrefab": "",
    "BasePoint": "",
    "SkillIDList": []
  },
  {
    "BattleEventID": 30131,
    "Config": "",
    "Prefab": "",
    "LevelAreaPrefab": "",
    "BEActionBarPrefab": "",
    "BasePoint": "",
    "SkillIDList": []
  },
  {
    "BattleEventID": 44003,
    "Config": "",
    "Prefab": "",
    "LevelAreaPrefab": "",
    "BEActionBarPrefab": "",
    "BasePoint": "",
    "SkillIDList": [],
    "IsSPReserved": true
  },
  {
    "BattleEventID": 45001,
    "Config": "Config/ConfigCharacter/BattleEvent/Avatar_FightFest_Main_Skill01_Config.json",
    "Prefab": "",
    "LevelAreaPrefab": "",
    "BEActionBarPrefab": "",
    "BasePoint": "",
    "SkillIDList": [
      4500101
    ]
  },
  {
    "BattleEventID": 45006,
    "Config": "Config/ConfigCharacter/BattleEvent/Avatar_FightFest_Main_Skill06_Config.json",
    "Prefab": "",
    "LevelAreaPrefab": "",
    "BEActionBarPrefab": "",
    "BasePoint": "",
    "SkillIDList": [
      4500601
    ]
  },
  {
    "BattleEventID": 44004,
    "Config": "",
    "Prefab": "",
    "LevelAreaPrefab": "",
    "BEActionBarPrefab": "",
    "BasePoint": "",
    "SkillIDList": [],
    "IsSPReserved": true
  },
  {
    "BattleEventID": 45002,
    "Config": "Config/ConfigCharacter/BattleEvent/Avatar_FightFest_Main_Skill02_Config.json",
    "Prefab": "",
    "LevelAreaPrefab": "",
    "BEActionBarPrefab": "",
    "BasePoint": "",
    "SkillIDList": [
      4500201
    ]
  },
  {
    "BattleEventID": 96101,
    "Config": "Config/ConfigCharacter/Activity/ActivitySummon/ActivitySummon_Junk_BattleEvent_02_Config.json",
    "Prefab": "Characters/CharacterPrefabs/Avatar/Activity/ActivitySummon/Avatar_ActivitySummon_W3_Junk_00.prefab",
    "LevelAreaPrefab": "",
    "BEActionBarPrefab": "",
    "BasePoint": "",
    "SkillIDList": [
      9611101,
      9611103,
      9611108
    ],
    "IsSPReserved": true
  },
  {
    "BattleEventID": 96103,
    "Config": "Config/ConfigCharacter/Activity/ActivitySummon/ActivitySummon_Junk_BattleEvent_01_Config.json",
    "Prefab": "Characters/CharacterPrefabs/Avatar/Activity/ActivitySummon/Avatar_ActivitySummon_W3_Junk_00.prefab",
    "LevelAreaPrefab": "",
    "BEActionBarPrefab": "",
    "BasePoint": "",
    "SkillIDList": [
      9609701,
      9609703
    ],
    "IsSPReserved": true
  },
  {
    "BattleEventID": 96105,
    "Config": "Config/ConfigCharacter/Activity/ActivitySummon/ActivitySummon_Junk_BattleEvent_03_Config.json",
    "Prefab": "Characters/CharacterPrefabs/Avatar/Activity/ActivitySummon/Avatar_ActivitySummon_W3_Junk_00.prefab",
    "LevelAreaPrefab": "",
    "BEActionBarPrefab": "",
    "BasePoint": "",
    "SkillIDList": [
      9610901,
      9610903
    ],
    "IsSPReserved": true
  },
  {
    "BattleEventID": 96128,
    "Config": "Config/ConfigCharacter/Activity/ActivitySummon/ActivitySummon_Junk_BattleEvent_04_Config.json",
    "Prefab": "Characters/CharacterPrefabs/Avatar/Activity/ActivitySummon/Avatar_ActivitySummon_W3_Junk_00.prefab",
    "LevelAreaPrefab": "",
    "BEActionBarPrefab": "",
    "BasePoint": "",
    "SkillIDList": [
      9611001,
      9611003
    ],
    "IsSPReserved": true
  },
  {
    "BattleEventID": 96134,
    "Config": "",
    "Prefab": "",
    "LevelAreaPrefab": "",
    "BEActionBarPrefab": "",
    "BasePoint": "",
    "SkillIDList": []
  },
  {
    "BattleEventID": 96119,
    "Config": "Config/ConfigCharacter/Activity/ActivitySummon/ActivitySummon_Junk_BattleEvent_05_Config.json",
    "Prefab": "Characters/CharacterPrefabs/Avatar/Activity/ActivitySummon/Avatar_ActivitySummon_W3_Junk_00.prefab",
    "LevelAreaPrefab": "",
    "BEActionBarPrefab": "",
    "BasePoint": "",
    "SkillIDList": [
      9611201,
      9611203,
      9611208
    ],
    "IsSPReserved": true
  },
  {
    "BattleEventID": 46101,
    "Config": "Config/ConfigCharacter/BattleEvent/Avatar_RogueMagic_AutoStaff_Thunder.json",
    "Prefab": "",
    "LevelAreaPrefab": "",
    "BEActionBarPrefab": "UI/Battle/TimeLine/TimeLineMiniIcon_RogueMagic.prefab",
    "BasePoint": "",
    "SkillIDList": []
  },
  {
    "BattleEventID": 46201,
    "Config": "Config/ConfigCharacter/BattleEvent/Avatar_RogueMagic_PassiveScepter_Fire.json",
    "Prefab": "",
    "LevelAreaPrefab": "",
    "BEActionBarPrefab": "UI/Battle/TimeLine/TimeLineMiniIcon_RogueMagic.prefab",
    "BasePoint": "",
    "SkillIDList": []
  },
  {
    "BattleEventID": 48007,
    "Config": "",
    "Prefab": "",
    "LevelAreaPrefab": "",
    "BEActionBarPrefab": "",
    "BasePoint": "",
    "SkillIDList": []
  },
  {
    "BattleEventID": 46102,
    "Config": "Config/ConfigCharacter/BattleEvent/Avatar_RogueMagic_AutoStaff_Imaginary.json",
    "Prefab": "",
    "LevelAreaPrefab": "",
    "BEActionBarPrefab": "UI/Battle/TimeLine/TimeLineMiniIcon_RogueMagic.prefab",
    "BasePoint": "",
    "SkillIDList": []
  },
  {
    "BattleEventID": 46103,
    "Config": "Config/ConfigCharacter/BattleEvent/Avatar_RogueMagic_AutoStaff_Quantum.json",
    "Prefab": "",
    "LevelAreaPrefab": "",
    "BEActionBarPrefab": "UI/Battle/TimeLine/TimeLineMiniIcon_RogueMagic.prefab",
    "BasePoint": "",
    "SkillIDList": []
  },
  {
    "BattleEventID": 46104,
    "Config": "Config/ConfigCharacter/BattleEvent/Avatar_RogueMagic_AutoStaff_Physical.json",
    "Prefab": "",
    "LevelAreaPrefab": "",
    "BEActionBarPrefab": "UI/Battle/TimeLine/TimeLineMiniIcon_RogueMagic.prefab",
    "BasePoint": "",
    "SkillIDList": []
  },
  {
    "BattleEventID": 46105,
    "Config": "Config/ConfigCharacter/BattleEvent/Avatar_RogueMagic_AutoStaff_Physical.json",
    "Prefab": "",
    "LevelAreaPrefab": "",
    "BEActionBarPrefab": "UI/Battle/TimeLine/TimeLineMiniIcon_RogueMagic.prefab",
    "BasePoint": "",
    "SkillIDList": []
  },
  {
    "BattleEventID": 46106,
    "Config": "Config/ConfigCharacter/BattleEvent/Avatar_RogueMagic_AutoStaff_Fire.json",
    "Prefab": "",
    "LevelAreaPrefab": "",
    "BEActionBarPrefab": "UI/Battle/TimeLine/TimeLineMiniIcon_RogueMagic.prefab",
    "BasePoint": "",
    "SkillIDList": []
  },
  {
    "BattleEventID": 46107,
    "Config": "Config/ConfigCharacter/BattleEvent/Avatar_RogueMagic_AutoStaff_Thunder.json",
    "Prefab": "",
    "LevelAreaPrefab": "",
    "BEActionBarPrefab": "UI/Battle/TimeLine/TimeLineMiniIcon_RogueMagic.prefab",
    "BasePoint": "",
    "SkillIDList": []
  },
  {
    "BattleEventID": 46108,
    "Config": "Config/ConfigCharacter/BattleEvent/Avatar_RogueMagic_AutoStaff_Imaginary.json",
    "Prefab": "",
    "LevelAreaPrefab": "",
    "BEActionBarPrefab": "UI/Battle/TimeLine/TimeLineMiniIcon_RogueMagic.prefab",
    "BasePoint": "",
    "SkillIDList": []
  },
  {
    "BattleEventID": 46109,
    "Config": "Config/ConfigCharacter/BattleEvent/Avatar_RogueMagic_AutoStaff_Fire.json",
    "Prefab": "",
    "LevelAreaPrefab": "",
    "BEActionBarPrefab": "UI/Battle/TimeLine/TimeLineMiniIcon_RogueMagic.prefab",
    "BasePoint": "",
    "SkillIDList": []
  },
  {
    "BattleEventID": 46110,
    "Config": "Config/ConfigCharacter/BattleEvent/Avatar_RogueMagic_AutoStaff_Ice.json",
    "Prefab": "",
    "LevelAreaPrefab": "",
    "BEActionBarPrefab": "UI/Battle/TimeLine/TimeLineMiniIcon_RogueMagic.prefab",
    "BasePoint": "",
    "SkillIDList": []
  },
  {
    "BattleEventID": 46111,
    "Config": "Config/ConfigCharacter/BattleEvent/Avatar_RogueMagic_AutoStaff_Quantum.json",
    "Prefab": "",
    "LevelAreaPrefab": "",
    "BEActionBarPrefab": "UI/Battle/TimeLine/TimeLineMiniIcon_RogueMagic.prefab",
    "BasePoint": "",
    "SkillIDList": []
  },
  {
    "BattleEventID": 46112,
    "Config": "Config/ConfigCharacter/BattleEvent/Avatar_RogueMagic_AutoStaff_Quantum.json",
    "Prefab": "",
    "LevelAreaPrefab": "",
    "BEActionBarPrefab": "UI/Battle/TimeLine/TimeLineMiniIcon_RogueMagic.prefab",
    "BasePoint": "",
    "SkillIDList": []
  },
  {
    "BattleEventID": 44005,
    "Config": "",
    "Prefab": "",
    "LevelAreaPrefab": "",
    "BEActionBarPrefab": "",
    "BasePoint": "",
    "SkillIDList": []
  },
  {
    "BattleEventID": 48008,
    "Config": "",
    "Prefab": "",
    "LevelAreaPrefab": "",
    "BEActionBarPrefab": "",
    "BasePoint": "",
    "SkillIDList": []
  },
  {
    "BattleEventID": 45005,
    "Config": "Config/ConfigCharacter/BattleEvent/Avatar_FightFest_Main_Skill05_Config.json",
    "Prefab": "",
    "LevelAreaPrefab": "",
    "BEActionBarPrefab": "",
    "BasePoint": "",
    "SkillIDList": [
      4500501
    ]
  },
  {
    "BattleEventID": 45003,
    "Config": "Config/ConfigCharacter/BattleEvent/Avatar_FightFest_Main_Skill03_Config.json",
    "Prefab": "",
    "LevelAreaPrefab": "",
    "BEActionBarPrefab": "",
    "BasePoint": "",
    "SkillIDList": [
      4500301
    ]
  },
  {
    "BattleEventID": 96140,
    "Config": "",
    "Prefab": "",
    "LevelAreaPrefab": "",
    "BEActionBarPrefab": "",
    "BasePoint": "",
    "SkillIDList": []
  },
  {
    "BattleEventID": 46202,
    "Config": "Config/ConfigCharacter/BattleEvent/Avatar_RogueMagic_PassiveScepter_Ice.json",
    "Prefab": "",
    "LevelAreaPrefab": "",
    "BEActionBarPrefab": "UI/Battle/TimeLine/TimeLineMiniIcon_RogueMagic.prefab",
    "BasePoint": "",
    "SkillIDList": []
  },
  {
    "BattleEventID": 46203,
    "Config": "Config/ConfigCharacter/BattleEvent/Avatar_RogueMagic_PassiveScepter_Ice.json",
    "Prefab": "",
    "LevelAreaPrefab": "",
    "BEActionBarPrefab": "UI/Battle/TimeLine/TimeLineMiniIcon_RogueMagic.prefab",
    "BasePoint": "",
    "SkillIDList": []
  },
  {
    "BattleEventID": 46204,
    "Config": "Config/ConfigCharacter/BattleEvent/Avatar_RogueMagic_PassiveScepter_Wind.json",
    "Prefab": "",
    "LevelAreaPrefab": "",
    "BEActionBarPrefab": "UI/Battle/TimeLine/TimeLineMiniIcon_RogueMagic.prefab",
    "BasePoint": "",
    "SkillIDList": []
  },
  {
    "BattleEventID": 46205,
    "Config": "Config/ConfigCharacter/BattleEvent/Avatar_RogueMagic_PassiveScepter_Physical.json",
    "Prefab": "",
    "LevelAreaPrefab": "",
    "BEActionBarPrefab": "UI/Battle/TimeLine/TimeLineMiniIcon_RogueMagic.prefab",
    "BasePoint": "",
    "SkillIDList": []
  },
  {
    "BattleEventID": 46206,
    "Config": "Config/ConfigCharacter/BattleEvent/Avatar_RogueMagic_PassiveScepter_Imaginary.json",
    "Prefab": "",
    "LevelAreaPrefab": "",
    "BEActionBarPrefab": "UI/Battle/TimeLine/TimeLineMiniIcon_RogueMagic.prefab",
    "BasePoint": "",
    "SkillIDList": []
  },
  {
    "BattleEventID": 46207,
    "Config": "Config/ConfigCharacter/BattleEvent/Avatar_RogueMagic_PassiveScepter_Quantum.json",
    "Prefab": "",
    "LevelAreaPrefab": "",
    "BEActionBarPrefab": "UI/Battle/TimeLine/TimeLineMiniIcon_RogueMagic.prefab",
    "BasePoint": "",
    "SkillIDList": []
  },
  {
    "BattleEventID": 46208,
    "Config": "Config/ConfigCharacter/BattleEvent/Avatar_RogueMagic_PassiveScepter_Fire.json",
    "Prefab": "",
    "LevelAreaPrefab": "",
    "BEActionBarPrefab": "UI/Battle/TimeLine/TimeLineMiniIcon_RogueMagic.prefab",
    "BasePoint": "",
    "SkillIDList": []
  },
  {
    "BattleEventID": 46209,
    "Config": "Config/ConfigCharacter/BattleEvent/Avatar_RogueMagic_PassiveScepter_Fire.json",
    "Prefab": "",
    "LevelAreaPrefab": "",
    "BEActionBarPrefab": "UI/Battle/TimeLine/TimeLineMiniIcon_RogueMagic.prefab",
    "BasePoint": "",
    "SkillIDList": []
  },
  {
    "BattleEventID": 46210,
    "Config": "Config/ConfigCharacter/BattleEvent/Avatar_RogueMagic_PassiveScepter_Ice.json",
    "Prefab": "",
    "LevelAreaPrefab": "",
    "BEActionBarPrefab": "UI/Battle/TimeLine/TimeLineMiniIcon_RogueMagic.prefab",
    "BasePoint": "",
    "SkillIDList": []
  },
  {
    "BattleEventID": 46211,
    "Config": "Config/ConfigCharacter/BattleEvent/Avatar_RogueMagic_PassiveScepter_Ice.json",
    "Prefab": "",
    "LevelAreaPrefab": "",
    "BEActionBarPrefab": "UI/Battle/TimeLine/TimeLineMiniIcon_RogueMagic.prefab",
    "BasePoint": "",
    "SkillIDList": []
  },
  {
    "BattleEventID": 46212,
    "Config": "Config/ConfigCharacter/BattleEvent/Avatar_RogueMagic_PassiveScepter_Quantum.json",
    "Prefab": "",
    "LevelAreaPrefab": "",
    "BEActionBarPrefab": "UI/Battle/TimeLine/TimeLineMiniIcon_RogueMagic.prefab",
    "BasePoint": "",
    "SkillIDList": []
  },
  {
    "BattleEventID": 46213,
    "Config": "Config/ConfigCharacter/BattleEvent/Avatar_RogueMagic_PassiveScepter_Wind.json",
    "Prefab": "",
    "LevelAreaPrefab": "",
    "BEActionBarPrefab": "UI/Battle/TimeLine/TimeLineMiniIcon_RogueMagic.prefab",
    "BasePoint": "",
    "SkillIDList": []
  },
  {
    "BattleEventID": 45004,
    "Config": "Config/ConfigCharacter/BattleEvent/Avatar_FightFest_Main_Skill04_Config.json",
    "Prefab": "",
    "LevelAreaPrefab": "",
    "BEActionBarPrefab": "",
    "BasePoint": "",
    "SkillIDList": [
      4500401
    ]
  },
  {
    "BattleEventID": 20007,
    "Config": "",
    "Prefab": "",
    "LevelAreaPrefab": "",
    "BEActionBarPrefab": "",
    "BasePoint": "",
    "SkillIDList": []
  },
  {
    "BattleEventID": 30132,
    "Config": "",
    "Prefab": "",
    "LevelAreaPrefab": "",
    "BEActionBarPrefab": "",
    "BasePoint": "",
    "SkillIDList": []
  },
  {
    "BattleEventID": 60017,
    "Config": "Config/ConfigCharacter/BattleEvent/Avatar_MissionBattleEvent419001_Config.json",
    "Prefab": "Characters/CharacterPrefabs/Avatar/Boothill_00/Avatar_Boothill_00.prefab",
    "LevelAreaPrefab": "",
    "BEActionBarPrefab": "",
    "BasePoint": "",
    "SkillIDList": []
  },
  {
    "BattleEventID": 44006,
    "Config": "",
    "Prefab": "",
    "LevelAreaPrefab": "",
    "BEActionBarPrefab": "",
    "BasePoint": "",
    "SkillIDList": [],
    "IsSPReserved": true
  },
  {
    "BattleEventID": 48009,
    "Config": "",
    "Prefab": "",
    "LevelAreaPrefab": "",
    "BEActionBarPrefab": "",
    "BasePoint": "",
    "SkillIDList": []
  },
  {
    "BattleEventID": 96144,
    "Config": "",
    "Prefab": "",
    "LevelAreaPrefab": "",
    "BEActionBarPrefab": "",
    "BasePoint": "",
    "SkillIDList": []
  },
  {
    "BattleEventID": 60018,
    "Config": "Config/ConfigCharacter/BattleEvent/Avatar_MissionBattleEvent60018_Config.json",
    "Prefab": "",
    "LevelAreaPrefab": "",
    "BEActionBarPrefab": "",
    "BasePoint": "",
    "SkillIDList": []
  },
  {
    "BattleEventID": 18007,
    "Config": "Config/ConfigCharacter/Servant/Servant_PlayerBoyServant_30_Config.json",
    "Prefab": "Characters/CharacterPrefabs/Servant/PlayerBoyServant_30/Servant_PlayerBoyServant_30.prefab",
    "LevelAreaPrefab": "",
    "BEActionBarPrefab": "",
    "BasePoint": "",
    "SkillIDList": [
      1800701,
      1800702
    ],
    "IsSPReserved": true
  },
  {
    "BattleEventID": 60019,
    "Config": "Config/ConfigCharacter/BattleEvent/Avatar_MissionBattleEvent60019_Config.json",
    "Prefab": "Characters/CharacterPrefabs/Avatar/PlayerBoy_20/Avatar_PlayerBoy_20.prefab",
    "LevelAreaPrefab": "",
    "BEActionBarPrefab": "",
    "BasePoint": "",
    "SkillIDList": [
      6001901,
      6001902
    ]
  },
  {
    "BattleEventID": 62006,
    "Config": "",
    "Prefab": "",
    "LevelAreaPrefab": "",
    "BEActionBarPrefab": "",
    "BasePoint": "",
    "SkillIDList": []
  },
  {
    "BattleEventID": 62007,
    "Config": "",
    "Prefab": "",
    "LevelAreaPrefab": "",
    "BEActionBarPrefab": "",
    "BasePoint": "",
    "SkillIDList": []
  },
  {
    "BattleEventID": 11402,
    "Config": "",
    "Prefab": "",
    "LevelAreaPrefab": "",
    "BEActionBarPrefab": "UI/Battle/TimeLine/Avatar/TimeLineMiniIcon_1402.prefab",
    "BasePoint": "",
    "SkillIDList": []
  },
  {
    "BattleEventID": 62008,
    "Config": "Config/ConfigCharacter/BattleEvent/Activity_ActivityTelevision_Shooter_Config.json",
    "Prefab": "Characters/CharacterPrefabs/Monster/W4_Shooter_00/Monster_W4_Shooter_00.prefab",
    "LevelAreaPrefab": "",
    "BEActionBarPrefab": "",
    "BasePoint": "",
    "SkillIDList": []
  },
  {
    "BattleEventID": 20010,
    "Config": "",
    "Prefab": "",
    "LevelAreaPrefab": "",
    "BEActionBarPrefab": "",
    "BasePoint": "",
    "SkillIDList": []
  },
  {
    "BattleEventID": 30133,
    "Config": "",
    "Prefab": "",
    "LevelAreaPrefab": "",
    "BEActionBarPrefab": "",
    "BasePoint": "",
    "SkillIDList": []
  },
  {
    "BattleEventID": 30134,
    "Config": "",
    "Prefab": "",
    "LevelAreaPrefab": "",
    "BEActionBarPrefab": "",
    "BasePoint": "",
    "SkillIDList": []
  },
  {
    "BattleEventID": 96157,
    "Config": "",
    "Prefab": "",
    "LevelAreaPrefab": "",
    "BEActionBarPrefab": "",
    "BasePoint": "",
    "SkillIDList": []
  },
  {
    "BattleEventID": 60021,
    "Config": "Config/ConfigCharacter/BattleEvent/Avatar_MissionBattleEvent60021_Config.json",
    "Prefab": "Characters/CharacterPrefabs/Avatar/Silwolf_00/Avatar_Silwolf_00.prefab",
    "LevelAreaPrefab": "",
    "BEActionBarPrefab": "",
    "BasePoint": "",
    "SkillIDList": [
      6002101,
      6002102
    ]
  },
  {
    "BattleEventID": 30500,
    "Config": "",
    "Prefab": "",
    "LevelAreaPrefab": "",
    "BEActionBarPrefab": "",
    "BasePoint": "",
    "SkillIDList": []
  },
  {
    "BattleEventID": 60005,
    "Config": "Config/ConfigCharacter/Monster/Monster_BattleEvent_W1_Colossus_00_Config.json",
    "Prefab": "Characters/CharacterPrefabs/Monster/W1_Colossus_00/Monster_W1_Colossus_00.prefab",
    "LevelAreaPrefab": "",
    "BEActionBarPrefab": "",
    "BasePoint": "Cube1",
    "SkillIDList": [
      6000501
    ]
  },
  {
    "BattleEventID": 60001,
    "Config": "Config/ConfigCharacter/Avatar/Avatar_Colossus_00_Config.json",
    "Prefab": "Characters/CharacterPrefabs/Avatar/Colossus_00/Avatar_W1_Colossus_00.prefab",
    "LevelAreaPrefab": "Level/BattleArea/Test_BattleArea_3_3_3.prefab",
    "BEActionBarPrefab": "",
    "BasePoint": "AnchorColossus",
    "SkillIDList": [
      6000101,
      6000102
    ]
  },
  {
    "BattleEventID": 60004,
    "Config": "Config/ConfigCharacter/Avatar/Avatar_Colossus_00_Config.json",
    "Prefab": "Characters/CharacterPrefabs/Avatar/Colossus_00/Avatar_W1_Colossus_00.prefab",
    "LevelAreaPrefab": "Level/BattleArea/Test_BattleArea_3_3_3.prefab",
    "BEActionBarPrefab": "",
    "BasePoint": "AnchorColossus",
    "SkillIDList": [
      6000401,
      6000402
    ]
  },
  {
    "BattleEventID": 60012,
    "Config": "Config/ConfigCharacter/BattleEvent/Avatar_MissionBattleEvent60012_Config.json",
    "Prefab": "Characters/CharacterPrefabs/Avatar/PlayerBoy_20/Avatar_PlayerBoy_20.prefab",
    "LevelAreaPrefab": "",
    "BEActionBarPrefab": "",
    "BasePoint": "",
    "SkillIDList": [
      6001201,
      6001202
    ]
  },
  {
    "BattleEventID": 60013,
    "Config": "Config/ConfigCharacter/BattleEvent/Avatar_MissionBattleEvent60013_Config.json",
    "Prefab": "Characters/CharacterPrefabs/Avatar/PlayerBoy_20/Avatar_PlayerBoy_20.prefab",
    "LevelAreaPrefab": "",
    "BEActionBarPrefab": "",
    "BasePoint": "",
    "SkillIDList": [
      6001301,
      6001302
    ]
  }
]