[
  {
    "GroupID": 2001,
    "ThemeToastPicPath": "SpriteOutput/ChallengeTheme/ThemePic/ChallengeThemePic_2001.png",
    "ThemeIconPicPath": "SpriteOutput/ChallengeTheme/ThemeIcon/ChallengeThemeIcon_2001.png",
    "ThemePosterEffectPrefabPath": "UI/Abyss/ChallengeStoryPosterEffThemePanel/ChallengeStoryAlternationPanelEff_2001.prefab",
    "ThemePosterBgPicPath": "SpriteOutput/ChallengeTheme/ThemeBg/ChallengeThemeBg_2001.png",
    "ThemePosterTabPicPath": "SpriteOutput/Quest/TabIcon/BtnChallengeStoryAlternation_2001.png",
    "ThemeID": 1,
    "SubMazeBuffList": [],
    "StoryType": "Normal",
    "BuffList": [
      3031301,
      3031302,
      3031303
    ]
  },
  {
    "GroupID": 2002,
    "ThemeToastPicPath": "SpriteOutput/ChallengeTheme/ThemePic/ChallengeThemePic_2002.png",
    "ThemeIconPicPath": "SpriteOutput/ChallengeTheme/ThemeIcon/ChallengeThemeIcon_2002.png",
    "ThemePosterEffectPrefabPath": "UI/Abyss/ChallengeStoryPosterEffThemePanel/ChallengeStoryAlternationPanelEff_2002.prefab",
    "ThemePosterBgPicPath": "SpriteOutput/ChallengeTheme/ThemeBg/ChallengeThemeBg_2002.png",
    "ThemePosterTabPicPath": "SpriteOutput/Quest/TabIcon/BtnChallengeStoryAlternation_2002.png",
    "ThemeID": 2,
    "SubMazeBuffList": [],
    "StoryType": "Normal",
    "BuffList": [
      3031304,
      3031305,
      3031306
    ]
  },
  {
    "GroupID": 2003,
    "ThemeToastPicPath": "SpriteOutput/ChallengeTheme/ThemePic/ChallengeThemePic_2003.png",
    "ThemeIconPicPath": "SpriteOutput/ChallengeTheme/ThemeIcon/ChallengeThemeIcon_2003.png",
    "ThemePosterEffectPrefabPath": "UI/Abyss/ChallengeStoryPosterEffThemePanel/ChallengeStoryAlternationPanelEff_2003.prefab",
    "ThemePosterBgPicPath": "SpriteOutput/ChallengeTheme/ThemeBg/ChallengeThemeBg_2003.png",
    "ThemePosterTabPicPath": "SpriteOutput/Quest/TabIcon/BtnChallengeStoryAlternation_2003.png",
    "ThemeID": 3,
    "SubMazeBuffList": [],
    "StoryType": "Normal",
    "BuffList": [
      3031307,
      3031308,
      3031309
    ]
  },
  {
    "GroupID": 2004,
    "ThemeToastPicPath": "SpriteOutput/ChallengeTheme/ThemePic/ChallengeThemePic_2004.png",
    "ThemeIconPicPath": "SpriteOutput/ChallengeTheme/ThemeIcon/ChallengeThemeIcon_2001.png",
    "ThemePosterEffectPrefabPath": "UI/Abyss/ChallengeStoryPosterEffThemePanel/ChallengeStoryAlternationPanelEff_2004.prefab",
    "ThemePosterBgPicPath": "SpriteOutput/ChallengeTheme/ThemeBg/ChallengeThemeBg_2004.png",
    "ThemePosterTabPicPath": "SpriteOutput/Quest/TabIcon/BtnChallengeStoryAlternation_2004.png",
    "ThemeID": 1,
    "SubMazeBuffList": [],
    "StoryType": "Normal",
    "BuffList": [
      3031310,
      3031311,
      3031312
    ]
  },
  {
    "GroupID": 2005,
    "ThemeToastPicPath": "SpriteOutput/ChallengeTheme/ThemePic/ChallengeThemePic_2005.png",
    "ThemeIconPicPath": "SpriteOutput/ChallengeTheme/ThemeIcon/ChallengeThemeIcon_2004.png",
    "ThemePosterEffectPrefabPath": "UI/Abyss/ChallengeStoryPosterEffThemePanel/ChallengeStoryAlternationPanelEff_2005.prefab",
    "ThemePosterBgPicPath": "SpriteOutput/ChallengeTheme/ThemeBg/ChallengeThemeBg_2005.png",
    "ThemePosterTabPicPath": "SpriteOutput/Quest/TabIcon/BtnChallengeStoryAlternation_2005.png",
    "ThemeID": 2,
    "SubMazeBuffList": [],
    "StoryType": "Normal",
    "BuffList": [
      3031313,
      3031314,
      3031315
    ]
  },
  {
    "GroupID": 2006,
    "ThemeToastPicPath": "SpriteOutput/ChallengeTheme/ThemePic/ChallengeThemePic_2006.png",
    "ThemeIconPicPath": "SpriteOutput/ChallengeTheme/ThemeIcon/ChallengeThemeIcon_2005.png",
    "ThemePosterEffectPrefabPath": "UI/Abyss/ChallengeStoryPosterEffThemePanel/ChallengeStoryAlternationPanelEff_2005.prefab",
    "ThemePosterBgPicPath": "SpriteOutput/ChallengeTheme/ThemeBg/ChallengeThemeBg_2006.png",
    "ThemePosterTabPicPath": "SpriteOutput/Quest/TabIcon/BtnChallengeStoryAlternation_2006.png",
    "ThemeID": 1,
    "SubMazeBuffList": [],
    "StoryType": "Normal",
    "BuffList": [
      3031316,
      3031317,
      3031318
    ]
  },
  {
    "GroupID": 2007,
    "ThemeToastPicPath": "SpriteOutput/ChallengeTheme/ThemePic/ChallengeThemePic_2007.png",
    "ThemeIconPicPath": "SpriteOutput/ChallengeTheme/ThemeIcon/ChallengeThemeIcon_2006.png",
    "ThemePosterEffectPrefabPath": "UI/Abyss/ChallengeStoryPosterEffThemePanel/ChallengeStoryAlternationPanelEff_2007.prefab",
    "ThemePosterBgPicPath": "SpriteOutput/ChallengeTheme/ThemeBg/ChallengeThemeBg_2007.png",
    "ThemePosterTabPicPath": "SpriteOutput/Quest/TabIcon/BtnChallengeStoryAlternation_2007.png",
    "ThemeID": 3,
    "SubMazeBuffList": [],
    "StoryType": "Normal",
    "BuffList": [
      3031319,
      3031320,
      3031321
    ]
  },
  {
    "GroupID": 2008,
    "ThemeToastPicPath": "SpriteOutput/ChallengeTheme/ThemePic/ChallengeThemePic_2004.png",
    "ThemeIconPicPath": "SpriteOutput/ChallengeTheme/ThemeIcon/ChallengeThemeIcon_2001.png",
    "ThemePosterEffectPrefabPath": "UI/Abyss/ChallengeStoryPosterEffThemePanel/ChallengeStoryAlternationPanelEff_2004.prefab",
    "ThemePosterBgPicPath": "SpriteOutput/ChallengeTheme/ThemeBg/ChallengeThemeBg_2004.png",
    "ThemePosterTabPicPath": "SpriteOutput/Quest/TabIcon/BtnChallengeStoryAlternation_2004.png",
    "ThemeID": 1,
    "SubMazeBuffList": [],
    "StoryType": "Normal",
    "BuffList": [
      3031303,
      3031322,
      3031323
    ]
  },
  {
    "GroupID": 2009,
    "ThemeToastPicPath": "SpriteOutput/ChallengeTheme/ThemePic/ChallengeThemePic_2008.png",
    "ThemeIconPicPath": "SpriteOutput/ChallengeTheme/ThemeIcon/ChallengeThemeIcon_2007.png",
    "ThemePosterEffectPrefabPath": "UI/Abyss/ChallengeStoryPosterEffThemePanel/ChallengeStoryAlternationPanelEff_2004.prefab",
    "ThemePosterBgPicPath": "SpriteOutput/ChallengeTheme/ThemeBg/ChallengeThemeBg_2008.png",
    "ThemePosterTabPicPath": "SpriteOutput/Quest/TabIcon/BtnChallengeStoryAlternation_2008.png",
    "ThemeID": 1,
    "SubMazeBuffList": [],
    "StoryType": "Normal",
    "BuffList": [
      3031324,
      3031325,
      3031326
    ]
  },
  {
    "GroupID": 2010,
    "ThemeToastPicPath": "SpriteOutput/ChallengeTheme/ThemePic/ChallengeThemePic_2009.png",
    "ThemeIconPicPath": "SpriteOutput/ChallengeTheme/ThemeIcon/ChallengeThemeIcon_2008.png",
    "ThemePosterEffectPrefabPath": "UI/Abyss/ChallengeStoryPosterEffThemePanel/ChallengeStoryAlternationPanelEff_2004.prefab",
    "ThemePosterBgPicPath": "SpriteOutput/ChallengeTheme/ThemeBg/ChallengeThemeBg_2009.png",
    "ThemePosterTabPicPath": "SpriteOutput/Quest/TabIcon/BtnChallengeStoryAlternation_2009.png",
    "ThemeID": 1,
    "SubMazeBuffList": [],
    "StoryType": "Normal",
    "BuffList": [
      3031330,
      3031331,
      3031305
    ]
  },
  {
    "GroupID": 2011,
    "ThemeToastPicPath": "SpriteOutput/ChallengeTheme/ThemePic/ChallengeThemePic_2010.png",
    "ThemeIconPicPath": "SpriteOutput/ChallengeTheme/ThemeIcon/ChallengeThemeIcon_2006.png",
    "ThemePosterEffectPrefabPath": "UI/Abyss/ChallengeStoryPosterEffThemePanel/ChallengeStoryAlternationPanelEff_2004.prefab",
    "ThemePosterBgPicPath": "SpriteOutput/ChallengeTheme/ThemeBg/ChallengeThemeBg_2010.png",
    "ThemePosterTabPicPath": "SpriteOutput/Quest/TabIcon/BtnChallengeStoryAlternation_2010.png",
    "ThemeID": 4,
    "SubMazeBuffList": [
      3031202,
      3031203,
      3031204
    ],
    "StoryType": "Fever",
    "BuffList": [
      3031327,
      3031328,
      3031329
    ]
  },
  {
    "GroupID": 2012,
    "ThemeToastPicPath": "SpriteOutput/ChallengeTheme/ThemePic/ChallengeThemePic_2011.png",
    "ThemeIconPicPath": "SpriteOutput/ChallengeTheme/ThemeIcon/ChallengeThemeIcon_2009.png",
    "ThemePosterEffectPrefabPath": "UI/Abyss/ChallengeStoryPosterEffThemePanel/ChallengeStoryAlternationPanelEff_2002.prefab",
    "ThemePosterBgPicPath": "SpriteOutput/ChallengeTheme/ThemeBg/ChallengeThemeBg_2011.png",
    "ThemePosterTabPicPath": "SpriteOutput/Quest/TabIcon/BtnChallengeStoryAlternation_2011.png",
    "ThemeID": 5,
    "SubMazeBuffList": [
      3031207,
      3031208,
      3031209
    ],
    "StoryType": "Fever",
    "BuffList": [
      3031333,
      3031332,
      3031334
    ]
  }
]