[
  {
    "ID": 30011,
    "Name": {
      "Hash": -1005713069
    },
    "GroupID": 3001,
    "MapEntranceID": 3012401,
    "MapEntranceID2": 3012402,
    "Floor": 1,
    "RewardID": 101401,
    "DamageType1": [
      "Thunder",
      "Quantum"
    ],
    "DamageType2": [
      "Physical",
      "Fire",
      "Imaginary"
    ],
    "ChallengeTargetID": [
      3001,
      3002,
      3003
    ],
    "StageNum": 2,
    "MonsterID1": [],
    "MonsterID2": [],
    "MazeGroupID1": 5,
    "ConfigList1": [
      200001
    ],
    "NpcMonsterIDList1": [
      1004012
    ],
    "EventIDList1": [
      420101
    ],
    "MazeGroupID2": 6,
    "ConfigList2": [
      200001
    ],
    "NpcMonsterIDList2": [
      3024012
    ],
    "EventIDList2": [
      420111
    ],
    "MazeBuffID": 3110001
  },
  {
    "ID": 30012,
    "Name": {
      "Hash": -602428542
    },
    "GroupID": 3001,
    "MapEntranceID": 3012401,
    "MapEntranceID2": 3012402,
    "PreChallengeMazeID": 30011,
    "Floor": 2,
    "RewardID": 101402,
    "DamageType1": [
      "Thunder",
      "Quantum"
    ],
    "DamageType2": [
      "Physical",
      "Fire",
      "Imaginary"
    ],
    "ChallengeTargetID": [
      3001,
      3002,
      3003
    ],
    "StageNum": 2,
    "MonsterID1": [],
    "MonsterID2": [],
    "MazeGroupID1": 5,
    "ConfigList1": [
      200001
    ],
    "NpcMonsterIDList1": [
      1004012
    ],
    "EventIDList1": [
      420102
    ],
    "MazeGroupID2": 6,
    "ConfigList2": [
      200001
    ],
    "NpcMonsterIDList2": [
      3024012
    ],
    "EventIDList2": [
      420112
    ],
    "MazeBuffID": 3110001
  },
  {
    "ID": 30013,
    "Name": {
      "Hash": 2126454813
    },
    "GroupID": 3001,
    "MapEntranceID": 3012401,
    "MapEntranceID2": 3012402,
    "PreChallengeMazeID": 30012,
    "Floor": 3,
    "RewardID": 101403,
    "DamageType1": [
      "Thunder",
      "Quantum"
    ],
    "DamageType2": [
      "Physical",
      "Fire",
      "Imaginary"
    ],
    "ChallengeTargetID": [
      3001,
      3002,
      3003
    ],
    "StageNum": 2,
    "MonsterID1": [],
    "MonsterID2": [],
    "MazeGroupID1": 5,
    "ConfigList1": [
      200001
    ],
    "NpcMonsterIDList1": [
      1004012
    ],
    "EventIDList1": [
      420103
    ],
    "MazeGroupID2": 6,
    "ConfigList2": [
      200001
    ],
    "NpcMonsterIDList2": [
      3024012
    ],
    "EventIDList2": [
      420113
    ],
    "MazeBuffID": 3110001
  },
  {
    "ID": 30014,
    "Name": {
      "Hash": -1765227956
    },
    "GroupID": 3001,
    "MapEntranceID": 3012401,
    "MapEntranceID2": 3012402,
    "PreChallengeMazeID": 30013,
    "Floor": 4,
    "RewardID": 101404,
    "DamageType1": [
      "Thunder",
      "Quantum"
    ],
    "DamageType2": [
      "Physical",
      "Fire",
      "Imaginary"
    ],
    "ChallengeTargetID": [
      3001,
      3002,
      3003
    ],
    "StageNum": 2,
    "MonsterID1": [],
    "MonsterID2": [],
    "MazeGroupID1": 5,
    "ConfigList1": [
      200001
    ],
    "NpcMonsterIDList1": [
      1004012
    ],
    "EventIDList1": [
      420104
    ],
    "MazeGroupID2": 6,
    "ConfigList2": [
      200001
    ],
    "NpcMonsterIDList2": [
      3024012
    ],
    "EventIDList2": [
      420114
    ],
    "MazeBuffID": 3110001
  },
  {
    "ID": 30021,
    "Name": {
      "Hash": -1005713072
    },
    "GroupID": 3002,
    "MapEntranceID": 3000205,
    "MapEntranceID2": 3012501,
    "Floor": 1,
    "RewardID": 101401,
    "DamageType1": [
      "Physical",
      "Fire",
      "Wind",
      "Imaginary"
    ],
    "DamageType2": [
      "Physical",
      "Fire",
      "Ice"
    ],
    "ChallengeTargetID": [
      3001,
      3002,
      3003
    ],
    "StageNum": 2,
    "MonsterID1": [],
    "MonsterID2": [],
    "MazeGroupID1": 6,
    "ConfigList1": [
      200001
    ],
    "NpcMonsterIDList1": [
      2004012
    ],
    "EventIDList1": [
      420131
    ],
    "MazeGroupID2": 6,
    "ConfigList2": [
      200001
    ],
    "NpcMonsterIDList2": [
      8015010
    ],
    "EventIDList2": [
      420121
    ],
    "MazeBuffID": 3110002
  },
  {
    "ID": 30022,
    "Name": {
      "Hash": -602428545
    },
    "GroupID": 3002,
    "MapEntranceID": 3000205,
    "MapEntranceID2": 3012501,
    "PreChallengeMazeID": 30021,
    "Floor": 2,
    "RewardID": 101402,
    "DamageType1": [
      "Physical",
      "Fire",
      "Wind",
      "Imaginary"
    ],
    "DamageType2": [
      "Physical",
      "Fire",
      "Ice"
    ],
    "ChallengeTargetID": [
      3001,
      3002,
      3003
    ],
    "StageNum": 2,
    "MonsterID1": [],
    "MonsterID2": [],
    "MazeGroupID1": 6,
    "ConfigList1": [
      200001
    ],
    "NpcMonsterIDList1": [
      2004012
    ],
    "EventIDList1": [
      420132
    ],
    "MazeGroupID2": 6,
    "ConfigList2": [
      200001
    ],
    "NpcMonsterIDList2": [
      8015010
    ],
    "EventIDList2": [
      420122
    ],
    "MazeBuffID": 3110002
  },
  {
    "ID": 30023,
    "Name": {
      "Hash": 2126454810
    },
    "GroupID": 3002,
    "MapEntranceID": 3000205,
    "MapEntranceID2": 3012501,
    "PreChallengeMazeID": 30022,
    "Floor": 3,
    "RewardID": 101403,
    "DamageType1": [
      "Physical",
      "Fire",
      "Wind",
      "Imaginary"
    ],
    "DamageType2": [
      "Physical",
      "Fire",
      "Ice"
    ],
    "ChallengeTargetID": [
      3001,
      3002,
      3003
    ],
    "StageNum": 2,
    "MonsterID1": [],
    "MonsterID2": [],
    "MazeGroupID1": 6,
    "ConfigList1": [
      200001
    ],
    "NpcMonsterIDList1": [
      2004012
    ],
    "EventIDList1": [
      420133
    ],
    "MazeGroupID2": 6,
    "ConfigList2": [
      200001
    ],
    "NpcMonsterIDList2": [
      8015010
    ],
    "EventIDList2": [
      420123
    ],
    "MazeBuffID": 3110002
  },
  {
    "ID": 30024,
    "Name": {
      "Hash": -1765227959
    },
    "GroupID": 3002,
    "MapEntranceID": 3000205,
    "MapEntranceID2": 3012501,
    "PreChallengeMazeID": 30023,
    "Floor": 4,
    "RewardID": 101404,
    "DamageType1": [
      "Physical",
      "Fire",
      "Wind",
      "Imaginary"
    ],
    "DamageType2": [
      "Physical",
      "Fire",
      "Ice"
    ],
    "ChallengeTargetID": [
      3001,
      3002,
      3003
    ],
    "StageNum": 2,
    "MonsterID1": [],
    "MonsterID2": [],
    "MazeGroupID1": 6,
    "ConfigList1": [
      200001
    ],
    "NpcMonsterIDList1": [
      2004012
    ],
    "EventIDList1": [
      420134
    ],
    "MazeGroupID2": 6,
    "ConfigList2": [
      200001
    ],
    "NpcMonsterIDList2": [
      8015010
    ],
    "EventIDList2": [
      420124
    ],
    "MazeBuffID": 3110002
  },
  {
    "ID": 30031,
    "Name": {
      "Hash": -1005713071
    },
    "GroupID": 3003,
    "MapEntranceID": 3012202,
    "MapEntranceID2": 3012601,
    "Floor": 1,
    "RewardID": 101401,
    "DamageType1": [
      "Physical",
      "Ice",
      "Thunder",
      "Wind"
    ],
    "DamageType2": [
      "Fire",
      "Thunder",
      "Wind",
      "Imaginary"
    ],
    "ChallengeTargetID": [
      3001,
      3002,
      3003
    ],
    "StageNum": 2,
    "MonsterID1": [],
    "MonsterID2": [],
    "MazeGroupID1": 9,
    "ConfigList1": [
      200001
    ],
    "NpcMonsterIDList1": [
      8034012
    ],
    "EventIDList1": [
      420151
    ],
    "MazeGroupID2": 14,
    "ConfigList2": [
      200001
    ],
    "NpcMonsterIDList2": [
      8015020
    ],
    "EventIDList2": [
      420141
    ],
    "MazeBuffID": 3110003
  },
  {
    "ID": 30032,
    "Name": {
      "Hash": -602428544
    },
    "GroupID": 3003,
    "MapEntranceID": 3012202,
    "MapEntranceID2": 3012601,
    "PreChallengeMazeID": 30031,
    "Floor": 2,
    "RewardID": 101402,
    "DamageType1": [
      "Physical",
      "Ice",
      "Thunder",
      "Wind"
    ],
    "DamageType2": [
      "Fire",
      "Thunder",
      "Wind",
      "Imaginary"
    ],
    "ChallengeTargetID": [
      3001,
      3002,
      3003
    ],
    "StageNum": 2,
    "MonsterID1": [],
    "MonsterID2": [],
    "MazeGroupID1": 9,
    "ConfigList1": [
      200001
    ],
    "NpcMonsterIDList1": [
      8034012
    ],
    "EventIDList1": [
      420152
    ],
    "MazeGroupID2": 14,
    "ConfigList2": [
      200001
    ],
    "NpcMonsterIDList2": [
      8015020
    ],
    "EventIDList2": [
      420142
    ],
    "MazeBuffID": 3110003
  },
  {
    "ID": 30033,
    "Name": {
      "Hash": 2126454811
    },
    "GroupID": 3003,
    "MapEntranceID": 3012202,
    "MapEntranceID2": 3012601,
    "PreChallengeMazeID": 30032,
    "Floor": 3,
    "RewardID": 101403,
    "DamageType1": [
      "Physical",
      "Ice",
      "Thunder",
      "Wind"
    ],
    "DamageType2": [
      "Fire",
      "Thunder",
      "Wind",
      "Imaginary"
    ],
    "ChallengeTargetID": [
      3001,
      3002,
      3003
    ],
    "StageNum": 2,
    "MonsterID1": [],
    "MonsterID2": [],
    "MazeGroupID1": 9,
    "ConfigList1": [
      200001
    ],
    "NpcMonsterIDList1": [
      8034012
    ],
    "EventIDList1": [
      420153
    ],
    "MazeGroupID2": 14,
    "ConfigList2": [
      200001
    ],
    "NpcMonsterIDList2": [
      8015020
    ],
    "EventIDList2": [
      420143
    ],
    "MazeBuffID": 3110003
  },
  {
    "ID": 30034,
    "Name": {
      "Hash": -1765227958
    },
    "GroupID": 3003,
    "MapEntranceID": 3012202,
    "MapEntranceID2": 3012601,
    "PreChallengeMazeID": 30033,
    "Floor": 4,
    "RewardID": 101404,
    "DamageType1": [
      "Physical",
      "Ice",
      "Thunder",
      "Wind"
    ],
    "DamageType2": [
      "Fire",
      "Thunder",
      "Wind",
      "Imaginary"
    ],
    "ChallengeTargetID": [
      3001,
      3002,
      3003
    ],
    "StageNum": 2,
    "MonsterID1": [],
    "MonsterID2": [],
    "MazeGroupID1": 9,
    "ConfigList1": [
      200001
    ],
    "NpcMonsterIDList1": [
      8034012
    ],
    "EventIDList1": [
      420154
    ],
    "MazeGroupID2": 14,
    "ConfigList2": [
      200001
    ],
    "NpcMonsterIDList2": [
      8015020
    ],
    "EventIDList2": [
      420144
    ],
    "MazeBuffID": 3110003
  },
  {
    "ID": 30041,
    "Name": {
      "Hash": -1005713066
    },
    "GroupID": 3004,
    "MapEntranceID": 3000205,
    "MapEntranceID2": 3012302,
    "Floor": 1,
    "RewardID": 101401,
    "DamageType1": [
      "Physical",
      "Fire",
      "Wind",
      "Imaginary"
    ],
    "DamageType2": [
      "Fire",
      "Thunder",
      "Quantum",
      "Imaginary"
    ],
    "ChallengeTargetID": [
      3001,
      3002,
      3003
    ],
    "StageNum": 2,
    "MonsterID1": [],
    "MonsterID2": [],
    "MazeGroupID1": 6,
    "ConfigList1": [
      200001
    ],
    "NpcMonsterIDList1": [
      2004012
    ],
    "EventIDList1": [
      420171
    ],
    "MazeGroupID2": 72,
    "ConfigList2": [
      200001
    ],
    "NpcMonsterIDList2": [
      3025010
    ],
    "EventIDList2": [
      420161
    ],
    "MazeBuffID": 3110004
  },
  {
    "ID": 30042,
    "Name": {
      "Hash": -602428539
    },
    "GroupID": 3004,
    "MapEntranceID": 3000205,
    "MapEntranceID2": 3012302,
    "PreChallengeMazeID": 30041,
    "Floor": 2,
    "RewardID": 101402,
    "DamageType1": [
      "Physical",
      "Fire",
      "Wind",
      "Imaginary"
    ],
    "DamageType2": [
      "Fire",
      "Thunder",
      "Quantum",
      "Imaginary"
    ],
    "ChallengeTargetID": [
      3001,
      3002,
      3003
    ],
    "StageNum": 2,
    "MonsterID1": [],
    "MonsterID2": [],
    "MazeGroupID1": 6,
    "ConfigList1": [
      200001
    ],
    "NpcMonsterIDList1": [
      2004012
    ],
    "EventIDList1": [
      420172
    ],
    "MazeGroupID2": 72,
    "ConfigList2": [
      200001
    ],
    "NpcMonsterIDList2": [
      3025010
    ],
    "EventIDList2": [
      420162
    ],
    "MazeBuffID": 3110004
  },
  {
    "ID": 30043,
    "Name": {
      "Hash": 2126454816
    },
    "GroupID": 3004,
    "MapEntranceID": 3000205,
    "MapEntranceID2": 3012302,
    "PreChallengeMazeID": 30042,
    "Floor": 3,
    "RewardID": 101403,
    "DamageType1": [
      "Physical",
      "Fire",
      "Wind",
      "Imaginary"
    ],
    "DamageType2": [
      "Fire",
      "Thunder",
      "Quantum",
      "Imaginary"
    ],
    "ChallengeTargetID": [
      3001,
      3002,
      3003
    ],
    "StageNum": 2,
    "MonsterID1": [],
    "MonsterID2": [],
    "MazeGroupID1": 6,
    "ConfigList1": [
      200001
    ],
    "NpcMonsterIDList1": [
      2004012
    ],
    "EventIDList1": [
      420173
    ],
    "MazeGroupID2": 72,
    "ConfigList2": [
      200001
    ],
    "NpcMonsterIDList2": [
      3025010
    ],
    "EventIDList2": [
      420163
    ],
    "MazeBuffID": 3110004
  },
  {
    "ID": 30044,
    "Name": {
      "Hash": -1765227953
    },
    "GroupID": 3004,
    "MapEntranceID": 3000205,
    "MapEntranceID2": 3012302,
    "PreChallengeMazeID": 30043,
    "Floor": 4,
    "RewardID": 101404,
    "DamageType1": [
      "Physical",
      "Fire",
      "Wind",
      "Imaginary"
    ],
    "DamageType2": [
      "Fire",
      "Thunder",
      "Quantum",
      "Imaginary"
    ],
    "ChallengeTargetID": [
      3001,
      3002,
      3003
    ],
    "StageNum": 2,
    "MonsterID1": [],
    "MonsterID2": [],
    "MazeGroupID1": 6,
    "ConfigList1": [
      200001
    ],
    "NpcMonsterIDList1": [
      2004012
    ],
    "EventIDList1": [
      420174
    ],
    "MazeGroupID2": 72,
    "ConfigList2": [
      200001
    ],
    "NpcMonsterIDList2": [
      3025010
    ],
    "EventIDList2": [
      420164
    ],
    "MazeBuffID": 3110004
  },
  {
    "ID": 30051,
    "Name": {
      "Hash": -1005713065
    },
    "GroupID": 3005,
    "MapEntranceID": 3012401,
    "MapEntranceID2": 3012201,
    "Floor": 1,
    "RewardID": 101401,
    "DamageType1": [
      "Fire",
      "Thunder",
      "Wind",
      "Quantum"
    ],
    "DamageType2": [
      "Ice",
      "Thunder",
      "Imaginary"
    ],
    "ChallengeTargetID": [
      3001,
      3002,
      3003
    ],
    "StageNum": 2,
    "MonsterID1": [],
    "MonsterID2": [
      3003015,
      3002042,
      3002022,
      3002012
    ],
    "MazeGroupID1": 5,
    "ConfigList1": [
      200001
    ],
    "NpcMonsterIDList1": [
      1004012
    ],
    "EventIDList1": [
      420191
    ],
    "MazeGroupID2": 8,
    "ConfigList2": [
      200001
    ],
    "NpcMonsterIDList2": [
      3003015
    ],
    "EventIDList2": [
      420181
    ],
    "MazeBuffID": 3110005
  },
  {
    "ID": 30052,
    "Name": {
      "Hash": -602428538
    },
    "GroupID": 3005,
    "MapEntranceID": 3012401,
    "MapEntranceID2": 3012201,
    "PreChallengeMazeID": 30051,
    "Floor": 2,
    "RewardID": 101402,
    "DamageType1": [
      "Fire",
      "Thunder",
      "Wind",
      "Quantum"
    ],
    "DamageType2": [
      "Ice",
      "Thunder",
      "Imaginary"
    ],
    "ChallengeTargetID": [
      3001,
      3002,
      3003
    ],
    "StageNum": 2,
    "MonsterID1": [],
    "MonsterID2": [
      3003015,
      3002042,
      3002022,
      3002012
    ],
    "MazeGroupID1": 5,
    "ConfigList1": [
      200001
    ],
    "NpcMonsterIDList1": [
      1004012
    ],
    "EventIDList1": [
      420192
    ],
    "MazeGroupID2": 8,
    "ConfigList2": [
      200001
    ],
    "NpcMonsterIDList2": [
      3003015
    ],
    "EventIDList2": [
      420182
    ],
    "MazeBuffID": 3110005
  },
  {
    "ID": 30053,
    "Name": {
      "Hash": 2126454817
    },
    "GroupID": 3005,
    "MapEntranceID": 3012401,
    "MapEntranceID2": 3012201,
    "PreChallengeMazeID": 30052,
    "Floor": 3,
    "RewardID": 101403,
    "DamageType1": [
      "Fire",
      "Thunder",
      "Wind",
      "Quantum"
    ],
    "DamageType2": [
      "Ice",
      "Thunder",
      "Imaginary"
    ],
    "ChallengeTargetID": [
      3001,
      3002,
      3003
    ],
    "StageNum": 2,
    "MonsterID1": [],
    "MonsterID2": [
      3003015,
      3002042,
      3002022,
      3002012
    ],
    "MazeGroupID1": 5,
    "ConfigList1": [
      200001
    ],
    "NpcMonsterIDList1": [
      1004012
    ],
    "EventIDList1": [
      420193
    ],
    "MazeGroupID2": 8,
    "ConfigList2": [
      200001
    ],
    "NpcMonsterIDList2": [
      3003015
    ],
    "EventIDList2": [
      420183
    ],
    "MazeBuffID": 3110005
  },
  {
    "ID": 30054,
    "Name": {
      "Hash": -1765227952
    },
    "GroupID": 3005,
    "MapEntranceID": 3012401,
    "MapEntranceID2": 3012201,
    "PreChallengeMazeID": 30053,
    "Floor": 4,
    "RewardID": 101404,
    "DamageType1": [
      "Fire",
      "Thunder",
      "Wind",
      "Quantum"
    ],
    "DamageType2": [
      "Ice",
      "Thunder",
      "Imaginary"
    ],
    "ChallengeTargetID": [
      3001,
      3002,
      3003
    ],
    "StageNum": 2,
    "MonsterID1": [],
    "MonsterID2": [
      3003015,
      3002042,
      3002022,
      3002012
    ],
    "MazeGroupID1": 5,
    "ConfigList1": [
      200001
    ],
    "NpcMonsterIDList1": [
      1004012
    ],
    "EventIDList1": [
      420194
    ],
    "MazeGroupID2": 8,
    "ConfigList2": [
      200001
    ],
    "NpcMonsterIDList2": [
      3003015
    ],
    "EventIDList2": [
      420184
    ],
    "MazeBuffID": 3110005
  },
  {
    "ID": 30061,
    "Name": {
      "Hash": -1005713068
    },
    "GroupID": 3006,
    "MapEntranceID": 3000204,
    "MapEntranceID2": 3012601,
    "Floor": 1,
    "RewardID": 101401,
    "DamageType1": [
      "Physical",
      "Ice",
      "Quantum",
      "Imaginary"
    ],
    "DamageType2": [
      "Fire",
      "Thunder",
      "Wind",
      "Imaginary"
    ],
    "ChallengeTargetID": [
      3001,
      3002,
      3003
    ],
    "StageNum": 2,
    "MonsterID1": [],
    "MonsterID2": [],
    "MazeGroupID1": 3,
    "ConfigList1": [
      200001
    ],
    "NpcMonsterIDList1": [
      8025010
    ],
    "EventIDList1": [
      420201
    ],
    "MazeGroupID2": 14,
    "ConfigList2": [
      200001
    ],
    "NpcMonsterIDList2": [
      8015020
    ],
    "EventIDList2": [
      420211
    ],
    "MazeBuffID": 3110006
  },
  {
    "ID": 30062,
    "Name": {
      "Hash": -602428541
    },
    "GroupID": 3006,
    "MapEntranceID": 3000204,
    "MapEntranceID2": 3012601,
    "PreChallengeMazeID": 30061,
    "Floor": 2,
    "RewardID": 101402,
    "DamageType1": [
      "Physical",
      "Ice",
      "Quantum",
      "Imaginary"
    ],
    "DamageType2": [
      "Fire",
      "Thunder",
      "Wind",
      "Imaginary"
    ],
    "ChallengeTargetID": [
      3001,
      3002,
      3003
    ],
    "StageNum": 2,
    "MonsterID1": [],
    "MonsterID2": [],
    "MazeGroupID1": 3,
    "ConfigList1": [
      200001
    ],
    "NpcMonsterIDList1": [
      8025010
    ],
    "EventIDList1": [
      420202
    ],
    "MazeGroupID2": 14,
    "ConfigList2": [
      200001
    ],
    "NpcMonsterIDList2": [
      8015020
    ],
    "EventIDList2": [
      420212
    ],
    "MazeBuffID": 3110006
  },
  {
    "ID": 30063,
    "Name": {
      "Hash": 2126454814
    },
    "GroupID": 3006,
    "MapEntranceID": 3000204,
    "MapEntranceID2": 3012601,
    "PreChallengeMazeID": 30062,
    "Floor": 3,
    "RewardID": 101403,
    "DamageType1": [
      "Physical",
      "Ice",
      "Quantum",
      "Imaginary"
    ],
    "DamageType2": [
      "Fire",
      "Thunder",
      "Wind",
      "Imaginary"
    ],
    "ChallengeTargetID": [
      3001,
      3002,
      3003
    ],
    "StageNum": 2,
    "MonsterID1": [],
    "MonsterID2": [],
    "MazeGroupID1": 3,
    "ConfigList1": [
      200001
    ],
    "NpcMonsterIDList1": [
      8025010
    ],
    "EventIDList1": [
      420203
    ],
    "MazeGroupID2": 14,
    "ConfigList2": [
      200001
    ],
    "NpcMonsterIDList2": [
      8015020
    ],
    "EventIDList2": [
      420213
    ],
    "MazeBuffID": 3110006
  },
  {
    "ID": 30064,
    "Name": {
      "Hash": -1765227955
    },
    "GroupID": 3006,
    "MapEntranceID": 3000204,
    "MapEntranceID2": 3012601,
    "PreChallengeMazeID": 30063,
    "Floor": 4,
    "RewardID": 101404,
    "DamageType1": [
      "Physical",
      "Ice",
      "Quantum",
      "Imaginary"
    ],
    "DamageType2": [
      "Fire",
      "Thunder",
      "Wind",
      "Imaginary"
    ],
    "ChallengeTargetID": [
      3001,
      3002,
      3003
    ],
    "StageNum": 2,
    "MonsterID1": [],
    "MonsterID2": [],
    "MazeGroupID1": 3,
    "ConfigList1": [
      200001
    ],
    "NpcMonsterIDList1": [
      8025010
    ],
    "EventIDList1": [
      420204
    ],
    "MazeGroupID2": 14,
    "ConfigList2": [
      200001
    ],
    "NpcMonsterIDList2": [
      8015020
    ],
    "EventIDList2": [
      420214
    ],
    "MazeBuffID": 3110006
  },
  {
    "ID": 30071,
    "Name": {
      "Hash": -1005713067
    },
    "GroupID": 3007,
    "MapEntranceID": 3000204,
    "MapEntranceID2": 3012601,
    "Floor": 1,
    "RewardID": 101401,
    "DamageType1": [
      "Physical",
      "Ice",
      "Quantum",
      "Imaginary"
    ],
    "DamageType2": [
      "Fire",
      "Thunder",
      "Wind",
      "Imaginary"
    ],
    "ChallengeTargetID": [
      3001,
      3002,
      3003
    ],
    "StageNum": 2,
    "MonsterID1": [],
    "MonsterID2": [],
    "MazeGroupID1": 3,
    "ConfigList1": [
      200001
    ],
    "NpcMonsterIDList1": [
      8025010
    ],
    "EventIDList1": [
      420201
    ],
    "MazeGroupID2": 14,
    "ConfigList2": [
      200001
    ],
    "NpcMonsterIDList2": [
      8015020
    ],
    "EventIDList2": [
      420211
    ],
    "MazeBuffID": 3110006
  },
  {
    "ID": 30072,
    "Name": {
      "Hash": -602428540
    },
    "GroupID": 3007,
    "MapEntranceID": 3000204,
    "MapEntranceID2": 3012601,
    "PreChallengeMazeID": 30071,
    "Floor": 2,
    "RewardID": 101402,
    "DamageType1": [
      "Physical",
      "Ice",
      "Quantum",
      "Imaginary"
    ],
    "DamageType2": [
      "Fire",
      "Thunder",
      "Wind",
      "Imaginary"
    ],
    "ChallengeTargetID": [
      3001,
      3002,
      3003
    ],
    "StageNum": 2,
    "MonsterID1": [],
    "MonsterID2": [],
    "MazeGroupID1": 3,
    "ConfigList1": [
      200001
    ],
    "NpcMonsterIDList1": [
      8025010
    ],
    "EventIDList1": [
      420202
    ],
    "MazeGroupID2": 14,
    "ConfigList2": [
      200001
    ],
    "NpcMonsterIDList2": [
      8015020
    ],
    "EventIDList2": [
      420212
    ],
    "MazeBuffID": 3110006
  },
  {
    "ID": 30073,
    "Name": {
      "Hash": 2126454815
    },
    "GroupID": 3007,
    "MapEntranceID": 3000204,
    "MapEntranceID2": 3012601,
    "PreChallengeMazeID": 30072,
    "Floor": 3,
    "RewardID": 101403,
    "DamageType1": [
      "Physical",
      "Ice",
      "Quantum",
      "Imaginary"
    ],
    "DamageType2": [
      "Fire",
      "Thunder",
      "Wind",
      "Imaginary"
    ],
    "ChallengeTargetID": [
      3001,
      3002,
      3003
    ],
    "StageNum": 2,
    "MonsterID1": [],
    "MonsterID2": [],
    "MazeGroupID1": 3,
    "ConfigList1": [
      200001
    ],
    "NpcMonsterIDList1": [
      8025010
    ],
    "EventIDList1": [
      420203
    ],
    "MazeGroupID2": 14,
    "ConfigList2": [
      200001
    ],
    "NpcMonsterIDList2": [
      8015020
    ],
    "EventIDList2": [
      420213
    ],
    "MazeBuffID": 3110006
  },
  {
    "ID": 30074,
    "Name": {
      "Hash": -1765227954
    },
    "GroupID": 3007,
    "MapEntranceID": 3000204,
    "MapEntranceID2": 3012601,
    "PreChallengeMazeID": 30073,
    "Floor": 4,
    "RewardID": 101404,
    "DamageType1": [
      "Physical",
      "Ice",
      "Quantum",
      "Imaginary"
    ],
    "DamageType2": [
      "Fire",
      "Thunder",
      "Wind",
      "Imaginary"
    ],
    "ChallengeTargetID": [
      3001,
      3002,
      3003
    ],
    "StageNum": 2,
    "MonsterID1": [],
    "MonsterID2": [],
    "MazeGroupID1": 3,
    "ConfigList1": [
      200001
    ],
    "NpcMonsterIDList1": [
      8025010
    ],
    "EventIDList1": [
      420204
    ],
    "MazeGroupID2": 14,
    "ConfigList2": [
      200001
    ],
    "NpcMonsterIDList2": [
      8015020
    ],
    "EventIDList2": [
      420214
    ],
    "MazeBuffID": 3110006
  }
]