[
  {
    "GroupID": 3001,
    "GroupName": {
      "Hash": 1858859687
    },
    "RewardLineGroupID": 3000,
    "PreMissionID": 4020103,
    "ScheduleDataID": 203001,
    "MazeBuffID": 3031001,
    "BackGroundPath": "",
    "TabPicPath": "SpriteOutput/TabIcon/Abyss/ChallengeBossTabIcon_3001.png",
    "TabPicSelectPath": "SpriteOutput/TabIcon/Abyss/ChallengeBossTabIcon_3001.png",
    "ChallengeGroupType": "Boss",
    "ThemePicPath": "SpriteOutput/DailyMission/Banner/ChallengeBossBanner_3001.png"
  },
  {
    "GroupID": 3002,
    "GroupName": {
      "Hash": -2032823082
    },
    "RewardLineGroupID": 3000,
    "PreMissionID": 4020103,
    "ScheduleDataID": 203002,
    "MazeBuffID": 3031001,
    "BackGroundPath": "",
    "TabPicPath": "SpriteOutput/TabIcon/Abyss/ChallengeBossTabIcon_3002.png",
    "TabPicSelectPath": "SpriteOutput/TabIcon/Abyss/ChallengeBossTabIcon_3002.png",
    "ChallengeGroupType": "Boss",
    "ThemePicPath": "SpriteOutput/DailyMission/Banner/ChallengeBossBanner_3002.png"
  },
  {
    "GroupID": 3003,
    "GroupName": {
      "Hash": 696060273
    },
    "RewardLineGroupID": 3000,
    "PreMissionID": 4020103,
    "ScheduleDataID": 203003,
    "MazeBuffID": 3031001,
    "BackGroundPath": "",
    "TabPicPath": "SpriteOutput/TabIcon/Abyss/ChallengeBossTabIcon_3003.png",
    "TabPicSelectPath": "SpriteOutput/TabIcon/Abyss/ChallengeBossTabIcon_3003.png",
    "ChallengeGroupType": "Boss",
    "ThemePicPath": "SpriteOutput/DailyMission/Banner/ChallengeBossBanner_3003.png"
  },
  {
    "GroupID": 3004,
    "GroupName": {
      "Hash": 1099344800
    },
    "RewardLineGroupID": 3000,
    "PreMissionID": 4020103,
    "ScheduleDataID": 203004,
    "MazeBuffID": 3031001,
    "BackGroundPath": "",
    "TabPicPath": "SpriteOutput/TabIcon/Abyss/ChallengeBossTabIcon_3004.png",
    "TabPicSelectPath": "SpriteOutput/TabIcon/Abyss/ChallengeBossTabIcon_3004.png",
    "ChallengeGroupType": "Boss",
    "ThemePicPath": "SpriteOutput/DailyMission/Banner/ChallengeBossBanner_3004.png"
  },
  {
    "GroupID": 3005,
    "GroupName": {
      "Hash": -466739141
    },
    "RewardLineGroupID": 3000,
    "PreMissionID": 4020103,
    "ScheduleDataID": 203005,
    "MazeBuffID": 3031001,
    "BackGroundPath": "",
    "TabPicPath": "SpriteOutput/TabIcon/Abyss/ChallengeBossTabIcon_3005.png",
    "TabPicSelectPath": "SpriteOutput/TabIcon/Abyss/ChallengeBossTabIcon_3005.png",
    "ChallengeGroupType": "Boss",
    "ThemePicPath": "SpriteOutput/DailyMission/Banner/ChallengeBossBanner_3005.png"
  },
  {
    "GroupID": 3006,
    "GroupName": {
      "Hash": -63454614
    },
    "RewardLineGroupID": 3000,
    "PreMissionID": 4020103,
    "ScheduleDataID": 203006,
    "MazeBuffID": 3031001,
    "BackGroundPath": "",
    "TabPicPath": "SpriteOutput/TabIcon/Abyss/ChallengeBossTabIcon_3006.png",
    "TabPicSelectPath": "SpriteOutput/TabIcon/Abyss/ChallengeBossTabIcon_3006.png",
    "ChallengeGroupType": "Boss",
    "ThemePicPath": "SpriteOutput/DailyMission/Banner/ChallengeBossBanner_3006.png"
  },
  {
    "GroupID": 3007,
    "GroupName": {
      "Hash": -63454614
    },
    "RewardLineGroupID": 3000,
    "PreMissionID": 4020103,
    "ScheduleDataID": 203007,
    "MazeBuffID": 3031001,
    "BackGroundPath": "",
    "TabPicPath": "SpriteOutput/TabIcon/Abyss/ChallengeBossTabIcon_3005.png",
    "TabPicSelectPath": "SpriteOutput/TabIcon/Abyss/ChallengeBossTabIcon_3005.png",
    "ChallengeGroupType": "Boss",
    "ThemePicPath": "SpriteOutput/DailyMission/Banner/ChallengeBossBanner_3005.png"
  }
]