[
  {
    "ID": 20011,
    "TurnLimit": 5,
    "BattleTargetID": [
      2001,
      2002
    ],
    "ClearScore": 30000
  },
  {
    "ID": 20012,
    "TurnLimit": 5,
    "BattleTargetID": [
      2001,
      2002
    ],
    "ClearScore": 30000
  },
  {
    "ID": 20013,
    "TurnLimit": 4,
    "BattleTargetID": [
      2001,
      2002
    ],
    "ClearScore": 30000
  },
  {
    "ID": 20014,
    "TurnLimit": 4,
    "BattleTargetID": [
      2001,
      2002
    ],
    "ClearScore": 30000
  },
  {
    "ID": 20021,
    "TurnLimit": 5,
    "BattleTargetID": [
      2001,
      2002
    ],
    "ClearScore": 30000
  },
  {
    "ID": 20022,
    "TurnLimit": 5,
    "BattleTargetID": [
      2001,
      2002
    ],
    "ClearScore": 30000
  },
  {
    "ID": 20023,
    "TurnLimit": 4,
    "BattleTargetID": [
      2001,
      2002
    ],
    "ClearScore": 30000
  },
  {
    "ID": 20024,
    "TurnLimit": 4,
    "BattleTargetID": [
      2001,
      2002
    ],
    "ClearScore": 30000
  },
  {
    "ID": 20031,
    "TurnLimit": 5,
    "BattleTargetID": [
      2001,
      2002
    ],
    "ClearScore": 30000
  },
  {
    "ID": 20032,
    "TurnLimit": 5,
    "BattleTargetID": [
      2001,
      2002
    ],
    "ClearScore": 30000
  },
  {
    "ID": 20033,
    "TurnLimit": 4,
    "BattleTargetID": [
      2001,
      2002
    ],
    "ClearScore": 30000
  },
  {
    "ID": 20034,
    "TurnLimit": 4,
    "BattleTargetID": [
      2001,
      2002
    ],
    "ClearScore": 30000
  },
  {
    "ID": 20041,
    "TurnLimit": 5,
    "BattleTargetID": [
      2001,
      2002
    ],
    "ClearScore": 30000
  },
  {
    "ID": 20042,
    "TurnLimit": 5,
    "BattleTargetID": [
      2001,
      2002
    ],
    "ClearScore": 30000
  },
  {
    "ID": 20043,
    "TurnLimit": 4,
    "BattleTargetID": [
      2001,
      2002
    ],
    "ClearScore": 30000
  },
  {
    "ID": 20044,
    "TurnLimit": 4,
    "BattleTargetID": [
      2001,
      2002
    ],
    "ClearScore": 30000
  },
  {
    "ID": 20051,
    "TurnLimit": 5,
    "BattleTargetID": [
      2001,
      2002
    ],
    "ClearScore": 30000
  },
  {
    "ID": 20052,
    "TurnLimit": 5,
    "BattleTargetID": [
      2001,
      2002
    ],
    "ClearScore": 30000
  },
  {
    "ID": 20053,
    "TurnLimit": 4,
    "BattleTargetID": [
      2001,
      2002
    ],
    "ClearScore": 30000
  },
  {
    "ID": 20054,
    "TurnLimit": 4,
    "BattleTargetID": [
      2001,
      2002
    ],
    "ClearScore": 30000
  },
  {
    "ID": 20061,
    "TurnLimit": 5,
    "BattleTargetID": [
      2001,
      2002
    ],
    "ClearScore": 30000
  },
  {
    "ID": 20062,
    "TurnLimit": 5,
    "BattleTargetID": [
      2001,
      2002
    ],
    "ClearScore": 30000
  },
  {
    "ID": 20063,
    "TurnLimit": 4,
    "BattleTargetID": [
      2001,
      2002
    ],
    "ClearScore": 30000
  },
  {
    "ID": 20064,
    "TurnLimit": 4,
    "BattleTargetID": [
      2001,
      2002
    ],
    "ClearScore": 30000
  },
  {
    "ID": 20071,
    "TurnLimit": 5,
    "BattleTargetID": [
      2001,
      2002
    ],
    "ClearScore": 30000
  },
  {
    "ID": 20072,
    "TurnLimit": 5,
    "BattleTargetID": [
      2001,
      2002
    ],
    "ClearScore": 30000
  },
  {
    "ID": 20073,
    "TurnLimit": 4,
    "BattleTargetID": [
      2001,
      2002
    ],
    "ClearScore": 30000
  },
  {
    "ID": 20074,
    "TurnLimit": 4,
    "BattleTargetID": [
      2001,
      2002
    ],
    "ClearScore": 30000
  },
  {
    "ID": 20081,
    "TurnLimit": 5,
    "BattleTargetID": [
      2001,
      2002
    ],
    "ClearScore": 30000
  },
  {
    "ID": 20082,
    "TurnLimit": 5,
    "BattleTargetID": [
      2001,
      2002
    ],
    "ClearScore": 30000
  },
  {
    "ID": 20083,
    "TurnLimit": 4,
    "BattleTargetID": [
      2001,
      2002
    ],
    "ClearScore": 30000
  },
  {
    "ID": 20084,
    "TurnLimit": 4,
    "BattleTargetID": [
      2001,
      2002
    ],
    "ClearScore": 30000
  },
  {
    "ID": 20091,
    "TurnLimit": 5,
    "BattleTargetID": [
      2001,
      2002
    ],
    "ClearScore": 30000
  },
  {
    "ID": 20092,
    "TurnLimit": 5,
    "BattleTargetID": [
      2001,
      2002
    ],
    "ClearScore": 30000
  },
  {
    "ID": 20093,
    "TurnLimit": 4,
    "BattleTargetID": [
      2001,
      2002
    ],
    "ClearScore": 30000
  },
  {
    "ID": 20094,
    "TurnLimit": 4,
    "BattleTargetID": [
      2001,
      2002
    ],
    "ClearScore": 30000
  },
  {
    "ID": 20101,
    "TurnLimit": 5,
    "BattleTargetID": [
      2001,
      2002
    ],
    "ClearScore": 30000
  },
  {
    "ID": 20102,
    "TurnLimit": 5,
    "BattleTargetID": [
      2001,
      2002
    ],
    "ClearScore": 30000
  },
  {
    "ID": 20103,
    "TurnLimit": 4,
    "BattleTargetID": [
      2001,
      2002
    ],
    "ClearScore": 30000
  },
  {
    "ID": 20104,
    "TurnLimit": 4,
    "BattleTargetID": [
      2001,
      2002
    ],
    "ClearScore": 30000
  },
  {
    "ID": 20111,
    "TurnLimit": 5,
    "BattleTargetID": [
      2001,
      2002
    ],
    "ClearScore": 30000
  },
  {
    "ID": 20112,
    "TurnLimit": 5,
    "BattleTargetID": [
      2001,
      2002
    ],
    "ClearScore": 30000
  },
  {
    "ID": 20113,
    "TurnLimit": 4,
    "BattleTargetID": [
      2001,
      2002
    ],
    "ClearScore": 30000
  },
  {
    "ID": 20114,
    "TurnLimit": 4,
    "BattleTargetID": [
      2001,
      2002
    ],
    "ClearScore": 30000
  },
  {
    "ID": 20121,
    "TurnLimit": 5,
    "BattleTargetID": [
      2001,
      2002
    ],
    "ClearScore": 30000
  },
  {
    "ID": 20122,
    "TurnLimit": 5,
    "BattleTargetID": [
      2001,
      2002
    ],
    "ClearScore": 30000
  },
  {
    "ID": 20123,
    "TurnLimit": 4,
    "BattleTargetID": [
      2001,
      2002
    ],
    "ClearScore": 30000
  },
  {
    "ID": 20124,
    "TurnLimit": 4,
    "BattleTargetID": [
      2001,
      2002
    ],
    "ClearScore": 30000
  }
]