[
  {
    "ID": 1,
    "PlaneID": 20001,
    "FloorID": 20001001,
    "GroupID": 28,
    "ConfigID": 200001,
    "EventID": 20001111,
    "MonsterType": "Chest"
  },
  {
    "ID": 2,
    "PlaneID": 20002,
    "FloorID": 20002001,
    "GroupID": 46,
    "ConfigID": 200001,
    "EventID": 20002109,
    "MonsterType": "Chest"
  },
  {
    "ID": 3,
    "PlaneID": 20003,
    "FloorID": 20003001,
    "GroupID": 33,
    "ConfigID": 200001,
    "EventID": 20003109,
    "MonsterType": "Chest"
  },
  {
    "ID": 4,
    "PlaneID": 20004,
    "FloorID": 20004001,
    "GroupID": 89,
    "ConfigID": 200001,
    "EventID": 20004125,
    "MonsterType": "Chest"
  },
  {
    "ID": 11,
    "PlaneID": 20101,
    "FloorID": 20101001,
    "GroupID": 34,
    "ConfigID": 200001,
    "EventID": 20101111,
    "MonsterType": "Chest"
  },
  {
    "ID": 12,
    "PlaneID": 20111,
    "FloorID": 20111001,
    "GroupID": 24,
    "ConfigID": 200001,
    "EventID": 20111133,
    "MonsterType": "Chest"
  },
  {
    "ID": 13,
    "PlaneID": 20121,
    "FloorID": 20121001,
    "GroupID": 55,
    "ConfigID": 200001,
    "EventID": 20121143,
    "MonsterType": "Chest"
  },
  {
    "ID": 14,
    "PlaneID": 20122,
    "FloorID": 20122001,
    "GroupID": 63,
    "ConfigID": 200001,
    "EventID": 20122106,
    "MonsterType": "Chest"
  },
  {
    "ID": 15,
    "PlaneID": 20123,
    "FloorID": 20123001,
    "GroupID": 52,
    "ConfigID": 200001,
    "EventID": 20123108,
    "MonsterType": "Chest"
  },
  {
    "ID": 16,
    "PlaneID": 20131,
    "FloorID": 20131001,
    "GroupID": 31,
    "ConfigID": 200001,
    "EventID": 20131105,
    "MonsterType": "Chest"
  },
  {
    "ID": 17,
    "PlaneID": 20132,
    "FloorID": 20132001,
    "GroupID": 15,
    "ConfigID": 200001,
    "EventID": 20132113,
    "MonsterType": "Chest"
  },
  {
    "ID": 18,
    "PlaneID": 20134,
    "FloorID": 20134001,
    "GroupID": 12,
    "ConfigID": 200001,
    "EventID": 20134107,
    "MonsterType": "Chest"
  },
  {
    "ID": 21,
    "PlaneID": 20211,
    "FloorID": 20211001,
    "GroupID": 103,
    "ConfigID": 200001,
    "EventID": 20211110,
    "MonsterType": "Chest"
  },
  {
    "ID": 22,
    "PlaneID": 20212,
    "FloorID": 20212001,
    "GroupID": 76,
    "ConfigID": 200001,
    "EventID": 20212120,
    "MonsterType": "Chest"
  },
  {
    "ID": 23,
    "PlaneID": 20221,
    "FloorID": 20221001,
    "GroupID": 59,
    "ConfigID": 200001,
    "EventID": 20221120,
    "MonsterType": "Chest"
  },
  {
    "ID": 24,
    "PlaneID": 20222,
    "FloorID": 20222001,
    "GroupID": 57,
    "ConfigID": 200001,
    "EventID": 20222125,
    "MonsterType": "Chest"
  },
  {
    "ID": 25,
    "PlaneID": 20231,
    "FloorID": 20231001,
    "GroupID": 43,
    "ConfigID": 200001,
    "EventID": 20231130,
    "MonsterType": "Chest"
  },
  {
    "ID": 26,
    "PlaneID": 20232,
    "FloorID": 20232001,
    "GroupID": 49,
    "ConfigID": 200001,
    "EventID": 20232125,
    "MonsterType": "Chest"
  },
  {
    "ID": 27,
    "PlaneID": 20223,
    "FloorID": 20223001,
    "GroupID": 17,
    "ConfigID": 200001,
    "EventID": 20223125,
    "MonsterType": "Chest"
  },
  {
    "ID": 28,
    "PlaneID": 20313,
    "FloorID": 20313001,
    "GroupID": 168,
    "ConfigID": 200001,
    "EventID": 20313140,
    "MonsterType": "Chest"
  },
  {
    "ID": 29,
    "PlaneID": 20312,
    "FloorID": 20312001,
    "GroupID": 208,
    "ConfigID": 200001,
    "EventID": 20312130,
    "MonsterType": "Chest"
  },
  {
    "ID": 30,
    "PlaneID": 20311,
    "FloorID": 20311001,
    "GroupID": 348,
    "ConfigID": 200001,
    "EventID": 20311170,
    "MonsterType": "Chest"
  },
  {
    "ID": 31,
    "PlaneID": 20311,
    "FloorID": 20311001,
    "GroupID": 348,
    "ConfigID": 200002,
    "EventID": 20311169,
    "MonsterType": "Chest"
  },
  {
    "ID": 32,
    "PlaneID": 20322,
    "FloorID": 20322001,
    "GroupID": 221,
    "ConfigID": 200001,
    "EventID": 20322170,
    "MonsterType": "Chest"
  },
  {
    "ID": 33,
    "PlaneID": 20321,
    "FloorID": 20321001,
    "GroupID": 179,
    "ConfigID": 200001,
    "EventID": 20321170,
    "MonsterType": "Chest"
  },
  {
    "ID": 34,
    "PlaneID": 20331,
    "FloorID": 20331001,
    "GroupID": 213,
    "ConfigID": 200001,
    "EventID": 20331170,
    "MonsterType": "Chest"
  },
  {
    "ID": 35,
    "PlaneID": 20332,
    "FloorID": 20332001,
    "GroupID": 13,
    "ConfigID": 200001,
    "EventID": 20332170,
    "MonsterType": "Chest"
  },
  {
    "ID": 36,
    "PlaneID": 20241,
    "FloorID": 20241001,
    "GroupID": 141,
    "ConfigID": 200001,
    "EventID": 20241170,
    "MonsterType": "Chest"
  },
  {
    "ID": 10001,
    "PlaneID": 10301,
    "FloorID": 10301001,
    "GroupID": 210,
    "ConfigID": 200001,
    "MainMissionID": 4340154,
    "MonsterType": "Junk"
  },
  {
    "ID": 10002,
    "PlaneID": 10301,
    "FloorID": 10301001,
    "GroupID": 386,
    "ConfigID": 200001,
    "MainMissionID": 4340156,
    "MonsterType": "Junk"
  },
  {
    "ID": 10003,
    "PlaneID": 20313,
    "FloorID": 20313001,
    "GroupID": 169,
    "ConfigID": 200001,
    "MainMissionID": 4340157,
    "MonsterType": "Junk"
  },
  {
    "ID": 10004,
    "PlaneID": 20313,
    "FloorID": 20313001,
    "GroupID": 229,
    "ConfigID": 200001,
    "MainMissionID": 4340150,
    "MonsterType": "Junk"
  },
  {
    "ID": 10005,
    "PlaneID": 20312,
    "FloorID": 20312001,
    "GroupID": 214,
    "ConfigID": 200001,
    "MainMissionID": 4340155,
    "MonsterType": "Junk"
  },
  {
    "ID": 10006,
    "PlaneID": 20312,
    "FloorID": 20312001,
    "GroupID": 211,
    "ConfigID": 200001,
    "MainMissionID": 4340151,
    "MonsterType": "Junk"
  },
  {
    "ID": 10007,
    "PlaneID": 20311,
    "FloorID": 20311001,
    "GroupID": 353,
    "ConfigID": 200001,
    "MainMissionID": 4340153,
    "MonsterType": "Junk"
  },
  {
    "ID": 10008,
    "PlaneID": 20311,
    "FloorID": 20311001,
    "GroupID": 354,
    "ConfigID": 200001,
    "MainMissionID": 4340152,
    "MonsterType": "Junk"
  },
  {
    "ID": 10009,
    "PlaneID": 20322,
    "FloorID": 20322001,
    "GroupID": 222,
    "ConfigID": 200001,
    "MainMissionID": 4340159,
    "MonsterType": "Junk"
  },
  {
    "ID": 10010,
    "PlaneID": 20322,
    "FloorID": 20322001,
    "GroupID": 223,
    "ConfigID": 200001,
    "MainMissionID": 4340161,
    "MonsterType": "Junk"
  },
  {
    "ID": 10011,
    "PlaneID": 20321,
    "FloorID": 20321001,
    "GroupID": 177,
    "ConfigID": 200001,
    "MainMissionID": 4340160,
    "MonsterType": "Junk"
  },
  {
    "ID": 10012,
    "PlaneID": 20321,
    "FloorID": 20321001,
    "GroupID": 178,
    "ConfigID": 200001,
    "MainMissionID": 4340158,
    "MonsterType": "Junk"
  },
  {
    "ID": 10013,
    "PlaneID": 10304,
    "FloorID": 10304001,
    "GroupID": 94,
    "ConfigID": 200001,
    "MainMissionID": 4340163,
    "MonsterType": "Junk"
  },
  {
    "ID": 10014,
    "PlaneID": 10304,
    "FloorID": 10304001,
    "GroupID": 95,
    "ConfigID": 200001,
    "MainMissionID": 4340164,
    "MonsterType": "Junk"
  },
  {
    "ID": 10015,
    "PlaneID": 20331,
    "FloorID": 20331001,
    "GroupID": 214,
    "ConfigID": 200001,
    "MainMissionID": 4340162,
    "MonsterType": "Junk"
  },
  {
    "ID": 10016,
    "PlaneID": 20331,
    "FloorID": 20331001,
    "GroupID": 314,
    "ConfigID": 200001,
    "MainMissionID": 4340167,
    "MonsterType": "Junk"
  },
  {
    "ID": 10017,
    "PlaneID": 20332,
    "FloorID": 20332001,
    "GroupID": 390,
    "ConfigID": 200001,
    "MainMissionID": 4340165,
    "MonsterType": "Junk"
  },
  {
    "ID": 10018,
    "PlaneID": 20332,
    "FloorID": 20332001,
    "GroupID": 391,
    "ConfigID": 200001,
    "MainMissionID": 4340166,
    "MonsterType": "Junk"
  },
  {
    "ID": 10019,
    "PlaneID": 10341,
    "FloorID": 10341001,
    "GroupID": 229,
    "ConfigID": 200001,
    "MainMissionID": 4340168,
    "MonsterType": "Junk"
  },
  {
    "ID": 10020,
    "PlaneID": 10341,
    "FloorID": 10341001,
    "GroupID": 228,
    "ConfigID": 200001,
    "MainMissionID": 4340169,
    "MonsterType": "Junk"
  },
  {
    "ID": 10021,
    "PlaneID": 10306,
    "FloorID": 10306001,
    "GroupID": 252,
    "ConfigID": 200001,
    "MainMissionID": 4340170,
    "MonsterType": "Junk"
  },
  {
    "ID": 10022,
    "PlaneID": 10306,
    "FloorID": 10306001,
    "GroupID": 253,
    "ConfigID": 200001,
    "MainMissionID": 4340171,
    "MonsterType": "Junk"
  },
  {
    "ID": 20001,
    "PlaneID": 10401,
    "FloorID": 10401001,
    "GroupID": 520,
    "ConfigID": 300003,
    "MainMissionID": 4015700,
    "MonsterType": "Mascot"
  },
  {
    "ID": 20002,
    "PlaneID": 10401,
    "FloorID": 10401001,
    "GroupID": 526,
    "ConfigID": 300003,
    "MainMissionID": 4015702,
    "MonsterType": "Mascot"
  },
  {
    "ID": 20003,
    "PlaneID": 10401,
    "FloorID": 10401001,
    "GroupID": 528,
    "ConfigID": 300003,
    "MainMissionID": 4015703,
    "MonsterType": "Mascot"
  },
  {
    "ID": 20004,
    "PlaneID": 20411,
    "FloorID": 20411001,
    "GroupID": 251,
    "ConfigID": 300003,
    "MainMissionID": 4015704,
    "MonsterType": "Mascot"
  },
  {
    "ID": 20005,
    "PlaneID": 20411,
    "FloorID": 20411001,
    "GroupID": 253,
    "ConfigID": 300003,
    "MainMissionID": 4015705,
    "MonsterType": "Mascot"
  },
  {
    "ID": 20006,
    "PlaneID": 20412,
    "FloorID": 20412001,
    "GroupID": 206,
    "ConfigID": 300003,
    "MainMissionID": 4015706,
    "MonsterType": "Mascot"
  },
  {
    "ID": 20007,
    "PlaneID": 20412,
    "FloorID": 20412001,
    "GroupID": 208,
    "ConfigID": 300003,
    "MainMissionID": 4015707,
    "MonsterType": "Mascot"
  },
  {
    "ID": 20008,
    "PlaneID": 20413,
    "FloorID": 20413001,
    "GroupID": 250,
    "ConfigID": 300003,
    "MainMissionID": 4015708,
    "MonsterType": "Mascot"
  },
  {
    "ID": 20009,
    "PlaneID": 20413,
    "FloorID": 20413001,
    "GroupID": 252,
    "ConfigID": 300003,
    "MainMissionID": 4015709,
    "MonsterType": "Mascot"
  }
]