[
  {
    "StagePeriodID": 3097,
    "StageID": 3097,
    "EventID": 414011,
    "CountdownList": [
      20,
      0,
      0,
      0,
      0,
      0,
      0,
      0,
      0,
      5
    ],
    "WeaknessList": [
      {
        "CLIBFLIFLPD": "Fire",
        "JINLABGOHJI": true
      },
      {
        "CLIBFLIFLPD": "Ice"
      },
      {
        "CLIBFLIFLPD": "Wind",
        "JINLABGOHJI": true
      },
      {
        "CLIBFLIFLPD": "Thunder"
      },
      {
        "CLIBFLIFLPD": "Quantum"
      },
      {
        "CLIBFLIFLPD": "Physical",
        "JINLABGOHJI": true
      },
      {
        "CLIBFLIFLPD": "Imaginary"
      }
    ],
    "PeriodScore": 30000,
    "EmotionList": [
      0,
      0.2,
      0.5,
      0.8
    ],
    "BattleArea": 2000101,
    "PeriodRank": "PeriodFirst",
    "WaveCount": 10,
    "DeadLinePosition": {
      "Value": 0.4
    },
    "StageScore": 1500,
    "Weight": 100
  },
  {
    "StagePeriodID": 3098,
    "StageID": 3098,
    "EventID": 414012,
    "CountdownList": [
      20,
      0,
      0,
      0,
      0,
      0,
      0,
      0,
      0,
      5
    ],
    "WeaknessList": [
      {
        "CLIBFLIFLPD": "Fire",
        "JINLABGOHJI": true
      },
      {
        "CLIBFLIFLPD": "Ice"
      },
      {
        "CLIBFLIFLPD": "Wind",
        "JINLABGOHJI": true
      },
      {
        "CLIBFLIFLPD": "Thunder"
      },
      {
        "CLIBFLIFLPD": "Quantum"
      },
      {
        "CLIBFLIFLPD": "Physical",
        "JINLABGOHJI": true
      },
      {
        "CLIBFLIFLPD": "Imaginary"
      }
    ],
    "PeriodScore": 30000,
    "EmotionList": [
      0,
      0.2,
      0.5,
      0.8
    ],
    "BattleArea": 2000101,
    "PeriodRank": "PeriodSecond",
    "WaveCount": 10,
    "DeadLinePosition": {
      "Value": 0.6
    },
    "StageScore": 3500,
    "Weight": 100
  },
  {
    "StagePeriodID": 3099,
    "StageID": 3099,
    "EventID": 414013,
    "CountdownList": [
      20,
      0,
      0,
      0,
      0,
      0,
      0,
      0,
      0,
      5
    ],
    "WeaknessList": [
      {
        "CLIBFLIFLPD": "Fire",
        "JINLABGOHJI": true
      },
      {
        "CLIBFLIFLPD": "Ice"
      },
      {
        "CLIBFLIFLPD": "Wind",
        "JINLABGOHJI": true
      },
      {
        "CLIBFLIFLPD": "Thunder"
      },
      {
        "CLIBFLIFLPD": "Quantum"
      },
      {
        "CLIBFLIFLPD": "Physical",
        "JINLABGOHJI": true
      },
      {
        "CLIBFLIFLPD": "Imaginary"
      }
    ],
    "PeriodScore": 30000,
    "EmotionList": [
      0,
      0.2,
      0.5,
      0.8
    ],
    "BattleArea": 2000101,
    "PeriodRank": "PeriodThird",
    "WaveCount": 10,
    "StageScore": 5000,
    "Weight": 100
  },
  {
    "StagePeriodID": 414011,
    "StageID": 4140116,
    "EventID": 414011,
    "CountdownList": [
      2,
      2,
      2,
      2
    ],
    "WeaknessList": [
      {
        "CLIBFLIFLPD": "Fire",
        "JINLABGOHJI": true
      },
      {
        "CLIBFLIFLPD": "Ice"
      },
      {
        "CLIBFLIFLPD": "Wind",
        "JINLABGOHJI": true
      },
      {
        "CLIBFLIFLPD": "Thunder"
      },
      {
        "CLIBFLIFLPD": "Quantum"
      },
      {
        "CLIBFLIFLPD": "Physical",
        "JINLABGOHJI": true
      },
      {
        "CLIBFLIFLPD": "Imaginary"
      }
    ],
    "PeriodScore": 31000,
    "EmotionList": [
      0,
      0.2,
      0.5,
      0.8
    ],
    "BattleArea": 2012101,
    "PeriodRank": "PeriodFirst",
    "WaveCount": 4,
    "DeadLinePosition": {
      "Value": 0.24
    },
    "StageScore": 4000,
    "Weight": 100
  },
  {
    "StagePeriodID": 414012,
    "StageID": 4140126,
    "EventID": 414012,
    "CountdownList": [
      1,
      1,
      2
    ],
    "WeaknessList": [
      {
        "CLIBFLIFLPD": "Fire",
        "JINLABGOHJI": true
      },
      {
        "CLIBFLIFLPD": "Ice"
      },
      {
        "CLIBFLIFLPD": "Wind",
        "JINLABGOHJI": true
      },
      {
        "CLIBFLIFLPD": "Thunder"
      },
      {
        "CLIBFLIFLPD": "Quantum"
      },
      {
        "CLIBFLIFLPD": "Physical",
        "JINLABGOHJI": true
      },
      {
        "CLIBFLIFLPD": "Imaginary"
      }
    ],
    "PeriodScore": 24000,
    "EmotionList": [
      0,
      0.2,
      0.5,
      0.8
    ],
    "BattleArea": 2012101,
    "PeriodRank": "PeriodSecond",
    "WaveCount": 3,
    "DeadLinePosition": {
      "Value": 0.24
    },
    "StageScore": 3000,
    "Weight": 100
  },
  {
    "StagePeriodID": 414013,
    "StageID": 4140136,
    "EventID": 414013,
    "CountdownList": [
      1,
      1,
      3
    ],
    "WeaknessList": [
      {
        "CLIBFLIFLPD": "Fire",
        "JINLABGOHJI": true
      },
      {
        "CLIBFLIFLPD": "Ice"
      },
      {
        "CLIBFLIFLPD": "Wind",
        "JINLABGOHJI": true
      },
      {
        "CLIBFLIFLPD": "Thunder"
      },
      {
        "CLIBFLIFLPD": "Quantum"
      },
      {
        "CLIBFLIFLPD": "Physical",
        "JINLABGOHJI": true
      },
      {
        "CLIBFLIFLPD": "Imaginary"
      }
    ],
    "PeriodScore": 45000,
    "EmotionList": [
      0,
      0.2,
      0.5,
      0.8
    ],
    "BattleArea": 2012101,
    "PeriodRank": "PeriodThird",
    "WaveCount": 3,
    "StageScore": 3000,
    "Weight": 100
  },
  {
    "StagePeriodID": 414021,
    "StageID": 4140116,
    "EventID": 414021,
    "CountdownList": [
      2,
      2,
      2,
      2
    ],
    "WeaknessList": [
      {
        "CLIBFLIFLPD": "Fire",
        "JINLABGOHJI": true
      },
      {
        "CLIBFLIFLPD": "Ice"
      },
      {
        "CLIBFLIFLPD": "Wind",
        "JINLABGOHJI": true
      },
      {
        "CLIBFLIFLPD": "Thunder"
      },
      {
        "CLIBFLIFLPD": "Quantum"
      },
      {
        "CLIBFLIFLPD": "Physical",
        "JINLABGOHJI": true
      },
      {
        "CLIBFLIFLPD": "Imaginary"
      }
    ],
    "PeriodScore": 31000,
    "EmotionList": [
      0,
      0.2,
      0.5,
      0.8
    ],
    "BattleArea": 2013602,
    "PeriodRank": "PeriodFirst",
    "WaveCount": 4,
    "DeadLinePosition": {
      "Value": 0.19
    },
    "StageScore": 4000,
    "Weight": 100
  },
  {
    "StagePeriodID": 414022,
    "StageID": 4140116,
    "EventID": 414022,
    "CountdownList": [
      1,
      1,
      2
    ],
    "WeaknessList": [
      {
        "CLIBFLIFLPD": "Fire",
        "JINLABGOHJI": true
      },
      {
        "CLIBFLIFLPD": "Ice"
      },
      {
        "CLIBFLIFLPD": "Wind",
        "JINLABGOHJI": true
      },
      {
        "CLIBFLIFLPD": "Thunder"
      },
      {
        "CLIBFLIFLPD": "Quantum"
      },
      {
        "CLIBFLIFLPD": "Physical",
        "JINLABGOHJI": true
      },
      {
        "CLIBFLIFLPD": "Imaginary"
      }
    ],
    "PeriodScore": 24000,
    "EmotionList": [
      0,
      0.2,
      0.5,
      0.8
    ],
    "BattleArea": 2013602,
    "PeriodRank": "PeriodSecond",
    "WaveCount": 3,
    "DeadLinePosition": {
      "Value": 0.19
    },
    "StageScore": 3000,
    "Weight": 100
  },
  {
    "StagePeriodID": 414023,
    "StageID": 4140116,
    "EventID": 414023,
    "CountdownList": [
      1,
      1,
      3
    ],
    "WeaknessList": [
      {
        "CLIBFLIFLPD": "Fire",
        "JINLABGOHJI": true
      },
      {
        "CLIBFLIFLPD": "Ice"
      },
      {
        "CLIBFLIFLPD": "Wind",
        "JINLABGOHJI": true
      },
      {
        "CLIBFLIFLPD": "Thunder"
      },
      {
        "CLIBFLIFLPD": "Quantum"
      },
      {
        "CLIBFLIFLPD": "Physical",
        "JINLABGOHJI": true
      },
      {
        "CLIBFLIFLPD": "Imaginary"
      }
    ],
    "PeriodScore": 45000,
    "EmotionList": [
      0,
      0.2,
      0.5,
      0.8
    ],
    "BattleArea": 2013602,
    "PeriodRank": "PeriodThird",
    "WaveCount": 3,
    "StageScore": 3000,
    "Weight": 100
  },
  {
    "StagePeriodID": 414101,
    "StageID": 4140116,
    "EventID": 414101,
    "CountdownList": [
      2,
      2,
      2,
      2
    ],
    "WeaknessList": [
      {
        "CLIBFLIFLPD": "Fire",
        "JINLABGOHJI": true
      },
      {
        "CLIBFLIFLPD": "Ice"
      },
      {
        "CLIBFLIFLPD": "Wind"
      },
      {
        "CLIBFLIFLPD": "Thunder"
      },
      {
        "CLIBFLIFLPD": "Quantum"
      },
      {
        "CLIBFLIFLPD": "Physical"
      },
      {
        "CLIBFLIFLPD": "Imaginary",
        "JINLABGOHJI": true
      }
    ],
    "PeriodScore": 31000,
    "EmotionList": [
      0,
      0.2,
      0.5,
      0.8
    ],
    "BattleArea": 2000101,
    "PeriodRank": "PeriodFirst",
    "WaveCount": 4,
    "DeadLinePosition": {
      "Value": 0.24
    },
    "StageScore": 8000,
    "Weight": 100
  },
  {
    "StagePeriodID": 414102,
    "StageID": 4140116,
    "EventID": 414102,
    "CountdownList": [
      2,
      2,
      2,
      2
    ],
    "WeaknessList": [
      {
        "CLIBFLIFLPD": "Fire"
      },
      {
        "CLIBFLIFLPD": "Ice",
        "JINLABGOHJI": true
      },
      {
        "CLIBFLIFLPD": "Wind"
      },
      {
        "CLIBFLIFLPD": "Thunder"
      },
      {
        "CLIBFLIFLPD": "Quantum"
      },
      {
        "CLIBFLIFLPD": "Physical",
        "JINLABGOHJI": true
      },
      {
        "CLIBFLIFLPD": "Imaginary"
      }
    ],
    "PeriodScore": 31000,
    "EmotionList": [
      0,
      0.2,
      0.5,
      0.8
    ],
    "BattleArea": 2023101,
    "PeriodRank": "PeriodFirst",
    "WaveCount": 4,
    "DeadLinePosition": {
      "Value": 0.24
    },
    "StageScore": 8000,
    "Weight": 100
  },
  {
    "StagePeriodID": 414103,
    "StageID": 4140116,
    "EventID": 414103,
    "CountdownList": [
      2,
      2,
      2,
      2
    ],
    "WeaknessList": [
      {
        "CLIBFLIFLPD": "Fire"
      },
      {
        "CLIBFLIFLPD": "Ice"
      },
      {
        "CLIBFLIFLPD": "Wind",
        "JINLABGOHJI": true
      },
      {
        "CLIBFLIFLPD": "Thunder",
        "JINLABGOHJI": true
      },
      {
        "CLIBFLIFLPD": "Quantum"
      },
      {
        "CLIBFLIFLPD": "Physical"
      },
      {
        "CLIBFLIFLPD": "Imaginary"
      }
    ],
    "PeriodScore": 31000,
    "EmotionList": [
      0,
      0.2,
      0.5,
      0.8
    ],
    "BattleArea": 2021201,
    "PeriodRank": "PeriodFirst",
    "WaveCount": 4,
    "DeadLinePosition": {
      "Value": 0.24
    },
    "StageScore": 8000,
    "Weight": 100
  },
  {
    "StagePeriodID": 414104,
    "StageID": 4140116,
    "EventID": 414104,
    "CountdownList": [
      2,
      2,
      2,
      2
    ],
    "WeaknessList": [
      {
        "CLIBFLIFLPD": "Fire"
      },
      {
        "CLIBFLIFLPD": "Ice",
        "JINLABGOHJI": true
      },
      {
        "CLIBFLIFLPD": "Wind"
      },
      {
        "CLIBFLIFLPD": "Thunder",
        "JINLABGOHJI": true
      },
      {
        "CLIBFLIFLPD": "Quantum"
      },
      {
        "CLIBFLIFLPD": "Physical"
      },
      {
        "CLIBFLIFLPD": "Imaginary"
      }
    ],
    "PeriodScore": 31000,
    "EmotionList": [
      0,
      0.2,
      0.5,
      0.8
    ],
    "BattleArea": 2011101,
    "PeriodRank": "PeriodFirst",
    "WaveCount": 4,
    "DeadLinePosition": {
      "Value": 0.24
    },
    "StageScore": 8000,
    "Weight": 100
  },
  {
    "StagePeriodID": 414105,
    "StageID": 4140116,
    "EventID": 414105,
    "CountdownList": [
      2,
      2,
      2,
      2
    ],
    "WeaknessList": [
      {
        "CLIBFLIFLPD": "Fire",
        "JINLABGOHJI": true
      },
      {
        "CLIBFLIFLPD": "Ice"
      },
      {
        "CLIBFLIFLPD": "Wind"
      },
      {
        "CLIBFLIFLPD": "Thunder",
        "JINLABGOHJI": true
      },
      {
        "CLIBFLIFLPD": "Quantum"
      },
      {
        "CLIBFLIFLPD": "Physical"
      },
      {
        "CLIBFLIFLPD": "Imaginary"
      }
    ],
    "PeriodScore": 31000,
    "EmotionList": [
      0,
      0.2,
      0.5,
      0.8
    ],
    "BattleArea": 1030101,
    "PeriodRank": "PeriodFirst",
    "WaveCount": 4,
    "DeadLinePosition": {
      "Value": 0.24
    },
    "StageScore": 8000,
    "Weight": 100
  },
  {
    "StagePeriodID": 414106,
    "StageID": 4140116,
    "EventID": 414106,
    "CountdownList": [
      2,
      2,
      2,
      2
    ],
    "WeaknessList": [
      {
        "CLIBFLIFLPD": "Fire"
      },
      {
        "CLIBFLIFLPD": "Ice",
        "JINLABGOHJI": true
      },
      {
        "CLIBFLIFLPD": "Wind"
      },
      {
        "CLIBFLIFLPD": "Thunder"
      },
      {
        "CLIBFLIFLPD": "Quantum"
      },
      {
        "CLIBFLIFLPD": "Physical",
        "JINLABGOHJI": true
      },
      {
        "CLIBFLIFLPD": "Imaginary"
      }
    ],
    "PeriodScore": 31000,
    "EmotionList": [
      0,
      0.2,
      0.5,
      0.8
    ],
    "BattleArea": 2010101,
    "PeriodRank": "PeriodFirst",
    "WaveCount": 4,
    "DeadLinePosition": {
      "Value": 0.24
    },
    "StageScore": 8000,
    "Weight": 100
  },
  {
    "StagePeriodID": 414107,
    "StageID": 4140116,
    "EventID": 414107,
    "CountdownList": [
      2,
      2,
      2,
      2
    ],
    "WeaknessList": [
      {
        "CLIBFLIFLPD": "Fire"
      },
      {
        "CLIBFLIFLPD": "Ice"
      },
      {
        "CLIBFLIFLPD": "Wind"
      },
      {
        "CLIBFLIFLPD": "Thunder",
        "JINLABGOHJI": true
      },
      {
        "CLIBFLIFLPD": "Quantum"
      },
      {
        "CLIBFLIFLPD": "Physical"
      },
      {
        "CLIBFLIFLPD": "Imaginary",
        "JINLABGOHJI": true
      }
    ],
    "PeriodScore": 31000,
    "EmotionList": [
      0,
      0.2,
      0.5,
      0.8
    ],
    "BattleArea": 1030101,
    "PeriodRank": "PeriodFirst",
    "WaveCount": 4,
    "DeadLinePosition": {
      "Value": 0.24
    },
    "StageScore": 8000,
    "Weight": 100
  },
  {
    "StagePeriodID": 414108,
    "StageID": 4140116,
    "EventID": 414108,
    "CountdownList": [
      2,
      2,
      2,
      2
    ],
    "WeaknessList": [
      {
        "CLIBFLIFLPD": "Fire"
      },
      {
        "CLIBFLIFLPD": "Ice"
      },
      {
        "CLIBFLIFLPD": "Wind"
      },
      {
        "CLIBFLIFLPD": "Thunder"
      },
      {
        "CLIBFLIFLPD": "Quantum"
      },
      {
        "CLIBFLIFLPD": "Physical",
        "JINLABGOHJI": true
      },
      {
        "CLIBFLIFLPD": "Imaginary",
        "JINLABGOHJI": true
      }
    ],
    "PeriodScore": 31000,
    "EmotionList": [
      0,
      0.2,
      0.5,
      0.8
    ],
    "BattleArea": 2021201,
    "PeriodRank": "PeriodFirst",
    "WaveCount": 4,
    "DeadLinePosition": {
      "Value": 0.24
    },
    "StageScore": 8000,
    "Weight": 100
  },
  {
    "StagePeriodID": 414109,
    "StageID": 4140116,
    "EventID": 414109,
    "CountdownList": [
      2,
      2,
      2,
      2
    ],
    "WeaknessList": [
      {
        "CLIBFLIFLPD": "Fire"
      },
      {
        "CLIBFLIFLPD": "Ice"
      },
      {
        "CLIBFLIFLPD": "Wind"
      },
      {
        "CLIBFLIFLPD": "Thunder",
        "JINLABGOHJI": true
      },
      {
        "CLIBFLIFLPD": "Quantum",
        "JINLABGOHJI": true
      },
      {
        "CLIBFLIFLPD": "Physical"
      },
      {
        "CLIBFLIFLPD": "Imaginary"
      }
    ],
    "PeriodScore": 31000,
    "EmotionList": [
      0,
      0.2,
      0.5,
      0.8
    ],
    "BattleArea": 2010101,
    "PeriodRank": "PeriodFirst",
    "WaveCount": 4,
    "DeadLinePosition": {
      "Value": 0.24
    },
    "StageScore": 8000,
    "Weight": 100
  },
  {
    "StagePeriodID": 414110,
    "StageID": 4140116,
    "EventID": 414110,
    "CountdownList": [
      2,
      2,
      2,
      2
    ],
    "WeaknessList": [
      {
        "CLIBFLIFLPD": "Fire",
        "JINLABGOHJI": true
      },
      {
        "CLIBFLIFLPD": "Ice"
      },
      {
        "CLIBFLIFLPD": "Wind"
      },
      {
        "CLIBFLIFLPD": "Thunder",
        "JINLABGOHJI": true
      },
      {
        "CLIBFLIFLPD": "Quantum"
      },
      {
        "CLIBFLIFLPD": "Physical"
      },
      {
        "CLIBFLIFLPD": "Imaginary"
      }
    ],
    "PeriodScore": 31000,
    "EmotionList": [
      0,
      0.2,
      0.5,
      0.8
    ],
    "BattleArea": 2031301,
    "PeriodRank": "PeriodFirst",
    "WaveCount": 4,
    "DeadLinePosition": {
      "Value": 0.24
    },
    "StageScore": 8000,
    "Weight": 100
  },
  {
    "StagePeriodID": 414111,
    "StageID": 4140116,
    "EventID": 414111,
    "CountdownList": [
      2,
      2,
      2,
      2
    ],
    "WeaknessList": [
      {
        "CLIBFLIFLPD": "Fire",
        "JINLABGOHJI": true
      },
      {
        "CLIBFLIFLPD": "Ice"
      },
      {
        "CLIBFLIFLPD": "Wind",
        "JINLABGOHJI": true
      },
      {
        "CLIBFLIFLPD": "Thunder"
      },
      {
        "CLIBFLIFLPD": "Quantum"
      },
      {
        "CLIBFLIFLPD": "Physical"
      },
      {
        "CLIBFLIFLPD": "Imaginary"
      }
    ],
    "PeriodScore": 31000,
    "EmotionList": [
      0,
      0.2,
      0.5,
      0.8
    ],
    "BattleArea": 2023201,
    "PeriodRank": "PeriodFirst",
    "WaveCount": 4,
    "DeadLinePosition": {
      "Value": 0.24
    },
    "StageScore": 8000,
    "Weight": 100
  },
  {
    "StagePeriodID": 414112,
    "StageID": 4140116,
    "EventID": 414112,
    "CountdownList": [
      2,
      2,
      2,
      2
    ],
    "WeaknessList": [
      {
        "CLIBFLIFLPD": "Fire"
      },
      {
        "CLIBFLIFLPD": "Ice"
      },
      {
        "CLIBFLIFLPD": "Wind"
      },
      {
        "CLIBFLIFLPD": "Thunder",
        "JINLABGOHJI": true
      },
      {
        "CLIBFLIFLPD": "Quantum",
        "JINLABGOHJI": true
      },
      {
        "CLIBFLIFLPD": "Physical"
      },
      {
        "CLIBFLIFLPD": "Imaginary"
      }
    ],
    "PeriodScore": 31000,
    "EmotionList": [
      0,
      0.2,
      0.5,
      0.8
    ],
    "BattleArea": 2012301,
    "PeriodRank": "PeriodFirst",
    "WaveCount": 4,
    "DeadLinePosition": {
      "Value": 0.24
    },
    "StageScore": 8000,
    "Weight": 100
  },
  {
    "StagePeriodID": 414201,
    "StageID": 4140116,
    "EventID": 414201,
    "CountdownList": [
      1,
      1,
      2
    ],
    "WeaknessList": [
      {
        "CLIBFLIFLPD": "Fire"
      },
      {
        "CLIBFLIFLPD": "Ice",
        "JINLABGOHJI": true
      },
      {
        "CLIBFLIFLPD": "Wind"
      },
      {
        "CLIBFLIFLPD": "Thunder"
      },
      {
        "CLIBFLIFLPD": "Quantum",
        "JINLABGOHJI": true
      },
      {
        "CLIBFLIFLPD": "Physical",
        "JINLABGOHJI": true
      },
      {
        "CLIBFLIFLPD": "Imaginary"
      }
    ],
    "PeriodScore": 24000,
    "EmotionList": [
      0,
      0.2,
      0.5,
      0.8
    ],
    "BattleArea": 2011101,
    "PeriodRank": "PeriodSecond",
    "WaveCount": 3,
    "DeadLinePosition": {
      "Value": 0.19
    },
    "StageScore": 6000,
    "Weight": 100
  },
  {
    "StagePeriodID": 414202,
    "StageID": 4140116,
    "EventID": 414202,
    "CountdownList": [
      1,
      1,
      2
    ],
    "WeaknessList": [
      {
        "CLIBFLIFLPD": "Fire"
      },
      {
        "CLIBFLIFLPD": "Ice",
        "JINLABGOHJI": true
      },
      {
        "CLIBFLIFLPD": "Wind"
      },
      {
        "CLIBFLIFLPD": "Thunder",
        "JINLABGOHJI": true
      },
      {
        "CLIBFLIFLPD": "Quantum"
      },
      {
        "CLIBFLIFLPD": "Physical"
      },
      {
        "CLIBFLIFLPD": "Imaginary"
      }
    ],
    "PeriodScore": 24000,
    "EmotionList": [
      0,
      0.2,
      0.5,
      0.8
    ],
    "BattleArea": 2023101,
    "PeriodRank": "PeriodSecond",
    "WaveCount": 3,
    "DeadLinePosition": {
      "Value": 0.19
    },
    "StageScore": 6000,
    "Weight": 100
  },
  {
    "StagePeriodID": 414203,
    "StageID": 4140116,
    "EventID": 414203,
    "CountdownList": [
      1,
      1,
      2
    ],
    "WeaknessList": [
      {
        "CLIBFLIFLPD": "Fire"
      },
      {
        "CLIBFLIFLPD": "Ice"
      },
      {
        "CLIBFLIFLPD": "Wind",
        "JINLABGOHJI": true
      },
      {
        "CLIBFLIFLPD": "Thunder",
        "JINLABGOHJI": true
      },
      {
        "CLIBFLIFLPD": "Quantum"
      },
      {
        "CLIBFLIFLPD": "Physical"
      },
      {
        "CLIBFLIFLPD": "Imaginary"
      }
    ],
    "PeriodScore": 24000,
    "EmotionList": [
      0,
      0.2,
      0.5,
      0.8
    ],
    "BattleArea": 1030101,
    "PeriodRank": "PeriodSecond",
    "WaveCount": 3,
    "DeadLinePosition": {
      "Value": 0.19
    },
    "StageScore": 6000,
    "Weight": 100
  },
  {
    "StagePeriodID": 414204,
    "StageID": 4140116,
    "EventID": 414204,
    "CountdownList": [
      1,
      1,
      2
    ],
    "WeaknessList": [
      {
        "CLIBFLIFLPD": "Fire"
      },
      {
        "CLIBFLIFLPD": "Ice"
      },
      {
        "CLIBFLIFLPD": "Wind"
      },
      {
        "CLIBFLIFLPD": "Thunder",
        "JINLABGOHJI": true
      },
      {
        "CLIBFLIFLPD": "Quantum"
      },
      {
        "CLIBFLIFLPD": "Physical",
        "JINLABGOHJI": true
      },
      {
        "CLIBFLIFLPD": "Imaginary"
      }
    ],
    "PeriodScore": 24000,
    "EmotionList": [
      0,
      0.2,
      0.5,
      0.8
    ],
    "BattleArea": 2021201,
    "PeriodRank": "PeriodSecond",
    "WaveCount": 3,
    "DeadLinePosition": {
      "Value": 0.19
    },
    "StageScore": 6000,
    "Weight": 100
  },
  {
    "StagePeriodID": 414205,
    "StageID": 4140116,
    "EventID": 414205,
    "CountdownList": [
      1,
      1,
      2
    ],
    "WeaknessList": [
      {
        "CLIBFLIFLPD": "Fire"
      },
      {
        "CLIBFLIFLPD": "Ice"
      },
      {
        "CLIBFLIFLPD": "Wind"
      },
      {
        "CLIBFLIFLPD": "Thunder"
      },
      {
        "CLIBFLIFLPD": "Quantum"
      },
      {
        "CLIBFLIFLPD": "Physical",
        "JINLABGOHJI": true
      },
      {
        "CLIBFLIFLPD": "Imaginary",
        "JINLABGOHJI": true
      }
    ],
    "PeriodScore": 24000,
    "EmotionList": [
      0,
      0.2,
      0.5,
      0.8
    ],
    "BattleArea": 1030101,
    "PeriodRank": "PeriodSecond",
    "WaveCount": 3,
    "DeadLinePosition": {
      "Value": 0.19
    },
    "StageScore": 6000,
    "Weight": 100
  },
  {
    "StagePeriodID": 414206,
    "StageID": 4140116,
    "EventID": 414206,
    "CountdownList": [
      1,
      1,
      2
    ],
    "WeaknessList": [
      {
        "CLIBFLIFLPD": "Fire",
        "JINLABGOHJI": true
      },
      {
        "CLIBFLIFLPD": "Ice"
      },
      {
        "CLIBFLIFLPD": "Wind"
      },
      {
        "CLIBFLIFLPD": "Thunder",
        "JINLABGOHJI": true
      },
      {
        "CLIBFLIFLPD": "Quantum",
        "JINLABGOHJI": true
      },
      {
        "CLIBFLIFLPD": "Physical"
      },
      {
        "CLIBFLIFLPD": "Imaginary"
      }
    ],
    "PeriodScore": 24000,
    "EmotionList": [
      0,
      0.2,
      0.5,
      0.8
    ],
    "BattleArea": 2010101,
    "PeriodRank": "PeriodSecond",
    "WaveCount": 3,
    "DeadLinePosition": {
      "Value": 0.19
    },
    "StageScore": 6000,
    "Weight": 100
  },
  {
    "StagePeriodID": 414207,
    "StageID": 4140116,
    "EventID": 414207,
    "CountdownList": [
      1,
      1,
      2
    ],
    "WeaknessList": [
      {
        "CLIBFLIFLPD": "Fire",
        "JINLABGOHJI": true
      },
      {
        "CLIBFLIFLPD": "Ice",
        "JINLABGOHJI": true
      },
      {
        "CLIBFLIFLPD": "Wind"
      },
      {
        "CLIBFLIFLPD": "Thunder"
      },
      {
        "CLIBFLIFLPD": "Quantum"
      },
      {
        "CLIBFLIFLPD": "Physical"
      },
      {
        "CLIBFLIFLPD": "Imaginary"
      }
    ],
    "PeriodScore": 24000,
    "EmotionList": [
      0,
      0.2,
      0.5,
      0.8
    ],
    "BattleArea": 2012301,
    "PeriodRank": "PeriodSecond",
    "WaveCount": 3,
    "DeadLinePosition": {
      "Value": 0.19
    },
    "StageScore": 6000,
    "Weight": 100
  },
  {
    "StagePeriodID": 414208,
    "StageID": 4140116,
    "EventID": 414208,
    "CountdownList": [
      1,
      1,
      2
    ],
    "WeaknessList": [
      {
        "CLIBFLIFLPD": "Fire",
        "JINLABGOHJI": true
      },
      {
        "CLIBFLIFLPD": "Ice"
      },
      {
        "CLIBFLIFLPD": "Wind",
        "JINLABGOHJI": true
      },
      {
        "CLIBFLIFLPD": "Thunder"
      },
      {
        "CLIBFLIFLPD": "Quantum"
      },
      {
        "CLIBFLIFLPD": "Physical"
      },
      {
        "CLIBFLIFLPD": "Imaginary"
      }
    ],
    "PeriodScore": 24000,
    "EmotionList": [
      0,
      0.2,
      0.5,
      0.8
    ],
    "BattleArea": 2023201,
    "PeriodRank": "PeriodSecond",
    "WaveCount": 3,
    "DeadLinePosition": {
      "Value": 0.19
    },
    "StageScore": 6000,
    "Weight": 100
  },
  {
    "StagePeriodID": 414209,
    "StageID": 4140116,
    "EventID": 414209,
    "CountdownList": [
      1,
      1,
      2
    ],
    "WeaknessList": [
      {
        "CLIBFLIFLPD": "Fire"
      },
      {
        "CLIBFLIFLPD": "Ice",
        "JINLABGOHJI": true
      },
      {
        "CLIBFLIFLPD": "Wind"
      },
      {
        "CLIBFLIFLPD": "Thunder",
        "JINLABGOHJI": true
      },
      {
        "CLIBFLIFLPD": "Quantum"
      },
      {
        "CLIBFLIFLPD": "Physical"
      },
      {
        "CLIBFLIFLPD": "Imaginary"
      }
    ],
    "PeriodScore": 24000,
    "EmotionList": [
      0,
      0.2,
      0.5,
      0.8
    ],
    "BattleArea": 2012301,
    "PeriodRank": "PeriodSecond",
    "WaveCount": 3,
    "DeadLinePosition": {
      "Value": 0.19
    },
    "StageScore": 6000,
    "Weight": 100
  },
  {
    "StagePeriodID": 414210,
    "StageID": 4140116,
    "EventID": 414210,
    "CountdownList": [
      1,
      1,
      2
    ],
    "WeaknessList": [
      {
        "CLIBFLIFLPD": "Fire"
      },
      {
        "CLIBFLIFLPD": "Ice",
        "JINLABGOHJI": true
      },
      {
        "CLIBFLIFLPD": "Wind",
        "JINLABGOHJI": true
      },
      {
        "CLIBFLIFLPD": "Thunder"
      },
      {
        "CLIBFLIFLPD": "Quantum"
      },
      {
        "CLIBFLIFLPD": "Physical"
      },
      {
        "CLIBFLIFLPD": "Imaginary"
      }
    ],
    "PeriodScore": 24000,
    "EmotionList": [
      0,
      0.2,
      0.5,
      0.8
    ],
    "BattleArea": 2023101,
    "PeriodRank": "PeriodSecond",
    "WaveCount": 3,
    "DeadLinePosition": {
      "Value": 0.19
    },
    "StageScore": 6000,
    "Weight": 100
  },
  {
    "StagePeriodID": 414211,
    "StageID": 4140116,
    "EventID": 414211,
    "CountdownList": [
      1,
      1,
      2
    ],
    "WeaknessList": [
      {
        "CLIBFLIFLPD": "Fire"
      },
      {
        "CLIBFLIFLPD": "Ice"
      },
      {
        "CLIBFLIFLPD": "Wind",
        "JINLABGOHJI": true
      },
      {
        "CLIBFLIFLPD": "Thunder"
      },
      {
        "CLIBFLIFLPD": "Quantum",
        "JINLABGOHJI": true
      },
      {
        "CLIBFLIFLPD": "Physical"
      },
      {
        "CLIBFLIFLPD": "Imaginary"
      }
    ],
    "PeriodScore": 24000,
    "EmotionList": [
      0,
      0.2,
      0.5,
      0.8
    ],
    "BattleArea": 2021101,
    "PeriodRank": "PeriodSecond",
    "WaveCount": 3,
    "DeadLinePosition": {
      "Value": 0.19
    },
    "StageScore": 6000,
    "Weight": 100
  },
  {
    "StagePeriodID": 414212,
    "StageID": 4140116,
    "EventID": 414212,
    "CountdownList": [
      1,
      1,
      2
    ],
    "WeaknessList": [
      {
        "CLIBFLIFLPD": "Fire"
      },
      {
        "CLIBFLIFLPD": "Ice",
        "JINLABGOHJI": true
      },
      {
        "CLIBFLIFLPD": "Wind"
      },
      {
        "CLIBFLIFLPD": "Thunder"
      },
      {
        "CLIBFLIFLPD": "Quantum"
      },
      {
        "CLIBFLIFLPD": "Physical"
      },
      {
        "CLIBFLIFLPD": "Imaginary",
        "JINLABGOHJI": true
      }
    ],
    "PeriodScore": 24000,
    "EmotionList": [
      0,
      0.2,
      0.5,
      0.8
    ],
    "BattleArea": 2012301,
    "PeriodRank": "PeriodSecond",
    "WaveCount": 3,
    "DeadLinePosition": {
      "Value": 0.19
    },
    "StageScore": 6000,
    "Weight": 100
  },
  {
    "StagePeriodID": 414301,
    "StageID": 4140116,
    "EventID": 414301,
    "CountdownList": [
      1,
      1,
      3
    ],
    "WeaknessList": [
      {
        "CLIBFLIFLPD": "Fire",
        "JINLABGOHJI": true
      },
      {
        "CLIBFLIFLPD": "Ice",
        "JINLABGOHJI": true
      },
      {
        "CLIBFLIFLPD": "Wind"
      },
      {
        "CLIBFLIFLPD": "Thunder"
      },
      {
        "CLIBFLIFLPD": "Quantum"
      },
      {
        "CLIBFLIFLPD": "Physical",
        "JINLABGOHJI": true
      },
      {
        "CLIBFLIFLPD": "Imaginary"
      }
    ],
    "PeriodScore": 45000,
    "EmotionList": [
      0,
      0.2,
      0.5,
      0.8
    ],
    "BattleArea": 2013602,
    "PeriodRank": "PeriodThird",
    "WaveCount": 3,
    "DeadLinePosition": {
      "Value": 1
    },
    "StageScore": 6000,
    "Weight": 100
  },
  {
    "StagePeriodID": 414302,
    "StageID": 4140116,
    "EventID": 414302,
    "CountdownList": [
      1,
      1,
      3
    ],
    "WeaknessList": [
      {
        "CLIBFLIFLPD": "Fire",
        "JINLABGOHJI": true
      },
      {
        "CLIBFLIFLPD": "Ice"
      },
      {
        "CLIBFLIFLPD": "Wind",
        "JINLABGOHJI": true
      },
      {
        "CLIBFLIFLPD": "Thunder",
        "JINLABGOHJI": true
      },
      {
        "CLIBFLIFLPD": "Quantum"
      },
      {
        "CLIBFLIFLPD": "Physical"
      },
      {
        "CLIBFLIFLPD": "Imaginary"
      }
    ],
    "PeriodScore": 45000,
    "EmotionList": [
      0,
      0.2,
      0.5,
      0.8
    ],
    "BattleArea": 2012201,
    "PeriodRank": "PeriodThird",
    "WaveCount": 3,
    "DeadLinePosition": {
      "Value": 1
    },
    "StageScore": 6000,
    "Weight": 100
  },
  {
    "StagePeriodID": 414303,
    "StageID": 4140116,
    "EventID": 414303,
    "CountdownList": [
      1,
      1,
      3
    ],
    "WeaknessList": [
      {
        "CLIBFLIFLPD": "Fire"
      },
      {
        "CLIBFLIFLPD": "Ice"
      },
      {
        "CLIBFLIFLPD": "Wind"
      },
      {
        "CLIBFLIFLPD": "Thunder"
      },
      {
        "CLIBFLIFLPD": "Quantum",
        "JINLABGOHJI": true
      },
      {
        "CLIBFLIFLPD": "Physical",
        "JINLABGOHJI": true
      },
      {
        "CLIBFLIFLPD": "Imaginary",
        "JINLABGOHJI": true
      }
    ],
    "PeriodScore": 45000,
    "EmotionList": [
      0,
      0.2,
      0.5,
      0.8
    ],
    "BattleArea": 2010101,
    "PeriodRank": "PeriodThird",
    "WaveCount": 3,
    "DeadLinePosition": {
      "Value": 1
    },
    "StageScore": 6000,
    "Weight": 100
  },
  {
    "StagePeriodID": 414304,
    "StageID": 4140116,
    "EventID": 414304,
    "CountdownList": [
      1,
      1,
      3
    ],
    "WeaknessList": [
      {
        "CLIBFLIFLPD": "Fire"
      },
      {
        "CLIBFLIFLPD": "Ice"
      },
      {
        "CLIBFLIFLPD": "Wind",
        "JINLABGOHJI": true
      },
      {
        "CLIBFLIFLPD": "Thunder",
        "JINLABGOHJI": true
      },
      {
        "CLIBFLIFLPD": "Quantum"
      },
      {
        "CLIBFLIFLPD": "Physical"
      },
      {
        "CLIBFLIFLPD": "Imaginary",
        "JINLABGOHJI": true
      }
    ],
    "PeriodScore": 45000,
    "EmotionList": [
      0,
      0.2,
      0.5,
      0.8
    ],
    "BattleArea": 2022101,
    "PeriodRank": "PeriodThird",
    "WaveCount": 3,
    "DeadLinePosition": {
      "Value": 1
    },
    "StageScore": 6000,
    "Weight": 100
  },
  {
    "StagePeriodID": 414305,
    "StageID": 4140116,
    "EventID": 414305,
    "CountdownList": [
      1,
      1,
      3
    ],
    "WeaknessList": [
      {
        "CLIBFLIFLPD": "Fire",
        "JINLABGOHJI": true
      },
      {
        "CLIBFLIFLPD": "Ice",
        "JINLABGOHJI": true
      },
      {
        "CLIBFLIFLPD": "Wind"
      },
      {
        "CLIBFLIFLPD": "Thunder"
      },
      {
        "CLIBFLIFLPD": "Quantum",
        "JINLABGOHJI": true
      },
      {
        "CLIBFLIFLPD": "Physical"
      },
      {
        "CLIBFLIFLPD": "Imaginary"
      }
    ],
    "PeriodScore": 45000,
    "EmotionList": [
      0,
      0.2,
      0.5,
      0.8
    ],
    "BattleArea": 2023201,
    "PeriodRank": "PeriodThird",
    "WaveCount": 3,
    "DeadLinePosition": {
      "Value": 1
    },
    "StageScore": 6000,
    "Weight": 100
  },
  {
    "StagePeriodID": 414306,
    "StageID": 4140116,
    "EventID": 414306,
    "CountdownList": [
      1,
      1,
      3
    ],
    "WeaknessList": [
      {
        "CLIBFLIFLPD": "Fire"
      },
      {
        "CLIBFLIFLPD": "Ice"
      },
      {
        "CLIBFLIFLPD": "Wind"
      },
      {
        "CLIBFLIFLPD": "Thunder",
        "JINLABGOHJI": true
      },
      {
        "CLIBFLIFLPD": "Quantum",
        "JINLABGOHJI": true
      },
      {
        "CLIBFLIFLPD": "Physical"
      },
      {
        "CLIBFLIFLPD": "Imaginary",
        "JINLABGOHJI": true
      }
    ],
    "PeriodScore": 45000,
    "EmotionList": [
      0,
      0.2,
      0.5,
      0.8
    ],
    "BattleArea": 2031102,
    "PeriodRank": "PeriodThird",
    "WaveCount": 3,
    "DeadLinePosition": {
      "Value": 1
    },
    "StageScore": 6000,
    "Weight": 100
  },
  {
    "StagePeriodID": 414901,
    "StageID": 4140116,
    "EventID": 414901,
    "CountdownList": [
      3,
      1,
      1,
      3
    ],
    "WeaknessList": [
      {
        "CLIBFLIFLPD": "Fire",
        "JINLABGOHJI": true
      },
      {
        "CLIBFLIFLPD": "Ice"
      },
      {
        "CLIBFLIFLPD": "Wind",
        "JINLABGOHJI": true
      },
      {
        "CLIBFLIFLPD": "Thunder"
      },
      {
        "CLIBFLIFLPD": "Quantum"
      },
      {
        "CLIBFLIFLPD": "Physical",
        "JINLABGOHJI": true
      },
      {
        "CLIBFLIFLPD": "Imaginary"
      }
    ],
    "PeriodScore": 30000,
    "EmotionList": [
      0,
      0.2,
      0.5,
      0.8
    ],
    "BattleArea": 2000101,
    "PeriodRank": "PeriodThird",
    "WaveCount": 4,
    "DeadLinePosition": {
      "Value": 0.24
    },
    "StageScore": 3000,
    "Weight": 100
  },
  {
    "StagePeriodID": 414902,
    "StageID": 4140116,
    "EventID": 414902,
    "CountdownList": [
      3,
      1,
      3
    ],
    "WeaknessList": [
      {
        "CLIBFLIFLPD": "Fire",
        "JINLABGOHJI": true
      },
      {
        "CLIBFLIFLPD": "Ice"
      },
      {
        "CLIBFLIFLPD": "Wind",
        "JINLABGOHJI": true
      },
      {
        "CLIBFLIFLPD": "Thunder"
      },
      {
        "CLIBFLIFLPD": "Quantum"
      },
      {
        "CLIBFLIFLPD": "Physical",
        "JINLABGOHJI": true
      },
      {
        "CLIBFLIFLPD": "Imaginary"
      }
    ],
    "PeriodScore": 30000,
    "EmotionList": [
      0,
      0.2,
      0.5,
      0.8
    ],
    "BattleArea": 2000101,
    "PeriodRank": "PeriodThird",
    "WaveCount": 3,
    "DeadLinePosition": {
      "Value": 0.24
    },
    "StageScore": 3000,
    "Weight": 100
  },
  {
    "StagePeriodID": 414903,
    "StageID": 4140116,
    "EventID": 414903,
    "CountdownList": [
      3,
      1,
      6
    ],
    "WeaknessList": [
      {
        "CLIBFLIFLPD": "Fire",
        "JINLABGOHJI": true
      },
      {
        "CLIBFLIFLPD": "Ice"
      },
      {
        "CLIBFLIFLPD": "Wind",
        "JINLABGOHJI": true
      },
      {
        "CLIBFLIFLPD": "Thunder"
      },
      {
        "CLIBFLIFLPD": "Quantum"
      },
      {
        "CLIBFLIFLPD": "Physical",
        "JINLABGOHJI": true
      },
      {
        "CLIBFLIFLPD": "Imaginary"
      }
    ],
    "PeriodScore": 30000,
    "EmotionList": [
      0,
      0.2,
      0.5,
      0.8
    ],
    "BattleArea": 2000101,
    "PeriodRank": "PeriodThird",
    "WaveCount": 3,
    "StageScore": 3000,
    "Weight": 100
  },
  {
    "StagePeriodID": 414001,
    "StageID": 4140016,
    "EventID": 414001,
    "CountdownList": [
      99,
      99,
      99,
      99
    ],
    "WeaknessList": [
      {
        "CLIBFLIFLPD": "Fire",
        "JINLABGOHJI": true
      },
      {
        "CLIBFLIFLPD": "Ice"
      },
      {
        "CLIBFLIFLPD": "Wind",
        "JINLABGOHJI": true
      },
      {
        "CLIBFLIFLPD": "Thunder"
      },
      {
        "CLIBFLIFLPD": "Quantum"
      },
      {
        "CLIBFLIFLPD": "Physical",
        "JINLABGOHJI": true
      },
      {
        "CLIBFLIFLPD": "Imaginary"
      }
    ],
    "PeriodScore": 30000,
    "EmotionList": [
      0,
      0.2,
      0.5,
      0.8
    ],
    "BattleArea": 2000101,
    "PeriodRank": "PeriodFirst",
    "WaveCount": 4,
    "StageScore": 3000,
    "Weight": 100
  },
  {
    "StagePeriodID": 414002,
    "StageID": 4140026,
    "EventID": 414002,
    "CountdownList": [
      99,
      99,
      99
    ],
    "WeaknessList": [
      {
        "CLIBFLIFLPD": "Fire",
        "JINLABGOHJI": true
      },
      {
        "CLIBFLIFLPD": "Ice"
      },
      {
        "CLIBFLIFLPD": "Wind",
        "JINLABGOHJI": true
      },
      {
        "CLIBFLIFLPD": "Thunder"
      },
      {
        "CLIBFLIFLPD": "Quantum"
      },
      {
        "CLIBFLIFLPD": "Physical",
        "JINLABGOHJI": true
      },
      {
        "CLIBFLIFLPD": "Imaginary"
      }
    ],
    "PeriodScore": 30000,
    "EmotionList": [
      0,
      0.2,
      0.5,
      0.8
    ],
    "BattleArea": 2000101,
    "PeriodRank": "PeriodSecond",
    "WaveCount": 3,
    "StageScore": 3000,
    "Weight": 100
  },
  {
    "StagePeriodID": 414031,
    "StageID": 4140116,
    "EventID": 414031,
    "CountdownList": [
      2,
      2,
      2,
      2
    ],
    "WeaknessList": [
      {
        "CLIBFLIFLPD": "Fire",
        "JINLABGOHJI": true
      },
      {
        "CLIBFLIFLPD": "Ice"
      },
      {
        "CLIBFLIFLPD": "Wind",
        "JINLABGOHJI": true
      },
      {
        "CLIBFLIFLPD": "Thunder"
      },
      {
        "CLIBFLIFLPD": "Quantum"
      },
      {
        "CLIBFLIFLPD": "Physical",
        "JINLABGOHJI": true
      },
      {
        "CLIBFLIFLPD": "Imaginary"
      }
    ],
    "PeriodScore": 31000,
    "EmotionList": [
      0,
      0.2,
      0.5,
      0.8
    ],
    "BattleArea": 2010101,
    "PeriodRank": "PeriodFirst",
    "WaveCount": 4,
    "DeadLinePosition": {
      "Value": 0.19
    },
    "StageScore": 4000,
    "Weight": 100
  },
  {
    "StagePeriodID": 414032,
    "StageID": 4140116,
    "EventID": 414032,
    "CountdownList": [
      1,
      1,
      2
    ],
    "WeaknessList": [
      {
        "CLIBFLIFLPD": "Fire",
        "JINLABGOHJI": true
      },
      {
        "CLIBFLIFLPD": "Ice"
      },
      {
        "CLIBFLIFLPD": "Wind",
        "JINLABGOHJI": true
      },
      {
        "CLIBFLIFLPD": "Thunder"
      },
      {
        "CLIBFLIFLPD": "Quantum"
      },
      {
        "CLIBFLIFLPD": "Physical",
        "JINLABGOHJI": true
      },
      {
        "CLIBFLIFLPD": "Imaginary"
      }
    ],
    "PeriodScore": 24000,
    "EmotionList": [
      0,
      0.2,
      0.5,
      0.8
    ],
    "BattleArea": 2010101,
    "PeriodRank": "PeriodSecond",
    "WaveCount": 3,
    "DeadLinePosition": {
      "Value": 0.19
    },
    "StageScore": 3000,
    "Weight": 100
  },
  {
    "StagePeriodID": 414033,
    "StageID": 4140116,
    "EventID": 414033,
    "CountdownList": [
      1,
      1,
      3
    ],
    "WeaknessList": [
      {
        "CLIBFLIFLPD": "Fire",
        "JINLABGOHJI": true
      },
      {
        "CLIBFLIFLPD": "Ice"
      },
      {
        "CLIBFLIFLPD": "Wind",
        "JINLABGOHJI": true
      },
      {
        "CLIBFLIFLPD": "Thunder"
      },
      {
        "CLIBFLIFLPD": "Quantum"
      },
      {
        "CLIBFLIFLPD": "Physical",
        "JINLABGOHJI": true
      },
      {
        "CLIBFLIFLPD": "Imaginary"
      }
    ],
    "PeriodScore": 45000,
    "EmotionList": [
      0,
      0.2,
      0.5,
      0.8
    ],
    "BattleArea": 2010101,
    "PeriodRank": "PeriodThird",
    "WaveCount": 3,
    "StageScore": 3000,
    "Weight": 100
  },
  {
    "StagePeriodID": 414041,
    "StageID": 4140116,
    "EventID": 414041,
    "CountdownList": [
      2,
      2,
      2,
      2
    ],
    "WeaknessList": [
      {
        "CLIBFLIFLPD": "Fire",
        "JINLABGOHJI": true
      },
      {
        "CLIBFLIFLPD": "Ice"
      },
      {
        "CLIBFLIFLPD": "Wind",
        "JINLABGOHJI": true
      },
      {
        "CLIBFLIFLPD": "Thunder"
      },
      {
        "CLIBFLIFLPD": "Quantum"
      },
      {
        "CLIBFLIFLPD": "Physical",
        "JINLABGOHJI": true
      },
      {
        "CLIBFLIFLPD": "Imaginary"
      }
    ],
    "PeriodScore": 31000,
    "EmotionList": [
      0,
      0.2,
      0.5,
      0.8
    ],
    "BattleArea": 2021101,
    "PeriodRank": "PeriodFirst",
    "WaveCount": 4,
    "DeadLinePosition": {
      "Value": 0.19
    },
    "StageScore": 6000,
    "Weight": 100
  },
  {
    "StagePeriodID": 414042,
    "StageID": 4140116,
    "EventID": 414042,
    "CountdownList": [
      1,
      1,
      2
    ],
    "WeaknessList": [
      {
        "CLIBFLIFLPD": "Fire",
        "JINLABGOHJI": true
      },
      {
        "CLIBFLIFLPD": "Ice"
      },
      {
        "CLIBFLIFLPD": "Wind",
        "JINLABGOHJI": true
      },
      {
        "CLIBFLIFLPD": "Thunder"
      },
      {
        "CLIBFLIFLPD": "Quantum"
      },
      {
        "CLIBFLIFLPD": "Physical",
        "JINLABGOHJI": true
      },
      {
        "CLIBFLIFLPD": "Imaginary"
      }
    ],
    "PeriodScore": 24000,
    "EmotionList": [
      0,
      0.2,
      0.5,
      0.8
    ],
    "BattleArea": 2021101,
    "PeriodRank": "PeriodSecond",
    "WaveCount": 3,
    "DeadLinePosition": {
      "Value": 0.19
    },
    "StageScore": 4500,
    "Weight": 100
  },
  {
    "StagePeriodID": 414043,
    "StageID": 4140116,
    "EventID": 414043,
    "CountdownList": [
      1,
      1,
      3
    ],
    "WeaknessList": [
      {
        "CLIBFLIFLPD": "Fire",
        "JINLABGOHJI": true
      },
      {
        "CLIBFLIFLPD": "Ice"
      },
      {
        "CLIBFLIFLPD": "Wind",
        "JINLABGOHJI": true
      },
      {
        "CLIBFLIFLPD": "Thunder"
      },
      {
        "CLIBFLIFLPD": "Quantum"
      },
      {
        "CLIBFLIFLPD": "Physical",
        "JINLABGOHJI": true
      },
      {
        "CLIBFLIFLPD": "Imaginary"
      }
    ],
    "PeriodScore": 45000,
    "EmotionList": [
      0,
      0.2,
      0.5,
      0.8
    ],
    "BattleArea": 2021101,
    "PeriodRank": "PeriodThird",
    "WaveCount": 3,
    "StageScore": 4500,
    "Weight": 100
  },
  {
    "StagePeriodID": 414051,
    "StageID": 4140116,
    "EventID": 414051,
    "CountdownList": [
      2,
      2,
      2,
      2
    ],
    "WeaknessList": [
      {
        "CLIBFLIFLPD": "Fire",
        "JINLABGOHJI": true
      },
      {
        "CLIBFLIFLPD": "Ice"
      },
      {
        "CLIBFLIFLPD": "Wind",
        "JINLABGOHJI": true
      },
      {
        "CLIBFLIFLPD": "Thunder"
      },
      {
        "CLIBFLIFLPD": "Quantum"
      },
      {
        "CLIBFLIFLPD": "Physical",
        "JINLABGOHJI": true
      },
      {
        "CLIBFLIFLPD": "Imaginary"
      }
    ],
    "PeriodScore": 31000,
    "EmotionList": [
      0,
      0.2,
      0.5,
      0.8
    ],
    "BattleArea": 2023201,
    "PeriodRank": "PeriodFirst",
    "WaveCount": 4,
    "DeadLinePosition": {
      "Value": 0.19
    },
    "StageScore": 6000,
    "Weight": 100
  },
  {
    "StagePeriodID": 414052,
    "StageID": 4140116,
    "EventID": 414052,
    "CountdownList": [
      1,
      1,
      2
    ],
    "WeaknessList": [
      {
        "CLIBFLIFLPD": "Fire",
        "JINLABGOHJI": true
      },
      {
        "CLIBFLIFLPD": "Ice"
      },
      {
        "CLIBFLIFLPD": "Wind",
        "JINLABGOHJI": true
      },
      {
        "CLIBFLIFLPD": "Thunder"
      },
      {
        "CLIBFLIFLPD": "Quantum"
      },
      {
        "CLIBFLIFLPD": "Physical",
        "JINLABGOHJI": true
      },
      {
        "CLIBFLIFLPD": "Imaginary"
      }
    ],
    "PeriodScore": 24000,
    "EmotionList": [
      0,
      0.2,
      0.5,
      0.8
    ],
    "BattleArea": 2023201,
    "PeriodRank": "PeriodSecond",
    "WaveCount": 3,
    "DeadLinePosition": {
      "Value": 0.19
    },
    "StageScore": 4500,
    "Weight": 100
  },
  {
    "StagePeriodID": 414053,
    "StageID": 4140116,
    "EventID": 414053,
    "CountdownList": [
      1,
      1,
      3
    ],
    "WeaknessList": [
      {
        "CLIBFLIFLPD": "Fire",
        "JINLABGOHJI": true
      },
      {
        "CLIBFLIFLPD": "Ice"
      },
      {
        "CLIBFLIFLPD": "Wind",
        "JINLABGOHJI": true
      },
      {
        "CLIBFLIFLPD": "Thunder"
      },
      {
        "CLIBFLIFLPD": "Quantum"
      },
      {
        "CLIBFLIFLPD": "Physical",
        "JINLABGOHJI": true
      },
      {
        "CLIBFLIFLPD": "Imaginary"
      }
    ],
    "PeriodScore": 45000,
    "EmotionList": [
      0,
      0.2,
      0.5,
      0.8
    ],
    "BattleArea": 2023201,
    "PeriodRank": "PeriodThird",
    "WaveCount": 3,
    "StageScore": 4500,
    "Weight": 100
  },
  {
    "StagePeriodID": 414061,
    "StageID": 4140116,
    "EventID": 414061,
    "CountdownList": [
      2,
      2,
      2,
      2
    ],
    "WeaknessList": [
      {
        "CLIBFLIFLPD": "Fire",
        "JINLABGOHJI": true
      },
      {
        "CLIBFLIFLPD": "Ice"
      },
      {
        "CLIBFLIFLPD": "Wind",
        "JINLABGOHJI": true
      },
      {
        "CLIBFLIFLPD": "Thunder"
      },
      {
        "CLIBFLIFLPD": "Quantum"
      },
      {
        "CLIBFLIFLPD": "Physical",
        "JINLABGOHJI": true
      },
      {
        "CLIBFLIFLPD": "Imaginary"
      }
    ],
    "PeriodScore": 31000,
    "EmotionList": [
      0,
      0.2,
      0.5,
      0.8
    ],
    "BattleArea": 2031301,
    "PeriodRank": "PeriodFirst",
    "WaveCount": 4,
    "DeadLinePosition": {
      "Value": 0.19
    },
    "StageScore": 6000,
    "Weight": 100
  },
  {
    "StagePeriodID": 414062,
    "StageID": 4140116,
    "EventID": 414062,
    "CountdownList": [
      1,
      1,
      2
    ],
    "WeaknessList": [
      {
        "CLIBFLIFLPD": "Fire",
        "JINLABGOHJI": true
      },
      {
        "CLIBFLIFLPD": "Ice"
      },
      {
        "CLIBFLIFLPD": "Wind",
        "JINLABGOHJI": true
      },
      {
        "CLIBFLIFLPD": "Thunder"
      },
      {
        "CLIBFLIFLPD": "Quantum"
      },
      {
        "CLIBFLIFLPD": "Physical",
        "JINLABGOHJI": true
      },
      {
        "CLIBFLIFLPD": "Imaginary"
      }
    ],
    "PeriodScore": 24000,
    "EmotionList": [
      0,
      0.2,
      0.5,
      0.8
    ],
    "BattleArea": 2031301,
    "PeriodRank": "PeriodSecond",
    "WaveCount": 3,
    "DeadLinePosition": {
      "Value": 0.19
    },
    "StageScore": 4500,
    "Weight": 100
  },
  {
    "StagePeriodID": 414063,
    "StageID": 4140116,
    "EventID": 414063,
    "CountdownList": [
      1,
      1,
      3
    ],
    "WeaknessList": [
      {
        "CLIBFLIFLPD": "Fire",
        "JINLABGOHJI": true
      },
      {
        "CLIBFLIFLPD": "Ice"
      },
      {
        "CLIBFLIFLPD": "Wind",
        "JINLABGOHJI": true
      },
      {
        "CLIBFLIFLPD": "Thunder"
      },
      {
        "CLIBFLIFLPD": "Quantum"
      },
      {
        "CLIBFLIFLPD": "Physical",
        "JINLABGOHJI": true
      },
      {
        "CLIBFLIFLPD": "Imaginary"
      }
    ],
    "PeriodScore": 45000,
    "EmotionList": [
      0,
      0.2,
      0.5,
      0.8
    ],
    "BattleArea": 2031301,
    "PeriodRank": "PeriodThird",
    "WaveCount": 3,
    "StageScore": 4500,
    "Weight": 100
  },
  {
    "StagePeriodID": 414999,
    "StageID": 4140116,
    "EventID": 414999,
    "CountdownList": [
      3
    ],
    "WeaknessList": [
      {
        "CLIBFLIFLPD": "Fire",
        "JINLABGOHJI": true
      },
      {
        "CLIBFLIFLPD": "Ice",
        "JINLABGOHJI": true
      },
      {
        "CLIBFLIFLPD": "Wind",
        "JINLABGOHJI": true
      },
      {
        "CLIBFLIFLPD": "Thunder",
        "JINLABGOHJI": true
      },
      {
        "CLIBFLIFLPD": "Quantum",
        "JINLABGOHJI": true
      },
      {
        "CLIBFLIFLPD": "Physical",
        "JINLABGOHJI": true
      },
      {
        "CLIBFLIFLPD": "Imaginary",
        "JINLABGOHJI": true
      }
    ],
    "PeriodScore": 60000,
    "EmotionList": [
      0,
      0.2,
      0.5,
      0.8
    ],
    "BattleArea": 2031201,
    "PeriodRank": "PeriodExtra",
    "WaveCount": 1,
    "StageScore": 10000,
    "Weight": 100
  }
]