[
  {
    "SubTypeID": 1,
    "Name": {
      "Hash": 782860674
    },
    "TabIconPath": "SpriteOutput/ProfessionIconSmall/IconProfessionWarriorSmall.png",
    "ItemListForType": []
  },
  {
    "SubTypeID": 2,
    "Name": {
      "Hash": 782860673
    },
    "TabIconPath": "SpriteOutput/ProfessionIconSmall/IconProfessionKnightSmall.png",
    "ItemListForType": []
  },
  {
    "SubTypeID": 3,
    "Name": {
      "Hash": 782860672
    },
    "TabIconPath": "SpriteOutput/ProfessionIconSmall/IconProfessionRogueSmall.png",
    "ItemListForType": []
  },
  {
    "SubTypeID": 4,
    "Name": {
      "Hash": 782860671
    },
    "TabIconPath": "SpriteOutput/ProfessionIconSmall/IconProfessionPirestSmall.png",
    "ItemListForType": []
  },
  {
    "SubTypeID": 5,
    "Name": {
      "Hash": 782860670
    },
    "TabIconPath": "SpriteOutput/ProfessionIconSmall/IconProfessionMageSmall.png",
    "ItemListForType": []
  },
  {
    "SubTypeID": 6,
    "Name": {
      "Hash": 782860669
    },
    "TabIconPath": "SpriteOutput/ProfessionIconSmall/IconProfessionShamanSmall.png",
    "ItemListForType": []
  },
  {
    "SubTypeID": 7,
    "Name": {
      "Hash": 782860668
    },
    "TabIconPath": "SpriteOutput/ProfessionIconSmall/IconProfessionWarlockSmall.png",
    "ItemListForType": []
  },
  {
    "SubTypeID": 8,
    "Name": {
      "Hash": 782860667
    },
    "TabIconPath": "SpriteOutput/ProfessionIconSmall/IconProfessionMemorySmall.png",
    "ItemListForType": []
  },
  {
    "SubTypeID": 41,
    "Name": {
      "Hash": 1986928564
    },
    "TabIconPath": "SpriteOutput/UI/Nature/IconNatureColor/IconNaturePhysical.png",
    "ItemListForType": []
  },
  {
    "SubTypeID": 42,
    "Name": {
      "Hash": -741954791
    },
    "TabIconPath": "SpriteOutput/UI/Nature/IconNatureColor/IconNatureColorFire.png",
    "ItemListForType": []
  },
  {
    "SubTypeID": 43,
    "Name": {
      "Hash": 824129150
    },
    "TabIconPath": "SpriteOutput/UI/Nature/IconNatureColor/IconNatureColorIce.png",
    "ItemListForType": []
  },
  {
    "SubTypeID": 44,
    "Name": {
      "Hash": -1548523845
    },
    "TabIconPath": "SpriteOutput/UI/Nature/IconNatureColor/IconNatureColorThunder.png",
    "ItemListForType": []
  },
  {
    "SubTypeID": 45,
    "Name": {
      "Hash": 17560096
    },
    "TabIconPath": "SpriteOutput/UI/Nature/IconNatureColor/IconNatureColorWind.png",
    "ItemListForType": []
  },
  {
    "SubTypeID": 46,
    "Name": {
      "Hash": 1583644037
    },
    "TabIconPath": "SpriteOutput/UI/Nature/IconNatureColor/IconNatureColorQuantum.png",
    "ItemListForType": []
  },
  {
    "SubTypeID": 47,
    "Name": {
      "Hash": -1145239318
    },
    "TabIconPath": "SpriteOutput/UI/Nature/IconNatureColor/IconNatureColorImaginary.png",
    "ItemListForType": []
  },
  {
    "SubTypeID": 201,
    "Name": {
      "Hash": -647862336
    },
    "TabIconPath": "SpriteOutput/TabIcon/World/World01Icon.png",
    "ItemListForType": [
      111011,
      112001,
      112011,
      181001,
      180001,
      180006
    ]
  },
  {
    "SubTypeID": 301,
    "Name": {
      "Hash": -647862303
    },
    "TabIconPath": "SpriteOutput/TabIcon/World/World02Icon.png",
    "ItemListForType": [
      111001,
      113001,
      113011,
      181013,
      180008,
      180009
    ]
  },
  {
    "SubTypeID": 401,
    "Name": {
      "Hash": -647862402
    },
    "TabIconPath": "SpriteOutput/TabIcon/World/World03Icon.png",
    "ItemListForType": [
      114001,
      114011,
      181014,
      180010,
      180011
    ]
  }
]