[
  {
    "ID": 200,
    "GotoType": 2,
    "ParamIntList": [],
    "ParamStringList": [],
    "UnlockMainMission": 1010301,
    "UnlockID": 200
  },
  {
    "ID": 300,
    "GotoType": 3,
    "ParamIntList": [],
    "ParamStringList": [],
    "UnlockMainMission": 1010401,
    "UnlockID": 300
  },
  {
    "ID": 400,
    "GotoType": 4,
    "ParamIntList": [],
    "ParamStringList": [],
    "UnlockID": 400
  },
  {
    "ID": 401,
    "GotoType": 4,
    "ParamIntList": [],
    "ParamStringList": [],
    "UnlockID": 400
  },
  {
    "ID": 500,
    "GotoType": 5,
    "ParamIntList": [],
    "ParamStringList": [],
    "UnlockID": 500
  },
  {
    "ID": 600,
    "GotoType": 6,
    "ParamIntList": [],
    "ParamStringList": [],
    "UnlockMainMission": 1010401,
    "UnlockID": 600
  },
  {
    "ID": 700,
    "GotoType": 7,
    "ParamIntList": [],
    "ParamStringList": [],
    "UnlockID": 700
  },
  {
    "ID": 800,
    "GotoType": 8,
    "ParamIntList": [],
    "ParamStringList": [],
    "UnlockMainMission": 1010503,
    "UnlockID": 800
  },
  {
    "ID": 900,
    "GotoType": 9,
    "ParamIntList": [],
    "ParamStringList": [],
    "UnlockID": 900
  },
  {
    "ID": 1000,
    "GotoType": 10,
    "ParamIntList": [],
    "ParamStringList": []
  },
  {
    "ID": 1100,
    "GotoType": 11,
    "ParamIntList": [],
    "ParamStringList": []
  },
  {
    "ID": 1200,
    "GotoType": 12,
    "ParamIntList": [],
    "ParamStringList": [
      "OpenURL6",
      "operation_feedback_url"
    ]
  },
  {
    "ID": 1300,
    "GotoType": 13,
    "ParamIntList": [],
    "ParamStringList": []
  },
  {
    "ID": 1400,
    "GotoType": 14,
    "ParamIntList": [],
    "ParamStringList": [],
    "UnlockID": 1400
  },
  {
    "ID": 1500,
    "GotoType": 15,
    "ParamIntList": [],
    "ParamStringList": [],
    "UnlockMainMission": 1010503,
    "UnlockID": 1500
  },
  {
    "ID": 1600,
    "GotoType": 16,
    "ParamIntList": [],
    "ParamStringList": []
  },
  {
    "ID": 1700,
    "GotoType": 17,
    "ParamIntList": [],
    "ParamStringList": []
  },
  {
    "ID": 1800,
    "GotoType": 18,
    "ParamIntList": [],
    "ParamStringList": [],
    "UnlockMainMission": 1010301,
    "UnlockID": 1800
  },
  {
    "ID": 1900,
    "GotoType": 19,
    "ParamIntList": [],
    "ParamStringList": [],
    "UnlockID": 1900
  },
  {
    "ID": 2000,
    "GotoType": 20,
    "ParamIntList": [],
    "ParamStringList": []
  },
  {
    "ID": 2100,
    "GotoType": 21,
    "ParamIntList": [],
    "ParamStringList": [],
    "UnlockID": 2100
  },
  {
    "ID": 2200,
    "GotoType": 22,
    "ParamIntList": [],
    "ParamStringList": []
  },
  {
    "ID": 2300,
    "GotoType": 23,
    "ParamIntList": [],
    "ParamStringList": [],
    "UnlockID": 2300
  },
  {
    "ID": 2500,
    "GotoType": 25,
    "ParamIntList": [],
    "ParamStringList": [],
    "UnlockID": 2500
  },
  {
    "ID": 2600,
    "GotoType": 12,
    "ParamIntList": [],
    "ParamStringList": [
      "OpenURL7",
      "custom_service_url"
    ]
  },
  {
    "ID": 2700,
    "GotoType": 26,
    "ParamIntList": [],
    "ParamStringList": []
  },
  {
    "ID": 2800,
    "GotoType": 27,
    "ParamIntList": [],
    "ParamStringList": []
  },
  {
    "ID": 2900,
    "GotoType": 28,
    "ParamIntList": [],
    "ParamStringList": []
  },
  {
    "ID": 3000,
    "GotoType": 29,
    "ParamIntList": [],
    "ParamStringList": [],
    "UnlockID": 2900
  },
  {
    "ID": 3100,
    "GotoType": 30,
    "ParamIntList": [],
    "ParamStringList": [],
    "UnlockID": 3100
  },
  {
    "ID": 3101,
    "GotoType": 30,
    "ParamIntList": [
      1001
    ],
    "ParamStringList": [],
    "UnlockID": 3101
  },
  {
    "ID": 3102,
    "GotoType": 30,
    "ParamIntList": [
      1002
    ],
    "ParamStringList": [],
    "UnlockID": 3102
  },
  {
    "ID": 3103,
    "GotoType": 30,
    "ParamIntList": [
      1004
    ],
    "ParamStringList": [],
    "UnlockID": 3103
  },
  {
    "ID": 3104,
    "GotoType": 30,
    "ParamIntList": [
      1003
    ],
    "ParamStringList": [],
    "UnlockID": 3104
  },
  {
    "ID": 3105,
    "GotoType": 30,
    "ParamIntList": [
      1005
    ],
    "ParamStringList": [],
    "UnlockID": 3105
  },
  {
    "ID": 3106,
    "GotoType": 30,
    "ParamIntList": [
      1006
    ],
    "ParamStringList": [],
    "UnlockID": 3106
  },
  {
    "ID": 3107,
    "GotoType": 30,
    "ParamIntList": [
      2001
    ],
    "ParamStringList": [],
    "UnlockID": 3107
  },
  {
    "ID": 3108,
    "GotoType": 30,
    "ParamIntList": [
      3001
    ],
    "ParamStringList": [],
    "UnlockID": 3108
  },
  {
    "ID": 3109,
    "GotoType": 30,
    "ParamIntList": [
      4001
    ],
    "ParamStringList": [],
    "UnlockID": 3109
  },
  {
    "ID": 3110,
    "GotoType": 30,
    "ParamIntList": [
      5005
    ],
    "ParamStringList": [],
    "UnlockID": 3110
  },
  {
    "ID": 3111,
    "GotoType": 30,
    "ParamIntList": [
      5006
    ],
    "ParamStringList": [],
    "UnlockID": 3111
  },
  {
    "ID": 3112,
    "GotoType": 30,
    "ParamIntList": [
      1007
    ],
    "ParamStringList": [],
    "UnlockID": 3112
  },
  {
    "ID": 3113,
    "GotoType": 30,
    "ParamIntList": [
      1008
    ],
    "ParamStringList": [],
    "UnlockID": 3113
  },
  {
    "ID": 3114,
    "GotoType": 30,
    "ParamIntList": [
      5007
    ],
    "ParamStringList": [],
    "UnlockID": 3114
  },
  {
    "ID": 3115,
    "GotoType": 30,
    "ParamIntList": [
      5008
    ],
    "ParamStringList": [],
    "UnlockID": 3115
  },
  {
    "ID": 3116,
    "GotoType": 30,
    "ParamIntList": [
      1009
    ],
    "ParamStringList": [],
    "UnlockID": 3116
  },
  {
    "ID": 3117,
    "GotoType": 30,
    "ParamIntList": [
      5009
    ],
    "ParamStringList": [],
    "UnlockID": 3117
  },
  {
    "ID": 3199,
    "GotoType": 30,
    "ParamIntList": [
      999
    ],
    "ParamStringList": []
  },
  {
    "ID": 3200,
    "GotoType": 32,
    "ParamIntList": [
      2
    ],
    "ParamStringList": [],
    "UnlockID": 3200
  },
  {
    "ID": 3300,
    "GotoType": 31,
    "ParamIntList": [],
    "ParamStringList": [],
    "UnlockID": 3300
  },
  {
    "ID": 3400,
    "GotoType": 33,
    "ParamIntList": [],
    "ParamStringList": [],
    "UnlockID": 10001
  },
  {
    "ID": 3500,
    "GotoType": 34,
    "ParamIntList": [],
    "ParamStringList": [],
    "UnlockID": 3400
  },
  {
    "ID": 3600,
    "GotoType": 36,
    "ParamIntList": [],
    "ParamStringList": [],
    "UnlockID": 3600
  },
  {
    "ID": 3601,
    "GotoType": 36,
    "ParamIntList": [
      101
    ],
    "ParamStringList": []
  },
  {
    "ID": 3700,
    "GotoType": 37,
    "ParamIntList": [],
    "ParamStringList": []
  },
  {
    "ID": 3800,
    "GotoType": 38,
    "ParamIntList": [],
    "ParamStringList": []
  },
  {
    "ID": 3900,
    "GotoType": 39,
    "ParamIntList": [],
    "ParamStringList": [],
    "UnlockID": 3900
  },
  {
    "ID": 4000,
    "GotoType": 40,
    "ParamIntList": [
      0
    ],
    "ParamStringList": []
  },
  {
    "ID": 4100,
    "GotoType": 41,
    "ParamIntList": [
      1
    ],
    "ParamStringList": [],
    "UnlockID": 4100
  },
  {
    "ID": 4101,
    "GotoType": 41,
    "ParamIntList": [
      10
    ],
    "ParamStringList": [],
    "UnlockID": 10004
  },
  {
    "ID": 4102,
    "GotoType": 41,
    "ParamIntList": [
      30
    ],
    "ParamStringList": [],
    "UnlockID": 4100
  },
  {
    "ID": 4103,
    "GotoType": 41,
    "ParamIntList": [
      20
    ],
    "ParamStringList": [],
    "UnlockID": 10005
  },
  {
    "ID": 4200,
    "GotoType": 42,
    "ParamIntList": [],
    "ParamStringList": []
  },
  {
    "ID": 4300,
    "GotoType": 43,
    "ParamIntList": [],
    "ParamStringList": [],
    "UnlockID": 4300
  },
  {
    "ID": 4400,
    "GotoType": 44,
    "ParamIntList": [],
    "ParamStringList": [],
    "UnlockID": 3300
  },
  {
    "ID": 4500,
    "GotoType": 45,
    "ParamIntList": [],
    "ParamStringList": []
  },
  {
    "ID": 4700,
    "GotoType": 47,
    "ParamIntList": [],
    "ParamStringList": []
  },
  {
    "ID": 4800,
    "GotoType": 48,
    "ParamIntList": [],
    "ParamStringList": []
  },
  {
    "ID": 4900,
    "GotoType": 49,
    "ParamIntList": [],
    "ParamStringList": []
  },
  {
    "ID": 5000,
    "GotoType": 50,
    "ParamIntList": [],
    "ParamStringList": [],
    "UnlockID": 50013
  },
  {
    "ID": 5100,
    "GotoType": 52,
    "ParamIntList": [
      2,
      1
    ],
    "ParamStringList": [],
    "UnlockID": 50014
  },
  {
    "ID": 5200,
    "GotoType": 53,
    "ParamIntList": [],
    "ParamStringList": []
  },
  {
    "ID": 5300,
    "GotoType": 54,
    "ParamIntList": [],
    "ParamStringList": []
  },
  {
    "ID": 5500,
    "GotoType": 55,
    "ParamIntList": [],
    "ParamStringList": []
  },
  {
    "ID": 5600,
    "GotoType": 56,
    "ParamIntList": [],
    "ParamStringList": []
  },
  {
    "ID": 5601,
    "GotoType": 56,
    "ParamIntList": [],
    "ParamStringList": [],
    "UnlockID": 23201
  },
  {
    "ID": 5602,
    "GotoType": 56,
    "ParamIntList": [],
    "ParamStringList": [],
    "UnlockID": 23301
  },
  {
    "ID": 5603,
    "GotoType": 56,
    "ParamIntList": [],
    "ParamStringList": [],
    "UnlockID": 23010
  },
  {
    "ID": 5604,
    "GotoType": 56,
    "ParamIntList": [],
    "ParamStringList": [],
    "UnlockID": 23008
  },
  {
    "ID": 5605,
    "GotoType": 56,
    "ParamIntList": [],
    "ParamStringList": [],
    "UnlockID": 23009
  },
  {
    "ID": 5700,
    "GotoType": 57,
    "ParamIntList": [],
    "ParamStringList": []
  },
  {
    "ID": 5800,
    "GotoType": 58,
    "ParamIntList": [],
    "ParamStringList": [],
    "UnlockID": 200
  },
  {
    "ID": 5900,
    "GotoType": 59,
    "ParamIntList": [],
    "ParamStringList": [],
    "UnlockID": 9920
  },
  {
    "ID": 6000,
    "GotoType": 60,
    "ParamIntList": [],
    "ParamStringList": []
  },
  {
    "ID": 6100,
    "GotoType": 61,
    "ParamIntList": [],
    "ParamStringList": []
  },
  {
    "ID": 6200,
    "GotoType": 62,
    "ParamIntList": [
      8021100,
      8021101,
      8021102,
      8021103,
      8021104,
      8021105,
      8021106
    ],
    "ParamStringList": [],
    "UnlockID": 104001
  },
  {
    "ID": 6206,
    "GotoType": 62,
    "ParamIntList": [
      8024301,
      8024302,
      8024303,
      8024304,
      8024305,
      8024306
    ],
    "ParamStringList": []
  },
  {
    "ID": 6203,
    "GotoType": 40,
    "ParamIntList": [
      13064
    ],
    "ParamStringList": []
  },
  {
    "ID": 6209,
    "GotoType": 62,
    "ParamIntList": [
      8026101,
      8026102,
      8026103,
      8026104
    ],
    "ParamStringList": [],
    "UnlockID": 3049
  },
  {
    "ID": 6700,
    "GotoType": 67,
    "ParamIntList": [
      1000101,
      2419
    ],
    "ParamStringList": []
  },
  {
    "ID": 6900,
    "GotoType": 69,
    "ParamIntList": [],
    "ParamStringList": []
  },
  {
    "ID": 6901,
    "GotoType": 69,
    "ParamIntList": [],
    "ParamStringList": []
  },
  {
    "ID": 7000,
    "GotoType": 70,
    "ParamIntList": [],
    "ParamStringList": []
  },
  {
    "ID": 7300,
    "GotoType": 73,
    "ParamIntList": [
      1
    ],
    "ParamStringList": []
  },
  {
    "ID": 7500,
    "GotoType": 75,
    "ParamIntList": [],
    "ParamStringList": []
  },
  {
    "ID": 7800,
    "GotoType": 301,
    "ParamIntList": [],
    "ParamStringList": [],
    "UnlockID": 3010
  },
  {
    "ID": 201,
    "GotoType": 2,
    "ParamIntList": [
      1000001,
      0
    ],
    "ParamStringList": [],
    "UnlockMainMission": 1010301,
    "UnlockID": 200
  },
  {
    "ID": 202,
    "GotoType": 2,
    "ParamIntList": [
      1010101,
      0
    ],
    "ParamStringList": [],
    "UnlockMainMission": 1010301,
    "UnlockID": 200
  },
  {
    "ID": 203,
    "GotoType": 2,
    "ParamIntList": [
      1010201,
      0
    ],
    "ParamStringList": [],
    "UnlockMainMission": 1010301,
    "UnlockID": 200
  },
  {
    "ID": 204,
    "GotoType": 2,
    "ParamIntList": [
      2010101,
      0
    ],
    "ParamStringList": [],
    "UnlockID": 200
  },
  {
    "ID": 205,
    "GotoType": 2,
    "ParamIntList": [
      2011101,
      0
    ],
    "ParamStringList": [],
    "UnlockID": 200
  },
  {
    "ID": 206,
    "GotoType": 2,
    "ParamIntList": [
      2012101,
      0
    ],
    "ParamStringList": [],
    "UnlockID": 200
  },
  {
    "ID": 207,
    "GotoType": 2,
    "ParamIntList": [
      2012201,
      0
    ],
    "ParamStringList": [],
    "UnlockID": 200
  },
  {
    "ID": 208,
    "GotoType": 2,
    "ParamIntList": [
      2012301,
      0
    ],
    "ParamStringList": [],
    "UnlockID": 200
  },
  {
    "ID": 209,
    "GotoType": 2,
    "ParamIntList": [
      2013101,
      0
    ],
    "ParamStringList": [],
    "UnlockID": 200
  },
  {
    "ID": 210,
    "GotoType": 2,
    "ParamIntList": [
      2013201,
      0
    ],
    "ParamStringList": [],
    "UnlockID": 200
  },
  {
    "ID": 211,
    "GotoType": 2,
    "ParamIntList": [
      1000101,
      0
    ],
    "ParamStringList": [],
    "UnlockID": 200
  },
  {
    "ID": 212,
    "GotoType": 2,
    "ParamIntList": [
      2000101,
      0
    ],
    "ParamStringList": [],
    "UnlockID": 200
  },
  {
    "ID": 213,
    "GotoType": 2,
    "ParamIntList": [
      2000201,
      0
    ],
    "ParamStringList": [],
    "UnlockID": 200
  },
  {
    "ID": 214,
    "GotoType": 2,
    "ParamIntList": [
      2000301,
      0
    ],
    "ParamStringList": [],
    "UnlockID": 200
  },
  {
    "ID": 215,
    "GotoType": 2,
    "ParamIntList": [
      1000101,
      2219
    ],
    "ParamStringList": [],
    "UnlockID": 200
  },
  {
    "ID": 216,
    "GotoType": 2,
    "ParamIntList": [
      2013401,
      0
    ],
    "ParamStringList": [],
    "UnlockID": 200
  },
  {
    "ID": 217,
    "GotoType": 2,
    "ParamIntList": [
      1000001,
      2215
    ],
    "ParamStringList": [],
    "UnlockID": 200
  },
  {
    "ID": 218,
    "GotoType": 2,
    "ParamIntList": [
      1000001,
      2206
    ],
    "ParamStringList": [],
    "UnlockID": 9911
  },
  {
    "ID": 219,
    "GotoType": 2,
    "ParamIntList": [
      2021101,
      0
    ],
    "ParamStringList": [],
    "UnlockID": 200
  },
  {
    "ID": 220,
    "GotoType": 2,
    "ParamIntList": [
      2021201,
      0
    ],
    "ParamStringList": [],
    "UnlockID": 200
  },
  {
    "ID": 221,
    "GotoType": 2,
    "ParamIntList": [
      1020101,
      0
    ],
    "ParamStringList": [],
    "UnlockID": 200
  },
  {
    "ID": 222,
    "GotoType": 2,
    "ParamIntList": [
      1000101,
      2236
    ],
    "ParamStringList": [],
    "UnlockID": 222
  },
  {
    "ID": 223,
    "GotoType": 2,
    "ParamIntList": [
      1010201,
      2223
    ],
    "ParamStringList": [],
    "UnlockID": 223
  },
  {
    "ID": 224,
    "GotoType": 2,
    "ParamIntList": [
      1020101,
      2235
    ],
    "ParamStringList": [],
    "UnlockID": 224
  },
  {
    "ID": 225,
    "GotoType": 2,
    "ParamIntList": [
      1000101,
      1411
    ],
    "ParamStringList": [],
    "UnlockID": 225
  },
  {
    "ID": 226,
    "GotoType": 2,
    "ParamIntList": [
      1000101,
      2219
    ],
    "ParamStringList": [],
    "UnlockID": 9934
  },
  {
    "ID": 227,
    "GotoType": 2,
    "ParamIntList": [
      1010201,
      2257
    ],
    "ParamStringList": [],
    "UnlockID": 227
  },
  {
    "ID": 228,
    "GotoType": 2,
    "ParamIntList": [
      1010109,
      2289
    ],
    "ParamStringList": [],
    "UnlockID": 228
  },
  {
    "ID": 229,
    "GotoType": 2,
    "ParamIntList": [
      1010109,
      2261
    ],
    "ParamStringList": [],
    "UnlockID": 228
  },
  {
    "ID": 230,
    "GotoType": 2,
    "ParamIntList": [
      1020201,
      2101,
      200006
    ],
    "ParamStringList": [],
    "UnlockID": 9936
  },
  {
    "ID": 231,
    "GotoType": 2,
    "ParamIntList": [
      2031101,
      0
    ],
    "ParamStringList": [],
    "UnlockID": 200
  },
  {
    "ID": 232,
    "GotoType": 2,
    "ParamIntList": [
      1030401,
      2103,
      200001
    ],
    "ParamStringList": [],
    "UnlockID": 9941
  },
  {
    "ID": 233,
    "GotoType": 2,
    "ParamIntList": [
      2041101,
      0
    ],
    "ParamStringList": [],
    "UnlockID": 200
  },
  {
    "ID": 301,
    "GotoType": 3,
    "ParamIntList": [
      2
    ],
    "ParamStringList": []
  },
  {
    "ID": 302,
    "GotoType": 3,
    "ParamIntList": [
      5
    ],
    "ParamStringList": []
  },
  {
    "ID": 303,
    "GotoType": 3,
    "ParamIntList": [
      12
    ],
    "ParamStringList": []
  },
  {
    "ID": 304,
    "GotoType": 3,
    "ParamIntList": [
      14
    ],
    "ParamStringList": []
  },
  {
    "ID": 305,
    "GotoType": 3,
    "ParamIntList": [
      17
    ],
    "ParamStringList": []
  },
  {
    "ID": 306,
    "GotoType": 3,
    "ParamIntList": [
      16
    ],
    "ParamStringList": []
  },
  {
    "ID": 404,
    "GotoType": 4,
    "ParamIntList": [
      0,
      1
    ],
    "ParamStringList": [],
    "UnlockID": 400
  },
  {
    "ID": 405,
    "GotoType": 4,
    "ParamIntList": [
      0,
      3
    ],
    "ParamStringList": [],
    "UnlockID": 9906
  },
  {
    "ID": 406,
    "GotoType": 4,
    "ParamIntList": [
      0,
      2
    ],
    "ParamStringList": [],
    "UnlockID": 402
  },
  {
    "ID": 407,
    "GotoType": 4,
    "ParamIntList": [
      0,
      4
    ],
    "ParamStringList": [],
    "UnlockID": 403
  },
  {
    "ID": 501,
    "GotoType": 5,
    "ParamIntList": [
      1,
      101
    ],
    "ParamStringList": [],
    "UnlockID": 500
  },
  {
    "ID": 502,
    "GotoType": 5,
    "ParamIntList": [
      1,
      102
    ],
    "ParamStringList": [],
    "UnlockID": 500
  },
  {
    "ID": 503,
    "GotoType": 5,
    "ParamIntList": [
      1,
      106
    ],
    "ParamStringList": [],
    "UnlockID": 500
  },
  {
    "ID": 504,
    "GotoType": 5,
    "ParamIntList": [
      1,
      107
    ],
    "ParamStringList": [],
    "UnlockID": 500
  },
  {
    "ID": 505,
    "GotoType": 5,
    "ParamIntList": [
      1,
      104
    ],
    "ParamStringList": [],
    "UnlockID": 500
  },
  {
    "ID": 506,
    "GotoType": 5,
    "ParamIntList": [
      1,
      103
    ],
    "ParamStringList": [],
    "UnlockID": 500
  },
  {
    "ID": 507,
    "GotoType": 5,
    "ParamIntList": [
      1,
      105
    ],
    "ParamStringList": [],
    "UnlockID": 500
  },
  {
    "ID": 508,
    "GotoType": 5,
    "ParamIntList": [
      2,
      201
    ],
    "ParamStringList": [],
    "UnlockID": 508
  },
  {
    "ID": 601,
    "GotoType": 6,
    "ParamIntList": [
      1,
      101
    ],
    "ParamStringList": [],
    "UnlockID": 600
  },
  {
    "ID": 602,
    "GotoType": 6,
    "ParamIntList": [
      1,
      102
    ],
    "ParamStringList": [],
    "UnlockID": 600
  },
  {
    "ID": 603,
    "GotoType": 6,
    "ParamIntList": [
      1,
      999
    ],
    "ParamStringList": [],
    "UnlockID": 600
  },
  {
    "ID": 604,
    "GotoType": 6,
    "ParamIntList": [
      1,
      504
    ],
    "ParamStringList": []
  },
  {
    "ID": 605,
    "GotoType": 6,
    "ParamIntList": [
      1,
      998,
      1
    ],
    "ParamStringList": [],
    "UnlockID": 600
  },
  {
    "ID": 606,
    "GotoType": 6,
    "ParamIntList": [
      1,
      998,
      0
    ],
    "ParamStringList": [],
    "UnlockID": 600
  },
  {
    "ID": 607,
    "GotoType": 6,
    "ParamIntList": [
      1,
      504
    ],
    "ParamStringList": []
  },
  {
    "ID": 608,
    "GotoType": 6,
    "ParamIntList": [
      1,
      102
    ],
    "ParamStringList": [],
    "UnlockID": 608
  },
  {
    "ID": 609,
    "GotoType": 6,
    "ParamIntList": [
      16,
      501
    ],
    "ParamStringList": []
  },
  {
    "ID": 610,
    "GotoType": 6,
    "ParamIntList": [
      1,
      102
    ],
    "ParamStringList": [],
    "UnlockID": 610
  },
  {
    "ID": 612,
    "GotoType": 6,
    "ParamIntList": [
      1,
      102
    ],
    "ParamStringList": [],
    "UnlockID": 612
  },
  {
    "ID": 613,
    "GotoType": 6,
    "ParamIntList": [
      1,
      102
    ],
    "ParamStringList": [],
    "UnlockID": 613
  },
  {
    "ID": 614,
    "GotoType": 6,
    "ParamIntList": [
      1,
      101
    ],
    "ParamStringList": [],
    "UnlockID": 614
  },
  {
    "ID": 701,
    "GotoType": 7,
    "ParamIntList": [
      0
    ],
    "ParamStringList": [],
    "UnlockID": 700
  },
  {
    "ID": 702,
    "GotoType": 7,
    "ParamIntList": [
      1
    ],
    "ParamStringList": [],
    "UnlockID": 700
  },
  {
    "ID": 703,
    "GotoType": 7,
    "ParamIntList": [
      2
    ],
    "ParamStringList": [],
    "UnlockID": 700
  },
  {
    "ID": 704,
    "GotoType": 7,
    "ParamIntList": [
      3
    ],
    "ParamStringList": [],
    "UnlockID": 700
  },
  {
    "ID": 705,
    "GotoType": 7,
    "ParamIntList": [
      4
    ],
    "ParamStringList": [],
    "UnlockID": 700
  },
  {
    "ID": 706,
    "GotoType": 7,
    "ParamIntList": [
      5
    ],
    "ParamStringList": [],
    "UnlockID": 700
  },
  {
    "ID": 707,
    "GotoType": 7,
    "ParamIntList": [
      6
    ],
    "ParamStringList": [],
    "UnlockID": 700
  },
  {
    "ID": 708,
    "GotoType": 7,
    "ParamIntList": [
      7
    ],
    "ParamStringList": [],
    "UnlockID": 700
  },
  {
    "ID": 801,
    "GotoType": 8,
    "ParamIntList": [
      10012
    ],
    "ParamStringList": [],
    "UnlockID": 800
  },
  {
    "ID": 802,
    "GotoType": 8,
    "ParamIntList": [
      30002
    ],
    "ParamStringList": [],
    "UnlockID": 3600
  },
  {
    "ID": 803,
    "GotoType": 8,
    "ParamIntList": [
      40001
    ],
    "ParamStringList": [],
    "UnlockID": 3700
  },
  {
    "ID": 804,
    "GotoType": 8,
    "ParamIntList": [
      50000
    ],
    "ParamStringList": [],
    "UnlockID": 3601
  },
  {
    "ID": 805,
    "GotoType": 8,
    "ParamIntList": [
      50001
    ],
    "ParamStringList": [],
    "UnlockID": 3602
  },
  {
    "ID": 806,
    "GotoType": 8,
    "ParamIntList": [
      30005
    ],
    "ParamStringList": [],
    "UnlockID": 3604
  },
  {
    "ID": 807,
    "GotoType": 8,
    "ParamIntList": [
      50002
    ],
    "ParamStringList": [],
    "UnlockID": 3603
  },
  {
    "ID": 808,
    "GotoType": 8,
    "ParamIntList": [
      30004
    ],
    "ParamStringList": [],
    "UnlockID": 3605
  },
  {
    "ID": 809,
    "GotoType": 8,
    "ParamIntList": [
      50004
    ],
    "ParamStringList": [],
    "UnlockID": 3606
  },
  {
    "ID": 810,
    "GotoType": 8,
    "ParamIntList": [
      40002
    ],
    "ParamStringList": [],
    "UnlockID": 3607
  },
  {
    "ID": 811,
    "GotoType": 8,
    "ParamIntList": [
      60003
    ],
    "ParamStringList": [],
    "UnlockID": 3608
  },
  {
    "ID": 812,
    "GotoType": 8,
    "ParamIntList": [
      30007
    ],
    "ParamStringList": [],
    "UnlockID": 3609
  },
  {
    "ID": 813,
    "GotoType": 8,
    "ParamIntList": [
      50003
    ],
    "ParamStringList": [],
    "UnlockID": 3610
  },
  {
    "ID": 814,
    "GotoType": 8,
    "ParamIntList": [
      50003
    ],
    "ParamStringList": [],
    "UnlockID": 3611
  },
  {
    "ID": 815,
    "GotoType": 8,
    "ParamIntList": [
      50005
    ],
    "ParamStringList": [],
    "UnlockID": 3612
  },
  {
    "ID": 816,
    "GotoType": 8,
    "ParamIntList": [
      50005
    ],
    "ParamStringList": [],
    "UnlockID": 3613
  },
  {
    "ID": 817,
    "GotoType": 8,
    "ParamIntList": [
      60006
    ],
    "ParamStringList": [],
    "UnlockID": 3614
  },
  {
    "ID": 818,
    "GotoType": 8,
    "ParamIntList": [
      30006
    ],
    "ParamStringList": [],
    "UnlockID": 3615
  },
  {
    "ID": 819,
    "GotoType": 8,
    "ParamIntList": [
      50006
    ],
    "ParamStringList": [],
    "UnlockID": 3616
  },
  {
    "ID": 820,
    "GotoType": 8,
    "ParamIntList": [
      50006
    ],
    "ParamStringList": [],
    "UnlockID": 3617
  },
  {
    "ID": 821,
    "GotoType": 8,
    "ParamIntList": [
      40003
    ],
    "ParamStringList": [],
    "UnlockID": 3618
  },
  {
    "ID": 822,
    "GotoType": 8,
    "ParamIntList": [
      30008
    ],
    "ParamStringList": [],
    "UnlockID": 3619
  },
  {
    "ID": 823,
    "GotoType": 8,
    "ParamIntList": [
      30008
    ],
    "ParamStringList": [],
    "UnlockID": 3620
  },
  {
    "ID": 824,
    "GotoType": 8,
    "ParamIntList": [
      60007
    ],
    "ParamStringList": [],
    "UnlockID": 3621
  },
  {
    "ID": 825,
    "GotoType": 8,
    "ParamIntList": [
      40004
    ],
    "ParamStringList": [],
    "UnlockID": 3622
  },
  {
    "ID": 826,
    "GotoType": 8,
    "ParamIntList": [
      30009
    ],
    "ParamStringList": [],
    "UnlockID": 3623
  },
  {
    "ID": 827,
    "GotoType": 8,
    "ParamIntList": [
      40005
    ],
    "ParamStringList": [],
    "UnlockID": 3624
  },
  {
    "ID": 828,
    "GotoType": 8,
    "ParamIntList": [
      30010
    ],
    "ParamStringList": [],
    "UnlockID": 3625
  },
  {
    "ID": 829,
    "GotoType": 8,
    "ParamIntList": [
      50007
    ],
    "ParamStringList": [],
    "UnlockID": 3626
  },
  {
    "ID": 830,
    "GotoType": 8,
    "ParamIntList": [
      50007
    ],
    "ParamStringList": [],
    "UnlockID": 3627
  },
  {
    "ID": 831,
    "GotoType": 8,
    "ParamIntList": [
      50009
    ],
    "ParamStringList": [],
    "UnlockID": 3628
  },
  {
    "ID": 832,
    "GotoType": 8,
    "ParamIntList": [
      50009
    ],
    "ParamStringList": [],
    "UnlockID": 3629
  },
  {
    "ID": 833,
    "GotoType": 8,
    "ParamIntList": [
      50008
    ],
    "ParamStringList": [],
    "UnlockID": 3630
  },
  {
    "ID": 834,
    "GotoType": 8,
    "ParamIntList": [
      50010
    ],
    "ParamStringList": [],
    "UnlockID": 3631
  },
  {
    "ID": 835,
    "GotoType": 8,
    "ParamIntList": [
      50012
    ],
    "ParamStringList": [],
    "UnlockID": 3632
  },
  {
    "ID": 836,
    "GotoType": 8,
    "ParamIntList": [
      50012
    ],
    "ParamStringList": [],
    "UnlockID": 3633
  },
  {
    "ID": 837,
    "GotoType": 8,
    "ParamIntList": [
      50011
    ],
    "ParamStringList": [],
    "UnlockID": 3634
  },
  {
    "ID": 838,
    "GotoType": 8,
    "ParamIntList": [
      50013
    ],
    "ParamStringList": [],
    "UnlockID": 3635
  },
  {
    "ID": 839,
    "GotoType": 2,
    "ParamIntList": [
      1000101,
      2419
    ],
    "ParamStringList": []
  },
  {
    "ID": 840,
    "GotoType": 8,
    "ParamIntList": [
      50014
    ],
    "ParamStringList": [],
    "UnlockID": 3636
  },
  {
    "ID": 841,
    "GotoType": 8,
    "ParamIntList": [
      50014
    ],
    "ParamStringList": [],
    "UnlockID": 3637
  },
  {
    "ID": 842,
    "GotoType": 8,
    "ParamIntList": [
      50016
    ],
    "ParamStringList": [],
    "UnlockID": 3700
  },
  {
    "ID": 843,
    "GotoType": 8,
    "ParamIntList": [
      10019
    ],
    "ParamStringList": []
  },
  {
    "ID": 844,
    "GotoType": 8,
    "ParamIntList": [
      60011
    ],
    "ParamStringList": [],
    "UnlockID": 3041
  },
  {
    "ID": 845,
    "GotoType": 65,
    "ParamIntList": [],
    "ParamStringList": [],
    "UnlockID": 3042
  },
  {
    "ID": 846,
    "GotoType": 2,
    "ParamIntList": [
      1034101,
      2421,
      200002
    ],
    "ParamStringList": [],
    "UnlockID": 200
  },
  {
    "ID": 847,
    "GotoType": 8,
    "ParamIntList": [
      50021
    ],
    "ParamStringList": [],
    "UnlockID": 3638
  },
  {
    "ID": 848,
    "GotoType": 8,
    "ParamIntList": [
      50021
    ],
    "ParamStringList": [],
    "UnlockID": 3639
  },
  {
    "ID": 849,
    "GotoType": 8,
    "ParamIntList": [
      50020
    ],
    "ParamStringList": [],
    "UnlockID": 3043
  },
  {
    "ID": 850,
    "GotoType": 62,
    "ParamIntList": [
      8023401
    ],
    "ParamStringList": [],
    "UnlockID": 200
  },
  {
    "ID": 851,
    "GotoType": 8,
    "ParamIntList": [
      50015
    ],
    "ParamStringList": [],
    "UnlockID": 3046
  },
  {
    "ID": 852,
    "GotoType": 8,
    "ParamIntList": [
      50015
    ],
    "ParamStringList": [],
    "UnlockID": 3047
  },
  {
    "ID": 853,
    "GotoType": 8,
    "ParamIntList": [
      50017
    ],
    "ParamStringList": [],
    "UnlockID": 3048
  },
  {
    "ID": 854,
    "GotoType": 8,
    "ParamIntList": [
      50018
    ],
    "ParamStringList": [],
    "UnlockID": 3044
  },
  {
    "ID": 855,
    "GotoType": 8,
    "ParamIntList": [
      50018
    ],
    "ParamStringList": [],
    "UnlockID": 3045
  },
  {
    "ID": 856,
    "GotoType": 8,
    "ParamIntList": [
      30011
    ],
    "ParamStringList": [],
    "UnlockID": 3641
  },
  {
    "ID": 857,
    "GotoType": 74,
    "ParamIntList": [],
    "ParamStringList": []
  },
  {
    "ID": 858,
    "GotoType": 8,
    "ParamIntList": [
      30012
    ],
    "ParamStringList": [],
    "UnlockID": 3640
  },
  {
    "ID": 859,
    "GotoType": 8,
    "ParamIntList": [
      50022
    ],
    "ParamStringList": [],
    "UnlockID": 3053
  },
  {
    "ID": 860,
    "GotoType": 8,
    "ParamIntList": [
      50022
    ],
    "ParamStringList": [],
    "UnlockID": 3053
  },
  {
    "ID": 870,
    "GotoType": 68,
    "ParamIntList": [],
    "ParamStringList": []
  },
  {
    "ID": 871,
    "GotoType": 8,
    "ParamIntList": [
      60016
    ],
    "ParamStringList": []
  },
  {
    "ID": 872,
    "GotoType": 8,
    "ParamIntList": [
      40006
    ],
    "ParamStringList": [],
    "UnlockID": 3642
  },
  {
    "ID": 873,
    "GotoType": 8,
    "ParamIntList": [
      50026
    ],
    "ParamStringList": [],
    "UnlockID": 3056
  },
  {
    "ID": 1101,
    "GotoType": 11,
    "ParamIntList": [
      5
    ],
    "ParamStringList": []
  },
  {
    "ID": 1201,
    "GotoType": 12,
    "ParamIntList": [],
    "ParamStringList": [
      "OpenURL8",
      "official_community_url"
    ]
  },
  {
    "ID": 1202,
    "GotoType": 12,
    "ParamIntList": [],
    "ParamStringList": [
      "OpenURL6",
      "community_activity_url"
    ],
    "UnlockID": 1202
  },
  {
    "ID": 1203,
    "GotoType": 12,
    "ParamIntList": [],
    "ParamStringList": [
      "OpenURL9",
      "hot_point_url",
      "1"
    ],
    "UnlockID": 1203
  },
  {
    "ID": 1204,
    "GotoType": 12,
    "ParamIntList": [],
    "ParamStringList": [
      "OpenURL5",
      "cloud_game_url"
    ],
    "UnlockID": 1204
  },
  {
    "ID": 1205,
    "GotoType": 12,
    "ParamIntList": [],
    "ParamStringList": [
      "OpenURL5",
      "web_tool_url"
    ],
    "UnlockID": 1205
  },
  {
    "ID": 1501,
    "GotoType": 15,
    "ParamIntList": [
      1
    ],
    "ParamStringList": [],
    "UnlockID": 1500
  },
  {
    "ID": 1502,
    "GotoType": 15,
    "ParamIntList": [
      2
    ],
    "ParamStringList": [],
    "UnlockID": 9901
  },
  {
    "ID": 1503,
    "GotoType": 15,
    "ParamIntList": [
      3
    ],
    "ParamStringList": [],
    "UnlockID": 9903
  },
  {
    "ID": 1504,
    "GotoType": 15,
    "ParamIntList": [
      3,
      1001
    ],
    "ParamStringList": [],
    "UnlockID": 9924
  },
  {
    "ID": 1505,
    "GotoType": 15,
    "ParamIntList": [
      3,
      1002
    ],
    "ParamStringList": [],
    "UnlockID": 9925
  },
  {
    "ID": 1506,
    "GotoType": 15,
    "ParamIntList": [
      3,
      1003
    ],
    "ParamStringList": [],
    "UnlockID": 9926
  },
  {
    "ID": 1507,
    "GotoType": 15,
    "ParamIntList": [
      3,
      1004
    ],
    "ParamStringList": [],
    "UnlockID": 9927
  },
  {
    "ID": 1508,
    "GotoType": 15,
    "ParamIntList": [
      3,
      1005
    ],
    "ParamStringList": [],
    "UnlockID": 9928
  },
  {
    "ID": 1509,
    "GotoType": 15,
    "ParamIntList": [
      3,
      1006
    ],
    "ParamStringList": [],
    "UnlockID": 9929
  },
  {
    "ID": 1510,
    "GotoType": 15,
    "ParamIntList": [
      3,
      1007
    ],
    "ParamStringList": [],
    "UnlockID": 9930
  },
  {
    "ID": 1511,
    "GotoType": 15,
    "ParamIntList": [
      6,
      3
    ],
    "ParamStringList": []
  },
  {
    "ID": 1512,
    "GotoType": 15,
    "ParamIntList": [
      3,
      1001,
      201
    ],
    "ParamStringList": [],
    "UnlockID": 1512
  },
  {
    "ID": 1513,
    "GotoType": 15,
    "ParamIntList": [
      3,
      1001,
      301
    ],
    "ParamStringList": [],
    "UnlockID": 1513
  },
  {
    "ID": 1514,
    "GotoType": 15,
    "ParamIntList": [
      3,
      1001,
      401
    ],
    "ParamStringList": [],
    "UnlockID": 1514
  },
  {
    "ID": 1515,
    "GotoType": 15,
    "ParamIntList": [
      3,
      1008
    ],
    "ParamStringList": [],
    "UnlockID": 50016
  },
  {
    "ID": 1516,
    "GotoType": 15,
    "ParamIntList": [
      4
    ],
    "ParamStringList": [],
    "UnlockID": 50016
  },
  {
    "ID": 1517,
    "GotoType": 15,
    "ParamIntList": [
      6,
      1
    ],
    "ParamStringList": [],
    "UnlockID": 105003
  },
  {
    "ID": 1518,
    "GotoType": 15,
    "ParamIntList": [
      6,
      2
    ],
    "ParamStringList": [],
    "UnlockID": 105003
  },
  {
    "ID": 1519,
    "GotoType": 15,
    "ParamIntList": [
      6,
      4
    ],
    "ParamStringList": [],
    "UnlockID": 105003
  },
  {
    "ID": 3201,
    "GotoType": 32,
    "ParamIntList": [
      1
    ],
    "ParamStringList": [],
    "UnlockID": 3200
  },
  {
    "ID": 3202,
    "GotoType": 32,
    "ParamIntList": [
      2
    ],
    "ParamStringList": [],
    "UnlockID": 3200
  },
  {
    "ID": 3203,
    "GotoType": 32,
    "ParamIntList": [
      3
    ],
    "ParamStringList": [],
    "UnlockID": 3200
  },
  {
    "ID": 20001,
    "GotoType": 2,
    "ParamIntList": [
      2012101,
      2265
    ],
    "ParamStringList": [],
    "UnlockID": 200
  },
  {
    "ID": 20002,
    "GotoType": 2,
    "ParamIntList": [
      1020204,
      2266
    ],
    "ParamStringList": [],
    "UnlockID": 200
  },
  {
    "ID": 20003,
    "GotoType": 2,
    "ParamIntList": [
      1010201,
      2267
    ],
    "ParamStringList": [],
    "UnlockID": 227
  },
  {
    "ID": 21001,
    "GotoType": 2,
    "ParamIntList": [
      2011101,
      0
    ],
    "ParamStringList": [],
    "UnlockID": 21001
  },
  {
    "ID": 21002,
    "GotoType": 2,
    "ParamIntList": [
      2012201,
      0
    ],
    "ParamStringList": [],
    "UnlockID": 21002
  },
  {
    "ID": 21003,
    "GotoType": 2,
    "ParamIntList": [
      2012301,
      0
    ],
    "ParamStringList": [],
    "UnlockID": 21003
  },
  {
    "ID": 21004,
    "GotoType": 2,
    "ParamIntList": [
      2013201,
      0
    ],
    "ParamStringList": [],
    "UnlockID": 21004
  },
  {
    "ID": 22001,
    "GotoType": 2,
    "ParamIntList": [
      2010101,
      0
    ],
    "ParamStringList": [],
    "UnlockID": 22001
  },
  {
    "ID": 22002,
    "GotoType": 2,
    "ParamIntList": [
      2011101,
      0
    ],
    "ParamStringList": [],
    "UnlockID": 22002
  },
  {
    "ID": 22003,
    "GotoType": 2,
    "ParamIntList": [
      2012101,
      0
    ],
    "ParamStringList": [],
    "UnlockID": 22003
  },
  {
    "ID": 22004,
    "GotoType": 2,
    "ParamIntList": [
      2012201,
      0
    ],
    "ParamStringList": [],
    "UnlockID": 22004
  },
  {
    "ID": 22005,
    "GotoType": 2,
    "ParamIntList": [
      2012301,
      0
    ],
    "ParamStringList": [],
    "UnlockID": 22005
  },
  {
    "ID": 22006,
    "GotoType": 2,
    "ParamIntList": [
      2013101,
      0
    ],
    "ParamStringList": [],
    "UnlockID": 22006
  },
  {
    "ID": 22007,
    "GotoType": 2,
    "ParamIntList": [
      2013201,
      0
    ],
    "ParamStringList": [],
    "UnlockID": 22007
  },
  {
    "ID": 23001,
    "GotoType": 2,
    "ParamIntList": [
      2012101,
      1105
    ],
    "ParamStringList": [],
    "UnlockID": 23001
  },
  {
    "ID": 23002,
    "GotoType": 2,
    "ParamIntList": [
      2013101,
      1104
    ],
    "ParamStringList": [],
    "UnlockID": 23002
  },
  {
    "ID": 23003,
    "GotoType": 2,
    "ParamIntList": [
      2013201,
      1106
    ],
    "ParamStringList": [],
    "UnlockID": 23003
  },
  {
    "ID": 23004,
    "GotoType": 2,
    "ParamIntList": [
      2013201,
      1103
    ],
    "ParamStringList": [],
    "UnlockID": 23004
  },
  {
    "ID": 23005,
    "GotoType": 2,
    "ParamIntList": [
      2012201,
      1102
    ],
    "ParamStringList": [],
    "UnlockID": 23005
  },
  {
    "ID": 23006,
    "GotoType": 2,
    "ParamIntList": [
      2011101,
      1107
    ],
    "ParamStringList": [],
    "UnlockID": 23006
  },
  {
    "ID": 23007,
    "GotoType": 2,
    "ParamIntList": [
      2000101,
      1101
    ],
    "ParamStringList": [],
    "UnlockID": 23007
  },
  {
    "ID": 23008,
    "GotoType": 2,
    "ParamIntList": [
      2010101,
      1001
    ],
    "ParamStringList": [],
    "UnlockID": 23008
  },
  {
    "ID": 23009,
    "GotoType": 2,
    "ParamIntList": [
      2011101,
      1002
    ],
    "ParamStringList": [],
    "UnlockID": 23009
  },
  {
    "ID": 23010,
    "GotoType": 2,
    "ParamIntList": [
      2012101,
      1003
    ],
    "ParamStringList": [],
    "UnlockID": 23010
  },
  {
    "ID": 23011,
    "GotoType": 2,
    "ParamIntList": [
      2021101,
      1108
    ],
    "ParamStringList": [],
    "UnlockID": 23011
  },
  {
    "ID": 23012,
    "GotoType": 2,
    "ParamIntList": [
      2021201,
      1109
    ],
    "ParamStringList": [],
    "UnlockID": 23012
  },
  {
    "ID": 23013,
    "GotoType": 2,
    "ParamIntList": [
      2022201,
      1110
    ],
    "ParamStringList": [],
    "UnlockID": 23013
  },
  {
    "ID": 23014,
    "GotoType": 2,
    "ParamIntList": [
      2023201,
      1111
    ],
    "ParamStringList": [],
    "UnlockID": 23014
  },
  {
    "ID": 23015,
    "GotoType": 2,
    "ParamIntList": [
      2012101,
      1112
    ],
    "ParamStringList": [],
    "UnlockID": 23015
  },
  {
    "ID": 23016,
    "GotoType": 2,
    "ParamIntList": [
      2023101,
      1113
    ],
    "ParamStringList": [],
    "UnlockID": 23016
  },
  {
    "ID": 23017,
    "GotoType": 2,
    "ParamIntList": [
      2022301,
      1114
    ],
    "ParamStringList": [],
    "UnlockID": 23017
  },
  {
    "ID": 23101,
    "GotoType": 2,
    "ParamIntList": [
      2000201,
      1004
    ],
    "ParamStringList": [],
    "UnlockID": 23101
  },
  {
    "ID": 23102,
    "GotoType": 2,
    "ParamIntList": [
      2000301,
      1005
    ],
    "ParamStringList": [],
    "UnlockID": 23102
  },
  {
    "ID": 23103,
    "GotoType": 2,
    "ParamIntList": [
      2010101,
      1006
    ],
    "ParamStringList": [],
    "UnlockID": 23103
  },
  {
    "ID": 23104,
    "GotoType": 2,
    "ParamIntList": [
      2011101,
      1007
    ],
    "ParamStringList": [],
    "UnlockID": 23104
  },
  {
    "ID": 23105,
    "GotoType": 2,
    "ParamIntList": [
      2012201,
      1008
    ],
    "ParamStringList": [],
    "UnlockID": 23105
  },
  {
    "ID": 23106,
    "GotoType": 2,
    "ParamIntList": [
      2012301,
      1009
    ],
    "ParamStringList": [],
    "UnlockID": 23106
  },
  {
    "ID": 23107,
    "GotoType": 2,
    "ParamIntList": [
      2012101,
      1010
    ],
    "ParamStringList": [],
    "UnlockID": 23107
  },
  {
    "ID": 23108,
    "GotoType": 2,
    "ParamIntList": [
      2000201,
      1201
    ],
    "ParamStringList": [],
    "UnlockID": 23108
  },
  {
    "ID": 23109,
    "GotoType": 2,
    "ParamIntList": [
      2013101,
      1202
    ],
    "ParamStringList": [],
    "UnlockID": 23109
  },
  {
    "ID": 23110,
    "GotoType": 2,
    "ParamIntList": [
      2013201,
      1203
    ],
    "ParamStringList": [],
    "UnlockID": 23110
  },
  {
    "ID": 23111,
    "GotoType": 2,
    "ParamIntList": [
      2013401,
      1204
    ],
    "ParamStringList": [],
    "UnlockID": 23111
  },
  {
    "ID": 23112,
    "GotoType": 2,
    "ParamIntList": [
      2021101,
      1205
    ],
    "ParamStringList": [],
    "UnlockID": 23112
  },
  {
    "ID": 23113,
    "GotoType": 2,
    "ParamIntList": [
      2021201,
      1206
    ],
    "ParamStringList": [],
    "UnlockID": 23113
  },
  {
    "ID": 23201,
    "GotoType": 2,
    "ParamIntList": [
      2000201,
      1201
    ],
    "ParamStringList": [],
    "UnlockID": 23201
  },
  {
    "ID": 23202,
    "GotoType": 2,
    "ParamIntList": [
      2013101,
      1202
    ],
    "ParamStringList": [],
    "UnlockID": 23201
  },
  {
    "ID": 23203,
    "GotoType": 2,
    "ParamIntList": [
      2013201,
      1203
    ],
    "ParamStringList": [],
    "UnlockID": 23201
  },
  {
    "ID": 23204,
    "GotoType": 2,
    "ParamIntList": [
      2013401,
      1204
    ],
    "ParamStringList": [],
    "UnlockID": 23201
  },
  {
    "ID": 23205,
    "GotoType": 2,
    "ParamIntList": [
      2021101,
      1205
    ],
    "ParamStringList": [],
    "UnlockID": 23201
  },
  {
    "ID": 23206,
    "GotoType": 2,
    "ParamIntList": [
      2021201,
      1206
    ],
    "ParamStringList": [],
    "UnlockID": 23201
  },
  {
    "ID": 23207,
    "GotoType": 2,
    "ParamIntList": [
      2023101,
      1207
    ],
    "ParamStringList": [],
    "UnlockID": 23201
  },
  {
    "ID": 23208,
    "GotoType": 2,
    "ParamIntList": [
      2022301,
      1208
    ],
    "ParamStringList": [],
    "UnlockID": 23201
  },
  {
    "ID": 23209,
    "GotoType": 2,
    "ParamIntList": [
      2031101,
      1209
    ],
    "ParamStringList": [],
    "UnlockID": 23201
  },
  {
    "ID": 23210,
    "GotoType": 2,
    "ParamIntList": [
      2033201,
      1210
    ],
    "ParamStringList": [],
    "UnlockID": 23201
  },
  {
    "ID": 23211,
    "GotoType": 2,
    "ParamIntList": [
      2024101,
      1211
    ],
    "ParamStringList": [],
    "UnlockID": 23201
  },
  {
    "ID": 23299,
    "GotoType": 2,
    "ParamIntList": [
      1000101,
      2219
    ],
    "ParamStringList": [],
    "UnlockID": 23299
  },
  {
    "ID": 23301,
    "GotoType": 2,
    "ParamIntList": [
      2000201,
      1201
    ],
    "ParamStringList": [],
    "UnlockID": 23301
  },
  {
    "ID": 23302,
    "GotoType": 2,
    "ParamIntList": [
      2013101,
      1202
    ],
    "ParamStringList": [],
    "UnlockID": 23301
  },
  {
    "ID": 23303,
    "GotoType": 2,
    "ParamIntList": [
      2013201,
      1203
    ],
    "ParamStringList": [],
    "UnlockID": 23301
  },
  {
    "ID": 23304,
    "GotoType": 2,
    "ParamIntList": [
      2013401,
      1204
    ],
    "ParamStringList": [],
    "UnlockID": 23301
  },
  {
    "ID": 23305,
    "GotoType": 2,
    "ParamIntList": [
      2021101,
      1205
    ],
    "ParamStringList": [],
    "UnlockID": 23301
  },
  {
    "ID": 23306,
    "GotoType": 2,
    "ParamIntList": [
      2021201,
      1206
    ],
    "ParamStringList": [],
    "UnlockID": 23301
  },
  {
    "ID": 23307,
    "GotoType": 2,
    "ParamIntList": [
      2023101,
      1207
    ],
    "ParamStringList": [],
    "UnlockID": 23301
  },
  {
    "ID": 23308,
    "GotoType": 2,
    "ParamIntList": [
      2022301,
      1208
    ],
    "ParamStringList": [],
    "UnlockID": 23301
  },
  {
    "ID": 23309,
    "GotoType": 2,
    "ParamIntList": [
      2031101,
      1209
    ],
    "ParamStringList": [],
    "UnlockID": 23301
  },
  {
    "ID": 23310,
    "GotoType": 2,
    "ParamIntList": [
      2033201,
      1210
    ],
    "ParamStringList": [],
    "UnlockID": 23301
  },
  {
    "ID": 23311,
    "GotoType": 2,
    "ParamIntList": [
      2024101,
      1211
    ],
    "ParamStringList": [],
    "UnlockID": 23301
  },
  {
    "ID": 23399,
    "GotoType": 2,
    "ParamIntList": [
      1000101,
      2219
    ],
    "ParamStringList": [],
    "UnlockID": 23399
  },
  {
    "ID": 23415,
    "GotoType": 2,
    "ParamIntList": [
      2031101,
      1115
    ],
    "ParamStringList": [],
    "UnlockID": 23415
  },
  {
    "ID": 23416,
    "GotoType": 2,
    "ParamIntList": [
      2031301,
      1116
    ],
    "ParamStringList": [],
    "UnlockID": 23416
  },
  {
    "ID": 23417,
    "GotoType": 2,
    "ParamIntList": [
      2032201,
      1117
    ],
    "ParamStringList": [],
    "UnlockID": 23417
  },
  {
    "ID": 23418,
    "GotoType": 2,
    "ParamIntList": [
      2032101,
      1118
    ],
    "ParamStringList": [],
    "UnlockID": 23418
  },
  {
    "ID": 23419,
    "GotoType": 2,
    "ParamIntList": [
      2033201,
      1119
    ],
    "ParamStringList": [],
    "UnlockID": 23419
  },
  {
    "ID": 23420,
    "GotoType": 2,
    "ParamIntList": [
      2024101,
      1120
    ],
    "ParamStringList": [],
    "UnlockID": 23420
  },
  {
    "ID": 23421,
    "GotoType": 2,
    "ParamIntList": [
      2033201,
      1121
    ],
    "ParamStringList": [],
    "UnlockID": 23421
  },
  {
    "ID": 23511,
    "GotoType": 2,
    "ParamIntList": [
      2021101,
      1011
    ],
    "ParamStringList": [],
    "UnlockID": 23511
  },
  {
    "ID": 23512,
    "GotoType": 2,
    "ParamIntList": [
      2022101,
      1012
    ],
    "ParamStringList": [],
    "UnlockID": 23512
  },
  {
    "ID": 23513,
    "GotoType": 2,
    "ParamIntList": [
      2022201,
      1013
    ],
    "ParamStringList": [],
    "UnlockID": 23513
  },
  {
    "ID": 23514,
    "GotoType": 2,
    "ParamIntList": [
      2031301,
      1014
    ],
    "ParamStringList": [],
    "UnlockID": 23514
  },
  {
    "ID": 23515,
    "GotoType": 2,
    "ParamIntList": [
      2031201,
      1015
    ],
    "ParamStringList": [],
    "UnlockID": 23515
  },
  {
    "ID": 23516,
    "GotoType": 2,
    "ParamIntList": [
      2031101,
      1016
    ],
    "ParamStringList": [],
    "UnlockID": 23516
  },
  {
    "ID": 23517,
    "GotoType": 2,
    "ParamIntList": [
      2023101,
      1017
    ],
    "ParamStringList": [],
    "UnlockID": 23517
  },
  {
    "ID": 23518,
    "GotoType": 2,
    "ParamIntList": [
      2023201,
      1018
    ],
    "ParamStringList": [],
    "UnlockID": 23518
  },
  {
    "ID": 23519,
    "GotoType": 2,
    "ParamIntList": [
      2031101,
      1019
    ],
    "ParamStringList": [],
    "UnlockID": 23519
  },
  {
    "ID": 23520,
    "GotoType": 2,
    "ParamIntList": [
      2032101,
      1020
    ],
    "ParamStringList": [],
    "UnlockID": 23520
  },
  {
    "ID": 23521,
    "GotoType": 2,
    "ParamIntList": [
      2022301,
      1021
    ],
    "ParamStringList": [],
    "UnlockID": 23521
  },
  {
    "ID": 23522,
    "GotoType": 2,
    "ParamIntList": [
      2033101,
      1022
    ],
    "ParamStringList": [],
    "UnlockID": 23522
  },
  {
    "ID": 23523,
    "GotoType": 2,
    "ParamIntList": [
      2033201,
      1023
    ],
    "ParamStringList": [],
    "UnlockID": 23523
  },
  {
    "ID": 24001,
    "GotoType": 2,
    "ParamIntList": [
      2000301,
      1301
    ],
    "ParamStringList": [],
    "UnlockID": 24001
  },
  {
    "ID": 24002,
    "GotoType": 2,
    "ParamIntList": [
      2013401,
      1302
    ],
    "ParamStringList": [],
    "UnlockID": 24002
  },
  {
    "ID": 24003,
    "GotoType": 2,
    "ParamIntList": [
      2023201,
      1303
    ],
    "ParamStringList": [],
    "UnlockID": 24003
  },
  {
    "ID": 24004,
    "GotoType": 2,
    "ParamIntList": [
      2000401,
      1304
    ],
    "ParamStringList": [],
    "UnlockID": 24004
  },
  {
    "ID": 24005,
    "GotoType": 2,
    "ParamIntList": [
      2033201,
      1305
    ],
    "ParamStringList": [],
    "UnlockID": 24005
  },
  {
    "ID": 24006,
    "GotoType": 2,
    "ParamIntList": [
      2024201,
      1306
    ],
    "ParamStringList": [],
    "UnlockID": 24006
  },
  {
    "ID": 25001,
    "GotoType": 2,
    "ParamIntList": [
      1010101,
      2222
    ],
    "ParamStringList": [],
    "UnlockMainMission": 1010301,
    "UnlockID": 200
  },
  {
    "ID": 25002,
    "GotoType": 2,
    "ParamIntList": [
      1020101,
      2238
    ],
    "ParamStringList": [],
    "UnlockID": 200
  },
  {
    "ID": 25003,
    "GotoType": 2,
    "ParamIntList": [
      1020204,
      2300
    ],
    "ParamStringList": [],
    "UnlockMainMission": 1010301,
    "UnlockID": 200
  },
  {
    "ID": 25004,
    "GotoType": 2,
    "ParamIntList": [
      1020204,
      2303
    ],
    "ParamStringList": [],
    "UnlockID": 200
  },
  {
    "ID": 25005,
    "GotoType": 2,
    "ParamIntList": [
      2023101,
      2304
    ],
    "ParamStringList": [],
    "UnlockMainMission": 1010301,
    "UnlockID": 200
  },
  {
    "ID": 25006,
    "GotoType": 2,
    "ParamIntList": [
      2023101,
      2302
    ],
    "ParamStringList": [],
    "UnlockID": 200
  },
  {
    "ID": 25007,
    "GotoType": 2,
    "ParamIntList": [
      1010101,
      2226
    ],
    "ParamStringList": [],
    "UnlockMainMission": 1010301,
    "UnlockID": 200
  },
  {
    "ID": 25008,
    "GotoType": 2,
    "ParamIntList": [
      1010201,
      2200
    ],
    "ParamStringList": [],
    "UnlockID": 200
  },
  {
    "ID": 25009,
    "GotoType": 2,
    "ParamIntList": [
      1020204,
      2266
    ],
    "ParamStringList": [],
    "UnlockID": 101001
  },
  {
    "ID": 25010,
    "GotoType": 2,
    "ParamIntList": [
      1020204,
      2290
    ],
    "ParamStringList": [],
    "UnlockID": 101002
  },
  {
    "ID": 25011,
    "GotoType": 2,
    "ParamIntList": [
      1020204,
      2291
    ],
    "ParamStringList": [],
    "UnlockID": 200
  },
  {
    "ID": 25012,
    "GotoType": 2,
    "ParamIntList": [
      1020204,
      2266
    ],
    "ParamStringList": [],
    "UnlockID": 101003
  },
  {
    "ID": 25013,
    "GotoType": 2,
    "ParamIntList": [
      1020204,
      2301
    ],
    "ParamStringList": [],
    "UnlockID": 200
  },
  {
    "ID": 25014,
    "GotoType": 2,
    "ParamIntList": [
      1020204,
      2299
    ],
    "ParamStringList": [],
    "UnlockID": 200
  },
  {
    "ID": 25015,
    "GotoType": 2,
    "ParamIntList": [
      1020101,
      2247
    ],
    "ParamStringList": [],
    "UnlockID": 200
  },
  {
    "ID": 25016,
    "GotoType": 2,
    "ParamIntList": [
      1020101,
      2252
    ],
    "ParamStringList": [],
    "UnlockID": 200
  },
  {
    "ID": 25017,
    "GotoType": 2,
    "ParamIntList": [
      1020101,
      2248
    ],
    "ParamStringList": [],
    "UnlockID": 200
  },
  {
    "ID": 25018,
    "GotoType": 2,
    "ParamIntList": [
      1020201,
      2251
    ],
    "ParamStringList": [],
    "UnlockID": 200
  },
  {
    "ID": 25019,
    "GotoType": 2,
    "ParamIntList": [
      1020204,
      2306
    ],
    "ParamStringList": [],
    "UnlockID": 200
  },
  {
    "ID": 25020,
    "GotoType": 2,
    "ParamIntList": [
      2010101,
      2296
    ],
    "ParamStringList": [],
    "UnlockID": 25020
  },
  {
    "ID": 25021,
    "GotoType": 2,
    "ParamIntList": [
      2021101,
      2297
    ],
    "ParamStringList": [],
    "UnlockID": 200
  },
  {
    "ID": 25022,
    "GotoType": 2,
    "ParamIntList": [
      2022301,
      2308
    ],
    "ParamStringList": [],
    "UnlockID": 101207
  },
  {
    "ID": 25023,
    "GotoType": 2,
    "ParamIntList": [
      2022301,
      2308
    ],
    "ParamStringList": [],
    "UnlockID": 101207
  },
  {
    "ID": 25024,
    "GotoType": 2,
    "ParamIntList": [
      1030501,
      2369
    ],
    "ParamStringList": [],
    "UnlockID": 200
  },
  {
    "ID": 25025,
    "GotoType": 2,
    "ParamIntList": [
      1030101,
      2384
    ],
    "ParamStringList": [],
    "UnlockID": 25025
  },
  {
    "ID": 25026,
    "GotoType": 2,
    "ParamIntList": [
      1030101,
      2371
    ],
    "ParamStringList": [],
    "UnlockID": 200
  },
  {
    "ID": 25027,
    "GotoType": 2,
    "ParamIntList": [
      1030101,
      2374
    ],
    "ParamStringList": [],
    "UnlockID": 200
  },
  {
    "ID": 25028,
    "GotoType": 2,
    "ParamIntList": [
      1030101,
      2376
    ],
    "ParamStringList": [],
    "UnlockID": 200
  },
  {
    "ID": 25029,
    "GotoType": 2,
    "ParamIntList": [
      1030101,
      2377
    ],
    "ParamStringList": [],
    "UnlockID": 200
  },
  {
    "ID": 25030,
    "GotoType": 2,
    "ParamIntList": [
      1030101,
      2380
    ],
    "ParamStringList": [],
    "UnlockID": 200
  },
  {
    "ID": 25031,
    "GotoType": 2,
    "ParamIntList": [
      1030101,
      2372
    ],
    "ParamStringList": [],
    "UnlockID": 200
  },
  {
    "ID": 25032,
    "GotoType": 2,
    "ParamIntList": [
      1000101,
      2236
    ],
    "ParamStringList": [],
    "UnlockID": 200
  },
  {
    "ID": 25033,
    "GotoType": 2,
    "ParamIntList": [
      1010201,
      2223
    ],
    "ParamStringList": [],
    "UnlockID": 200
  },
  {
    "ID": 25034,
    "GotoType": 2,
    "ParamIntList": [
      1020101,
      2235
    ],
    "ParamStringList": [],
    "UnlockID": 200
  },
  {
    "ID": 25035,
    "GotoType": 2,
    "ParamIntList": [
      1030101,
      2393
    ],
    "ParamStringList": [],
    "UnlockID": 200
  },
  {
    "ID": 25036,
    "GotoType": 2,
    "ParamIntList": [
      2032101,
      2399
    ],
    "ParamStringList": [],
    "UnlockID": 200
  },
  {
    "ID": 25037,
    "GotoType": 2,
    "ParamIntList": [
      1030401,
      2403
    ],
    "ParamStringList": [],
    "UnlockID": 200
  },
  {
    "ID": 25038,
    "GotoType": 2,
    "ParamIntList": [
      1030401,
      2404
    ],
    "ParamStringList": [],
    "UnlockID": 200
  },
  {
    "ID": 25039,
    "GotoType": 2,
    "ParamIntList": [
      1030401,
      2405
    ],
    "ParamStringList": [],
    "UnlockID": 200
  },
  {
    "ID": 25040,
    "GotoType": 2,
    "ParamIntList": [
      1030101,
      2381
    ],
    "ParamStringList": [],
    "UnlockID": 9942
  },
  {
    "ID": 25041,
    "GotoType": 2,
    "ParamIntList": [
      1034101,
      2423
    ],
    "ParamStringList": [],
    "UnlockID": 25041
  },
  {
    "ID": 25042,
    "GotoType": 2,
    "ParamIntList": [
      1034101,
      2424
    ],
    "ParamStringList": [],
    "UnlockID": 25041
  },
  {
    "ID": 25043,
    "GotoType": 2,
    "ParamIntList": [
      2024101,
      2440
    ],
    "ParamStringList": [],
    "UnlockID": 200
  },
  {
    "ID": 25044,
    "GotoType": 2,
    "ParamIntList": [
      2024101,
      2441
    ],
    "ParamStringList": [],
    "UnlockID": 200
  },
  {
    "ID": 25045,
    "GotoType": 2,
    "ParamIntList": [
      2024201,
      2449
    ],
    "ParamStringList": [],
    "UnlockID": 200
  },
  {
    "ID": 25046,
    "GotoType": 2,
    "ParamIntList": [
      2024201,
      2450
    ],
    "ParamStringList": [],
    "UnlockID": 200
  },
  {
    "ID": 25047,
    "GotoType": 2,
    "ParamIntList": [
      2024201,
      2451
    ],
    "ParamStringList": [],
    "UnlockID": 200
  },
  {
    "ID": 25048,
    "GotoType": 2,
    "ParamIntList": [
      1040201,
      2454
    ],
    "ParamStringList": [],
    "UnlockID": 9947
  },
  {
    "ID": 25049,
    "GotoType": 2,
    "ParamIntList": [
      1030601,
      2460
    ],
    "ParamStringList": [],
    "UnlockID": 200
  },
  {
    "ID": 25050,
    "GotoType": 2,
    "ParamIntList": [
      1030601,
      2461
    ],
    "ParamStringList": [],
    "UnlockID": 200
  },
  {
    "ID": 25051,
    "GotoType": 2,
    "ParamIntList": [
      1000003,
      2469
    ],
    "ParamStringList": [],
    "UnlockID": 200
  },
  {
    "ID": 25052,
    "GotoType": 2,
    "ParamIntList": [
      1040201,
      2454
    ],
    "ParamStringList": [],
    "UnlockID": 9943
  },
  {
    "ID": 25053,
    "GotoType": 2,
    "ParamIntList": [
      1040101,
      0
    ],
    "ParamStringList": [],
    "UnlockID": 200
  },
  {
    "ID": 25054,
    "GotoType": 2,
    "ParamIntList": [
      1040101,
      2498
    ],
    "ParamStringList": [],
    "UnlockID": 200
  },
  {
    "ID": 25055,
    "GotoType": 2,
    "ParamIntList": [
      1040101,
      2497
    ],
    "ParamStringList": [],
    "UnlockID": 200
  },
  {
    "ID": 25056,
    "GotoType": 2,
    "ParamIntList": [
      1040101,
      2495
    ],
    "ParamStringList": [],
    "UnlockID": 200
  },
  {
    "ID": 25057,
    "GotoType": 2,
    "ParamIntList": [
      1040201,
      2454
    ],
    "ParamStringList": [],
    "UnlockID": 9954
  },
  {
    "ID": 40001,
    "GotoType": 40,
    "ParamIntList": [
      10700
    ],
    "ParamStringList": []
  },
  {
    "ID": 26001,
    "GotoType": 2,
    "ParamIntList": [
      2000401,
      2368
    ],
    "ParamStringList": [],
    "UnlockID": 200
  },
  {
    "ID": 26002,
    "GotoType": 2,
    "ParamIntList": [
      1030101,
      2385
    ],
    "ParamStringList": [],
    "UnlockID": 200
  },
  {
    "ID": 26003,
    "GotoType": 2,
    "ParamIntList": [
      2031101,
      2386
    ],
    "ParamStringList": [],
    "UnlockID": 200
  },
  {
    "ID": 26004,
    "GotoType": 2,
    "ParamIntList": [
      1030101,
      2387
    ],
    "ParamStringList": [],
    "UnlockID": 200
  },
  {
    "ID": 26005,
    "GotoType": 2,
    "ParamIntList": [
      2031301,
      2388
    ],
    "ParamStringList": [],
    "UnlockID": 200
  },
  {
    "ID": 26006,
    "GotoType": 2,
    "ParamIntList": [
      2031101,
      2389
    ],
    "ParamStringList": [],
    "UnlockID": 200
  },
  {
    "ID": 26007,
    "GotoType": 2,
    "ParamIntList": [
      2031301,
      2031301
    ],
    "ParamStringList": [],
    "UnlockID": 103005
  },
  {
    "ID": 26008,
    "GotoType": 2,
    "ParamIntList": [
      2031101,
      2031101
    ],
    "ParamStringList": [],
    "UnlockID": 103004
  },
  {
    "ID": 26009,
    "GotoType": 2,
    "ParamIntList": [
      2031201,
      2031201
    ],
    "ParamStringList": [],
    "UnlockID": 103006
  },
  {
    "ID": 26010,
    "GotoType": 2,
    "ParamIntList": [
      1030101,
      1030101
    ],
    "ParamStringList": [],
    "UnlockID": 103003
  },
  {
    "ID": 26011,
    "GotoType": 2,
    "ParamIntList": [
      1030101,
      2384
    ],
    "ParamStringList": [],
    "UnlockID": 3626
  },
  {
    "ID": 27001,
    "GotoType": 2,
    "ParamIntList": [
      2031101,
      2397
    ],
    "ParamStringList": [],
    "UnlockID": 104001
  },
  {
    "ID": 6201,
    "GotoType": 62,
    "ParamIntList": [
      8022101
    ],
    "ParamStringList": []
  },
  {
    "ID": 28001,
    "GotoType": 2,
    "ParamIntList": [
      2032101,
      2401
    ],
    "ParamStringList": [],
    "UnlockID": 200
  },
  {
    "ID": 28003,
    "GotoType": 63,
    "ParamIntList": [],
    "ParamStringList": [],
    "UnlockID": 200
  },
  {
    "ID": 28004,
    "GotoType": 64,
    "ParamIntList": [],
    "ParamStringList": [],
    "UnlockID": 200
  },
  {
    "ID": 28005,
    "GotoType": 2,
    "ParamIntList": [
      2032101,
      2406
    ],
    "ParamStringList": [],
    "UnlockID": 200
  },
  {
    "ID": 28006,
    "GotoType": 2,
    "ParamIntList": [
      2032101,
      2407
    ],
    "ParamStringList": [],
    "UnlockID": 200
  },
  {
    "ID": 28007,
    "GotoType": 2,
    "ParamIntList": [
      2032101,
      2408
    ],
    "ParamStringList": [],
    "UnlockID": 200
  },
  {
    "ID": 28008,
    "GotoType": 2,
    "ParamIntList": [
      2032101,
      2409
    ],
    "ParamStringList": [],
    "UnlockID": 200
  },
  {
    "ID": 28009,
    "GotoType": 2,
    "ParamIntList": [
      2032101,
      2410
    ],
    "ParamStringList": [],
    "UnlockID": 200
  },
  {
    "ID": 28010,
    "GotoType": 2,
    "ParamIntList": [
      2032101,
      2411
    ],
    "ParamStringList": [],
    "UnlockID": 200
  },
  {
    "ID": 28011,
    "GotoType": 2,
    "ParamIntList": [
      2032101,
      2412
    ],
    "ParamStringList": [],
    "UnlockID": 200
  },
  {
    "ID": 28012,
    "GotoType": 2,
    "ParamIntList": [
      2032101,
      2413
    ],
    "ParamStringList": [],
    "UnlockID": 200
  },
  {
    "ID": 28013,
    "GotoType": 2,
    "ParamIntList": [
      2032101,
      2414
    ],
    "ParamStringList": [],
    "UnlockID": 200
  },
  {
    "ID": 28014,
    "GotoType": 2,
    "ParamIntList": [
      2032101,
      2415
    ],
    "ParamStringList": [],
    "UnlockID": 200
  },
  {
    "ID": 28015,
    "GotoType": 2,
    "ParamIntList": [
      2032101,
      2416
    ],
    "ParamStringList": [],
    "UnlockID": 200
  },
  {
    "ID": 28016,
    "GotoType": 2,
    "ParamIntList": [
      2032101,
      2417
    ],
    "ParamStringList": [],
    "UnlockID": 200
  },
  {
    "ID": 6202,
    "GotoType": 62,
    "ParamIntList": [
      8022201
    ],
    "ParamStringList": []
  },
  {
    "ID": 28002,
    "GotoType": 2,
    "ParamIntList": [
      1030108,
      2396
    ],
    "ParamStringList": [],
    "UnlockID": 200
  },
  {
    "ID": 29001,
    "GotoType": 2,
    "ParamIntList": [
      1034101,
      2418
    ],
    "ParamStringList": [],
    "UnlockID": 3637
  },
  {
    "ID": 29011,
    "GotoType": 2,
    "ParamIntList": [
      1020101,
      2420,
      150015
    ],
    "ParamStringList": [],
    "UnlockID": 105004
  },
  {
    "ID": 29012,
    "GotoType": 2,
    "ParamIntList": [
      1000003,
      2456,
      150024
    ],
    "ParamStringList": [],
    "UnlockID": 3051
  },
  {
    "ID": 30001,
    "GotoType": 2,
    "ParamIntList": [
      1020101,
      2436,
      150017
    ],
    "ParamStringList": [],
    "UnlockID": 105201
  },
  {
    "ID": 6205,
    "GotoType": 62,
    "ParamIntList": [
      8023101
    ],
    "ParamStringList": [],
    "UnlockID": 3637
  },
  {
    "ID": 6204,
    "GotoType": 62,
    "ParamIntList": [
      8023201
    ],
    "ParamStringList": []
  },
  {
    "ID": 6207,
    "GotoType": 62,
    "ParamIntList": [
      8024201
    ],
    "ParamStringList": []
  },
  {
    "ID": 6208,
    "GotoType": 62,
    "ParamIntList": [
      8024101
    ],
    "ParamStringList": []
  },
  {
    "ID": 30010,
    "GotoType": 2,
    "ParamIntList": [
      1010111,
      2431
    ],
    "ParamStringList": [],
    "UnlockID": 200
  },
  {
    "ID": 30011,
    "GotoType": 2,
    "ParamIntList": [
      2010102,
      2432
    ],
    "ParamStringList": [],
    "UnlockID": 200
  },
  {
    "ID": 30012,
    "GotoType": 2,
    "ParamIntList": [
      1010205,
      2433
    ],
    "ParamStringList": [],
    "UnlockID": 200
  },
  {
    "ID": 30013,
    "GotoType": 2,
    "ParamIntList": [
      2012202,
      2435
    ],
    "ParamStringList": [],
    "UnlockID": 200
  },
  {
    "ID": 30014,
    "GotoType": 2,
    "ParamIntList": [
      1010112,
      2434
    ],
    "ParamStringList": [],
    "UnlockID": 200
  },
  {
    "ID": 30015,
    "GotoType": 66,
    "ParamIntList": [],
    "ParamStringList": [],
    "UnlockID": 200
  },
  {
    "ID": 31001,
    "GotoType": 2,
    "ParamIntList": [
      2024201,
      2429,
      150018
    ],
    "ParamStringList": [],
    "UnlockID": 200
  },
  {
    "ID": 32001,
    "GotoType": 2,
    "ParamIntList": [
      1030601,
      2442,
      130013
    ],
    "ParamStringList": [],
    "UnlockID": 3050
  },
  {
    "ID": 32002,
    "GotoType": 2,
    "ParamIntList": [
      1030601,
      2443
    ],
    "ParamStringList": [],
    "UnlockID": 200
  },
  {
    "ID": 32003,
    "GotoType": 2,
    "ParamIntList": [
      1000101,
      2444
    ],
    "ParamStringList": [],
    "UnlockID": 200
  },
  {
    "ID": 32004,
    "GotoType": 2,
    "ParamIntList": [
      1010101,
      2445
    ],
    "ParamStringList": [],
    "UnlockID": 200
  },
  {
    "ID": 32005,
    "GotoType": 2,
    "ParamIntList": [
      1030601,
      2446
    ],
    "ParamStringList": [],
    "UnlockID": 200
  },
  {
    "ID": 32006,
    "GotoType": 2,
    "ParamIntList": [
      2000401,
      2447
    ],
    "ParamStringList": [],
    "UnlockID": 200
  },
  {
    "ID": 32007,
    "GotoType": 2,
    "ParamIntList": [
      2010101,
      2448
    ],
    "ParamStringList": [],
    "UnlockID": 200
  },
  {
    "ID": 32008,
    "GotoType": 2,
    "ParamIntList": [
      1030601,
      2457
    ],
    "ParamStringList": [],
    "UnlockID": 200
  },
  {
    "ID": 32009,
    "GotoType": 2,
    "ParamIntList": [
      1030101,
      2458
    ],
    "ParamStringList": [],
    "UnlockID": 200
  },
  {
    "ID": 32010,
    "GotoType": 2,
    "ParamIntList": [
      1030101,
      2459
    ],
    "ParamStringList": [],
    "UnlockID": 200
  },
  {
    "ID": 32011,
    "GotoType": 2,
    "ParamIntList": [
      1030601,
      2442,
      130013
    ],
    "ParamStringList": [],
    "UnlockID": 3050
  },
  {
    "ID": 6210,
    "GotoType": 62,
    "ParamIntList": [
      8025201
    ],
    "ParamStringList": []
  },
  {
    "ID": 33001,
    "GotoType": 2,
    "ParamIntList": [
      2024201,
      2439,
      150021
    ],
    "ParamStringList": [],
    "UnlockID": 200
  },
  {
    "ID": 34001,
    "GotoType": 71,
    "ParamIntList": [
      30011
    ],
    "ParamStringList": [
      "BelobogShopMainPage"
    ],
    "UnlockID": 200
  },
  {
    "ID": 6211,
    "GotoType": 62,
    "ParamIntList": [
      8026201
    ],
    "ParamStringList": []
  },
  {
    "ID": 34002,
    "GotoType": 2,
    "ParamIntList": [
      1010101,
      5012
    ],
    "ParamStringList": [],
    "UnlockID": 200
  },
  {
    "ID": 6212,
    "GotoType": 62,
    "ParamIntList": [
      2022001,
      2022002,
      2022008,
      2022003,
      2022004,
      2022006,
      2022101,
      2022103,
      2022104,
      2022105,
      2022201,
      2022202,
      2022203,
      2022204,
      2022205,
      2022206,
      2022301,
      2022309,
      2022303,
      2022304,
      2022305,
      2022307,
      2022308
    ],
    "ParamStringList": []
  },
  {
    "ID": 6213,
    "GotoType": 62,
    "ParamIntList": [
      8025101
    ],
    "ParamStringList": []
  },
  {
    "ID": 50001,
    "GotoType": 72,
    "ParamIntList": [
      1516,
      215
    ],
    "ParamStringList": []
  },
  {
    "ID": 6214,
    "GotoType": 62,
    "ParamIntList": [
      8026301
    ],
    "ParamStringList": []
  },
  {
    "ID": 6215,
    "GotoType": 62,
    "ParamIntList": [
      1034201,
      1034203,
      1034204,
      1034205,
      1034206,
      1034207,
      1034209,
      1034210
    ],
    "ParamStringList": []
  },
  {
    "ID": 8000,
    "GotoType": 8,
    "ParamIntList": [
      50024
    ],
    "ParamStringList": [],
    "UnlockID": 3051
  },
  {
    "ID": 8001,
    "GotoType": 8,
    "ParamIntList": [
      50024
    ],
    "ParamStringList": [],
    "UnlockID": 3052
  },
  {
    "ID": 6218,
    "GotoType": 62,
    "ParamIntList": [
      8027111
    ],
    "ParamStringList": [],
    "UnlockID": 3051
  },
  {
    "ID": 6219,
    "GotoType": 62,
    "ParamIntList": [
      8027200
    ],
    "ParamStringList": [],
    "UnlockID": 3054
  },
  {
    "ID": 6220,
    "GotoType": 71,
    "ParamIntList": [],
    "ParamStringList": [
      "PhotoExhibitionMainPage"
    ],
    "UnlockID": 3054
  },
  {
    "ID": 6221,
    "GotoType": 62,
    "ParamIntList": [
      8026401
    ],
    "ParamStringList": []
  },
  {
    "ID": 6222,
    "GotoType": 8,
    "ParamIntList": [
      50025
    ],
    "ParamStringList": [],
    "UnlockID": 3054
  },
  {
    "ID": 6223,
    "GotoType": 62,
    "ParamIntList": [
      1040101,
      1040103,
      1040104,
      1040105,
      1040106,
      1040108,
      1040112,
      1040109,
      1040110,
      1040111,
      1040113,
      1040118,
      1040114
    ],
    "ParamStringList": []
  },
  {
    "ID": 6224,
    "GotoType": 76,
    "ParamIntList": [
      501
    ],
    "ParamStringList": []
  },
  {
    "ID": 6225,
    "GotoType": 2,
    "ParamIntList": [
      1040101,
      2464,
      140006
    ],
    "ParamStringList": [],
    "UnlockID": 3055
  },
  {
    "ID": 6226,
    "GotoType": 2,
    "ParamIntList": [
      2041201,
      2465,
      140006
    ],
    "ParamStringList": [],
    "UnlockID": 3055
  },
  {
    "ID": 6227,
    "GotoType": 2,
    "ParamIntList": [
      1040101,
      2466,
      140006
    ],
    "ParamStringList": [],
    "UnlockID": 3055
  },
  {
    "ID": 6228,
    "GotoType": 2,
    "ParamIntList": [
      2041301,
      2467,
      140006
    ],
    "ParamStringList": [],
    "UnlockID": 3055
  },
  {
    "ID": 6229,
    "GotoType": 2,
    "ParamIntList": [
      2041101,
      2468,
      140006
    ],
    "ParamStringList": [],
    "UnlockID": 3055
  },
  {
    "ID": 6230,
    "GotoType": 62,
    "ParamIntList": [
      1036001,
      1036002,
      1036003,
      1036102,
      1036103,
      1036104,
      1036106
    ],
    "ParamStringList": []
  },
  {
    "ID": 34003,
    "GotoType": 2,
    "ParamIntList": [
      1040101,
      1040107
    ],
    "ParamStringList": [],
    "UnlockID": 200
  },
  {
    "ID": 34004,
    "GotoType": 2,
    "ParamIntList": [
      2041101,
      2041101
    ],
    "ParamStringList": [],
    "UnlockID": 200
  },
  {
    "ID": 34005,
    "GotoType": 2,
    "ParamIntList": [
      2041201,
      2041201
    ],
    "ParamStringList": [],
    "UnlockID": 200
  },
  {
    "ID": 34006,
    "GotoType": 2,
    "ParamIntList": [
      2041301,
      2041301
    ],
    "ParamStringList": [],
    "UnlockID": 200
  },
  {
    "ID": 34007,
    "GotoType": 2,
    "ParamIntList": [
      1040201,
      1040201
    ],
    "ParamStringList": [],
    "UnlockID": 200
  },
  {
    "ID": 34008,
    "GotoType": 2,
    "ParamIntList": [
      1040101,
      2470,
      150026
    ],
    "ParamStringList": [],
    "UnlockID": 200
  },
  {
    "ID": 34009,
    "GotoType": 2,
    "ParamIntList": [
      1040101,
      1040103
    ],
    "ParamStringList": [],
    "UnlockID": 34009
  },
  {
    "ID": 34010,
    "GotoType": 2,
    "ParamIntList": [
      1040101,
      1040104
    ],
    "ParamStringList": [],
    "UnlockID": 34010
  },
  {
    "ID": 34013,
    "GotoType": 72,
    "ParamIntList": [
      34010,
      34003
    ],
    "ParamStringList": [],
    "UnlockID": 200
  },
  {
    "ID": 34014,
    "GotoType": 72,
    "ParamIntList": [
      34009,
      34003
    ],
    "ParamStringList": [],
    "UnlockID": 200
  },
  {
    "ID": 6231,
    "GotoType": 62,
    "ParamIntList": [
      8030101
    ],
    "ParamStringList": []
  },
  {
    "ID": 6232,
    "GotoType": 71,
    "ParamIntList": [],
    "ParamStringList": [
      "ActivityTelevisionSeasonTwo"
    ],
    "UnlockID": 3055
  },
  {
    "ID": 6233,
    "GotoType": 62,
    "ParamIntList": [
      8030300
    ],
    "ParamStringList": [],
    "UnlockID": 3055
  },
  {
    "ID": 6234,
    "GotoType": 8,
    "ParamIntList": [
      30013
    ],
    "ParamStringList": [],
    "UnlockID": 106005
  },
  {
    "ID": 6239,
    "GotoType": 62,
    "ParamIntList": [
      1030101,
      1030201,
      1030301,
      1030302,
      1030303,
      1030401,
      1030402,
      1030501,
      1030601,
      1030701,
      1030702,
      1030801,
      1030901,
      1031001,
      1031101,
      1031201,
      1031301,
      1031401,
      1031501,
      1031601,
      1031701,
      1031801,
      1032001,
      1032101,
      1032301,
      1032302,
      1032401,
      1032501,
      1032602,
      1032601,
      1032701,
      1032702,
      1032703,
      1032704,
      1032705,
      1032801,
      1032901,
      1032902,
      1033001,
      1033101,
      1034101,
      1034103,
      1034104,
      1034105,
      1034107,
      1034108,
      1034109,
      1036001,
      1036002,
      1036003,
      1036102,
      1036103,
      1036104,
      1036106
    ],
    "ParamStringList": []
  },
  {
    "ID": 6240,
    "GotoType": 76,
    "ParamIntList": [
      401
    ],
    "ParamStringList": []
  }
]