[
  {
    "ID": 9999,
    "Name": {
      "Hash": 1848400260
    },
    "IconPath": "",
    "TabIconPath": "",
    "UnlockConditions": [
      {
        "Type": "PlayerLevel",
        "Param": "21"
      }
    ],
    "TabID": 1001
  },
  {
    "ID": 10000,
    "Name": {
      "Hash": -1394745005
    },
    "IconPath": "SpriteOutput/ChallengeTheme/ThemeIcon/World01Icon.png",
    "TabIconPath": "",
    "MapEntranceID": 801120102,
    "UnlockConditions": [
      {
        "Type": "FinishMainMission",
        "Param": "4010105"
      }
    ],
    "TabID": 1002,
    "RelatedID": 100
  },
  {
    "ID": 10900,
    "Name": {
      "Hash": -1394744772
    },
    "IconPath": "SpriteOutput/ChallengeTheme/ThemeIcon/World02Icon.png",
    "TabIconPath": "",
    "MapEntranceID": 801120102,
    "UnlockConditions": [
      {
        "Type": "FinishMainMission",
        "Param": "4010105"
      }
    ],
    "TabID": 1002,
    "RelatedID": 900
  },
  {
    "ID": 10001,
    "Name": {
      "Hash": -1394745004
    },
    "IconPath": "SpriteOutput/ChallengeTheme/ThemeIcon/AbyssIcon02.png",
    "TabIconPath": "",
    "MapEntranceID": 801120102,
    "UnlockConditions": [
      {
        "Type": "FinishMainMission",
        "Param": "4010105"
      }
    ],
    "TabID": 1002,
    "RelatedID": 101
  },
  {
    "ID": 10002,
    "Name": {
      "Hash": -1394745007
    },
    "IconPath": "SpriteOutput/ChallengeTheme/ThemeIcon/AbyssIcon02.png",
    "TabIconPath": "",
    "MapEntranceID": 801120102,
    "UnlockConditions": [
      {
        "Type": "FinishMainMission",
        "Param": "4010105"
      }
    ],
    "TabID": 1002,
    "RelatedID": 102
  },
  {
    "ID": 10003,
    "Name": {
      "Hash": -1394745006
    },
    "IconPath": "SpriteOutput/ChallengeTheme/ThemeIcon/AbyssIcon02.png",
    "TabIconPath": "",
    "MapEntranceID": 801120102,
    "UnlockConditions": [
      {
        "Type": "FinishMainMission",
        "Param": "4010105"
      }
    ],
    "TabID": 1002,
    "RelatedID": 103
  },
  {
    "ID": 10004,
    "Name": {
      "Hash": -1394745001
    },
    "IconPath": "SpriteOutput/ChallengeTheme/ThemeIcon/AbyssIcon02.png",
    "TabIconPath": "",
    "MapEntranceID": 801120102,
    "UnlockConditions": [
      {
        "Type": "FinishMainMission",
        "Param": "4010105"
      }
    ],
    "TabID": 1002,
    "RelatedID": 104
  },
  {
    "ID": 10005,
    "Name": {
      "Hash": -1394745000
    },
    "IconPath": "SpriteOutput/ChallengeTheme/ThemeIcon/AbyssIcon02.png",
    "TabIconPath": "",
    "MapEntranceID": 801120102,
    "UnlockConditions": [
      {
        "Type": "FinishMainMission",
        "Param": "4010105"
      }
    ],
    "TabID": 1002,
    "RelatedID": 105
  },
  {
    "ID": 10006,
    "Name": {
      "Hash": -1394745003
    },
    "IconPath": "SpriteOutput/ChallengeTheme/ThemeIcon/AbyssIcon02.png",
    "TabIconPath": "",
    "MapEntranceID": 801120102,
    "UnlockConditions": [
      {
        "Type": "FinishMainMission",
        "Param": "4010105"
      }
    ],
    "TabID": 1002,
    "RelatedID": 106
  },
  {
    "ID": 10007,
    "Name": {
      "Hash": -1394745002
    },
    "IconPath": "SpriteOutput/ChallengeTheme/ThemeIcon/AbyssIcon02.png",
    "TabIconPath": "",
    "MapEntranceID": 801120102,
    "UnlockConditions": [
      {
        "Type": "FinishMainMission",
        "Param": "4010105"
      }
    ],
    "TabID": 1002,
    "RelatedID": 107
  },
  {
    "ID": 10008,
    "Name": {
      "Hash": -1394744997
    },
    "IconPath": "SpriteOutput/ChallengeTheme/ThemeIcon/AbyssIcon02.png",
    "TabIconPath": "",
    "MapEntranceID": 801120102,
    "UnlockConditions": [
      {
        "Type": "FinishMainMission",
        "Param": "4010105"
      }
    ],
    "TabID": 1002,
    "RelatedID": 108
  },
  {
    "ID": 10009,
    "Name": {
      "Hash": -1394744996
    },
    "IconPath": "SpriteOutput/ChallengeTheme/ThemeIcon/AbyssIcon02.png",
    "TabIconPath": "",
    "MapEntranceID": 801120102,
    "UnlockConditions": [
      {
        "Type": "FinishMainMission",
        "Param": "4010105"
      }
    ],
    "TabID": 1002,
    "RelatedID": 109
  },
  {
    "ID": 10010,
    "Name": {
      "Hash": 1334138350
    },
    "IconPath": "SpriteOutput/ChallengeTheme/ThemeIcon/AbyssIcon02.png",
    "TabIconPath": "",
    "MapEntranceID": 801120102,
    "UnlockConditions": [
      {
        "Type": "FinishMainMission",
        "Param": "4010105"
      }
    ],
    "TabID": 1002,
    "RelatedID": 110
  },
  {
    "ID": 10011,
    "Name": {
      "Hash": 1334138351
    },
    "IconPath": "SpriteOutput/ChallengeTheme/ThemeIcon/AbyssIcon02.png",
    "TabIconPath": "",
    "MapEntranceID": 801120102,
    "UnlockConditions": [
      {
        "Type": "FinishMainMission",
        "Param": "4010105"
      }
    ],
    "TabID": 1002,
    "RelatedID": 111
  },
  {
    "ID": 10012,
    "Name": {
      "Hash": 1334138348
    },
    "IconPath": "SpriteOutput/ChallengeTheme/ThemeIcon/AbyssIcon02.png",
    "TabIconPath": "",
    "MapEntranceID": 801120102,
    "UnlockConditions": [
      {
        "Type": "FinishMainMission",
        "Param": "4010105"
      }
    ],
    "TabID": 1002,
    "RelatedID": 112
  },
  {
    "ID": 10013,
    "Name": {
      "Hash": 1334138349
    },
    "IconPath": "SpriteOutput/ChallengeTheme/ThemeIcon/AbyssIcon02.png",
    "TabIconPath": "",
    "MapEntranceID": 801120102,
    "UnlockConditions": [
      {
        "Type": "FinishMainMission",
        "Param": "4010105"
      }
    ],
    "TabID": 1002,
    "RelatedID": 113
  },
  {
    "ID": 10014,
    "Name": {
      "Hash": 1334138354
    },
    "IconPath": "SpriteOutput/ChallengeTheme/ThemeIcon/AbyssIcon02.png",
    "TabIconPath": "",
    "MapEntranceID": 801120102,
    "UnlockConditions": [
      {
        "Type": "FinishMainMission",
        "Param": "4010105"
      }
    ],
    "TabID": 1002,
    "RelatedID": 114
  },
  {
    "ID": 10015,
    "Name": {
      "Hash": 1334138355
    },
    "IconPath": "SpriteOutput/ChallengeTheme/ThemeIcon/AbyssIcon02.png",
    "TabIconPath": "",
    "MapEntranceID": 801120102,
    "UnlockConditions": [
      {
        "Type": "FinishMainMission",
        "Param": "4010105"
      }
    ],
    "TabID": 1002,
    "RelatedID": 115
  },
  {
    "ID": 10016,
    "Name": {
      "Hash": 1334138352
    },
    "IconPath": "SpriteOutput/ChallengeTheme/ThemeIcon/AbyssIcon02.png",
    "TabIconPath": "",
    "MapEntranceID": 801120102,
    "UnlockConditions": [
      {
        "Type": "FinishMainMission",
        "Param": "4010105"
      }
    ],
    "TabID": 1002,
    "RelatedID": 1001
  },
  {
    "ID": 10017,
    "Name": {
      "Hash": 1334138353
    },
    "IconPath": "SpriteOutput/ChallengeTheme/ThemeIcon/AbyssIcon02.png",
    "TabIconPath": "",
    "MapEntranceID": 801120102,
    "UnlockConditions": [
      {
        "Type": "FinishMainMission",
        "Param": "4010105"
      }
    ],
    "TabID": 1002,
    "RelatedID": 1002
  },
  {
    "ID": 10018,
    "Name": {
      "Hash": 1334138358
    },
    "IconPath": "SpriteOutput/ChallengeTheme/ThemeIcon/AbyssIcon02.png",
    "TabIconPath": "",
    "MapEntranceID": 801120102,
    "UnlockConditions": [
      {
        "Type": "FinishMainMission",
        "Param": "4010105"
      }
    ],
    "TabID": 1002,
    "RelatedID": 1003
  },
  {
    "ID": 10019,
    "Name": {
      "Hash": 1334138359
    },
    "IconPath": "SpriteOutput/ChallengeTheme/ThemeIcon/AbyssIcon02.png",
    "TabIconPath": "",
    "MapEntranceID": 801120102,
    "UnlockConditions": [
      {
        "Type": "FinishMainMission",
        "Param": "4010105"
      }
    ],
    "TabID": 1002,
    "RelatedID": 1004
  },
  {
    "ID": 10020,
    "Name": {
      "Hash": 1737422877
    },
    "IconPath": "SpriteOutput/ChallengeTheme/ThemeIcon/AbyssIcon02.png",
    "TabIconPath": "",
    "MapEntranceID": 801120102,
    "UnlockConditions": [
      {
        "Type": "FinishMainMission",
        "Param": "4010105"
      }
    ],
    "TabID": 1002,
    "RelatedID": 1005
  },
  {
    "ID": 10021,
    "Name": {
      "Hash": 1737422878
    },
    "IconPath": "SpriteOutput/ChallengeTheme/ThemeIcon/AbyssIcon02.png",
    "TabIconPath": "",
    "MapEntranceID": 801120102,
    "UnlockConditions": [
      {
        "Type": "FinishMainMission",
        "Param": "4010105"
      }
    ],
    "TabID": 1002,
    "RelatedID": 1006
  },
  {
    "ID": 10022,
    "Name": {
      "Hash": 1737422875
    },
    "IconPath": "SpriteOutput/ChallengeTheme/ThemeIcon/AbyssIcon02.png",
    "TabIconPath": "",
    "MapEntranceID": 801120102,
    "UnlockConditions": [
      {
        "Type": "FinishMainMission",
        "Param": "4010105"
      }
    ],
    "TabID": 1002,
    "RelatedID": 1007
  },
  {
    "ID": 10023,
    "Name": {
      "Hash": 1737422876
    },
    "IconPath": "SpriteOutput/ChallengeTheme/ThemeIcon/AbyssIcon02.png",
    "TabIconPath": "",
    "MapEntranceID": 801120102,
    "UnlockConditions": [
      {
        "Type": "FinishMainMission",
        "Param": "4010105"
      }
    ],
    "TabID": 1002,
    "RelatedID": 1008
  },
  {
    "ID": 10024,
    "Name": {
      "Hash": 1737422881
    },
    "IconPath": "SpriteOutput/ChallengeTheme/ThemeIcon/AbyssIcon02.png",
    "TabIconPath": "",
    "MapEntranceID": 801120102,
    "UnlockConditions": [
      {
        "Type": "FinishMainMission",
        "Param": "4010105"
      }
    ],
    "TabID": 1002,
    "RelatedID": 1009
  },
  {
    "ID": 10025,
    "Name": {
      "Hash": 1737422882
    },
    "IconPath": "SpriteOutput/ChallengeTheme/ThemeIcon/AbyssIcon02.png",
    "TabIconPath": "",
    "MapEntranceID": 801120102,
    "UnlockConditions": [
      {
        "Type": "FinishMainMission",
        "Param": "4010105"
      }
    ],
    "TabID": 1002,
    "RelatedID": 1010
  },
  {
    "ID": 10026,
    "Name": {
      "Hash": 1737422879
    },
    "IconPath": "SpriteOutput/ChallengeTheme/ThemeIcon/AbyssIcon02.png",
    "TabIconPath": "",
    "MapEntranceID": 801120102,
    "UnlockConditions": [
      {
        "Type": "FinishMainMission",
        "Param": "4010105"
      }
    ],
    "TabID": 1002,
    "RelatedID": 1011
  },
  {
    "ID": 10027,
    "Name": {
      "Hash": 1737422880
    },
    "IconPath": "SpriteOutput/ChallengeTheme/ThemeIcon/AbyssIcon02.png",
    "TabIconPath": "",
    "MapEntranceID": 801120102,
    "UnlockConditions": [
      {
        "Type": "FinishMainMission",
        "Param": "4010105"
      }
    ],
    "TabID": 1002,
    "RelatedID": 1012
  },
  {
    "ID": 10028,
    "Name": {
      "Hash": 1737422885
    },
    "IconPath": "SpriteOutput/ChallengeTheme/ThemeIcon/AbyssIcon02.png",
    "TabIconPath": "",
    "MapEntranceID": 801120102,
    "UnlockConditions": [
      {
        "Type": "FinishMainMission",
        "Param": "4010105"
      }
    ],
    "TabID": 1002,
    "RelatedID": 1013
  },
  {
    "ID": 10029,
    "Name": {
      "Hash": 1737422886
    },
    "IconPath": "SpriteOutput/ChallengeTheme/ThemeIcon/AbyssIcon02.png",
    "TabIconPath": "",
    "MapEntranceID": 801120102,
    "UnlockConditions": [
      {
        "Type": "FinishMainMission",
        "Param": "4010105"
      }
    ],
    "TabID": 1002,
    "RelatedID": 1014
  },
  {
    "ID": 10030,
    "Name": {
      "Hash": 171338936
    },
    "IconPath": "SpriteOutput/ChallengeTheme/ThemeIcon/AbyssIcon02.png",
    "TabIconPath": "",
    "MapEntranceID": 801120102,
    "UnlockConditions": [
      {
        "Type": "FinishMainMission",
        "Param": "4010105"
      }
    ],
    "TabID": 1002,
    "RelatedID": 1015
  },
  {
    "ID": 10031,
    "Name": {
      "Hash": 171338937
    },
    "IconPath": "SpriteOutput/ChallengeTheme/ThemeIcon/AbyssIcon02.png",
    "TabIconPath": "",
    "MapEntranceID": 801120102,
    "UnlockConditions": [
      {
        "Type": "FinishMainMission",
        "Param": "4010105"
      }
    ],
    "TabID": 1002,
    "RelatedID": 1016
  },
  {
    "ID": 10032,
    "Name": {
      "Hash": 171338934
    },
    "IconPath": "SpriteOutput/ChallengeTheme/ThemeIcon/AbyssIcon02.png",
    "TabIconPath": "",
    "MapEntranceID": 801120102,
    "UnlockConditions": [
      {
        "Type": "FinishMainMission",
        "Param": "4010105"
      }
    ],
    "TabID": 1002,
    "RelatedID": 1017
  },
  {
    "ID": 10033,
    "Name": {
      "Hash": 171338935
    },
    "IconPath": "SpriteOutput/ChallengeTheme/ThemeIcon/AbyssIcon02.png",
    "TabIconPath": "",
    "MapEntranceID": 801120102,
    "UnlockConditions": [
      {
        "Type": "FinishMainMission",
        "Param": "4010105"
      }
    ],
    "TabID": 1002,
    "RelatedID": 1018
  },
  {
    "ID": 10034,
    "Name": {
      "Hash": 171338940
    },
    "IconPath": "SpriteOutput/ChallengeTheme/ThemeIcon/AbyssIcon02.png",
    "TabIconPath": "",
    "MapEntranceID": 801120102,
    "UnlockConditions": [
      {
        "Type": "FinishMainMission",
        "Param": "4010105"
      }
    ],
    "TabID": 1002,
    "RelatedID": 1019
  },
  {
    "ID": 10035,
    "Name": {
      "Hash": 171338941
    },
    "IconPath": "SpriteOutput/ChallengeTheme/ThemeIcon/AbyssIcon02.png",
    "TabIconPath": "",
    "MapEntranceID": 801120102,
    "UnlockConditions": [
      {
        "Type": "FinishMainMission",
        "Param": "4010105"
      }
    ],
    "TabID": 1002,
    "RelatedID": 1020
  },
  {
    "ID": 10036,
    "Name": {
      "Hash": 171338938
    },
    "IconPath": "SpriteOutput/ChallengeTheme/ThemeIcon/AbyssIcon02.png",
    "TabIconPath": "",
    "MapEntranceID": 801120102,
    "UnlockConditions": [
      {
        "Type": "FinishMainMission",
        "Param": "4010105"
      }
    ],
    "TabID": 1002,
    "RelatedID": 1021
  },
  {
    "ID": 20001,
    "Name": {
      "Hash": -1394743983
    },
    "IconPath": "SpriteOutput/ChallengeTheme/ThemeIcon/ChallengeThemeIcon_2001.png",
    "TabIconPath": "",
    "MapEntranceID": 801120102,
    "UnlockConditions": [
      {
        "Type": "FinishMainMission",
        "Param": "4020103"
      }
    ],
    "TabID": 1003,
    "RelatedID": 2001
  },
  {
    "ID": 20002,
    "Name": {
      "Hash": -1394743980
    },
    "IconPath": "SpriteOutput/ChallengeTheme/ThemeIcon/ChallengeThemeIcon_2002.png",
    "TabIconPath": "",
    "MapEntranceID": 801120102,
    "UnlockConditions": [
      {
        "Type": "FinishMainMission",
        "Param": "4020103"
      }
    ],
    "TabID": 1003,
    "RelatedID": 2002
  },
  {
    "ID": 20003,
    "Name": {
      "Hash": -1394743981
    },
    "IconPath": "SpriteOutput/ChallengeTheme/ThemeIcon/ChallengeThemeIcon_2003.png",
    "TabIconPath": "",
    "MapEntranceID": 801120102,
    "UnlockConditions": [
      {
        "Type": "FinishMainMission",
        "Param": "4020103"
      }
    ],
    "TabID": 1003,
    "RelatedID": 2003
  },
  {
    "ID": 20004,
    "Name": {
      "Hash": -1394743978
    },
    "IconPath": "SpriteOutput/ChallengeTheme/ThemeIcon/ChallengeThemeIcon_2001.png",
    "TabIconPath": "",
    "MapEntranceID": 801120102,
    "UnlockConditions": [
      {
        "Type": "FinishMainMission",
        "Param": "4020103"
      }
    ],
    "TabID": 1003,
    "RelatedID": 2004
  },
  {
    "ID": 20005,
    "Name": {
      "Hash": -1394743979
    },
    "IconPath": "SpriteOutput/ChallengeTheme/ThemeIcon/ChallengeThemeIcon_2004.png",
    "TabIconPath": "",
    "MapEntranceID": 801120102,
    "UnlockConditions": [
      {
        "Type": "FinishMainMission",
        "Param": "4020103"
      }
    ],
    "TabID": 1003,
    "RelatedID": 2005
  },
  {
    "ID": 20006,
    "Name": {
      "Hash": -1394743976
    },
    "IconPath": "SpriteOutput/ChallengeTheme/ThemeIcon/ChallengeThemeIcon_2005.png",
    "TabIconPath": "",
    "MapEntranceID": 801120102,
    "UnlockConditions": [
      {
        "Type": "FinishMainMission",
        "Param": "4020103"
      }
    ],
    "TabID": 1003,
    "RelatedID": 2006
  },
  {
    "ID": 20007,
    "Name": {
      "Hash": -1394743977
    },
    "IconPath": "SpriteOutput/ChallengeTheme/ThemeIcon/ChallengeThemeIcon_2006.png",
    "TabIconPath": "",
    "MapEntranceID": 801120102,
    "UnlockConditions": [
      {
        "Type": "FinishMainMission",
        "Param": "4020103"
      }
    ],
    "TabID": 1003,
    "RelatedID": 2007
  },
  {
    "ID": 20008,
    "Name": {
      "Hash": -1394743974
    },
    "IconPath": "SpriteOutput/ChallengeTheme/ThemeIcon/ChallengeThemeIcon_2001.png",
    "TabIconPath": "",
    "MapEntranceID": 801120102,
    "UnlockConditions": [
      {
        "Type": "FinishMainMission",
        "Param": "4020103"
      }
    ],
    "TabID": 1003,
    "RelatedID": 2008
  },
  {
    "ID": 20009,
    "Name": {
      "Hash": -1394743975
    },
    "IconPath": "SpriteOutput/ChallengeTheme/ThemeIcon/ChallengeThemeIcon_2007.png",
    "TabIconPath": "",
    "MapEntranceID": 801120102,
    "UnlockConditions": [
      {
        "Type": "FinishMainMission",
        "Param": "4020103"
      }
    ],
    "TabID": 1003,
    "RelatedID": 2009
  },
  {
    "ID": 20010,
    "Name": {
      "Hash": 1334139373
    },
    "IconPath": "SpriteOutput/ChallengeTheme/ThemeIcon/ChallengeThemeIcon_2008.png",
    "TabIconPath": "",
    "MapEntranceID": 801120102,
    "UnlockConditions": [
      {
        "Type": "FinishMainMission",
        "Param": "4020103"
      }
    ],
    "TabID": 1003,
    "RelatedID": 2010
  },
  {
    "ID": 20011,
    "Name": {
      "Hash": 1334139372
    },
    "IconPath": "SpriteOutput/ChallengeTheme/ThemeIcon/ChallengeThemeIcon_2006.png",
    "TabIconPath": "",
    "MapEntranceID": 801120102,
    "UnlockConditions": [
      {
        "Type": "FinishMainMission",
        "Param": "4020103"
      }
    ],
    "TabID": 1003,
    "RelatedID": 2011
  },
  {
    "ID": 20012,
    "Name": {
      "Hash": 1334139375
    },
    "IconPath": "SpriteOutput/ChallengeTheme/ThemeIcon/ChallengeThemeIcon_2009.png",
    "TabIconPath": "",
    "MapEntranceID": 801120102,
    "UnlockConditions": [
      {
        "Type": "FinishMainMission",
        "Param": "4020103"
      }
    ],
    "TabID": 1003,
    "RelatedID": 2012
  },
  {
    "ID": 30001,
    "Name": {
      "Hash": -1394747182
    },
    "IconPath": "SpriteOutput/ChallengeBoss/ChallengeBossIcon_3001.png",
    "TabIconPath": "",
    "MapEntranceID": 801120102,
    "UnlockConditions": [
      {
        "Type": "FinishMainMission",
        "Param": "4020103"
      }
    ],
    "TabID": 1004,
    "RelatedID": 3001
  },
  {
    "ID": 30002,
    "Name": {
      "Hash": -1394747181
    },
    "IconPath": "SpriteOutput/ChallengeBoss/ChallengeBossIcon_3002.png",
    "TabIconPath": "",
    "MapEntranceID": 801120102,
    "UnlockConditions": [
      {
        "Type": "FinishMainMission",
        "Param": "4020103"
      }
    ],
    "TabID": 1004,
    "RelatedID": 3002
  },
  {
    "ID": 30003,
    "Name": {
      "Hash": -1394747180
    },
    "IconPath": "SpriteOutput/ChallengeBoss/ChallengeBossIcon_3003.png",
    "TabIconPath": "",
    "MapEntranceID": 801120102,
    "UnlockConditions": [
      {
        "Type": "FinishMainMission",
        "Param": "4020103"
      }
    ],
    "TabID": 1004,
    "RelatedID": 3003
  },
  {
    "ID": 30004,
    "Name": {
      "Hash": -1394747179
    },
    "IconPath": "SpriteOutput/ChallengeBoss/ChallengeBossIcon_3004.png",
    "TabIconPath": "",
    "MapEntranceID": 801120102,
    "UnlockConditions": [
      {
        "Type": "FinishMainMission",
        "Param": "4020103"
      }
    ],
    "TabID": 1004,
    "RelatedID": 3004
  },
  {
    "ID": 30005,
    "Name": {
      "Hash": -1394747178
    },
    "IconPath": "SpriteOutput/ChallengeBoss/ChallengeBossIcon_3005.png",
    "TabIconPath": "",
    "MapEntranceID": 801120102,
    "UnlockConditions": [
      {
        "Type": "FinishMainMission",
        "Param": "4020103"
      }
    ],
    "TabID": 1004,
    "RelatedID": 3005
  },
  {
    "ID": 30006,
    "Name": {
      "Hash": -1394747177
    },
    "IconPath": "SpriteOutput/ChallengeBoss/ChallengeBossIcon_3006.png",
    "TabIconPath": "",
    "MapEntranceID": 801120102,
    "UnlockConditions": [
      {
        "Type": "FinishMainMission",
        "Param": "4020103"
      }
    ],
    "TabID": 1004,
    "RelatedID": 3006
  }
]