[
  {
    "ID": 1,
    "Rank": 1,
    "SortID": 1,
    "Type": "ItemID",
    "Param": 22
  },
  {
    "ID": 2,
    "Rank": 1,
    "SortID": 2,
    "Type": "ItemID",
    "Param": 238
  },
  {
    "ID": 3,
    "Rank": 1,
    "SortID": 3,
    "Type": "ItemID",
    "Param": 237
  },
  {
    "ID": 4,
    "Rank": 1,
    "SortID": 4,
    "Type": "ItemID",
    "Param": 236
  },
  {
    "ID": 5,
    "Rank": 1,
    "SortID": 5,
    "Type": "ItemID",
    "Param": 241
  },
  {
    "ID": 6,
    "Rank": 1,
    "SortID": 6,
    "Type": "PurposeType",
    "Param": 4
  },
  {
    "ID": 7,
    "Rank": 1,
    "SortID": 7,
    "Type": "ItemID",
    "Param": 1
  },
  {
    "ID": 8,
    "Rank": 1,
    "SortID": -1,
    "Type": "ItemID",
    "Param": 2
  },
  {
    "ID": 9,
    "Rank": 2,
    "SortID": 1,
    "Type": "Rank",
    "Param": 5
  },
  {
    "ID": 10,
    "Rank": 2,
    "SortID": 2,
    "Type": "Rank",
    "Param": 4
  },
  {
    "ID": 11,
    "Rank": 2,
    "SortID": 3,
    "Type": "Rank",
    "Param": 3
  },
  {
    "ID": 12,
    "Rank": 2,
    "SortID": 4,
    "Type": "Rank",
    "Param": 2
  },
  {
    "ID": 13,
    "Rank": 3,
    "SortID": 1,
    "Type": "ItemSubType",
    "Param": 509
  },
  {
    "ID": 14,
    "Rank": 3,
    "SortID": 2,
    "Type": "ItemSubType",
    "Param": 503
  },
  {
    "ID": 15,
    "Rank": 3,
    "SortID": 3,
    "Type": "ItemSubType",
    "Param": 201
  },
  {
    "ID": 16,
    "Rank": 3,
    "SortID": 4,
    "Type": "ItemSubType",
    "Param": 602
  },
  {
    "ID": 17,
    "Rank": 3,
    "SortID": 5,
    "Type": "ItemSubType",
    "Param": 301
  },
  {
    "ID": 18,
    "Rank": 3,
    "SortID": 6,
    "Type": "ItemID",
    "Param": 121000
  },
  {
    "ID": 19,
    "Rank": 3,
    "SortID": 6,
    "Type": "ItemID",
    "Param": 121001
  },
  {
    "ID": 20,
    "Rank": 3,
    "SortID": 6,
    "Type": "ItemID",
    "Param": 121002
  },
  {
    "ID": 21,
    "Rank": 3,
    "SortID": 6,
    "Type": "ItemID",
    "Param": 121003
  },
  {
    "ID": 22,
    "Rank": 3,
    "SortID": 7,
    "Type": "ItemSubType",
    "Param": 514
  },
  {
    "ID": 23,
    "Rank": 3,
    "SortID": 8,
    "Type": "ItemSubType",
    "Param": 901
  },
  {
    "ID": 24,
    "Rank": 3,
    "SortID": 9,
    "Type": "ItemSubType",
    "Param": 510
  },
  {
    "ID": 25,
    "Rank": 3,
    "SortID": 10,
    "Type": "ItemSubType",
    "Param": 508
  },
  {
    "ID": 26,
    "Rank": 3,
    "SortID": 11,
    "Type": "ItemSubType",
    "Param": 505
  },
  {
    "ID": 27,
    "Rank": 3,
    "SortID": 12,
    "Type": "ItemSubType",
    "Param": 513
  },
  {
    "ID": 28,
    "Rank": 3,
    "SortID": 100,
    "Type": "ItemSubType",
    "Param": 507
  },
  {
    "ID": 29,
    "Rank": 3,
    "SortID": 101,
    "Type": "ItemSubType",
    "Param": 502
  },
  {
    "ID": 30,
    "Rank": 3,
    "SortID": 102,
    "Type": "ItemID",
    "Param": 201
  },
  {
    "ID": 31,
    "Rank": 3,
    "SortID": 103,
    "Type": "ItemID",
    "Param": 110101
  },
  {
    "ID": 32,
    "Rank": 3,
    "SortID": 104,
    "Type": "ItemID",
    "Param": 261
  }
]