[
  {
    "ID": 50001,
    "UnlockConditions": [],
    "UnloadConditions": [],
    "ActivityModuleID": 3000401,
    "MappingInfoID": 5001,
    "MiniMapIconID": 120,
    "Priority": 1
  },
  {
    "ID": 50003,
    "UnlockConditions": [],
    "UnloadConditions": [],
    "ActivityModuleID": 5000210,
    "MappingInfoID": 2261,
    "MiniMapIconID": 124,
    "Priority": 1
  },
  {
    "ID": 50000,
    "UnlockConditions": [
      {
        "Type": "FinishMainMission",
        "Param": "2010720"
      }
    ],
    "UnloadConditions": [],
    "ActivityModuleID": 5000001,
    "MappingInfoID": 2257,
    "MiniMapIconID": 115,
    "Priority": 1
  },
  {
    "ID": 50002,
    "UnlockConditions": [
      {
        "Type": "FinishMainMission",
        "Param": "2010720"
      }
    ],
    "UnloadConditions": [],
    "ActivityModuleID": 5000013,
    "MappingInfoID": 2267,
    "MiniMapIconID": 115,
    "Priority": 1
  },
  {
    "ID": 50005,
    "UnlockConditions": [
      {
        "Type": "FinishMainMission",
        "Param": "8020219"
      }
    ],
    "UnloadConditions": [],
    "ActivityModuleID": 5000702,
    "MappingInfoID": 2384,
    "MiniMapIconID": 197,
    "Priority": 1
  },
  {
    "ID": 50006,
    "UnlockConditions": [
      {
        "Type": "FinishMainMission",
        "Param": "8026209"
      }
    ],
    "UnloadConditions": [],
    "ActivityModuleID": 3001101,
    "MappingInfoID": 5012,
    "MiniMapIconID": 256,
    "Priority": 1
  },
  {
    "ID": 50007,
    "UnlockConditions": [
      {
        "Type": "FinishMainMission",
        "Param": "1040114"
      }
    ],
    "UnloadConditions": [],
    "ActivityModuleID": 5002602,
    "MappingInfoID": 2470,
    "MiniMapIconID": 274,
    "Priority": 1
  }
]