[
  {
    "TagID": 100101,
    "TagName": {
      "Hash": 973484248
    },
    "TagBriefDescription": {
      "Hash": 479821435
    },
    "TagDetailDescription": {
      "Hash": 371857150
    },
    "ParameterList": [
      0.6,
      1.25,
      1
    ],
    "SkillID": 100401410,
    "EffectID": []
  },
  {
    "TagID": 100102,
    "TagName": {
      "Hash": 1376768775
    },
    "TagBriefDescription": {
      "Hash": -1086262506
    },
    "TagDetailDescription": {
      "Hash": 371857150
    },
    "ParameterList": [],
    "EffectID": [
      70000304
    ]
  },
  {
    "TagID": 100103,
    "TagName": {
      "Hash": -189315166
    },
    "TagBriefDescription": {
      "Hash": 1642620849
    },
    "TagDetailDescription": {
      "Hash": 371857150
    },
    "ParameterList": [],
    "EffectID": [
      70000302
    ]
  },
  {
    "TagID": 100104,
    "TagName": {
      "Hash": 570199721
    },
    "TagBriefDescription": {
      "Hash": 76536908
    },
    "TagDetailDescription": {
      "Hash": 371857150
    },
    "ParameterList": [],
    "EffectID": []
  },
  {
    "TagID": 100201,
    "TagName": {
      "Hash": 1396971751
    },
    "TagBriefDescription": {
      "Hash": 1743377398
    },
    "TagDetailDescription": {
      "Hash": 371857150
    },
    "ParameterList": [
      0.6,
      1.25,
      1
    ],
    "SkillID": 100401410,
    "EffectID": []
  },
  {
    "TagID": 100202,
    "TagName": {
      "Hash": 993687224
    },
    "TagBriefDescription": {
      "Hash": -985505957
    },
    "TagDetailDescription": {
      "Hash": 371857150
    },
    "ParameterList": [],
    "EffectID": [
      70000303
    ]
  },
  {
    "TagID": 100203,
    "TagName": {
      "Hash": -1735196131
    },
    "TagBriefDescription": {
      "Hash": 580577984
    },
    "TagDetailDescription": {
      "Hash": 371857150
    },
    "ParameterList": [],
    "EffectID": []
  },
  {
    "TagID": 100204,
    "TagName": {
      "Hash": -2138480658
    },
    "TagBriefDescription": {
      "Hash": -1792075011
    },
    "TagDetailDescription": {
      "Hash": 371857150
    },
    "ParameterList": [
      0.25
    ],
    "SkillID": 302401325,
    "EffectID": []
  },
  {
    "TagID": 100301,
    "TagName": {
      "Hash": 1255809250
    },
    "TagBriefDescription": {
      "Hash": 197496433
    },
    "TagDetailDescription": {
      "Hash": 371857150
    },
    "ParameterList": [
      0.6,
      1.25,
      1
    ],
    "SkillID": 801501201,
    "EffectID": [
      70000306
    ]
  },
  {
    "TagID": 100302,
    "TagName": {
      "Hash": -310274691
    },
    "TagBriefDescription": {
      "Hash": 600780960
    },
    "TagDetailDescription": {
      "Hash": 371857150
    },
    "ParameterList": [],
    "EffectID": [
      70000304
    ]
  },
  {
    "TagID": 100303,
    "TagName": {
      "Hash": -1876358632
    },
    "TagBriefDescription": {
      "Hash": -965302981
    },
    "TagDetailDescription": {
      "Hash": 371857150
    },
    "ParameterList": [],
    "EffectID": []
  },
  {
    "TagID": 100304,
    "TagName": {
      "Hash": 852524723
    },
    "TagBriefDescription": {
      "Hash": -205788094
    },
    "TagDetailDescription": {
      "Hash": 371857150
    },
    "ParameterList": [],
    "EffectID": []
  },
  {
    "TagID": 100401,
    "TagName": {
      "Hash": 549996745
    },
    "TagBriefDescription": {
      "Hash": 1461052396
    },
    "TagDetailDescription": {
      "Hash": 371857150
    },
    "ParameterList": [
      0.5,
      1,
      1.5
    ],
    "SkillID": 200401410,
    "EffectID": []
  },
  {
    "TagID": 100402,
    "TagName": {
      "Hash": 2116080686
    },
    "TagBriefDescription": {
      "Hash": 1057767869
    },
    "TagDetailDescription": {
      "Hash": 371857150
    },
    "ParameterList": [],
    "EffectID": [
      70000307
    ]
  },
  {
    "TagID": 100403,
    "TagName": {
      "Hash": -612802669
    },
    "TagBriefDescription": {
      "Hash": -1671115486
    },
    "TagDetailDescription": {
      "Hash": 371857150
    },
    "ParameterList": [],
    "EffectID": []
  },
  {
    "TagID": 100404,
    "TagName": {
      "Hash": 953281272
    },
    "TagBriefDescription": {
      "Hash": 1864336923
    },
    "TagDetailDescription": {
      "Hash": 371857150
    },
    "ParameterList": [],
    "EffectID": []
  },
  {
    "TagID": 100501,
    "TagName": {
      "Hash": 408834244
    },
    "TagBriefDescription": {
      "Hash": -84828569
    },
    "TagDetailDescription": {
      "Hash": 371857150
    },
    "ParameterList": [
      0.5,
      1,
      1.5
    ],
    "SkillID": 200401410,
    "EffectID": []
  },
  {
    "TagID": 100502,
    "TagName": {
      "Hash": 812118771
    },
    "TagBriefDescription": {
      "Hash": -1650912510
    },
    "TagDetailDescription": {
      "Hash": 371857150
    },
    "ParameterList": [],
    "EffectID": [
      70000311
    ]
  },
  {
    "TagID": 100503,
    "TagName": {
      "Hash": -753965170
    },
    "TagBriefDescription": {
      "Hash": 1077970845
    },
    "TagDetailDescription": {
      "Hash": 371857150
    },
    "ParameterList": [],
    "EffectID": []
  },
  {
    "TagID": 100504,
    "TagName": {
      "Hash": -350680643
    },
    "TagBriefDescription": {
      "Hash": -844343456
    },
    "TagDetailDescription": {
      "Hash": 371857150
    },
    "ParameterList": [],
    "EffectID": []
  },
  {
    "TagID": 100601,
    "TagName": {
      "Hash": 832321747
    },
    "TagBriefDescription": {
      "Hash": 1178727394
    },
    "TagDetailDescription": {
      "Hash": 371857150
    },
    "ParameterList": [
      0.6,
      1.25,
      1
    ],
    "SkillID": 801502218,
    "EffectID": []
  },
  {
    "TagID": 100602,
    "TagName": {
      "Hash": 429037220
    },
    "TagBriefDescription": {
      "Hash": -1550155961
    },
    "TagDetailDescription": {
      "Hash": 371857150
    },
    "ParameterList": [],
    "EffectID": [
      70000305
    ]
  },
  {
    "TagID": 100603,
    "TagName": {
      "Hash": 1995121161
    },
    "TagBriefDescription": {
      "Hash": 15927980
    },
    "TagDetailDescription": {
      "Hash": 371857150
    },
    "ParameterList": [
      0.3
    ],
    "SkillID": 801502220,
    "EffectID": []
  },
  {
    "TagID": 100604,
    "TagName": {
      "Hash": 1235606274
    },
    "TagBriefDescription": {
      "Hash": 1582011921
    },
    "TagDetailDescription": {
      "Hash": 371857150
    },
    "ParameterList": [
      0.35
    ],
    "SkillID": 801502220,
    "EffectID": []
  },
  {
    "TagID": 100701,
    "TagName": {
      "Hash": 691159246
    },
    "TagBriefDescription": {
      "Hash": -367153571
    },
    "TagDetailDescription": {
      "Hash": 371857150
    },
    "ParameterList": [
      0.5,
      1,
      1.5
    ],
    "SkillID": 302501316,
    "EffectID": []
  },
  {
    "TagID": 100702,
    "TagName": {
      "Hash": -874924695
    },
    "TagBriefDescription": {
      "Hash": 36130956
    },
    "TagDetailDescription": {
      "Hash": 371857150
    },
    "ParameterList": [
      0.5,
      1,
      1.5
    ],
    "SkillID": 302501316,
    "EffectID": []
  },
  {
    "TagID": 100703,
    "TagName": {
      "Hash": 1853958660
    },
    "TagBriefDescription": {
      "Hash": -1529952985
    },
    "TagDetailDescription": {
      "Hash": 371857150
    },
    "ParameterList": [
      0.4
    ],
    "SkillID": 302501318,
    "EffectID": [
      70000313
    ]
  },
  {
    "TagID": 100704,
    "TagName": {
      "Hash": -68355641
    },
    "TagBriefDescription": {
      "Hash": -1126668458
    },
    "TagDetailDescription": {
      "Hash": 371857150
    },
    "ParameterList": [
      10
    ],
    "SkillID": 302501319,
    "EffectID": []
  },
  {
    "TagID": 100801,
    "TagName": {
      "Hash": -2051020539
    },
    "TagBriefDescription": {
      "Hash": 896402392
    },
    "TagDetailDescription": {
      "Hash": 371857150
    },
    "ParameterList": [
      0.5,
      1,
      1.5
    ],
    "SkillID": 300402105,
    "EffectID": []
  },
  {
    "TagID": 100802,
    "TagName": {
      "Hash": -484936598
    },
    "TagBriefDescription": {
      "Hash": 493117865
    },
    "TagDetailDescription": {
      "Hash": 371857150
    },
    "ParameterList": [
      0.5,
      1,
      1.5
    ],
    "SkillID": 300402105,
    "EffectID": [
      70000314
    ]
  },
  {
    "TagID": 100803,
    "TagName": {
      "Hash": 1081147343
    },
    "TagBriefDescription": {
      "Hash": 2059201806
    },
    "TagDetailDescription": {
      "Hash": 371857150
    },
    "ParameterList": [],
    "EffectID": [
      70000314
    ]
  },
  {
    "TagID": 100804,
    "TagName": {
      "Hash": -1291505652
    },
    "TagBriefDescription": {
      "Hash": 1655917279
    },
    "TagDetailDescription": {
      "Hash": 371857150
    },
    "ParameterList": [],
    "EffectID": []
  },
  {
    "TagID": 100901,
    "TagName": {
      "Hash": 2102784256
    },
    "TagBriefDescription": {
      "Hash": -649478573
    },
    "TagDetailDescription": {
      "Hash": 371857150
    },
    "ParameterList": [
      0.5,
      1,
      1.5
    ],
    "SkillID": 300402105,
    "EffectID": []
  },
  {
    "TagID": 100902,
    "TagName": {
      "Hash": -1788898513
    },
    "TagBriefDescription": {
      "Hash": 2079404782
    },
    "TagDetailDescription": {
      "Hash": 371857150
    },
    "ParameterList": [],
    "EffectID": [
      70000315
    ]
  },
  {
    "TagID": 100903,
    "TagName": {
      "Hash": 939984842
    },
    "TagBriefDescription": {
      "Hash": 513320841
    },
    "TagDetailDescription": {
      "Hash": 371857150
    },
    "ParameterList": [],
    "EffectID": [
      70000316
    ]
  },
  {
    "TagID": 100904,
    "TagName": {
      "Hash": 1699499729
    },
    "TagBriefDescription": {
      "Hash": -1052763100
    },
    "TagDetailDescription": {
      "Hash": 371857150
    },
    "ParameterList": [],
    "EffectID": []
  }
]