[
  {
    "DifficultyGuideID": 10010,
    "DifficultyGuideDescription": {
      "Hash": -1317210422
    },
    "SkillID": 100401410,
    "ParameterList": [
      0.6,
      1.25,
      1
    ]
  },
  {
    "DifficultyGuideID": 10011,
    "DifficultyGuideDescription": {
      "Hash": -1317210421
    },
    "ParameterList": []
  },
  {
    "DifficultyGuideID": 10012,
    "DifficultyGuideDescription": {
      "Hash": -1317210420
    },
    "ParameterList": []
  },
  {
    "DifficultyGuideID": 10020,
    "DifficultyGuideDescription": {
      "Hash": 1411672933
    },
    "SkillID": 100401410,
    "ParameterList": [
      0.6,
      1.25,
      1
    ]
  },
  {
    "DifficultyGuideID": 10021,
    "DifficultyGuideDescription": {
      "Hash": 1411672934
    },
    "ParameterList": []
  },
  {
    "DifficultyGuideID": 10022,
    "DifficultyGuideDescription": {
      "Hash": 1411672935
    },
    "ParameterList": []
  },
  {
    "DifficultyGuideID": 10030,
    "DifficultyGuideDescription": {
      "Hash": -154411008
    },
    "SkillID": 801501201,
    "ParameterList": [
      0.6,
      1.25,
      1
    ]
  },
  {
    "DifficultyGuideID": 10031,
    "DifficultyGuideDescription": {
      "Hash": -154411007
    },
    "ParameterList": []
  },
  {
    "DifficultyGuideID": 10032,
    "DifficultyGuideDescription": {
      "Hash": -154411006
    },
    "ParameterList": []
  },
  {
    "DifficultyGuideID": 10040,
    "DifficultyGuideDescription": {
      "Hash": -1720494949
    },
    "SkillID": 200401410,
    "ParameterList": [
      0.5,
      1,
      1.5
    ]
  },
  {
    "DifficultyGuideID": 10041,
    "DifficultyGuideDescription": {
      "Hash": -1720494948
    },
    "ParameterList": []
  },
  {
    "DifficultyGuideID": 10042,
    "DifficultyGuideDescription": {
      "Hash": -1720494947
    },
    "ParameterList": []
  },
  {
    "DifficultyGuideID": 10050,
    "DifficultyGuideDescription": {
      "Hash": 1008388406
    },
    "SkillID": 200401410,
    "ParameterList": [
      0.5,
      1,
      1.5
    ]
  },
  {
    "DifficultyGuideID": 10051,
    "DifficultyGuideDescription": {
      "Hash": 1008388407
    },
    "ParameterList": []
  },
  {
    "DifficultyGuideID": 10052,
    "DifficultyGuideDescription": {
      "Hash": 1008388408
    },
    "ParameterList": []
  },
  {
    "DifficultyGuideID": 10060,
    "DifficultyGuideDescription": {
      "Hash": -557695535
    },
    "SkillID": 801502218,
    "ParameterList": [
      0.6,
      1.25,
      1
    ]
  },
  {
    "DifficultyGuideID": 10061,
    "DifficultyGuideDescription": {
      "Hash": -557695534
    },
    "ParameterList": []
  },
  {
    "DifficultyGuideID": 10062,
    "DifficultyGuideDescription": {
      "Hash": -557695533
    },
    "ParameterList": []
  },
  {
    "DifficultyGuideID": 10070,
    "DifficultyGuideDescription": {
      "Hash": -2123779476
    },
    "SkillID": 302501316,
    "ParameterList": [
      0.5,
      1,
      1.5
    ]
  },
  {
    "DifficultyGuideID": 10071,
    "DifficultyGuideDescription": {
      "Hash": -2123779475
    },
    "ParameterList": []
  },
  {
    "DifficultyGuideID": 10072,
    "DifficultyGuideDescription": {
      "Hash": -2123779474
    },
    "ParameterList": []
  },
  {
    "DifficultyGuideID": 10080,
    "DifficultyGuideDescription": {
      "Hash": -107356841
    },
    "SkillID": 300402105,
    "ParameterList": [
      0.5,
      1,
      1.5
    ]
  },
  {
    "DifficultyGuideID": 10081,
    "DifficultyGuideDescription": {
      "Hash": -107356840
    },
    "ParameterList": []
  },
  {
    "DifficultyGuideID": 10082,
    "DifficultyGuideDescription": {
      "Hash": -107356839
    },
    "ParameterList": []
  },
  {
    "DifficultyGuideID": 10090,
    "DifficultyGuideDescription": {
      "Hash": -1673440782
    },
    "SkillID": 300402105,
    "ParameterList": [
      0.5,
      1,
      1.5
    ]
  },
  {
    "DifficultyGuideID": 10091,
    "DifficultyGuideDescription": {
      "Hash": -1673440781
    },
    "ParameterList": []
  },
  {
    "DifficultyGuideID": 10092,
    "DifficultyGuideDescription": {
      "Hash": -1673440780
    },
    "ParameterList": []
  }
]