[
  {
    "ID": 1001,
    "Difficulty": 1,
    "DisplayID": 201,
    "PicPath": "SpriteOutput/Rogue/BossRush/BgRogueTourmBossRushBoss1.png",
    "RecommendDamageTypes": [
      "Physical",
      "Thunder",
      "Imaginary"
    ],
    "RecommendLevel": 45,
    "MapEntranceID": 8040001,
    "DisplayMonsterMap": [
      {
        "IODANDAABIA": 1004022,
        "BKOGBKGNGGG": 50
      }
    ],
    "NpcMonsterID": 1004021,
    "WorldLevel": 1,
    "EventID": 80300031,
    "DisplayItemList": [
      {
        "ItemID": 22,
        "ItemNum": 200
      },
      {
        "ItemID": 2
      },
      {
        "ItemID": 83011
      },
      {
        "ItemID": 83021
      },
      {
        "ItemID": 83012
      },
      {
        "ItemID": 83022
      },
      {
        "ItemID": 83013
      },
      {
        "ItemID": 83023
      }
    ],
    "DropList": [
      1000919,
      1000410,
      713012,
      713012,
      713013,
      713013,
      713013,
      713013,
      713014,
      713014,
      401901
    ],
    "StaminaCost": 40,
    "RogueKeyCost": 1
  },
  {
    "ID": 1001,
    "Difficulty": 2,
    "DisplayID": 201,
    "PicPath": "SpriteOutput/Rogue/BossRush/BgRogueTourmBossRushBoss1.png",
    "RecommendDamageTypes": [
      "Physical",
      "Thunder",
      "Imaginary"
    ],
    "RecommendLevel": 55,
    "MapEntranceID": 8040001,
    "DisplayMonsterMap": [
      {
        "IODANDAABIA": 1004022,
        "BKOGBKGNGGG": 60
      }
    ],
    "NpcMonsterID": 1004021,
    "WorldLevel": 3,
    "EventID": 80300032,
    "DisplayItemList": [
      {
        "ItemID": 22,
        "ItemNum": 200
      },
      {
        "ItemID": 2
      },
      {
        "ItemID": 83012
      },
      {
        "ItemID": 83022
      },
      {
        "ItemID": 83013
      },
      {
        "ItemID": 83023
      },
      {
        "ItemID": 83014
      },
      {
        "ItemID": 83024
      }
    ],
    "DropList": [
      1000919,
      1000416,
      713013,
      713013,
      713013,
      401911,
      713014,
      713014,
      713015
    ],
    "StaminaCost": 40,
    "RogueKeyCost": 1
  },
  {
    "ID": 1001,
    "Difficulty": 3,
    "DisplayID": 201,
    "PicPath": "SpriteOutput/Rogue/BossRush/BgRogueTourmBossRushBoss1.png",
    "RecommendDamageTypes": [
      "Physical",
      "Thunder",
      "Imaginary"
    ],
    "RecommendLevel": 65,
    "MapEntranceID": 8040001,
    "DisplayMonsterMap": [
      {
        "IODANDAABIA": 1004022,
        "BKOGBKGNGGG": 70
      }
    ],
    "NpcMonsterID": 1004021,
    "WorldLevel": 4,
    "EventID": 80300033,
    "DisplayItemList": [
      {
        "ItemID": 22,
        "ItemNum": 200
      },
      {
        "ItemID": 2
      },
      {
        "ItemID": 83012
      },
      {
        "ItemID": 83022
      },
      {
        "ItemID": 83013
      },
      {
        "ItemID": 83023
      },
      {
        "ItemID": 83014
      },
      {
        "ItemID": 83024
      }
    ],
    "DropList": [
      1000919,
      1000422,
      713013,
      713013,
      401921,
      713014,
      713014,
      401922,
      713015,
      401923
    ],
    "StaminaCost": 40,
    "RogueKeyCost": 1
  },
  {
    "ID": 1001,
    "Difficulty": 4,
    "DisplayID": 201,
    "PicPath": "SpriteOutput/Rogue/BossRush/BgRogueTourmBossRushBoss1.png",
    "RecommendDamageTypes": [
      "Physical",
      "Thunder",
      "Imaginary"
    ],
    "RecommendLevel": 75,
    "MapEntranceID": 8040001,
    "DisplayMonsterMap": [
      {
        "IODANDAABIA": 1004022,
        "BKOGBKGNGGG": 80
      }
    ],
    "NpcMonsterID": 1004021,
    "WorldLevel": 5,
    "EventID": 80300034,
    "DisplayItemList": [
      {
        "ItemID": 22,
        "ItemNum": 200
      },
      {
        "ItemID": 2
      },
      {
        "ItemID": 83012
      },
      {
        "ItemID": 83022
      },
      {
        "ItemID": 83013
      },
      {
        "ItemID": 83023
      },
      {
        "ItemID": 83014
      },
      {
        "ItemID": 83024
      }
    ],
    "DropList": [
      1000919,
      1000428,
      713013,
      401931,
      713014,
      713014,
      713014,
      713015,
      713015
    ],
    "StaminaCost": 40,
    "RogueKeyCost": 1
  },
  {
    "ID": 1001,
    "Difficulty": 5,
    "DisplayID": 201,
    "PicPath": "SpriteOutput/Rogue/BossRush/BgRogueTourmBossRushBoss1.png",
    "RecommendDamageTypes": [
      "Physical",
      "Thunder",
      "Imaginary"
    ],
    "RecommendLevel": 80,
    "MapEntranceID": 8040001,
    "DisplayMonsterMap": [
      {
        "IODANDAABIA": 1004022,
        "BKOGBKGNGGG": 90
      }
    ],
    "NpcMonsterID": 1004021,
    "WorldLevel": 6,
    "EventID": 80300035,
    "DisplayItemList": [
      {
        "ItemID": 22,
        "ItemNum": 200
      },
      {
        "ItemID": 2
      },
      {
        "ItemID": 83013
      },
      {
        "ItemID": 83023
      },
      {
        "ItemID": 83014
      },
      {
        "ItemID": 83024
      }
    ],
    "DropList": [
      1000919,
      1000434,
      713014,
      713014,
      713014,
      713014,
      713014,
      713015,
      713015,
      401941
    ],
    "StaminaCost": 40,
    "RogueKeyCost": 1
  },
  {
    "ID": 1002,
    "Difficulty": 1,
    "DisplayID": 202,
    "PicPath": "SpriteOutput/Rogue/BossRush/BgRogueTourmBossRushBoss2.png",
    "RecommendDamageTypes": [
      "Thunder",
      "Wind",
      "Fire"
    ],
    "RecommendLevel": 45,
    "MapEntranceID": 8040001,
    "DisplayMonsterMap": [
      {
        "IODANDAABIA": 1014011,
        "BKOGBKGNGGG": 50
      }
    ],
    "NpcMonsterID": 1014011,
    "WorldLevel": 1,
    "EventID": 80300041,
    "DisplayItemList": [
      {
        "ItemID": 22,
        "ItemNum": 200
      },
      {
        "ItemID": 2
      },
      {
        "ItemID": 83071
      },
      {
        "ItemID": 83081
      },
      {
        "ItemID": 83072
      },
      {
        "ItemID": 83082
      },
      {
        "ItemID": 83073
      },
      {
        "ItemID": 83083
      }
    ],
    "DropList": [
      1000919,
      1000410,
      713022,
      713022,
      713023,
      713023,
      713023,
      713023,
      713024,
      713024,
      401971
    ],
    "StaminaCost": 40,
    "RogueKeyCost": 1
  },
  {
    "ID": 1002,
    "Difficulty": 2,
    "DisplayID": 202,
    "PicPath": "SpriteOutput/Rogue/BossRush/BgRogueTourmBossRushBoss2.png",
    "RecommendDamageTypes": [
      "Thunder",
      "Wind",
      "Fire"
    ],
    "RecommendLevel": 55,
    "MapEntranceID": 8040001,
    "DisplayMonsterMap": [
      {
        "IODANDAABIA": 1014011,
        "BKOGBKGNGGG": 60
      }
    ],
    "NpcMonsterID": 1014011,
    "WorldLevel": 3,
    "EventID": 80300042,
    "DisplayItemList": [
      {
        "ItemID": 22,
        "ItemNum": 200
      },
      {
        "ItemID": 2
      },
      {
        "ItemID": 83072
      },
      {
        "ItemID": 83082
      },
      {
        "ItemID": 83073
      },
      {
        "ItemID": 83083
      },
      {
        "ItemID": 83074
      },
      {
        "ItemID": 83084
      }
    ],
    "DropList": [
      1000919,
      1000416,
      713023,
      713023,
      713023,
      401981,
      713024,
      713024,
      713025
    ],
    "StaminaCost": 40,
    "RogueKeyCost": 1
  },
  {
    "ID": 1002,
    "Difficulty": 3,
    "DisplayID": 202,
    "PicPath": "SpriteOutput/Rogue/BossRush/BgRogueTourmBossRushBoss2.png",
    "RecommendDamageTypes": [
      "Thunder",
      "Wind",
      "Fire"
    ],
    "RecommendLevel": 65,
    "MapEntranceID": 8040001,
    "DisplayMonsterMap": [
      {
        "IODANDAABIA": 1014011,
        "BKOGBKGNGGG": 70
      }
    ],
    "NpcMonsterID": 1014011,
    "WorldLevel": 4,
    "EventID": 80300043,
    "DisplayItemList": [
      {
        "ItemID": 22,
        "ItemNum": 200
      },
      {
        "ItemID": 2
      },
      {
        "ItemID": 83072
      },
      {
        "ItemID": 83082
      },
      {
        "ItemID": 83073
      },
      {
        "ItemID": 83083
      },
      {
        "ItemID": 83074
      },
      {
        "ItemID": 83084
      }
    ],
    "DropList": [
      1000919,
      1000422,
      713023,
      713023,
      401991,
      713024,
      713024,
      401992,
      713025,
      401993
    ],
    "StaminaCost": 40,
    "RogueKeyCost": 1
  },
  {
    "ID": 1002,
    "Difficulty": 4,
    "DisplayID": 202,
    "PicPath": "SpriteOutput/Rogue/BossRush/BgRogueTourmBossRushBoss2.png",
    "RecommendDamageTypes": [
      "Thunder",
      "Wind",
      "Fire"
    ],
    "RecommendLevel": 75,
    "MapEntranceID": 8040001,
    "DisplayMonsterMap": [
      {
        "IODANDAABIA": 1014011,
        "BKOGBKGNGGG": 80
      }
    ],
    "NpcMonsterID": 1014011,
    "WorldLevel": 5,
    "EventID": 80300044,
    "DisplayItemList": [
      {
        "ItemID": 22,
        "ItemNum": 200
      },
      {
        "ItemID": 2
      },
      {
        "ItemID": 83072
      },
      {
        "ItemID": 83082
      },
      {
        "ItemID": 83073
      },
      {
        "ItemID": 83083
      },
      {
        "ItemID": 83074
      },
      {
        "ItemID": 83084
      }
    ],
    "DropList": [
      1000919,
      1000428,
      713023,
      402001,
      713024,
      713024,
      713024,
      713025,
      713025
    ],
    "StaminaCost": 40,
    "RogueKeyCost": 1
  },
  {
    "ID": 1002,
    "Difficulty": 5,
    "DisplayID": 202,
    "PicPath": "SpriteOutput/Rogue/BossRush/BgRogueTourmBossRushBoss2.png",
    "RecommendDamageTypes": [
      "Thunder",
      "Wind",
      "Fire"
    ],
    "RecommendLevel": 80,
    "MapEntranceID": 8040001,
    "DisplayMonsterMap": [
      {
        "IODANDAABIA": 1014011,
        "BKOGBKGNGGG": 90
      }
    ],
    "NpcMonsterID": 1014011,
    "WorldLevel": 6,
    "EventID": 80300045,
    "DisplayItemList": [
      {
        "ItemID": 22,
        "ItemNum": 200
      },
      {
        "ItemID": 2
      },
      {
        "ItemID": 83073
      },
      {
        "ItemID": 83083
      },
      {
        "ItemID": 83074
      },
      {
        "ItemID": 83084
      }
    ],
    "DropList": [
      1000919,
      1000434,
      713024,
      713024,
      713024,
      713024,
      713024,
      713025,
      713025,
      402011
    ],
    "StaminaCost": 40,
    "RogueKeyCost": 1
  },
  {
    "ID": 1003,
    "Difficulty": 1,
    "DisplayID": 203,
    "PicPath": "SpriteOutput/Rogue/BossRush/BgRogueTourmBossRushBoss3.png",
    "RecommendDamageTypes": [
      "Wind",
      "Imaginary",
      "Physical"
    ],
    "RecommendLevel": 45,
    "MapEntranceID": 8040001,
    "DisplayMonsterMap": [
      {
        "IODANDAABIA": 2004011,
        "BKOGBKGNGGG": 50
      }
    ],
    "NpcMonsterID": 2004011,
    "WorldLevel": 1,
    "EventID": 80300051,
    "DisplayItemList": [
      {
        "ItemID": 22,
        "ItemNum": 200
      },
      {
        "ItemID": 2
      },
      {
        "ItemID": 83031
      },
      {
        "ItemID": 83051
      },
      {
        "ItemID": 83032
      },
      {
        "ItemID": 83052
      },
      {
        "ItemID": 83033
      },
      {
        "ItemID": 83053
      }
    ],
    "DropList": [
      1000919,
      1000410,
      713032,
      713032,
      713033,
      713033,
      713033,
      713033,
      713034,
      713034,
      402041
    ],
    "StaminaCost": 40,
    "RogueKeyCost": 1
  },
  {
    "ID": 1003,
    "Difficulty": 2,
    "DisplayID": 203,
    "PicPath": "SpriteOutput/Rogue/BossRush/BgRogueTourmBossRushBoss3.png",
    "RecommendDamageTypes": [
      "Wind",
      "Imaginary",
      "Physical"
    ],
    "RecommendLevel": 55,
    "MapEntranceID": 8040001,
    "DisplayMonsterMap": [
      {
        "IODANDAABIA": 2004011,
        "BKOGBKGNGGG": 60
      }
    ],
    "NpcMonsterID": 2004011,
    "WorldLevel": 3,
    "EventID": 80300052,
    "DisplayItemList": [
      {
        "ItemID": 22,
        "ItemNum": 200
      },
      {
        "ItemID": 2
      },
      {
        "ItemID": 83032
      },
      {
        "ItemID": 83052
      },
      {
        "ItemID": 83033
      },
      {
        "ItemID": 83053
      },
      {
        "ItemID": 83034
      },
      {
        "ItemID": 83054
      }
    ],
    "DropList": [
      1000919,
      1000416,
      713033,
      713033,
      713033,
      402051,
      713034,
      713034,
      713035
    ],
    "StaminaCost": 40,
    "RogueKeyCost": 1
  },
  {
    "ID": 1003,
    "Difficulty": 3,
    "DisplayID": 203,
    "PicPath": "SpriteOutput/Rogue/BossRush/BgRogueTourmBossRushBoss3.png",
    "RecommendDamageTypes": [
      "Wind",
      "Imaginary",
      "Physical"
    ],
    "RecommendLevel": 65,
    "MapEntranceID": 8040001,
    "DisplayMonsterMap": [
      {
        "IODANDAABIA": 2004011,
        "BKOGBKGNGGG": 70
      }
    ],
    "NpcMonsterID": 2004011,
    "WorldLevel": 4,
    "EventID": 80300053,
    "DisplayItemList": [
      {
        "ItemID": 22,
        "ItemNum": 200
      },
      {
        "ItemID": 2
      },
      {
        "ItemID": 83032
      },
      {
        "ItemID": 83052
      },
      {
        "ItemID": 83033
      },
      {
        "ItemID": 83053
      },
      {
        "ItemID": 83034
      },
      {
        "ItemID": 83054
      }
    ],
    "DropList": [
      1000919,
      1000422,
      713033,
      713033,
      402061,
      713034,
      713034,
      402062,
      713035,
      402063
    ],
    "StaminaCost": 40,
    "RogueKeyCost": 1
  },
  {
    "ID": 1003,
    "Difficulty": 4,
    "DisplayID": 203,
    "PicPath": "SpriteOutput/Rogue/BossRush/BgRogueTourmBossRushBoss3.png",
    "RecommendDamageTypes": [
      "Wind",
      "Imaginary",
      "Physical"
    ],
    "RecommendLevel": 75,
    "MapEntranceID": 8040001,
    "DisplayMonsterMap": [
      {
        "IODANDAABIA": 2004011,
        "BKOGBKGNGGG": 80
      }
    ],
    "NpcMonsterID": 2004011,
    "WorldLevel": 5,
    "EventID": 80300054,
    "DisplayItemList": [
      {
        "ItemID": 22,
        "ItemNum": 200
      },
      {
        "ItemID": 2
      },
      {
        "ItemID": 83032
      },
      {
        "ItemID": 83052
      },
      {
        "ItemID": 83033
      },
      {
        "ItemID": 83053
      },
      {
        "ItemID": 83034
      },
      {
        "ItemID": 83054
      }
    ],
    "DropList": [
      1000919,
      1000428,
      713033,
      402071,
      713034,
      713034,
      713034,
      713035,
      713035
    ],
    "StaminaCost": 40,
    "RogueKeyCost": 1
  },
  {
    "ID": 1003,
    "Difficulty": 5,
    "DisplayID": 203,
    "PicPath": "SpriteOutput/Rogue/BossRush/BgRogueTourmBossRushBoss3.png",
    "RecommendDamageTypes": [
      "Wind",
      "Imaginary",
      "Physical"
    ],
    "RecommendLevel": 80,
    "MapEntranceID": 8040001,
    "DisplayMonsterMap": [
      {
        "IODANDAABIA": 2004011,
        "BKOGBKGNGGG": 90
      }
    ],
    "NpcMonsterID": 2004011,
    "WorldLevel": 6,
    "EventID": 80300055,
    "DisplayItemList": [
      {
        "ItemID": 22,
        "ItemNum": 200
      },
      {
        "ItemID": 2
      },
      {
        "ItemID": 83033
      },
      {
        "ItemID": 83053
      },
      {
        "ItemID": 83034
      },
      {
        "ItemID": 83054
      }
    ],
    "DropList": [
      1000919,
      1000434,
      713034,
      713034,
      713034,
      713034,
      713034,
      713035,
      713035,
      402081
    ],
    "StaminaCost": 40,
    "RogueKeyCost": 1
  },
  {
    "ID": 1004,
    "Difficulty": 1,
    "DisplayID": 204,
    "PicPath": "SpriteOutput/Rogue/BossRush/BgRogueTourmBossRushBoss4.png",
    "RecommendDamageTypes": [
      "Fire",
      "Quantum",
      "Thunder"
    ],
    "RecommendLevel": 45,
    "MapEntranceID": 8040001,
    "DisplayMonsterMap": [
      {
        "IODANDAABIA": 1004011,
        "BKOGBKGNGGG": 50
      }
    ],
    "NpcMonsterID": 1004011,
    "WorldLevel": 1,
    "EventID": 80300061,
    "DisplayItemList": [
      {
        "ItemID": 22,
        "ItemNum": 200
      },
      {
        "ItemID": 2
      },
      {
        "ItemID": 83041
      },
      {
        "ItemID": 83061
      },
      {
        "ItemID": 83042
      },
      {
        "ItemID": 83062
      },
      {
        "ItemID": 83043
      },
      {
        "ItemID": 83063
      }
    ],
    "DropList": [
      1000919,
      1000410,
      713042,
      713042,
      713043,
      713043,
      713043,
      713043,
      713044,
      713044,
      402111
    ],
    "StaminaCost": 40,
    "RogueKeyCost": 1
  },
  {
    "ID": 1004,
    "Difficulty": 2,
    "DisplayID": 204,
    "PicPath": "SpriteOutput/Rogue/BossRush/BgRogueTourmBossRushBoss4.png",
    "RecommendDamageTypes": [
      "Fire",
      "Quantum",
      "Thunder"
    ],
    "RecommendLevel": 55,
    "MapEntranceID": 8040001,
    "DisplayMonsterMap": [
      {
        "IODANDAABIA": 1004011,
        "BKOGBKGNGGG": 60
      }
    ],
    "NpcMonsterID": 1004011,
    "WorldLevel": 3,
    "EventID": 80300062,
    "DisplayItemList": [
      {
        "ItemID": 22,
        "ItemNum": 200
      },
      {
        "ItemID": 2
      },
      {
        "ItemID": 83042
      },
      {
        "ItemID": 83062
      },
      {
        "ItemID": 83043
      },
      {
        "ItemID": 83063
      },
      {
        "ItemID": 83044
      },
      {
        "ItemID": 83064
      }
    ],
    "DropList": [
      1000919,
      1000416,
      713043,
      713043,
      713043,
      402121,
      713044,
      713044,
      713045
    ],
    "StaminaCost": 40,
    "RogueKeyCost": 1
  },
  {
    "ID": 1004,
    "Difficulty": 3,
    "DisplayID": 204,
    "PicPath": "SpriteOutput/Rogue/BossRush/BgRogueTourmBossRushBoss4.png",
    "RecommendDamageTypes": [
      "Fire",
      "Quantum",
      "Thunder"
    ],
    "RecommendLevel": 65,
    "MapEntranceID": 8040001,
    "DisplayMonsterMap": [
      {
        "IODANDAABIA": 1004011,
        "BKOGBKGNGGG": 70
      }
    ],
    "NpcMonsterID": 1004011,
    "WorldLevel": 4,
    "EventID": 80300063,
    "DisplayItemList": [
      {
        "ItemID": 22,
        "ItemNum": 200
      },
      {
        "ItemID": 2
      },
      {
        "ItemID": 83042
      },
      {
        "ItemID": 83062
      },
      {
        "ItemID": 83043
      },
      {
        "ItemID": 83063
      },
      {
        "ItemID": 83044
      },
      {
        "ItemID": 83064
      }
    ],
    "DropList": [
      1000919,
      1000422,
      713043,
      713043,
      402131,
      713044,
      713044,
      402132,
      713045,
      402133
    ],
    "StaminaCost": 40,
    "RogueKeyCost": 1
  },
  {
    "ID": 1004,
    "Difficulty": 4,
    "DisplayID": 204,
    "PicPath": "SpriteOutput/Rogue/BossRush/BgRogueTourmBossRushBoss4.png",
    "RecommendDamageTypes": [
      "Fire",
      "Quantum",
      "Thunder"
    ],
    "RecommendLevel": 75,
    "MapEntranceID": 8040001,
    "DisplayMonsterMap": [
      {
        "IODANDAABIA": 1004011,
        "BKOGBKGNGGG": 80
      }
    ],
    "NpcMonsterID": 1004011,
    "WorldLevel": 5,
    "EventID": 80300064,
    "DisplayItemList": [
      {
        "ItemID": 22,
        "ItemNum": 200
      },
      {
        "ItemID": 2
      },
      {
        "ItemID": 83042
      },
      {
        "ItemID": 83062
      },
      {
        "ItemID": 83043
      },
      {
        "ItemID": 83063
      },
      {
        "ItemID": 83044
      },
      {
        "ItemID": 83064
      }
    ],
    "DropList": [
      1000919,
      1000428,
      713043,
      402141,
      713044,
      713044,
      713044,
      713045,
      713045
    ],
    "StaminaCost": 40,
    "RogueKeyCost": 1
  },
  {
    "ID": 1004,
    "Difficulty": 5,
    "DisplayID": 204,
    "PicPath": "SpriteOutput/Rogue/BossRush/BgRogueTourmBossRushBoss4.png",
    "RecommendDamageTypes": [
      "Fire",
      "Quantum",
      "Thunder"
    ],
    "RecommendLevel": 80,
    "MapEntranceID": 8040001,
    "DisplayMonsterMap": [
      {
        "IODANDAABIA": 1004011,
        "BKOGBKGNGGG": 90
      }
    ],
    "NpcMonsterID": 1004011,
    "WorldLevel": 6,
    "EventID": 80300065,
    "DisplayItemList": [
      {
        "ItemID": 22,
        "ItemNum": 200
      },
      {
        "ItemID": 2
      },
      {
        "ItemID": 83043
      },
      {
        "ItemID": 83063
      },
      {
        "ItemID": 83044
      },
      {
        "ItemID": 83064
      }
    ],
    "DropList": [
      1000919,
      1000434,
      713044,
      713044,
      713044,
      713044,
      713044,
      713045,
      713045,
      402151
    ],
    "StaminaCost": 40,
    "RogueKeyCost": 1
  },
  {
    "ID": 1005,
    "Difficulty": 1,
    "DisplayID": 205,
    "PicPath": "SpriteOutput/Rogue/BossRush/BgRogueTourmBossRushBoss5.png",
    "RecommendDamageTypes": [
      "Fire",
      "Ice",
      "Quantum"
    ],
    "RecommendLevel": 45,
    "MapEntranceID": 8040001,
    "DisplayMonsterMap": [
      {
        "IODANDAABIA": 2024011,
        "BKOGBKGNGGG": 50
      }
    ],
    "NpcMonsterID": 2024011,
    "WorldLevel": 1,
    "EventID": 80300071,
    "DisplayItemList": [
      {
        "ItemID": 22,
        "ItemNum": 200
      },
      {
        "ItemID": 2
      },
      {
        "ItemID": 83091
      },
      {
        "ItemID": 83101
      },
      {
        "ItemID": 83092
      },
      {
        "ItemID": 83102
      },
      {
        "ItemID": 83093
      },
      {
        "ItemID": 83103
      }
    ],
    "DropList": [
      1000919,
      1000410,
      713052,
      713052,
      713053,
      713053,
      713053,
      713053,
      713054,
      713054,
      402181
    ],
    "StaminaCost": 40,
    "RogueKeyCost": 1
  },
  {
    "ID": 1005,
    "Difficulty": 2,
    "DisplayID": 205,
    "PicPath": "SpriteOutput/Rogue/BossRush/BgRogueTourmBossRushBoss5.png",
    "RecommendDamageTypes": [
      "Fire",
      "Ice",
      "Quantum"
    ],
    "RecommendLevel": 55,
    "MapEntranceID": 8040001,
    "DisplayMonsterMap": [
      {
        "IODANDAABIA": 2024011,
        "BKOGBKGNGGG": 60
      }
    ],
    "NpcMonsterID": 2024011,
    "WorldLevel": 3,
    "EventID": 80300072,
    "DisplayItemList": [
      {
        "ItemID": 22,
        "ItemNum": 200
      },
      {
        "ItemID": 2
      },
      {
        "ItemID": 83092
      },
      {
        "ItemID": 83102
      },
      {
        "ItemID": 83093
      },
      {
        "ItemID": 83103
      },
      {
        "ItemID": 83094
      },
      {
        "ItemID": 83104
      }
    ],
    "DropList": [
      1000919,
      1000416,
      713053,
      713053,
      713053,
      402191,
      713054,
      713054,
      713055
    ],
    "StaminaCost": 40,
    "RogueKeyCost": 1
  },
  {
    "ID": 1005,
    "Difficulty": 3,
    "DisplayID": 205,
    "PicPath": "SpriteOutput/Rogue/BossRush/BgRogueTourmBossRushBoss5.png",
    "RecommendDamageTypes": [
      "Fire",
      "Ice",
      "Quantum"
    ],
    "RecommendLevel": 65,
    "MapEntranceID": 8040001,
    "DisplayMonsterMap": [
      {
        "IODANDAABIA": 2024011,
        "BKOGBKGNGGG": 70
      }
    ],
    "NpcMonsterID": 2024011,
    "WorldLevel": 4,
    "EventID": 80300073,
    "DisplayItemList": [
      {
        "ItemID": 22,
        "ItemNum": 200
      },
      {
        "ItemID": 2
      },
      {
        "ItemID": 83092
      },
      {
        "ItemID": 83102
      },
      {
        "ItemID": 83093
      },
      {
        "ItemID": 83103
      },
      {
        "ItemID": 83094
      },
      {
        "ItemID": 83104
      }
    ],
    "DropList": [
      1000919,
      1000422,
      713053,
      713053,
      402201,
      713054,
      713054,
      402202,
      713055,
      402203
    ],
    "StaminaCost": 40,
    "RogueKeyCost": 1
  },
  {
    "ID": 1005,
    "Difficulty": 4,
    "DisplayID": 205,
    "PicPath": "SpriteOutput/Rogue/BossRush/BgRogueTourmBossRushBoss5.png",
    "RecommendDamageTypes": [
      "Fire",
      "Ice",
      "Quantum"
    ],
    "RecommendLevel": 75,
    "MapEntranceID": 8040001,
    "DisplayMonsterMap": [
      {
        "IODANDAABIA": 2024011,
        "BKOGBKGNGGG": 80
      }
    ],
    "NpcMonsterID": 2024011,
    "WorldLevel": 5,
    "EventID": 80300074,
    "DisplayItemList": [
      {
        "ItemID": 22,
        "ItemNum": 200
      },
      {
        "ItemID": 2
      },
      {
        "ItemID": 83092
      },
      {
        "ItemID": 83102
      },
      {
        "ItemID": 83093
      },
      {
        "ItemID": 83103
      },
      {
        "ItemID": 83094
      },
      {
        "ItemID": 83104
      }
    ],
    "DropList": [
      1000919,
      1000428,
      713053,
      402211,
      713054,
      713054,
      713054,
      713055,
      713055
    ],
    "StaminaCost": 40,
    "RogueKeyCost": 1
  },
  {
    "ID": 1005,
    "Difficulty": 5,
    "DisplayID": 205,
    "PicPath": "SpriteOutput/Rogue/BossRush/BgRogueTourmBossRushBoss5.png",
    "RecommendDamageTypes": [
      "Fire",
      "Ice",
      "Quantum"
    ],
    "RecommendLevel": 80,
    "MapEntranceID": 8040001,
    "DisplayMonsterMap": [
      {
        "IODANDAABIA": 2024011,
        "BKOGBKGNGGG": 90
      }
    ],
    "NpcMonsterID": 2024011,
    "WorldLevel": 6,
    "EventID": 80300075,
    "DisplayItemList": [
      {
        "ItemID": 22,
        "ItemNum": 200
      },
      {
        "ItemID": 2
      },
      {
        "ItemID": 83093
      },
      {
        "ItemID": 83103
      },
      {
        "ItemID": 83094
      },
      {
        "ItemID": 83104
      }
    ],
    "DropList": [
      1000919,
      1000434,
      713054,
      713054,
      713054,
      713054,
      713054,
      713055,
      713055,
      402221
    ],
    "StaminaCost": 40,
    "RogueKeyCost": 1
  },
  {
    "ID": 1006,
    "Difficulty": 1,
    "DisplayID": 206,
    "PicPath": "SpriteOutput/Rogue/BossRush/BgRogueTourmBossRushBoss6.png",
    "RecommendDamageTypes": [
      "Thunder",
      "Wind",
      "Imaginary"
    ],
    "RecommendLevel": 45,
    "MapEntranceID": 8040001,
    "DisplayMonsterMap": [
      {
        "IODANDAABIA": 2004021,
        "BKOGBKGNGGG": 50
      }
    ],
    "NpcMonsterID": 2004021,
    "WorldLevel": 1,
    "EventID": 80300081,
    "DisplayItemList": [
      {
        "ItemID": 22,
        "ItemNum": 200
      },
      {
        "ItemID": 2
      },
      {
        "ItemID": 83111
      },
      {
        "ItemID": 83121
      },
      {
        "ItemID": 83112
      },
      {
        "ItemID": 83122
      },
      {
        "ItemID": 83113
      },
      {
        "ItemID": 83123
      }
    ],
    "DropList": [
      1000919,
      1000410,
      713062,
      713062,
      713063,
      713063,
      713063,
      713063,
      713064,
      713064,
      460021
    ],
    "StaminaCost": 40,
    "RogueKeyCost": 1
  },
  {
    "ID": 1006,
    "Difficulty": 2,
    "DisplayID": 206,
    "PicPath": "SpriteOutput/Rogue/BossRush/BgRogueTourmBossRushBoss6.png",
    "RecommendDamageTypes": [
      "Thunder",
      "Wind",
      "Imaginary"
    ],
    "RecommendLevel": 55,
    "MapEntranceID": 8040001,
    "DisplayMonsterMap": [
      {
        "IODANDAABIA": 2004021,
        "BKOGBKGNGGG": 60
      }
    ],
    "NpcMonsterID": 2004021,
    "WorldLevel": 3,
    "EventID": 80300082,
    "DisplayItemList": [
      {
        "ItemID": 22,
        "ItemNum": 200
      },
      {
        "ItemID": 2
      },
      {
        "ItemID": 83112
      },
      {
        "ItemID": 83122
      },
      {
        "ItemID": 83113
      },
      {
        "ItemID": 83123
      },
      {
        "ItemID": 83114
      },
      {
        "ItemID": 83124
      }
    ],
    "DropList": [
      1000919,
      1000416,
      713063,
      713063,
      713063,
      460031,
      713064,
      713064,
      713065
    ],
    "StaminaCost": 40,
    "RogueKeyCost": 1
  },
  {
    "ID": 1006,
    "Difficulty": 3,
    "DisplayID": 206,
    "PicPath": "SpriteOutput/Rogue/BossRush/BgRogueTourmBossRushBoss6.png",
    "RecommendDamageTypes": [
      "Thunder",
      "Wind",
      "Imaginary"
    ],
    "RecommendLevel": 65,
    "MapEntranceID": 8040001,
    "DisplayMonsterMap": [
      {
        "IODANDAABIA": 2004021,
        "BKOGBKGNGGG": 70
      }
    ],
    "NpcMonsterID": 2004021,
    "WorldLevel": 4,
    "EventID": 80300083,
    "DisplayItemList": [
      {
        "ItemID": 22,
        "ItemNum": 200
      },
      {
        "ItemID": 2
      },
      {
        "ItemID": 83112
      },
      {
        "ItemID": 83122
      },
      {
        "ItemID": 83113
      },
      {
        "ItemID": 83123
      },
      {
        "ItemID": 83114
      },
      {
        "ItemID": 83124
      }
    ],
    "DropList": [
      1000919,
      1000422,
      713063,
      713063,
      460041,
      713064,
      713064,
      460042,
      713065,
      460043
    ],
    "StaminaCost": 40,
    "RogueKeyCost": 1
  },
  {
    "ID": 1006,
    "Difficulty": 4,
    "DisplayID": 206,
    "PicPath": "SpriteOutput/Rogue/BossRush/BgRogueTourmBossRushBoss6.png",
    "RecommendDamageTypes": [
      "Thunder",
      "Wind",
      "Imaginary"
    ],
    "RecommendLevel": 75,
    "MapEntranceID": 8040001,
    "DisplayMonsterMap": [
      {
        "IODANDAABIA": 2004021,
        "BKOGBKGNGGG": 80
      }
    ],
    "NpcMonsterID": 2004021,
    "WorldLevel": 5,
    "EventID": 80300084,
    "DisplayItemList": [
      {
        "ItemID": 22,
        "ItemNum": 200
      },
      {
        "ItemID": 2
      },
      {
        "ItemID": 83112
      },
      {
        "ItemID": 83122
      },
      {
        "ItemID": 83113
      },
      {
        "ItemID": 83123
      },
      {
        "ItemID": 83114
      },
      {
        "ItemID": 83124
      }
    ],
    "DropList": [
      1000919,
      1000428,
      713063,
      460051,
      713064,
      713064,
      713064,
      713065,
      713065
    ],
    "StaminaCost": 40,
    "RogueKeyCost": 1
  },
  {
    "ID": 1006,
    "Difficulty": 5,
    "DisplayID": 206,
    "PicPath": "SpriteOutput/Rogue/BossRush/BgRogueTourmBossRushBoss6.png",
    "RecommendDamageTypes": [
      "Thunder",
      "Wind",
      "Imaginary"
    ],
    "RecommendLevel": 80,
    "MapEntranceID": 8040001,
    "DisplayMonsterMap": [
      {
        "IODANDAABIA": 2004021,
        "BKOGBKGNGGG": 90
      }
    ],
    "NpcMonsterID": 2004021,
    "WorldLevel": 6,
    "EventID": 80300085,
    "DisplayItemList": [
      {
        "ItemID": 22,
        "ItemNum": 200
      },
      {
        "ItemID": 2
      },
      {
        "ItemID": 83113
      },
      {
        "ItemID": 83123
      },
      {
        "ItemID": 83114
      },
      {
        "ItemID": 83124
      }
    ],
    "DropList": [
      1000919,
      1000434,
      713064,
      713064,
      713064,
      713064,
      713064,
      713065,
      713065,
      460061
    ],
    "StaminaCost": 40,
    "RogueKeyCost": 1
  },
  {
    "ID": 1007,
    "Difficulty": 1,
    "DisplayID": 207,
    "PicPath": "SpriteOutput/Rogue/BossRush/BgRogueTourmBossRushBoss7.png",
    "RecommendDamageTypes": [
      "Fire",
      "Wind",
      "Imaginary"
    ],
    "RecommendLevel": 45,
    "MapEntranceID": 8040001,
    "DisplayMonsterMap": [
      {
        "IODANDAABIA": 3014022,
        "BKOGBKGNGGG": 50
      }
    ],
    "NpcMonsterID": 3014021,
    "WorldLevel": 1,
    "EventID": 80300091,
    "DisplayItemList": [
      {
        "ItemID": 22,
        "ItemNum": 200
      },
      {
        "ItemID": 2
      },
      {
        "ItemID": 83131
      },
      {
        "ItemID": 83141
      },
      {
        "ItemID": 83132
      },
      {
        "ItemID": 83142
      },
      {
        "ItemID": 83133
      },
      {
        "ItemID": 83143
      }
    ],
    "DropList": [
      1000919,
      1000410,
      713072,
      713072,
      713073,
      713073,
      713073,
      713073,
      713074,
      713074,
      460121
    ],
    "StaminaCost": 40,
    "RogueKeyCost": 1
  },
  {
    "ID": 1007,
    "Difficulty": 2,
    "DisplayID": 207,
    "PicPath": "SpriteOutput/Rogue/BossRush/BgRogueTourmBossRushBoss7.png",
    "RecommendDamageTypes": [
      "Fire",
      "Wind",
      "Imaginary"
    ],
    "RecommendLevel": 55,
    "MapEntranceID": 8040001,
    "DisplayMonsterMap": [
      {
        "IODANDAABIA": 3014022,
        "BKOGBKGNGGG": 60
      }
    ],
    "NpcMonsterID": 3014021,
    "WorldLevel": 3,
    "EventID": 80300092,
    "DisplayItemList": [
      {
        "ItemID": 22,
        "ItemNum": 200
      },
      {
        "ItemID": 2
      },
      {
        "ItemID": 83132
      },
      {
        "ItemID": 83142
      },
      {
        "ItemID": 83133
      },
      {
        "ItemID": 83143
      },
      {
        "ItemID": 83134
      },
      {
        "ItemID": 83144
      }
    ],
    "DropList": [
      1000919,
      1000416,
      713073,
      713073,
      713073,
      460131,
      713074,
      713074,
      713075
    ],
    "StaminaCost": 40,
    "RogueKeyCost": 1
  },
  {
    "ID": 1007,
    "Difficulty": 3,
    "DisplayID": 207,
    "PicPath": "SpriteOutput/Rogue/BossRush/BgRogueTourmBossRushBoss7.png",
    "RecommendDamageTypes": [
      "Fire",
      "Wind",
      "Imaginary"
    ],
    "RecommendLevel": 65,
    "MapEntranceID": 8040001,
    "DisplayMonsterMap": [
      {
        "IODANDAABIA": 3014022,
        "BKOGBKGNGGG": 70
      }
    ],
    "NpcMonsterID": 3014021,
    "WorldLevel": 4,
    "EventID": 80300093,
    "DisplayItemList": [
      {
        "ItemID": 22,
        "ItemNum": 200
      },
      {
        "ItemID": 2
      },
      {
        "ItemID": 83132
      },
      {
        "ItemID": 83142
      },
      {
        "ItemID": 83133
      },
      {
        "ItemID": 83143
      },
      {
        "ItemID": 83134
      },
      {
        "ItemID": 83144
      }
    ],
    "DropList": [
      1000919,
      1000422,
      713073,
      713073,
      460141,
      713074,
      713074,
      460142,
      713075,
      460143
    ],
    "StaminaCost": 40,
    "RogueKeyCost": 1
  },
  {
    "ID": 1007,
    "Difficulty": 4,
    "DisplayID": 207,
    "PicPath": "SpriteOutput/Rogue/BossRush/BgRogueTourmBossRushBoss7.png",
    "RecommendDamageTypes": [
      "Fire",
      "Wind",
      "Imaginary"
    ],
    "RecommendLevel": 75,
    "MapEntranceID": 8040001,
    "DisplayMonsterMap": [
      {
        "IODANDAABIA": 3014022,
        "BKOGBKGNGGG": 80
      }
    ],
    "NpcMonsterID": 3014021,
    "WorldLevel": 5,
    "EventID": 80300094,
    "DisplayItemList": [
      {
        "ItemID": 22,
        "ItemNum": 200
      },
      {
        "ItemID": 2
      },
      {
        "ItemID": 83132
      },
      {
        "ItemID": 83142
      },
      {
        "ItemID": 83133
      },
      {
        "ItemID": 83143
      },
      {
        "ItemID": 83134
      },
      {
        "ItemID": 83144
      }
    ],
    "DropList": [
      1000919,
      1000428,
      713073,
      460151,
      713074,
      713074,
      713074,
      713075,
      713075
    ],
    "StaminaCost": 40,
    "RogueKeyCost": 1
  },
  {
    "ID": 1007,
    "Difficulty": 5,
    "DisplayID": 207,
    "PicPath": "SpriteOutput/Rogue/BossRush/BgRogueTourmBossRushBoss7.png",
    "RecommendDamageTypes": [
      "Fire",
      "Wind",
      "Imaginary"
    ],
    "RecommendLevel": 80,
    "MapEntranceID": 8040001,
    "DisplayMonsterMap": [
      {
        "IODANDAABIA": 3014022,
        "BKOGBKGNGGG": 90
      }
    ],
    "NpcMonsterID": 3014021,
    "WorldLevel": 6,
    "EventID": 80300095,
    "DisplayItemList": [
      {
        "ItemID": 22,
        "ItemNum": 200
      },
      {
        "ItemID": 2
      },
      {
        "ItemID": 83133
      },
      {
        "ItemID": 83143
      },
      {
        "ItemID": 83134
      },
      {
        "ItemID": 83144
      }
    ],
    "DropList": [
      1000919,
      1000434,
      713074,
      713074,
      713074,
      713074,
      713074,
      713075,
      713075,
      460161
    ],
    "StaminaCost": 40,
    "RogueKeyCost": 1
  },
  {
    "ID": 1008,
    "Difficulty": 1,
    "DisplayID": 208,
    "PicPath": "SpriteOutput/Rogue/BossRush/BgRogueTourmBossRushBoss8.png",
    "RecommendDamageTypes": [
      "Fire",
      "Physical",
      "Thunder",
      "Imaginary"
    ],
    "RecommendLevel": 45,
    "MapEntranceID": 8040001,
    "DisplayMonsterMap": [
      {
        "IODANDAABIA": 3004011,
        "BKOGBKGNGGG": 50
      },
      {
        "IODANDAABIA": 3003033,
        "BKOGBKGNGGG": 50
      },
      {
        "IODANDAABIA": 3003043,
        "BKOGBKGNGGG": 50
      },
      {
        "IODANDAABIA": 3003053,
        "BKOGBKGNGGG": 50
      }
    ],
    "NpcMonsterID": 3004011,
    "WorldLevel": 1,
    "EventID": 80300101,
    "DisplayItemList": [
      {
        "ItemID": 22,
        "ItemNum": 200
      },
      {
        "ItemID": 2
      },
      {
        "ItemID": 83151
      },
      {
        "ItemID": 83161
      },
      {
        "ItemID": 83152
      },
      {
        "ItemID": 83162
      },
      {
        "ItemID": 83153
      },
      {
        "ItemID": 83163
      }
    ],
    "DropList": [
      1000919,
      1000410,
      713082,
      713082,
      713083,
      713083,
      713083,
      713083,
      713084,
      713084,
      460191
    ],
    "StaminaCost": 40,
    "RogueKeyCost": 1
  },
  {
    "ID": 1008,
    "Difficulty": 2,
    "DisplayID": 208,
    "PicPath": "SpriteOutput/Rogue/BossRush/BgRogueTourmBossRushBoss8.png",
    "RecommendDamageTypes": [
      "Fire",
      "Physical",
      "Thunder",
      "Imaginary"
    ],
    "RecommendLevel": 55,
    "MapEntranceID": 8040001,
    "DisplayMonsterMap": [
      {
        "IODANDAABIA": 3004011,
        "BKOGBKGNGGG": 60
      },
      {
        "IODANDAABIA": 3003033,
        "BKOGBKGNGGG": 60
      },
      {
        "IODANDAABIA": 3003043,
        "BKOGBKGNGGG": 60
      },
      {
        "IODANDAABIA": 3003053,
        "BKOGBKGNGGG": 60
      }
    ],
    "NpcMonsterID": 3004011,
    "WorldLevel": 3,
    "EventID": 80300102,
    "DisplayItemList": [
      {
        "ItemID": 22,
        "ItemNum": 200
      },
      {
        "ItemID": 2
      },
      {
        "ItemID": 83152
      },
      {
        "ItemID": 83162
      },
      {
        "ItemID": 83153
      },
      {
        "ItemID": 83163
      },
      {
        "ItemID": 83154
      },
      {
        "ItemID": 83164
      }
    ],
    "DropList": [
      1000919,
      1000416,
      713083,
      713083,
      713083,
      460201,
      713084,
      713084,
      713085
    ],
    "StaminaCost": 40,
    "RogueKeyCost": 1
  },
  {
    "ID": 1008,
    "Difficulty": 3,
    "DisplayID": 208,
    "PicPath": "SpriteOutput/Rogue/BossRush/BgRogueTourmBossRushBoss8.png",
    "RecommendDamageTypes": [
      "Fire",
      "Physical",
      "Thunder",
      "Imaginary"
    ],
    "RecommendLevel": 65,
    "MapEntranceID": 8040001,
    "DisplayMonsterMap": [
      {
        "IODANDAABIA": 3004011,
        "BKOGBKGNGGG": 70
      },
      {
        "IODANDAABIA": 3003033,
        "BKOGBKGNGGG": 70
      },
      {
        "IODANDAABIA": 3003043,
        "BKOGBKGNGGG": 70
      },
      {
        "IODANDAABIA": 3003053,
        "BKOGBKGNGGG": 70
      }
    ],
    "NpcMonsterID": 3004011,
    "WorldLevel": 4,
    "EventID": 80300103,
    "DisplayItemList": [
      {
        "ItemID": 22,
        "ItemNum": 200
      },
      {
        "ItemID": 2
      },
      {
        "ItemID": 83152
      },
      {
        "ItemID": 83162
      },
      {
        "ItemID": 83153
      },
      {
        "ItemID": 83163
      },
      {
        "ItemID": 83154
      },
      {
        "ItemID": 83164
      }
    ],
    "DropList": [
      1000919,
      1000422,
      713083,
      713083,
      460211,
      713084,
      713084,
      460212,
      713085,
      460213
    ],
    "StaminaCost": 40,
    "RogueKeyCost": 1
  },
  {
    "ID": 1008,
    "Difficulty": 4,
    "DisplayID": 208,
    "PicPath": "SpriteOutput/Rogue/BossRush/BgRogueTourmBossRushBoss8.png",
    "RecommendDamageTypes": [
      "Fire",
      "Physical",
      "Thunder",
      "Imaginary"
    ],
    "RecommendLevel": 75,
    "MapEntranceID": 8040001,
    "DisplayMonsterMap": [
      {
        "IODANDAABIA": 3004011,
        "BKOGBKGNGGG": 80
      },
      {
        "IODANDAABIA": 3003033,
        "BKOGBKGNGGG": 80
      },
      {
        "IODANDAABIA": 3003043,
        "BKOGBKGNGGG": 80
      },
      {
        "IODANDAABIA": 3003053,
        "BKOGBKGNGGG": 80
      }
    ],
    "NpcMonsterID": 3004011,
    "WorldLevel": 5,
    "EventID": 80300104,
    "DisplayItemList": [
      {
        "ItemID": 22,
        "ItemNum": 200
      },
      {
        "ItemID": 2
      },
      {
        "ItemID": 83152
      },
      {
        "ItemID": 83162
      },
      {
        "ItemID": 83153
      },
      {
        "ItemID": 83163
      },
      {
        "ItemID": 83154
      },
      {
        "ItemID": 83164
      }
    ],
    "DropList": [
      1000919,
      1000428,
      713083,
      460221,
      713084,
      713084,
      713084,
      713085,
      713085
    ],
    "StaminaCost": 40,
    "RogueKeyCost": 1
  },
  {
    "ID": 1008,
    "Difficulty": 5,
    "DisplayID": 208,
    "PicPath": "SpriteOutput/Rogue/BossRush/BgRogueTourmBossRushBoss8.png",
    "RecommendDamageTypes": [
      "Fire",
      "Physical",
      "Thunder",
      "Imaginary"
    ],
    "RecommendLevel": 80,
    "MapEntranceID": 8040001,
    "DisplayMonsterMap": [
      {
        "IODANDAABIA": 3004011,
        "BKOGBKGNGGG": 90
      },
      {
        "IODANDAABIA": 3003033,
        "BKOGBKGNGGG": 90
      },
      {
        "IODANDAABIA": 3003043,
        "BKOGBKGNGGG": 90
      },
      {
        "IODANDAABIA": 3003053,
        "BKOGBKGNGGG": 90
      }
    ],
    "NpcMonsterID": 3004011,
    "WorldLevel": 6,
    "EventID": 80300105,
    "DisplayItemList": [
      {
        "ItemID": 22,
        "ItemNum": 200
      },
      {
        "ItemID": 2
      },
      {
        "ItemID": 83153
      },
      {
        "ItemID": 83163
      },
      {
        "ItemID": 83154
      },
      {
        "ItemID": 83164
      }
    ],
    "DropList": [
      1000919,
      1000434,
      713084,
      713084,
      713084,
      713084,
      713084,
      713085,
      713085,
      460231
    ],
    "StaminaCost": 40,
    "RogueKeyCost": 1
  },
  {
    "ID": 1009,
    "Difficulty": 1,
    "DisplayID": 209,
    "PicPath": "SpriteOutput/Rogue/BossRush/BgRogueTourmBossRushBoss9.png",
    "RecommendDamageTypes": [
      "Ice",
      "Quantum",
      "Imaginary"
    ],
    "RecommendLevel": 45,
    "MapEntranceID": 8040001,
    "DisplayMonsterMap": [
      {
        "IODANDAABIA": 8024012,
        "BKOGBKGNGGG": 50
      }
    ],
    "NpcMonsterID": 8024010,
    "WorldLevel": 1,
    "EventID": 80300111,
    "DisplayItemList": [
      {
        "ItemID": 22,
        "ItemNum": 200
      },
      {
        "ItemID": 2
      },
      {
        "ItemID": 83171
      },
      {
        "ItemID": 83181
      },
      {
        "ItemID": 83172
      },
      {
        "ItemID": 83182
      },
      {
        "ItemID": 83173
      },
      {
        "ItemID": 83183
      }
    ],
    "DropList": [
      1000919,
      1000410,
      713092,
      713092,
      713093,
      713093,
      713093,
      713093,
      713094,
      713094,
      460261
    ],
    "StaminaCost": 40,
    "RogueKeyCost": 1
  },
  {
    "ID": 1009,
    "Difficulty": 2,
    "DisplayID": 209,
    "PicPath": "SpriteOutput/Rogue/BossRush/BgRogueTourmBossRushBoss9.png",
    "RecommendDamageTypes": [
      "Ice",
      "Quantum",
      "Imaginary"
    ],
    "RecommendLevel": 55,
    "MapEntranceID": 8040001,
    "DisplayMonsterMap": [
      {
        "IODANDAABIA": 8024012,
        "BKOGBKGNGGG": 60
      }
    ],
    "NpcMonsterID": 8024010,
    "WorldLevel": 3,
    "EventID": 80300112,
    "DisplayItemList": [
      {
        "ItemID": 22,
        "ItemNum": 200
      },
      {
        "ItemID": 2
      },
      {
        "ItemID": 83172
      },
      {
        "ItemID": 83182
      },
      {
        "ItemID": 83173
      },
      {
        "ItemID": 83183
      },
      {
        "ItemID": 83174
      },
      {
        "ItemID": 83184
      }
    ],
    "DropList": [
      1000919,
      1000416,
      713093,
      713093,
      713093,
      460271,
      713094,
      713094,
      713095
    ],
    "StaminaCost": 40,
    "RogueKeyCost": 1
  },
  {
    "ID": 1009,
    "Difficulty": 3,
    "DisplayID": 209,
    "PicPath": "SpriteOutput/Rogue/BossRush/BgRogueTourmBossRushBoss9.png",
    "RecommendDamageTypes": [
      "Ice",
      "Quantum",
      "Imaginary"
    ],
    "RecommendLevel": 65,
    "MapEntranceID": 8040001,
    "DisplayMonsterMap": [
      {
        "IODANDAABIA": 8024012,
        "BKOGBKGNGGG": 70
      }
    ],
    "NpcMonsterID": 8024010,
    "WorldLevel": 4,
    "EventID": 80300113,
    "DisplayItemList": [
      {
        "ItemID": 22,
        "ItemNum": 200
      },
      {
        "ItemID": 2
      },
      {
        "ItemID": 83172
      },
      {
        "ItemID": 83182
      },
      {
        "ItemID": 83173
      },
      {
        "ItemID": 83183
      },
      {
        "ItemID": 83174
      },
      {
        "ItemID": 83184
      }
    ],
    "DropList": [
      1000919,
      1000422,
      713093,
      713093,
      460281,
      713094,
      713094,
      460282,
      713095,
      460283
    ],
    "StaminaCost": 40,
    "RogueKeyCost": 1
  },
  {
    "ID": 1009,
    "Difficulty": 4,
    "DisplayID": 209,
    "PicPath": "SpriteOutput/Rogue/BossRush/BgRogueTourmBossRushBoss9.png",
    "RecommendDamageTypes": [
      "Ice",
      "Quantum",
      "Imaginary"
    ],
    "RecommendLevel": 75,
    "MapEntranceID": 8040001,
    "DisplayMonsterMap": [
      {
        "IODANDAABIA": 8024012,
        "BKOGBKGNGGG": 80
      }
    ],
    "NpcMonsterID": 8024010,
    "WorldLevel": 5,
    "EventID": 80300114,
    "DisplayItemList": [
      {
        "ItemID": 22,
        "ItemNum": 200
      },
      {
        "ItemID": 2
      },
      {
        "ItemID": 83172
      },
      {
        "ItemID": 83182
      },
      {
        "ItemID": 83173
      },
      {
        "ItemID": 83183
      },
      {
        "ItemID": 83174
      },
      {
        "ItemID": 83184
      }
    ],
    "DropList": [
      1000919,
      1000428,
      713093,
      460291,
      713094,
      713094,
      713094,
      713095,
      713095
    ],
    "StaminaCost": 40,
    "RogueKeyCost": 1
  },
  {
    "ID": 1009,
    "Difficulty": 5,
    "DisplayID": 209,
    "PicPath": "SpriteOutput/Rogue/BossRush/BgRogueTourmBossRushBoss9.png",
    "RecommendDamageTypes": [
      "Ice",
      "Quantum",
      "Imaginary"
    ],
    "RecommendLevel": 80,
    "MapEntranceID": 8040001,
    "DisplayMonsterMap": [
      {
        "IODANDAABIA": 8024012,
        "BKOGBKGNGGG": 90
      }
    ],
    "NpcMonsterID": 8024010,
    "WorldLevel": 6,
    "EventID": 80300115,
    "DisplayItemList": [
      {
        "ItemID": 22,
        "ItemNum": 200
      },
      {
        "ItemID": 2
      },
      {
        "ItemID": 83173
      },
      {
        "ItemID": 83183
      },
      {
        "ItemID": 83174
      },
      {
        "ItemID": 83184
      }
    ],
    "DropList": [
      1000919,
      1000434,
      713094,
      713094,
      713094,
      713094,
      713094,
      713095,
      713095,
      460301
    ],
    "StaminaCost": 40,
    "RogueKeyCost": 1
  }
]