[
  {
    "RelicRarity": "CombatPowerRelicRarity2",
    "RelicType": "HEAD",
    "RelicSubValueList": [],
    "RelicSubValueStepTime": 1
  },
  {
    "RelicRarity": "CombatPowerRelicRarity2",
    "RelicType": "HAND",
    "RelicSubValueList": [],
    "RelicSubValueStepTime": 1
  },
  {
    "RelicRarity": "CombatPowerRelicRarity2",
    "RelicType": "BODY",
    "RelicSubValueList": [],
    "RelicSubValueStepTime": 1
  },
  {
    "RelicRarity": "CombatPowerRelicRarity2",
    "RelicType": "FOOT",
    "RelicSubValueList": [],
    "RelicSubValueStepTime": 1
  },
  {
    "RelicRarity": "CombatPowerRelicRarity2",
    "RelicType": "NECK",
    "RelicSubValueList": [],
    "RelicSubValueStepTime": 1
  },
  {
    "RelicRarity": "CombatPowerRelicRarity2",
    "RelicType": "OBJECT",
    "RelicSubValueList": [],
    "RelicSubValueStepTime": 1
  },
  {
    "RelicRarity": "CombatPowerRelicRarity2",
    "RelicLevel": 1,
    "RelicType": "HEAD",
    "RelicSubValueList": [],
    "RelicSubValueStepTime": 1
  },
  {
    "RelicRarity": "CombatPowerRelicRarity2",
    "RelicLevel": 1,
    "RelicType": "HAND",
    "RelicSubValueList": [],
    "RelicSubValueStepTime": 1
  },
  {
    "RelicRarity": "CombatPowerRelicRarity2",
    "RelicLevel": 1,
    "RelicType": "BODY",
    "RelicSubValueList": [],
    "RelicSubValueStepTime": 1
  },
  {
    "RelicRarity": "CombatPowerRelicRarity2",
    "RelicLevel": 1,
    "RelicType": "FOOT",
    "RelicSubValueList": [],
    "RelicSubValueStepTime": 1
  },
  {
    "RelicRarity": "CombatPowerRelicRarity2",
    "RelicLevel": 1,
    "RelicType": "NECK",
    "RelicSubValueList": [],
    "RelicSubValueStepTime": 1
  },
  {
    "RelicRarity": "CombatPowerRelicRarity2",
    "RelicLevel": 1,
    "RelicType": "OBJECT",
    "RelicSubValueList": [],
    "RelicSubValueStepTime": 1
  },
  {
    "RelicRarity": "CombatPowerRelicRarity2",
    "RelicLevel": 2,
    "RelicType": "HEAD",
    "RelicSubValueList": [],
    "RelicSubValueStepTime": 1
  },
  {
    "RelicRarity": "CombatPowerRelicRarity2",
    "RelicLevel": 2,
    "RelicType": "HAND",
    "RelicSubValueList": [],
    "RelicSubValueStepTime": 1
  },
  {
    "RelicRarity": "CombatPowerRelicRarity2",
    "RelicLevel": 2,
    "RelicType": "BODY",
    "RelicSubValueList": [],
    "RelicSubValueStepTime": 1
  },
  {
    "RelicRarity": "CombatPowerRelicRarity2",
    "RelicLevel": 2,
    "RelicType": "FOOT",
    "RelicSubValueList": [],
    "RelicSubValueStepTime": 1
  },
  {
    "RelicRarity": "CombatPowerRelicRarity2",
    "RelicLevel": 2,
    "RelicType": "NECK",
    "RelicSubValueList": [],
    "RelicSubValueStepTime": 1
  },
  {
    "RelicRarity": "CombatPowerRelicRarity2",
    "RelicLevel": 2,
    "RelicType": "OBJECT",
    "RelicSubValueList": [],
    "RelicSubValueStepTime": 1
  },
  {
    "RelicRarity": "CombatPowerRelicRarity2",
    "RelicLevel": 3,
    "RelicType": "HEAD",
    "RelicSubValueList": [
      {
        "EDOCPKIBBNG": "HPAddedRatio",
        "EHBNCHKBLDI": 1
      }
    ],
    "RelicSubValueStepTime": 1
  },
  {
    "RelicRarity": "CombatPowerRelicRarity2",
    "RelicLevel": 3,
    "RelicType": "HAND",
    "RelicSubValueList": [
      {
        "EDOCPKIBBNG": "CriticalChanceBase",
        "EHBNCHKBLDI": 1
      }
    ],
    "RelicSubValueStepTime": 1
  },
  {
    "RelicRarity": "CombatPowerRelicRarity2",
    "RelicLevel": 3,
    "RelicType": "BODY",
    "RelicSubValueList": [
      {
        "EDOCPKIBBNG": "AttackAddedRatio",
        "EHBNCHKBLDI": 1
      }
    ],
    "RelicSubValueStepTime": 1
  },
  {
    "RelicRarity": "CombatPowerRelicRarity2",
    "RelicLevel": 3,
    "RelicType": "FOOT",
    "RelicSubValueList": [
      {
        "EDOCPKIBBNG": "DefenceAddedRatio",
        "EHBNCHKBLDI": 1
      }
    ],
    "RelicSubValueStepTime": 1
  },
  {
    "RelicRarity": "CombatPowerRelicRarity2",
    "RelicLevel": 3,
    "RelicType": "NECK",
    "RelicSubValueList": [
      {
        "EDOCPKIBBNG": "SpeedDelta",
        "EHBNCHKBLDI": 1
      }
    ],
    "RelicSubValueStepTime": 1
  },
  {
    "RelicRarity": "CombatPowerRelicRarity2",
    "RelicLevel": 3,
    "RelicType": "OBJECT",
    "RelicSubValueList": [
      {
        "EDOCPKIBBNG": "BreakDamageAddedRatioBase",
        "EHBNCHKBLDI": 1
      }
    ],
    "RelicSubValueStepTime": 1
  },
  {
    "RelicRarity": "CombatPowerRelicRarity2",
    "RelicLevel": 4,
    "RelicType": "HEAD",
    "RelicSubValueList": [
      {
        "EDOCPKIBBNG": "HPAddedRatio",
        "EHBNCHKBLDI": 1
      }
    ],
    "RelicSubValueStepTime": 1
  },
  {
    "RelicRarity": "CombatPowerRelicRarity2",
    "RelicLevel": 4,
    "RelicType": "HAND",
    "RelicSubValueList": [
      {
        "EDOCPKIBBNG": "CriticalChanceBase",
        "EHBNCHKBLDI": 1
      }
    ],
    "RelicSubValueStepTime": 1
  },
  {
    "RelicRarity": "CombatPowerRelicRarity2",
    "RelicLevel": 4,
    "RelicType": "BODY",
    "RelicSubValueList": [
      {
        "EDOCPKIBBNG": "AttackAddedRatio",
        "EHBNCHKBLDI": 1
      }
    ],
    "RelicSubValueStepTime": 1
  },
  {
    "RelicRarity": "CombatPowerRelicRarity2",
    "RelicLevel": 4,
    "RelicType": "FOOT",
    "RelicSubValueList": [
      {
        "EDOCPKIBBNG": "DefenceAddedRatio",
        "EHBNCHKBLDI": 1
      }
    ],
    "RelicSubValueStepTime": 1
  },
  {
    "RelicRarity": "CombatPowerRelicRarity2",
    "RelicLevel": 4,
    "RelicType": "NECK",
    "RelicSubValueList": [
      {
        "EDOCPKIBBNG": "SpeedDelta",
        "EHBNCHKBLDI": 1
      }
    ],
    "RelicSubValueStepTime": 1
  },
  {
    "RelicRarity": "CombatPowerRelicRarity2",
    "RelicLevel": 4,
    "RelicType": "OBJECT",
    "RelicSubValueList": [
      {
        "EDOCPKIBBNG": "BreakDamageAddedRatioBase",
        "EHBNCHKBLDI": 1
      }
    ],
    "RelicSubValueStepTime": 1
  },
  {
    "RelicRarity": "CombatPowerRelicRarity2",
    "RelicLevel": 5,
    "RelicType": "HEAD",
    "RelicSubValueList": [
      {
        "EDOCPKIBBNG": "HPAddedRatio",
        "EHBNCHKBLDI": 1
      }
    ],
    "RelicSubValueStepTime": 1
  },
  {
    "RelicRarity": "CombatPowerRelicRarity2",
    "RelicLevel": 5,
    "RelicType": "HAND",
    "RelicSubValueList": [
      {
        "EDOCPKIBBNG": "CriticalChanceBase",
        "EHBNCHKBLDI": 1
      }
    ],
    "RelicSubValueStepTime": 1
  },
  {
    "RelicRarity": "CombatPowerRelicRarity2",
    "RelicLevel": 5,
    "RelicType": "BODY",
    "RelicSubValueList": [
      {
        "EDOCPKIBBNG": "AttackAddedRatio",
        "EHBNCHKBLDI": 1
      }
    ],
    "RelicSubValueStepTime": 1
  },
  {
    "RelicRarity": "CombatPowerRelicRarity2",
    "RelicLevel": 5,
    "RelicType": "FOOT",
    "RelicSubValueList": [
      {
        "EDOCPKIBBNG": "DefenceAddedRatio",
        "EHBNCHKBLDI": 1
      }
    ],
    "RelicSubValueStepTime": 1
  },
  {
    "RelicRarity": "CombatPowerRelicRarity2",
    "RelicLevel": 5,
    "RelicType": "NECK",
    "RelicSubValueList": [
      {
        "EDOCPKIBBNG": "SpeedDelta",
        "EHBNCHKBLDI": 1
      }
    ],
    "RelicSubValueStepTime": 1
  },
  {
    "RelicRarity": "CombatPowerRelicRarity2",
    "RelicLevel": 5,
    "RelicType": "OBJECT",
    "RelicSubValueList": [
      {
        "EDOCPKIBBNG": "BreakDamageAddedRatioBase",
        "EHBNCHKBLDI": 1
      }
    ],
    "RelicSubValueStepTime": 1
  },
  {
    "RelicRarity": "CombatPowerRelicRarity2",
    "RelicLevel": 6,
    "RelicType": "HEAD",
    "RelicSubValueList": [
      {
        "EDOCPKIBBNG": "HPAddedRatio",
        "EHBNCHKBLDI": 2
      }
    ],
    "RelicSubValueStepTime": 1
  },
  {
    "RelicRarity": "CombatPowerRelicRarity2",
    "RelicLevel": 6,
    "RelicType": "HAND",
    "RelicSubValueList": [
      {
        "EDOCPKIBBNG": "SpeedDelta",
        "EHBNCHKBLDI": 1
      },
      {
        "EDOCPKIBBNG": "CriticalChanceBase",
        "EHBNCHKBLDI": 1
      }
    ],
    "RelicSubValueStepTime": 1
  },
  {
    "RelicRarity": "CombatPowerRelicRarity2",
    "RelicLevel": 6,
    "RelicType": "BODY",
    "RelicSubValueList": [
      {
        "EDOCPKIBBNG": "AttackAddedRatio",
        "EHBNCHKBLDI": 1
      },
      {
        "EDOCPKIBBNG": "CriticalDamageBase",
        "EHBNCHKBLDI": 1
      }
    ],
    "RelicSubValueStepTime": 1
  },
  {
    "RelicRarity": "CombatPowerRelicRarity2",
    "RelicLevel": 6,
    "RelicType": "FOOT",
    "RelicSubValueList": [
      {
        "EDOCPKIBBNG": "DefenceAddedRatio",
        "EHBNCHKBLDI": 1
      },
      {
        "EDOCPKIBBNG": "StatusProbabilityBase",
        "EHBNCHKBLDI": 1
      }
    ],
    "RelicSubValueStepTime": 1
  },
  {
    "RelicRarity": "CombatPowerRelicRarity2",
    "RelicLevel": 6,
    "RelicType": "NECK",
    "RelicSubValueList": [
      {
        "EDOCPKIBBNG": "SpeedDelta",
        "EHBNCHKBLDI": 1
      },
      {
        "EDOCPKIBBNG": "StatusResistanceBase",
        "EHBNCHKBLDI": 1
      }
    ],
    "RelicSubValueStepTime": 1
  },
  {
    "RelicRarity": "CombatPowerRelicRarity2",
    "RelicLevel": 6,
    "RelicType": "OBJECT",
    "RelicSubValueList": [
      {
        "EDOCPKIBBNG": "CriticalChanceBase",
        "EHBNCHKBLDI": 1
      },
      {
        "EDOCPKIBBNG": "BreakDamageAddedRatioBase",
        "EHBNCHKBLDI": 1
      }
    ],
    "RelicSubValueStepTime": 1
  },
  {
    "RelicRarity": "CombatPowerRelicRarity3",
    "RelicType": "HEAD",
    "RelicSubValueList": [
      {
        "EDOCPKIBBNG": "HPAddedRatio",
        "EHBNCHKBLDI": 1
      }
    ],
    "RelicSubValueStepTime": 1
  },
  {
    "RelicRarity": "CombatPowerRelicRarity3",
    "RelicType": "HAND",
    "RelicSubValueList": [
      {
        "EDOCPKIBBNG": "CriticalChanceBase",
        "EHBNCHKBLDI": 1
      }
    ],
    "RelicSubValueStepTime": 1
  },
  {
    "RelicRarity": "CombatPowerRelicRarity3",
    "RelicType": "BODY",
    "RelicSubValueList": [
      {
        "EDOCPKIBBNG": "AttackAddedRatio",
        "EHBNCHKBLDI": 1
      }
    ],
    "RelicSubValueStepTime": 1
  },
  {
    "RelicRarity": "CombatPowerRelicRarity3",
    "RelicType": "FOOT",
    "RelicSubValueList": [
      {
        "EDOCPKIBBNG": "DefenceAddedRatio",
        "EHBNCHKBLDI": 1
      }
    ],
    "RelicSubValueStepTime": 1
  },
  {
    "RelicRarity": "CombatPowerRelicRarity3",
    "RelicType": "NECK",
    "RelicSubValueList": [
      {
        "EDOCPKIBBNG": "SpeedDelta",
        "EHBNCHKBLDI": 1
      }
    ],
    "RelicSubValueStepTime": 1
  },
  {
    "RelicRarity": "CombatPowerRelicRarity3",
    "RelicType": "OBJECT",
    "RelicSubValueList": [
      {
        "EDOCPKIBBNG": "BreakDamageAddedRatioBase",
        "EHBNCHKBLDI": 1
      }
    ],
    "RelicSubValueStepTime": 1
  },
  {
    "RelicRarity": "CombatPowerRelicRarity3",
    "RelicLevel": 1,
    "RelicType": "HEAD",
    "RelicSubValueList": [
      {
        "EDOCPKIBBNG": "HPAddedRatio",
        "EHBNCHKBLDI": 1
      }
    ],
    "RelicSubValueStepTime": 1
  },
  {
    "RelicRarity": "CombatPowerRelicRarity3",
    "RelicLevel": 1,
    "RelicType": "HAND",
    "RelicSubValueList": [
      {
        "EDOCPKIBBNG": "CriticalChanceBase",
        "EHBNCHKBLDI": 1
      }
    ],
    "RelicSubValueStepTime": 1
  },
  {
    "RelicRarity": "CombatPowerRelicRarity3",
    "RelicLevel": 1,
    "RelicType": "BODY",
    "RelicSubValueList": [
      {
        "EDOCPKIBBNG": "AttackAddedRatio",
        "EHBNCHKBLDI": 1
      }
    ],
    "RelicSubValueStepTime": 1
  },
  {
    "RelicRarity": "CombatPowerRelicRarity3",
    "RelicLevel": 1,
    "RelicType": "FOOT",
    "RelicSubValueList": [
      {
        "EDOCPKIBBNG": "DefenceAddedRatio",
        "EHBNCHKBLDI": 1
      }
    ],
    "RelicSubValueStepTime": 1
  },
  {
    "RelicRarity": "CombatPowerRelicRarity3",
    "RelicLevel": 1,
    "RelicType": "NECK",
    "RelicSubValueList": [
      {
        "EDOCPKIBBNG": "SpeedDelta",
        "EHBNCHKBLDI": 1
      }
    ],
    "RelicSubValueStepTime": 1
  },
  {
    "RelicRarity": "CombatPowerRelicRarity3",
    "RelicLevel": 1,
    "RelicType": "OBJECT",
    "RelicSubValueList": [
      {
        "EDOCPKIBBNG": "BreakDamageAddedRatioBase",
        "EHBNCHKBLDI": 1
      }
    ],
    "RelicSubValueStepTime": 1
  },
  {
    "RelicRarity": "CombatPowerRelicRarity3",
    "RelicLevel": 2,
    "RelicType": "HEAD",
    "RelicSubValueList": [
      {
        "EDOCPKIBBNG": "HPAddedRatio",
        "EHBNCHKBLDI": 1
      }
    ],
    "RelicSubValueStepTime": 1
  },
  {
    "RelicRarity": "CombatPowerRelicRarity3",
    "RelicLevel": 2,
    "RelicType": "HAND",
    "RelicSubValueList": [
      {
        "EDOCPKIBBNG": "CriticalChanceBase",
        "EHBNCHKBLDI": 1
      }
    ],
    "RelicSubValueStepTime": 1
  },
  {
    "RelicRarity": "CombatPowerRelicRarity3",
    "RelicLevel": 2,
    "RelicType": "BODY",
    "RelicSubValueList": [
      {
        "EDOCPKIBBNG": "AttackAddedRatio",
        "EHBNCHKBLDI": 1
      }
    ],
    "RelicSubValueStepTime": 1
  },
  {
    "RelicRarity": "CombatPowerRelicRarity3",
    "RelicLevel": 2,
    "RelicType": "FOOT",
    "RelicSubValueList": [
      {
        "EDOCPKIBBNG": "DefenceAddedRatio",
        "EHBNCHKBLDI": 1
      }
    ],
    "RelicSubValueStepTime": 1
  },
  {
    "RelicRarity": "CombatPowerRelicRarity3",
    "RelicLevel": 2,
    "RelicType": "NECK",
    "RelicSubValueList": [
      {
        "EDOCPKIBBNG": "SpeedDelta",
        "EHBNCHKBLDI": 1
      }
    ],
    "RelicSubValueStepTime": 1
  },
  {
    "RelicRarity": "CombatPowerRelicRarity3",
    "RelicLevel": 2,
    "RelicType": "OBJECT",
    "RelicSubValueList": [
      {
        "EDOCPKIBBNG": "BreakDamageAddedRatioBase",
        "EHBNCHKBLDI": 1
      }
    ],
    "RelicSubValueStepTime": 1
  },
  {
    "RelicRarity": "CombatPowerRelicRarity3",
    "RelicLevel": 3,
    "RelicType": "HEAD",
    "RelicSubValueList": [
      {
        "EDOCPKIBBNG": "HPAddedRatio",
        "EHBNCHKBLDI": 2
      }
    ],
    "RelicSubValueStepTime": 1
  },
  {
    "RelicRarity": "CombatPowerRelicRarity3",
    "RelicLevel": 3,
    "RelicType": "HAND",
    "RelicSubValueList": [
      {
        "EDOCPKIBBNG": "SpeedDelta",
        "EHBNCHKBLDI": 1
      },
      {
        "EDOCPKIBBNG": "CriticalChanceBase",
        "EHBNCHKBLDI": 1
      }
    ],
    "RelicSubValueStepTime": 1
  },
  {
    "RelicRarity": "CombatPowerRelicRarity3",
    "RelicLevel": 3,
    "RelicType": "BODY",
    "RelicSubValueList": [
      {
        "EDOCPKIBBNG": "AttackAddedRatio",
        "EHBNCHKBLDI": 1
      },
      {
        "EDOCPKIBBNG": "CriticalDamageBase",
        "EHBNCHKBLDI": 1
      }
    ],
    "RelicSubValueStepTime": 1
  },
  {
    "RelicRarity": "CombatPowerRelicRarity3",
    "RelicLevel": 3,
    "RelicType": "FOOT",
    "RelicSubValueList": [
      {
        "EDOCPKIBBNG": "DefenceAddedRatio",
        "EHBNCHKBLDI": 1
      },
      {
        "EDOCPKIBBNG": "StatusProbabilityBase",
        "EHBNCHKBLDI": 1
      }
    ],
    "RelicSubValueStepTime": 1
  },
  {
    "RelicRarity": "CombatPowerRelicRarity3",
    "RelicLevel": 3,
    "RelicType": "NECK",
    "RelicSubValueList": [
      {
        "EDOCPKIBBNG": "SpeedDelta",
        "EHBNCHKBLDI": 1
      },
      {
        "EDOCPKIBBNG": "StatusResistanceBase",
        "EHBNCHKBLDI": 1
      }
    ],
    "RelicSubValueStepTime": 1
  },
  {
    "RelicRarity": "CombatPowerRelicRarity3",
    "RelicLevel": 3,
    "RelicType": "OBJECT",
    "RelicSubValueList": [
      {
        "EDOCPKIBBNG": "CriticalChanceBase",
        "EHBNCHKBLDI": 1
      },
      {
        "EDOCPKIBBNG": "BreakDamageAddedRatioBase",
        "EHBNCHKBLDI": 1
      }
    ],
    "RelicSubValueStepTime": 1
  },
  {
    "RelicRarity": "CombatPowerRelicRarity3",
    "RelicLevel": 4,
    "RelicType": "HEAD",
    "RelicSubValueList": [
      {
        "EDOCPKIBBNG": "HPAddedRatio",
        "EHBNCHKBLDI": 2
      }
    ],
    "RelicSubValueStepTime": 1
  },
  {
    "RelicRarity": "CombatPowerRelicRarity3",
    "RelicLevel": 4,
    "RelicType": "HAND",
    "RelicSubValueList": [
      {
        "EDOCPKIBBNG": "SpeedDelta",
        "EHBNCHKBLDI": 1
      },
      {
        "EDOCPKIBBNG": "CriticalChanceBase",
        "EHBNCHKBLDI": 1
      }
    ],
    "RelicSubValueStepTime": 1
  },
  {
    "RelicRarity": "CombatPowerRelicRarity3",
    "RelicLevel": 4,
    "RelicType": "BODY",
    "RelicSubValueList": [
      {
        "EDOCPKIBBNG": "AttackAddedRatio",
        "EHBNCHKBLDI": 1
      },
      {
        "EDOCPKIBBNG": "CriticalDamageBase",
        "EHBNCHKBLDI": 1
      }
    ],
    "RelicSubValueStepTime": 1
  },
  {
    "RelicRarity": "CombatPowerRelicRarity3",
    "RelicLevel": 4,
    "RelicType": "FOOT",
    "RelicSubValueList": [
      {
        "EDOCPKIBBNG": "DefenceAddedRatio",
        "EHBNCHKBLDI": 1
      },
      {
        "EDOCPKIBBNG": "StatusProbabilityBase",
        "EHBNCHKBLDI": 1
      }
    ],
    "RelicSubValueStepTime": 1
  },
  {
    "RelicRarity": "CombatPowerRelicRarity3",
    "RelicLevel": 4,
    "RelicType": "NECK",
    "RelicSubValueList": [
      {
        "EDOCPKIBBNG": "SpeedDelta",
        "EHBNCHKBLDI": 1
      },
      {
        "EDOCPKIBBNG": "StatusResistanceBase",
        "EHBNCHKBLDI": 1
      }
    ],
    "RelicSubValueStepTime": 1
  },
  {
    "RelicRarity": "CombatPowerRelicRarity3",
    "RelicLevel": 4,
    "RelicType": "OBJECT",
    "RelicSubValueList": [
      {
        "EDOCPKIBBNG": "CriticalChanceBase",
        "EHBNCHKBLDI": 1
      },
      {
        "EDOCPKIBBNG": "BreakDamageAddedRatioBase",
        "EHBNCHKBLDI": 1
      }
    ],
    "RelicSubValueStepTime": 1
  },
  {
    "RelicRarity": "CombatPowerRelicRarity3",
    "RelicLevel": 5,
    "RelicType": "HEAD",
    "RelicSubValueList": [
      {
        "EDOCPKIBBNG": "HPAddedRatio",
        "EHBNCHKBLDI": 2
      }
    ],
    "RelicSubValueStepTime": 1
  },
  {
    "RelicRarity": "CombatPowerRelicRarity3",
    "RelicLevel": 5,
    "RelicType": "HAND",
    "RelicSubValueList": [
      {
        "EDOCPKIBBNG": "SpeedDelta",
        "EHBNCHKBLDI": 1
      },
      {
        "EDOCPKIBBNG": "CriticalChanceBase",
        "EHBNCHKBLDI": 1
      }
    ],
    "RelicSubValueStepTime": 1
  },
  {
    "RelicRarity": "CombatPowerRelicRarity3",
    "RelicLevel": 5,
    "RelicType": "BODY",
    "RelicSubValueList": [
      {
        "EDOCPKIBBNG": "AttackAddedRatio",
        "EHBNCHKBLDI": 1
      },
      {
        "EDOCPKIBBNG": "CriticalDamageBase",
        "EHBNCHKBLDI": 1
      }
    ],
    "RelicSubValueStepTime": 1
  },
  {
    "RelicRarity": "CombatPowerRelicRarity3",
    "RelicLevel": 5,
    "RelicType": "FOOT",
    "RelicSubValueList": [
      {
        "EDOCPKIBBNG": "DefenceAddedRatio",
        "EHBNCHKBLDI": 1
      },
      {
        "EDOCPKIBBNG": "StatusProbabilityBase",
        "EHBNCHKBLDI": 1
      }
    ],
    "RelicSubValueStepTime": 1
  },
  {
    "RelicRarity": "CombatPowerRelicRarity3",
    "RelicLevel": 5,
    "RelicType": "NECK",
    "RelicSubValueList": [
      {
        "EDOCPKIBBNG": "SpeedDelta",
        "EHBNCHKBLDI": 1
      },
      {
        "EDOCPKIBBNG": "StatusResistanceBase",
        "EHBNCHKBLDI": 1
      }
    ],
    "RelicSubValueStepTime": 1
  },
  {
    "RelicRarity": "CombatPowerRelicRarity3",
    "RelicLevel": 5,
    "RelicType": "OBJECT",
    "RelicSubValueList": [
      {
        "EDOCPKIBBNG": "CriticalChanceBase",
        "EHBNCHKBLDI": 1
      },
      {
        "EDOCPKIBBNG": "BreakDamageAddedRatioBase",
        "EHBNCHKBLDI": 1
      }
    ],
    "RelicSubValueStepTime": 1
  },
  {
    "RelicRarity": "CombatPowerRelicRarity3",
    "RelicLevel": 6,
    "RelicType": "HEAD",
    "RelicSubValueList": [
      {
        "EDOCPKIBBNG": "HPAddedRatio",
        "EHBNCHKBLDI": 2
      }
    ],
    "RelicSubValueStepTime": 1
  },
  {
    "RelicRarity": "CombatPowerRelicRarity3",
    "RelicLevel": 6,
    "RelicType": "HAND",
    "RelicSubValueList": [
      {
        "EDOCPKIBBNG": "AttackAddedRatio",
        "EHBNCHKBLDI": 1
      },
      {
        "EDOCPKIBBNG": "SpeedDelta",
        "EHBNCHKBLDI": 1
      },
      {
        "EDOCPKIBBNG": "CriticalChanceBase",
        "EHBNCHKBLDI": 1
      }
    ],
    "RelicSubValueStepTime": 1
  },
  {
    "RelicRarity": "CombatPowerRelicRarity3",
    "RelicLevel": 6,
    "RelicType": "BODY",
    "RelicSubValueList": [
      {
        "EDOCPKIBBNG": "AttackAddedRatio",
        "EHBNCHKBLDI": 1
      },
      {
        "EDOCPKIBBNG": "CriticalDamageBase",
        "EHBNCHKBLDI": 2
      }
    ],
    "RelicSubValueStepTime": 1
  },
  {
    "RelicRarity": "CombatPowerRelicRarity3",
    "RelicLevel": 6,
    "RelicType": "FOOT",
    "RelicSubValueList": [
      {
        "EDOCPKIBBNG": "DefenceAddedRatio",
        "EHBNCHKBLDI": 2
      },
      {
        "EDOCPKIBBNG": "StatusProbabilityBase",
        "EHBNCHKBLDI": 1
      }
    ],
    "RelicSubValueStepTime": 1
  },
  {
    "RelicRarity": "CombatPowerRelicRarity3",
    "RelicLevel": 6,
    "RelicType": "NECK",
    "RelicSubValueList": [
      {
        "EDOCPKIBBNG": "SpeedDelta",
        "EHBNCHKBLDI": 1
      },
      {
        "EDOCPKIBBNG": "StatusResistanceBase",
        "EHBNCHKBLDI": 2
      }
    ],
    "RelicSubValueStepTime": 1
  },
  {
    "RelicRarity": "CombatPowerRelicRarity3",
    "RelicLevel": 6,
    "RelicType": "OBJECT",
    "RelicSubValueList": [
      {
        "EDOCPKIBBNG": "CriticalChanceBase",
        "EHBNCHKBLDI": 1
      },
      {
        "EDOCPKIBBNG": "BreakDamageAddedRatioBase",
        "EHBNCHKBLDI": 2
      }
    ],
    "RelicSubValueStepTime": 1
  },
  {
    "RelicRarity": "CombatPowerRelicRarity3",
    "RelicLevel": 7,
    "RelicType": "HEAD",
    "RelicSubValueList": [
      {
        "EDOCPKIBBNG": "HPAddedRatio",
        "EHBNCHKBLDI": 2
      }
    ],
    "RelicSubValueStepTime": 1
  },
  {
    "RelicRarity": "CombatPowerRelicRarity3",
    "RelicLevel": 7,
    "RelicType": "HAND",
    "RelicSubValueList": [
      {
        "EDOCPKIBBNG": "AttackAddedRatio",
        "EHBNCHKBLDI": 1
      },
      {
        "EDOCPKIBBNG": "SpeedDelta",
        "EHBNCHKBLDI": 1
      },
      {
        "EDOCPKIBBNG": "CriticalChanceBase",
        "EHBNCHKBLDI": 1
      }
    ],
    "RelicSubValueStepTime": 1
  },
  {
    "RelicRarity": "CombatPowerRelicRarity3",
    "RelicLevel": 7,
    "RelicType": "BODY",
    "RelicSubValueList": [
      {
        "EDOCPKIBBNG": "AttackAddedRatio",
        "EHBNCHKBLDI": 1
      },
      {
        "EDOCPKIBBNG": "CriticalDamageBase",
        "EHBNCHKBLDI": 2
      }
    ],
    "RelicSubValueStepTime": 1
  },
  {
    "RelicRarity": "CombatPowerRelicRarity3",
    "RelicLevel": 7,
    "RelicType": "FOOT",
    "RelicSubValueList": [
      {
        "EDOCPKIBBNG": "DefenceAddedRatio",
        "EHBNCHKBLDI": 2
      },
      {
        "EDOCPKIBBNG": "StatusProbabilityBase",
        "EHBNCHKBLDI": 1
      }
    ],
    "RelicSubValueStepTime": 1
  },
  {
    "RelicRarity": "CombatPowerRelicRarity3",
    "RelicLevel": 7,
    "RelicType": "NECK",
    "RelicSubValueList": [
      {
        "EDOCPKIBBNG": "SpeedDelta",
        "EHBNCHKBLDI": 1
      },
      {
        "EDOCPKIBBNG": "StatusResistanceBase",
        "EHBNCHKBLDI": 2
      }
    ],
    "RelicSubValueStepTime": 1
  },
  {
    "RelicRarity": "CombatPowerRelicRarity3",
    "RelicLevel": 7,
    "RelicType": "OBJECT",
    "RelicSubValueList": [
      {
        "EDOCPKIBBNG": "CriticalChanceBase",
        "EHBNCHKBLDI": 1
      },
      {
        "EDOCPKIBBNG": "BreakDamageAddedRatioBase",
        "EHBNCHKBLDI": 2
      }
    ],
    "RelicSubValueStepTime": 1
  },
  {
    "RelicRarity": "CombatPowerRelicRarity3",
    "RelicLevel": 8,
    "RelicType": "HEAD",
    "RelicSubValueList": [
      {
        "EDOCPKIBBNG": "HPAddedRatio",
        "EHBNCHKBLDI": 2
      }
    ],
    "RelicSubValueStepTime": 1
  },
  {
    "RelicRarity": "CombatPowerRelicRarity3",
    "RelicLevel": 8,
    "RelicType": "HAND",
    "RelicSubValueList": [
      {
        "EDOCPKIBBNG": "AttackAddedRatio",
        "EHBNCHKBLDI": 1
      },
      {
        "EDOCPKIBBNG": "SpeedDelta",
        "EHBNCHKBLDI": 1
      },
      {
        "EDOCPKIBBNG": "CriticalChanceBase",
        "EHBNCHKBLDI": 1
      }
    ],
    "RelicSubValueStepTime": 1
  },
  {
    "RelicRarity": "CombatPowerRelicRarity3",
    "RelicLevel": 8,
    "RelicType": "BODY",
    "RelicSubValueList": [
      {
        "EDOCPKIBBNG": "AttackAddedRatio",
        "EHBNCHKBLDI": 1
      },
      {
        "EDOCPKIBBNG": "CriticalDamageBase",
        "EHBNCHKBLDI": 2
      }
    ],
    "RelicSubValueStepTime": 1
  },
  {
    "RelicRarity": "CombatPowerRelicRarity3",
    "RelicLevel": 8,
    "RelicType": "FOOT",
    "RelicSubValueList": [
      {
        "EDOCPKIBBNG": "DefenceAddedRatio",
        "EHBNCHKBLDI": 2
      },
      {
        "EDOCPKIBBNG": "StatusProbabilityBase",
        "EHBNCHKBLDI": 1
      }
    ],
    "RelicSubValueStepTime": 1
  },
  {
    "RelicRarity": "CombatPowerRelicRarity3",
    "RelicLevel": 8,
    "RelicType": "NECK",
    "RelicSubValueList": [
      {
        "EDOCPKIBBNG": "SpeedDelta",
        "EHBNCHKBLDI": 1
      },
      {
        "EDOCPKIBBNG": "StatusResistanceBase",
        "EHBNCHKBLDI": 2
      }
    ],
    "RelicSubValueStepTime": 1
  },
  {
    "RelicRarity": "CombatPowerRelicRarity3",
    "RelicLevel": 8,
    "RelicType": "OBJECT",
    "RelicSubValueList": [
      {
        "EDOCPKIBBNG": "CriticalChanceBase",
        "EHBNCHKBLDI": 1
      },
      {
        "EDOCPKIBBNG": "BreakDamageAddedRatioBase",
        "EHBNCHKBLDI": 2
      }
    ],
    "RelicSubValueStepTime": 1
  },
  {
    "RelicRarity": "CombatPowerRelicRarity3",
    "RelicLevel": 9,
    "RelicType": "HEAD",
    "RelicSubValueList": [
      {
        "EDOCPKIBBNG": "HPAddedRatio",
        "EHBNCHKBLDI": 3
      }
    ],
    "RelicSubValueStepTime": 1
  },
  {
    "RelicRarity": "CombatPowerRelicRarity3",
    "RelicLevel": 9,
    "RelicType": "HAND",
    "RelicSubValueList": [
      {
        "EDOCPKIBBNG": "AttackAddedRatio",
        "EHBNCHKBLDI": 1
      },
      {
        "EDOCPKIBBNG": "DefenceAddedRatio",
        "EHBNCHKBLDI": 1
      },
      {
        "EDOCPKIBBNG": "SpeedDelta",
        "EHBNCHKBLDI": 1
      },
      {
        "EDOCPKIBBNG": "CriticalChanceBase",
        "EHBNCHKBLDI": 1
      }
    ],
    "RelicSubValueStepTime": 1
  },
  {
    "RelicRarity": "CombatPowerRelicRarity3",
    "RelicLevel": 9,
    "RelicType": "BODY",
    "RelicSubValueList": [
      {
        "EDOCPKIBBNG": "AttackAddedRatio",
        "EHBNCHKBLDI": 1
      },
      {
        "EDOCPKIBBNG": "CriticalDamageBase",
        "EHBNCHKBLDI": 3
      }
    ],
    "RelicSubValueStepTime": 1
  },
  {
    "RelicRarity": "CombatPowerRelicRarity3",
    "RelicLevel": 9,
    "RelicType": "FOOT",
    "RelicSubValueList": [
      {
        "EDOCPKIBBNG": "DefenceAddedRatio",
        "EHBNCHKBLDI": 2
      },
      {
        "EDOCPKIBBNG": "StatusProbabilityBase",
        "EHBNCHKBLDI": 2
      }
    ],
    "RelicSubValueStepTime": 1
  },
  {
    "RelicRarity": "CombatPowerRelicRarity3",
    "RelicLevel": 9,
    "RelicType": "NECK",
    "RelicSubValueList": [
      {
        "EDOCPKIBBNG": "SpeedDelta",
        "EHBNCHKBLDI": 2
      },
      {
        "EDOCPKIBBNG": "StatusResistanceBase",
        "EHBNCHKBLDI": 2
      }
    ],
    "RelicSubValueStepTime": 1
  },
  {
    "RelicRarity": "CombatPowerRelicRarity3",
    "RelicLevel": 9,
    "RelicType": "OBJECT",
    "RelicSubValueList": [
      {
        "EDOCPKIBBNG": "CriticalChanceBase",
        "EHBNCHKBLDI": 2
      },
      {
        "EDOCPKIBBNG": "BreakDamageAddedRatioBase",
        "EHBNCHKBLDI": 2
      }
    ],
    "RelicSubValueStepTime": 1
  },
  {
    "RelicRarity": "CombatPowerRelicRarity4",
    "RelicType": "HEAD",
    "RelicSubValueList": [
      {
        "EDOCPKIBBNG": "HPAddedRatio",
        "EHBNCHKBLDI": 2
      }
    ],
    "RelicSubValueStepTime": 1
  },
  {
    "RelicRarity": "CombatPowerRelicRarity4",
    "RelicType": "HAND",
    "RelicSubValueList": [
      {
        "EDOCPKIBBNG": "SpeedDelta",
        "EHBNCHKBLDI": 1
      },
      {
        "EDOCPKIBBNG": "CriticalChanceBase",
        "EHBNCHKBLDI": 1
      }
    ],
    "RelicSubValueStepTime": 1
  },
  {
    "RelicRarity": "CombatPowerRelicRarity4",
    "RelicType": "BODY",
    "RelicSubValueList": [
      {
        "EDOCPKIBBNG": "AttackAddedRatio",
        "EHBNCHKBLDI": 1
      },
      {
        "EDOCPKIBBNG": "CriticalDamageBase",
        "EHBNCHKBLDI": 1
      }
    ],
    "RelicSubValueStepTime": 1
  },
  {
    "RelicRarity": "CombatPowerRelicRarity4",
    "RelicType": "FOOT",
    "RelicSubValueList": [
      {
        "EDOCPKIBBNG": "DefenceAddedRatio",
        "EHBNCHKBLDI": 1
      },
      {
        "EDOCPKIBBNG": "StatusProbabilityBase",
        "EHBNCHKBLDI": 1
      }
    ],
    "RelicSubValueStepTime": 1
  },
  {
    "RelicRarity": "CombatPowerRelicRarity4",
    "RelicType": "NECK",
    "RelicSubValueList": [
      {
        "EDOCPKIBBNG": "SpeedDelta",
        "EHBNCHKBLDI": 1
      },
      {
        "EDOCPKIBBNG": "StatusResistanceBase",
        "EHBNCHKBLDI": 1
      }
    ],
    "RelicSubValueStepTime": 1
  },
  {
    "RelicRarity": "CombatPowerRelicRarity4",
    "RelicType": "OBJECT",
    "RelicSubValueList": [
      {
        "EDOCPKIBBNG": "CriticalChanceBase",
        "EHBNCHKBLDI": 1
      },
      {
        "EDOCPKIBBNG": "BreakDamageAddedRatioBase",
        "EHBNCHKBLDI": 1
      }
    ],
    "RelicSubValueStepTime": 1
  },
  {
    "RelicRarity": "CombatPowerRelicRarity4",
    "RelicLevel": 1,
    "RelicType": "HEAD",
    "RelicSubValueList": [
      {
        "EDOCPKIBBNG": "HPAddedRatio",
        "EHBNCHKBLDI": 2
      }
    ],
    "RelicSubValueStepTime": 1
  },
  {
    "RelicRarity": "CombatPowerRelicRarity4",
    "RelicLevel": 1,
    "RelicType": "HAND",
    "RelicSubValueList": [
      {
        "EDOCPKIBBNG": "SpeedDelta",
        "EHBNCHKBLDI": 1
      },
      {
        "EDOCPKIBBNG": "CriticalChanceBase",
        "EHBNCHKBLDI": 1
      }
    ],
    "RelicSubValueStepTime": 1
  },
  {
    "RelicRarity": "CombatPowerRelicRarity4",
    "RelicLevel": 1,
    "RelicType": "BODY",
    "RelicSubValueList": [
      {
        "EDOCPKIBBNG": "AttackAddedRatio",
        "EHBNCHKBLDI": 1
      },
      {
        "EDOCPKIBBNG": "CriticalDamageBase",
        "EHBNCHKBLDI": 1
      }
    ],
    "RelicSubValueStepTime": 1
  },
  {
    "RelicRarity": "CombatPowerRelicRarity4",
    "RelicLevel": 1,
    "RelicType": "FOOT",
    "RelicSubValueList": [
      {
        "EDOCPKIBBNG": "DefenceAddedRatio",
        "EHBNCHKBLDI": 1
      },
      {
        "EDOCPKIBBNG": "StatusProbabilityBase",
        "EHBNCHKBLDI": 1
      }
    ],
    "RelicSubValueStepTime": 1
  },
  {
    "RelicRarity": "CombatPowerRelicRarity4",
    "RelicLevel": 1,
    "RelicType": "NECK",
    "RelicSubValueList": [
      {
        "EDOCPKIBBNG": "SpeedDelta",
        "EHBNCHKBLDI": 1
      },
      {
        "EDOCPKIBBNG": "StatusResistanceBase",
        "EHBNCHKBLDI": 1
      }
    ],
    "RelicSubValueStepTime": 1
  },
  {
    "RelicRarity": "CombatPowerRelicRarity4",
    "RelicLevel": 1,
    "RelicType": "OBJECT",
    "RelicSubValueList": [
      {
        "EDOCPKIBBNG": "CriticalChanceBase",
        "EHBNCHKBLDI": 1
      },
      {
        "EDOCPKIBBNG": "BreakDamageAddedRatioBase",
        "EHBNCHKBLDI": 1
      }
    ],
    "RelicSubValueStepTime": 1
  },
  {
    "RelicRarity": "CombatPowerRelicRarity4",
    "RelicLevel": 2,
    "RelicType": "HEAD",
    "RelicSubValueList": [
      {
        "EDOCPKIBBNG": "HPAddedRatio",
        "EHBNCHKBLDI": 2
      }
    ],
    "RelicSubValueStepTime": 1
  },
  {
    "RelicRarity": "CombatPowerRelicRarity4",
    "RelicLevel": 2,
    "RelicType": "HAND",
    "RelicSubValueList": [
      {
        "EDOCPKIBBNG": "SpeedDelta",
        "EHBNCHKBLDI": 1
      },
      {
        "EDOCPKIBBNG": "CriticalChanceBase",
        "EHBNCHKBLDI": 1
      }
    ],
    "RelicSubValueStepTime": 1
  },
  {
    "RelicRarity": "CombatPowerRelicRarity4",
    "RelicLevel": 2,
    "RelicType": "BODY",
    "RelicSubValueList": [
      {
        "EDOCPKIBBNG": "AttackAddedRatio",
        "EHBNCHKBLDI": 1
      },
      {
        "EDOCPKIBBNG": "CriticalDamageBase",
        "EHBNCHKBLDI": 1
      }
    ],
    "RelicSubValueStepTime": 1
  },
  {
    "RelicRarity": "CombatPowerRelicRarity4",
    "RelicLevel": 2,
    "RelicType": "FOOT",
    "RelicSubValueList": [
      {
        "EDOCPKIBBNG": "DefenceAddedRatio",
        "EHBNCHKBLDI": 1
      },
      {
        "EDOCPKIBBNG": "StatusProbabilityBase",
        "EHBNCHKBLDI": 1
      }
    ],
    "RelicSubValueStepTime": 1
  },
  {
    "RelicRarity": "CombatPowerRelicRarity4",
    "RelicLevel": 2,
    "RelicType": "NECK",
    "RelicSubValueList": [
      {
        "EDOCPKIBBNG": "SpeedDelta",
        "EHBNCHKBLDI": 1
      },
      {
        "EDOCPKIBBNG": "StatusResistanceBase",
        "EHBNCHKBLDI": 1
      }
    ],
    "RelicSubValueStepTime": 1
  },
  {
    "RelicRarity": "CombatPowerRelicRarity4",
    "RelicLevel": 2,
    "RelicType": "OBJECT",
    "RelicSubValueList": [
      {
        "EDOCPKIBBNG": "CriticalChanceBase",
        "EHBNCHKBLDI": 1
      },
      {
        "EDOCPKIBBNG": "BreakDamageAddedRatioBase",
        "EHBNCHKBLDI": 1
      }
    ],
    "RelicSubValueStepTime": 1
  },
  {
    "RelicRarity": "CombatPowerRelicRarity4",
    "RelicLevel": 3,
    "RelicType": "HEAD",
    "RelicSubValueList": [
      {
        "EDOCPKIBBNG": "HPAddedRatio",
        "EHBNCHKBLDI": 2
      }
    ],
    "RelicSubValueStepTime": 1
  },
  {
    "RelicRarity": "CombatPowerRelicRarity4",
    "RelicLevel": 3,
    "RelicType": "HAND",
    "RelicSubValueList": [
      {
        "EDOCPKIBBNG": "AttackAddedRatio",
        "EHBNCHKBLDI": 1
      },
      {
        "EDOCPKIBBNG": "SpeedDelta",
        "EHBNCHKBLDI": 1
      },
      {
        "EDOCPKIBBNG": "CriticalChanceBase",
        "EHBNCHKBLDI": 1
      }
    ],
    "RelicSubValueStepTime": 1
  },
  {
    "RelicRarity": "CombatPowerRelicRarity4",
    "RelicLevel": 3,
    "RelicType": "BODY",
    "RelicSubValueList": [
      {
        "EDOCPKIBBNG": "AttackAddedRatio",
        "EHBNCHKBLDI": 1
      },
      {
        "EDOCPKIBBNG": "CriticalDamageBase",
        "EHBNCHKBLDI": 2
      }
    ],
    "RelicSubValueStepTime": 1
  },
  {
    "RelicRarity": "CombatPowerRelicRarity4",
    "RelicLevel": 3,
    "RelicType": "FOOT",
    "RelicSubValueList": [
      {
        "EDOCPKIBBNG": "DefenceAddedRatio",
        "EHBNCHKBLDI": 2
      },
      {
        "EDOCPKIBBNG": "StatusProbabilityBase",
        "EHBNCHKBLDI": 1
      }
    ],
    "RelicSubValueStepTime": 1
  },
  {
    "RelicRarity": "CombatPowerRelicRarity4",
    "RelicLevel": 3,
    "RelicType": "NECK",
    "RelicSubValueList": [
      {
        "EDOCPKIBBNG": "SpeedDelta",
        "EHBNCHKBLDI": 1
      },
      {
        "EDOCPKIBBNG": "StatusResistanceBase",
        "EHBNCHKBLDI": 2
      }
    ],
    "RelicSubValueStepTime": 1
  },
  {
    "RelicRarity": "CombatPowerRelicRarity4",
    "RelicLevel": 3,
    "RelicType": "OBJECT",
    "RelicSubValueList": [
      {
        "EDOCPKIBBNG": "CriticalChanceBase",
        "EHBNCHKBLDI": 1
      },
      {
        "EDOCPKIBBNG": "BreakDamageAddedRatioBase",
        "EHBNCHKBLDI": 2
      }
    ],
    "RelicSubValueStepTime": 1
  },
  {
    "RelicRarity": "CombatPowerRelicRarity4",
    "RelicLevel": 4,
    "RelicType": "HEAD",
    "RelicSubValueList": [
      {
        "EDOCPKIBBNG": "HPAddedRatio",
        "EHBNCHKBLDI": 2
      }
    ],
    "RelicSubValueStepTime": 1
  },
  {
    "RelicRarity": "CombatPowerRelicRarity4",
    "RelicLevel": 4,
    "RelicType": "HAND",
    "RelicSubValueList": [
      {
        "EDOCPKIBBNG": "AttackAddedRatio",
        "EHBNCHKBLDI": 1
      },
      {
        "EDOCPKIBBNG": "SpeedDelta",
        "EHBNCHKBLDI": 1
      },
      {
        "EDOCPKIBBNG": "CriticalChanceBase",
        "EHBNCHKBLDI": 1
      }
    ],
    "RelicSubValueStepTime": 1
  },
  {
    "RelicRarity": "CombatPowerRelicRarity4",
    "RelicLevel": 4,
    "RelicType": "BODY",
    "RelicSubValueList": [
      {
        "EDOCPKIBBNG": "AttackAddedRatio",
        "EHBNCHKBLDI": 1
      },
      {
        "EDOCPKIBBNG": "CriticalDamageBase",
        "EHBNCHKBLDI": 2
      }
    ],
    "RelicSubValueStepTime": 1
  },
  {
    "RelicRarity": "CombatPowerRelicRarity4",
    "RelicLevel": 4,
    "RelicType": "FOOT",
    "RelicSubValueList": [
      {
        "EDOCPKIBBNG": "DefenceAddedRatio",
        "EHBNCHKBLDI": 2
      },
      {
        "EDOCPKIBBNG": "StatusProbabilityBase",
        "EHBNCHKBLDI": 1
      }
    ],
    "RelicSubValueStepTime": 1
  },
  {
    "RelicRarity": "CombatPowerRelicRarity4",
    "RelicLevel": 4,
    "RelicType": "NECK",
    "RelicSubValueList": [
      {
        "EDOCPKIBBNG": "SpeedDelta",
        "EHBNCHKBLDI": 1
      },
      {
        "EDOCPKIBBNG": "StatusResistanceBase",
        "EHBNCHKBLDI": 2
      }
    ],
    "RelicSubValueStepTime": 1
  },
  {
    "RelicRarity": "CombatPowerRelicRarity4",
    "RelicLevel": 4,
    "RelicType": "OBJECT",
    "RelicSubValueList": [
      {
        "EDOCPKIBBNG": "CriticalChanceBase",
        "EHBNCHKBLDI": 1
      },
      {
        "EDOCPKIBBNG": "BreakDamageAddedRatioBase",
        "EHBNCHKBLDI": 2
      }
    ],
    "RelicSubValueStepTime": 1
  },
  {
    "RelicRarity": "CombatPowerRelicRarity4",
    "RelicLevel": 5,
    "RelicType": "HEAD",
    "RelicSubValueList": [
      {
        "EDOCPKIBBNG": "HPAddedRatio",
        "EHBNCHKBLDI": 2
      }
    ],
    "RelicSubValueStepTime": 1
  },
  {
    "RelicRarity": "CombatPowerRelicRarity4",
    "RelicLevel": 5,
    "RelicType": "HAND",
    "RelicSubValueList": [
      {
        "EDOCPKIBBNG": "AttackAddedRatio",
        "EHBNCHKBLDI": 1
      },
      {
        "EDOCPKIBBNG": "SpeedDelta",
        "EHBNCHKBLDI": 1
      },
      {
        "EDOCPKIBBNG": "CriticalChanceBase",
        "EHBNCHKBLDI": 1
      }
    ],
    "RelicSubValueStepTime": 1
  },
  {
    "RelicRarity": "CombatPowerRelicRarity4",
    "RelicLevel": 5,
    "RelicType": "BODY",
    "RelicSubValueList": [
      {
        "EDOCPKIBBNG": "AttackAddedRatio",
        "EHBNCHKBLDI": 1
      },
      {
        "EDOCPKIBBNG": "CriticalDamageBase",
        "EHBNCHKBLDI": 2
      }
    ],
    "RelicSubValueStepTime": 1
  },
  {
    "RelicRarity": "CombatPowerRelicRarity4",
    "RelicLevel": 5,
    "RelicType": "FOOT",
    "RelicSubValueList": [
      {
        "EDOCPKIBBNG": "DefenceAddedRatio",
        "EHBNCHKBLDI": 2
      },
      {
        "EDOCPKIBBNG": "StatusProbabilityBase",
        "EHBNCHKBLDI": 1
      }
    ],
    "RelicSubValueStepTime": 1
  },
  {
    "RelicRarity": "CombatPowerRelicRarity4",
    "RelicLevel": 5,
    "RelicType": "NECK",
    "RelicSubValueList": [
      {
        "EDOCPKIBBNG": "SpeedDelta",
        "EHBNCHKBLDI": 1
      },
      {
        "EDOCPKIBBNG": "StatusResistanceBase",
        "EHBNCHKBLDI": 2
      }
    ],
    "RelicSubValueStepTime": 1
  },
  {
    "RelicRarity": "CombatPowerRelicRarity4",
    "RelicLevel": 5,
    "RelicType": "OBJECT",
    "RelicSubValueList": [
      {
        "EDOCPKIBBNG": "CriticalChanceBase",
        "EHBNCHKBLDI": 1
      },
      {
        "EDOCPKIBBNG": "BreakDamageAddedRatioBase",
        "EHBNCHKBLDI": 2
      }
    ],
    "RelicSubValueStepTime": 1
  },
  {
    "RelicRarity": "CombatPowerRelicRarity4",
    "RelicLevel": 6,
    "RelicType": "HEAD",
    "RelicSubValueList": [
      {
        "EDOCPKIBBNG": "HPAddedRatio",
        "EHBNCHKBLDI": 3
      }
    ],
    "RelicSubValueStepTime": 1
  },
  {
    "RelicRarity": "CombatPowerRelicRarity4",
    "RelicLevel": 6,
    "RelicType": "HAND",
    "RelicSubValueList": [
      {
        "EDOCPKIBBNG": "AttackAddedRatio",
        "EHBNCHKBLDI": 1
      },
      {
        "EDOCPKIBBNG": "DefenceAddedRatio",
        "EHBNCHKBLDI": 1
      },
      {
        "EDOCPKIBBNG": "SpeedDelta",
        "EHBNCHKBLDI": 1
      },
      {
        "EDOCPKIBBNG": "CriticalChanceBase",
        "EHBNCHKBLDI": 1
      }
    ],
    "RelicSubValueStepTime": 1
  },
  {
    "RelicRarity": "CombatPowerRelicRarity4",
    "RelicLevel": 6,
    "RelicType": "BODY",
    "RelicSubValueList": [
      {
        "EDOCPKIBBNG": "AttackAddedRatio",
        "EHBNCHKBLDI": 1
      },
      {
        "EDOCPKIBBNG": "CriticalDamageBase",
        "EHBNCHKBLDI": 3
      }
    ],
    "RelicSubValueStepTime": 1
  },
  {
    "RelicRarity": "CombatPowerRelicRarity4",
    "RelicLevel": 6,
    "RelicType": "FOOT",
    "RelicSubValueList": [
      {
        "EDOCPKIBBNG": "DefenceAddedRatio",
        "EHBNCHKBLDI": 2
      },
      {
        "EDOCPKIBBNG": "StatusProbabilityBase",
        "EHBNCHKBLDI": 2
      }
    ],
    "RelicSubValueStepTime": 1
  },
  {
    "RelicRarity": "CombatPowerRelicRarity4",
    "RelicLevel": 6,
    "RelicType": "NECK",
    "RelicSubValueList": [
      {
        "EDOCPKIBBNG": "SpeedDelta",
        "EHBNCHKBLDI": 2
      },
      {
        "EDOCPKIBBNG": "StatusResistanceBase",
        "EHBNCHKBLDI": 2
      }
    ],
    "RelicSubValueStepTime": 1
  },
  {
    "RelicRarity": "CombatPowerRelicRarity4",
    "RelicLevel": 6,
    "RelicType": "OBJECT",
    "RelicSubValueList": [
      {
        "EDOCPKIBBNG": "CriticalChanceBase",
        "EHBNCHKBLDI": 2
      },
      {
        "EDOCPKIBBNG": "BreakDamageAddedRatioBase",
        "EHBNCHKBLDI": 2
      }
    ],
    "RelicSubValueStepTime": 1
  },
  {
    "RelicRarity": "CombatPowerRelicRarity4",
    "RelicLevel": 7,
    "RelicType": "HEAD",
    "RelicSubValueList": [
      {
        "EDOCPKIBBNG": "HPAddedRatio",
        "EHBNCHKBLDI": 3
      }
    ],
    "RelicSubValueStepTime": 1
  },
  {
    "RelicRarity": "CombatPowerRelicRarity4",
    "RelicLevel": 7,
    "RelicType": "HAND",
    "RelicSubValueList": [
      {
        "EDOCPKIBBNG": "AttackAddedRatio",
        "EHBNCHKBLDI": 1
      },
      {
        "EDOCPKIBBNG": "DefenceAddedRatio",
        "EHBNCHKBLDI": 1
      },
      {
        "EDOCPKIBBNG": "SpeedDelta",
        "EHBNCHKBLDI": 1
      },
      {
        "EDOCPKIBBNG": "CriticalChanceBase",
        "EHBNCHKBLDI": 1
      }
    ],
    "RelicSubValueStepTime": 1
  },
  {
    "RelicRarity": "CombatPowerRelicRarity4",
    "RelicLevel": 7,
    "RelicType": "BODY",
    "RelicSubValueList": [
      {
        "EDOCPKIBBNG": "AttackAddedRatio",
        "EHBNCHKBLDI": 1
      },
      {
        "EDOCPKIBBNG": "CriticalDamageBase",
        "EHBNCHKBLDI": 3
      }
    ],
    "RelicSubValueStepTime": 1
  },
  {
    "RelicRarity": "CombatPowerRelicRarity4",
    "RelicLevel": 7,
    "RelicType": "FOOT",
    "RelicSubValueList": [
      {
        "EDOCPKIBBNG": "DefenceAddedRatio",
        "EHBNCHKBLDI": 2
      },
      {
        "EDOCPKIBBNG": "StatusProbabilityBase",
        "EHBNCHKBLDI": 2
      }
    ],
    "RelicSubValueStepTime": 1
  },
  {
    "RelicRarity": "CombatPowerRelicRarity4",
    "RelicLevel": 7,
    "RelicType": "NECK",
    "RelicSubValueList": [
      {
        "EDOCPKIBBNG": "SpeedDelta",
        "EHBNCHKBLDI": 2
      },
      {
        "EDOCPKIBBNG": "StatusResistanceBase",
        "EHBNCHKBLDI": 2
      }
    ],
    "RelicSubValueStepTime": 1
  },
  {
    "RelicRarity": "CombatPowerRelicRarity4",
    "RelicLevel": 7,
    "RelicType": "OBJECT",
    "RelicSubValueList": [
      {
        "EDOCPKIBBNG": "CriticalChanceBase",
        "EHBNCHKBLDI": 2
      },
      {
        "EDOCPKIBBNG": "BreakDamageAddedRatioBase",
        "EHBNCHKBLDI": 2
      }
    ],
    "RelicSubValueStepTime": 1
  },
  {
    "RelicRarity": "CombatPowerRelicRarity4",
    "RelicLevel": 8,
    "RelicType": "HEAD",
    "RelicSubValueList": [
      {
        "EDOCPKIBBNG": "HPAddedRatio",
        "EHBNCHKBLDI": 3
      }
    ],
    "RelicSubValueStepTime": 1
  },
  {
    "RelicRarity": "CombatPowerRelicRarity4",
    "RelicLevel": 8,
    "RelicType": "HAND",
    "RelicSubValueList": [
      {
        "EDOCPKIBBNG": "AttackAddedRatio",
        "EHBNCHKBLDI": 1
      },
      {
        "EDOCPKIBBNG": "DefenceAddedRatio",
        "EHBNCHKBLDI": 1
      },
      {
        "EDOCPKIBBNG": "SpeedDelta",
        "EHBNCHKBLDI": 1
      },
      {
        "EDOCPKIBBNG": "CriticalChanceBase",
        "EHBNCHKBLDI": 1
      }
    ],
    "RelicSubValueStepTime": 1
  },
  {
    "RelicRarity": "CombatPowerRelicRarity4",
    "RelicLevel": 8,
    "RelicType": "BODY",
    "RelicSubValueList": [
      {
        "EDOCPKIBBNG": "AttackAddedRatio",
        "EHBNCHKBLDI": 1
      },
      {
        "EDOCPKIBBNG": "CriticalDamageBase",
        "EHBNCHKBLDI": 3
      }
    ],
    "RelicSubValueStepTime": 1
  },
  {
    "RelicRarity": "CombatPowerRelicRarity4",
    "RelicLevel": 8,
    "RelicType": "FOOT",
    "RelicSubValueList": [
      {
        "EDOCPKIBBNG": "DefenceAddedRatio",
        "EHBNCHKBLDI": 2
      },
      {
        "EDOCPKIBBNG": "StatusProbabilityBase",
        "EHBNCHKBLDI": 2
      }
    ],
    "RelicSubValueStepTime": 1
  },
  {
    "RelicRarity": "CombatPowerRelicRarity4",
    "RelicLevel": 8,
    "RelicType": "NECK",
    "RelicSubValueList": [
      {
        "EDOCPKIBBNG": "SpeedDelta",
        "EHBNCHKBLDI": 2
      },
      {
        "EDOCPKIBBNG": "StatusResistanceBase",
        "EHBNCHKBLDI": 2
      }
    ],
    "RelicSubValueStepTime": 1
  },
  {
    "RelicRarity": "CombatPowerRelicRarity4",
    "RelicLevel": 8,
    "RelicType": "OBJECT",
    "RelicSubValueList": [
      {
        "EDOCPKIBBNG": "CriticalChanceBase",
        "EHBNCHKBLDI": 2
      },
      {
        "EDOCPKIBBNG": "BreakDamageAddedRatioBase",
        "EHBNCHKBLDI": 2
      }
    ],
    "RelicSubValueStepTime": 1
  },
  {
    "RelicRarity": "CombatPowerRelicRarity4",
    "RelicLevel": 9,
    "RelicType": "HEAD",
    "RelicSubValueList": [
      {
        "EDOCPKIBBNG": "HPAddedRatio",
        "EHBNCHKBLDI": 4
      }
    ],
    "RelicSubValueStepTime": 1
  },
  {
    "RelicRarity": "CombatPowerRelicRarity4",
    "RelicLevel": 9,
    "RelicType": "HAND",
    "RelicSubValueList": [
      {
        "EDOCPKIBBNG": "AttackAddedRatio",
        "EHBNCHKBLDI": 1
      },
      {
        "EDOCPKIBBNG": "DefenceAddedRatio",
        "EHBNCHKBLDI": 1
      },
      {
        "EDOCPKIBBNG": "SpeedDelta",
        "EHBNCHKBLDI": 1
      },
      {
        "EDOCPKIBBNG": "CriticalChanceBase",
        "EHBNCHKBLDI": 2
      }
    ],
    "RelicSubValueStepTime": 1
  },
  {
    "RelicRarity": "CombatPowerRelicRarity4",
    "RelicLevel": 9,
    "RelicType": "BODY",
    "RelicSubValueList": [
      {
        "EDOCPKIBBNG": "AttackAddedRatio",
        "EHBNCHKBLDI": 2
      },
      {
        "EDOCPKIBBNG": "CriticalDamageBase",
        "EHBNCHKBLDI": 3
      }
    ],
    "RelicSubValueStepTime": 1
  },
  {
    "RelicRarity": "CombatPowerRelicRarity4",
    "RelicLevel": 9,
    "RelicType": "FOOT",
    "RelicSubValueList": [
      {
        "EDOCPKIBBNG": "DefenceAddedRatio",
        "EHBNCHKBLDI": 2
      },
      {
        "EDOCPKIBBNG": "StatusProbabilityBase",
        "EHBNCHKBLDI": 3
      }
    ],
    "RelicSubValueStepTime": 1
  },
  {
    "RelicRarity": "CombatPowerRelicRarity4",
    "RelicLevel": 9,
    "RelicType": "NECK",
    "RelicSubValueList": [
      {
        "EDOCPKIBBNG": "SpeedDelta",
        "EHBNCHKBLDI": 2
      },
      {
        "EDOCPKIBBNG": "StatusResistanceBase",
        "EHBNCHKBLDI": 3
      }
    ],
    "RelicSubValueStepTime": 1
  },
  {
    "RelicRarity": "CombatPowerRelicRarity4",
    "RelicLevel": 9,
    "RelicType": "OBJECT",
    "RelicSubValueList": [
      {
        "EDOCPKIBBNG": "CriticalChanceBase",
        "EHBNCHKBLDI": 2
      },
      {
        "EDOCPKIBBNG": "BreakDamageAddedRatioBase",
        "EHBNCHKBLDI": 3
      }
    ],
    "RelicSubValueStepTime": 1
  },
  {
    "RelicRarity": "CombatPowerRelicRarity4",
    "RelicLevel": 10,
    "RelicType": "HEAD",
    "RelicSubValueList": [
      {
        "EDOCPKIBBNG": "HPAddedRatio",
        "EHBNCHKBLDI": 4
      }
    ],
    "RelicSubValueStepTime": 1
  },
  {
    "RelicRarity": "CombatPowerRelicRarity4",
    "RelicLevel": 10,
    "RelicType": "HAND",
    "RelicSubValueList": [
      {
        "EDOCPKIBBNG": "AttackAddedRatio",
        "EHBNCHKBLDI": 1
      },
      {
        "EDOCPKIBBNG": "DefenceAddedRatio",
        "EHBNCHKBLDI": 1
      },
      {
        "EDOCPKIBBNG": "SpeedDelta",
        "EHBNCHKBLDI": 1
      },
      {
        "EDOCPKIBBNG": "CriticalChanceBase",
        "EHBNCHKBLDI": 2
      }
    ],
    "RelicSubValueStepTime": 1
  },
  {
    "RelicRarity": "CombatPowerRelicRarity4",
    "RelicLevel": 10,
    "RelicType": "BODY",
    "RelicSubValueList": [
      {
        "EDOCPKIBBNG": "AttackAddedRatio",
        "EHBNCHKBLDI": 2
      },
      {
        "EDOCPKIBBNG": "CriticalDamageBase",
        "EHBNCHKBLDI": 3
      }
    ],
    "RelicSubValueStepTime": 1
  },
  {
    "RelicRarity": "CombatPowerRelicRarity4",
    "RelicLevel": 10,
    "RelicType": "FOOT",
    "RelicSubValueList": [
      {
        "EDOCPKIBBNG": "DefenceAddedRatio",
        "EHBNCHKBLDI": 2
      },
      {
        "EDOCPKIBBNG": "StatusProbabilityBase",
        "EHBNCHKBLDI": 3
      }
    ],
    "RelicSubValueStepTime": 1
  },
  {
    "RelicRarity": "CombatPowerRelicRarity4",
    "RelicLevel": 10,
    "RelicType": "NECK",
    "RelicSubValueList": [
      {
        "EDOCPKIBBNG": "SpeedDelta",
        "EHBNCHKBLDI": 2
      },
      {
        "EDOCPKIBBNG": "StatusResistanceBase",
        "EHBNCHKBLDI": 3
      }
    ],
    "RelicSubValueStepTime": 1
  },
  {
    "RelicRarity": "CombatPowerRelicRarity4",
    "RelicLevel": 10,
    "RelicType": "OBJECT",
    "RelicSubValueList": [
      {
        "EDOCPKIBBNG": "CriticalChanceBase",
        "EHBNCHKBLDI": 2
      },
      {
        "EDOCPKIBBNG": "BreakDamageAddedRatioBase",
        "EHBNCHKBLDI": 3
      }
    ],
    "RelicSubValueStepTime": 1
  },
  {
    "RelicRarity": "CombatPowerRelicRarity4",
    "RelicLevel": 11,
    "RelicType": "HEAD",
    "RelicSubValueList": [
      {
        "EDOCPKIBBNG": "HPAddedRatio",
        "EHBNCHKBLDI": 4
      }
    ],
    "RelicSubValueStepTime": 1
  },
  {
    "RelicRarity": "CombatPowerRelicRarity4",
    "RelicLevel": 11,
    "RelicType": "HAND",
    "RelicSubValueList": [
      {
        "EDOCPKIBBNG": "AttackAddedRatio",
        "EHBNCHKBLDI": 1
      },
      {
        "EDOCPKIBBNG": "DefenceAddedRatio",
        "EHBNCHKBLDI": 1
      },
      {
        "EDOCPKIBBNG": "SpeedDelta",
        "EHBNCHKBLDI": 1
      },
      {
        "EDOCPKIBBNG": "CriticalChanceBase",
        "EHBNCHKBLDI": 2
      }
    ],
    "RelicSubValueStepTime": 1
  },
  {
    "RelicRarity": "CombatPowerRelicRarity4",
    "RelicLevel": 11,
    "RelicType": "BODY",
    "RelicSubValueList": [
      {
        "EDOCPKIBBNG": "AttackAddedRatio",
        "EHBNCHKBLDI": 2
      },
      {
        "EDOCPKIBBNG": "CriticalDamageBase",
        "EHBNCHKBLDI": 3
      }
    ],
    "RelicSubValueStepTime": 1
  },
  {
    "RelicRarity": "CombatPowerRelicRarity4",
    "RelicLevel": 11,
    "RelicType": "FOOT",
    "RelicSubValueList": [
      {
        "EDOCPKIBBNG": "DefenceAddedRatio",
        "EHBNCHKBLDI": 2
      },
      {
        "EDOCPKIBBNG": "StatusProbabilityBase",
        "EHBNCHKBLDI": 3
      }
    ],
    "RelicSubValueStepTime": 1
  },
  {
    "RelicRarity": "CombatPowerRelicRarity4",
    "RelicLevel": 11,
    "RelicType": "NECK",
    "RelicSubValueList": [
      {
        "EDOCPKIBBNG": "SpeedDelta",
        "EHBNCHKBLDI": 2
      },
      {
        "EDOCPKIBBNG": "StatusResistanceBase",
        "EHBNCHKBLDI": 3
      }
    ],
    "RelicSubValueStepTime": 1
  },
  {
    "RelicRarity": "CombatPowerRelicRarity4",
    "RelicLevel": 11,
    "RelicType": "OBJECT",
    "RelicSubValueList": [
      {
        "EDOCPKIBBNG": "CriticalChanceBase",
        "EHBNCHKBLDI": 2
      },
      {
        "EDOCPKIBBNG": "BreakDamageAddedRatioBase",
        "EHBNCHKBLDI": 3
      }
    ],
    "RelicSubValueStepTime": 1
  },
  {
    "RelicRarity": "CombatPowerRelicRarity4",
    "RelicLevel": 12,
    "RelicType": "HEAD",
    "RelicSubValueList": [
      {
        "EDOCPKIBBNG": "HPAddedRatio",
        "EHBNCHKBLDI": 4
      }
    ],
    "RelicSubValueStepTime": 1
  },
  {
    "RelicRarity": "CombatPowerRelicRarity4",
    "RelicLevel": 12,
    "RelicType": "HAND",
    "RelicSubValueList": [
      {
        "EDOCPKIBBNG": "AttackAddedRatio",
        "EHBNCHKBLDI": 1
      },
      {
        "EDOCPKIBBNG": "DefenceAddedRatio",
        "EHBNCHKBLDI": 1
      },
      {
        "EDOCPKIBBNG": "SpeedDelta",
        "EHBNCHKBLDI": 2
      },
      {
        "EDOCPKIBBNG": "CriticalChanceBase",
        "EHBNCHKBLDI": 2
      }
    ],
    "RelicSubValueStepTime": 1
  },
  {
    "RelicRarity": "CombatPowerRelicRarity4",
    "RelicLevel": 12,
    "RelicType": "BODY",
    "RelicSubValueList": [
      {
        "EDOCPKIBBNG": "AttackAddedRatio",
        "EHBNCHKBLDI": 2
      },
      {
        "EDOCPKIBBNG": "CriticalDamageBase",
        "EHBNCHKBLDI": 4
      }
    ],
    "RelicSubValueStepTime": 1
  },
  {
    "RelicRarity": "CombatPowerRelicRarity4",
    "RelicLevel": 12,
    "RelicType": "FOOT",
    "RelicSubValueList": [
      {
        "EDOCPKIBBNG": "DefenceAddedRatio",
        "EHBNCHKBLDI": 3
      },
      {
        "EDOCPKIBBNG": "StatusProbabilityBase",
        "EHBNCHKBLDI": 3
      }
    ],
    "RelicSubValueStepTime": 1
  },
  {
    "RelicRarity": "CombatPowerRelicRarity4",
    "RelicLevel": 12,
    "RelicType": "NECK",
    "RelicSubValueList": [
      {
        "EDOCPKIBBNG": "SpeedDelta",
        "EHBNCHKBLDI": 2
      },
      {
        "EDOCPKIBBNG": "StatusResistanceBase",
        "EHBNCHKBLDI": 4
      }
    ],
    "RelicSubValueStepTime": 1
  },
  {
    "RelicRarity": "CombatPowerRelicRarity4",
    "RelicLevel": 12,
    "RelicType": "OBJECT",
    "RelicSubValueList": [
      {
        "EDOCPKIBBNG": "CriticalChanceBase",
        "EHBNCHKBLDI": 2
      },
      {
        "EDOCPKIBBNG": "BreakDamageAddedRatioBase",
        "EHBNCHKBLDI": 4
      }
    ],
    "RelicSubValueStepTime": 1
  },
  {
    "RelicRarity": "CombatPowerRelicRarity5",
    "RelicType": "HEAD",
    "RelicSubValueList": [
      {
        "EDOCPKIBBNG": "HPAddedRatio",
        "EHBNCHKBLDI": 2
      }
    ],
    "RelicSubValueStepTime": 1
  },
  {
    "RelicRarity": "CombatPowerRelicRarity5",
    "RelicType": "HAND",
    "RelicSubValueList": [
      {
        "EDOCPKIBBNG": "AttackAddedRatio",
        "EHBNCHKBLDI": 1
      },
      {
        "EDOCPKIBBNG": "SpeedDelta",
        "EHBNCHKBLDI": 1
      },
      {
        "EDOCPKIBBNG": "CriticalChanceBase",
        "EHBNCHKBLDI": 1
      }
    ],
    "RelicSubValueStepTime": 1
  },
  {
    "RelicRarity": "CombatPowerRelicRarity5",
    "RelicType": "BODY",
    "RelicSubValueList": [
      {
        "EDOCPKIBBNG": "AttackAddedRatio",
        "EHBNCHKBLDI": 1
      },
      {
        "EDOCPKIBBNG": "CriticalDamageBase",
        "EHBNCHKBLDI": 2
      }
    ],
    "RelicSubValueStepTime": 1
  },
  {
    "RelicRarity": "CombatPowerRelicRarity5",
    "RelicType": "FOOT",
    "RelicSubValueList": [
      {
        "EDOCPKIBBNG": "DefenceAddedRatio",
        "EHBNCHKBLDI": 2
      },
      {
        "EDOCPKIBBNG": "StatusProbabilityBase",
        "EHBNCHKBLDI": 1
      }
    ],
    "RelicSubValueStepTime": 1
  },
  {
    "RelicRarity": "CombatPowerRelicRarity5",
    "RelicType": "NECK",
    "RelicSubValueList": [
      {
        "EDOCPKIBBNG": "SpeedDelta",
        "EHBNCHKBLDI": 1
      },
      {
        "EDOCPKIBBNG": "StatusResistanceBase",
        "EHBNCHKBLDI": 2
      }
    ],
    "RelicSubValueStepTime": 1
  },
  {
    "RelicRarity": "CombatPowerRelicRarity5",
    "RelicType": "OBJECT",
    "RelicSubValueList": [
      {
        "EDOCPKIBBNG": "CriticalChanceBase",
        "EHBNCHKBLDI": 1
      },
      {
        "EDOCPKIBBNG": "BreakDamageAddedRatioBase",
        "EHBNCHKBLDI": 2
      }
    ],
    "RelicSubValueStepTime": 1
  },
  {
    "RelicRarity": "CombatPowerRelicRarity5",
    "RelicLevel": 1,
    "RelicType": "HEAD",
    "RelicSubValueList": [
      {
        "EDOCPKIBBNG": "HPAddedRatio",
        "EHBNCHKBLDI": 2
      }
    ],
    "RelicSubValueStepTime": 1
  },
  {
    "RelicRarity": "CombatPowerRelicRarity5",
    "RelicLevel": 1,
    "RelicType": "HAND",
    "RelicSubValueList": [
      {
        "EDOCPKIBBNG": "AttackAddedRatio",
        "EHBNCHKBLDI": 1
      },
      {
        "EDOCPKIBBNG": "SpeedDelta",
        "EHBNCHKBLDI": 1
      },
      {
        "EDOCPKIBBNG": "CriticalChanceBase",
        "EHBNCHKBLDI": 1
      }
    ],
    "RelicSubValueStepTime": 1
  },
  {
    "RelicRarity": "CombatPowerRelicRarity5",
    "RelicLevel": 1,
    "RelicType": "BODY",
    "RelicSubValueList": [
      {
        "EDOCPKIBBNG": "AttackAddedRatio",
        "EHBNCHKBLDI": 1
      },
      {
        "EDOCPKIBBNG": "CriticalDamageBase",
        "EHBNCHKBLDI": 2
      }
    ],
    "RelicSubValueStepTime": 1
  },
  {
    "RelicRarity": "CombatPowerRelicRarity5",
    "RelicLevel": 1,
    "RelicType": "FOOT",
    "RelicSubValueList": [
      {
        "EDOCPKIBBNG": "DefenceAddedRatio",
        "EHBNCHKBLDI": 2
      },
      {
        "EDOCPKIBBNG": "StatusProbabilityBase",
        "EHBNCHKBLDI": 1
      }
    ],
    "RelicSubValueStepTime": 1
  },
  {
    "RelicRarity": "CombatPowerRelicRarity5",
    "RelicLevel": 1,
    "RelicType": "NECK",
    "RelicSubValueList": [
      {
        "EDOCPKIBBNG": "SpeedDelta",
        "EHBNCHKBLDI": 1
      },
      {
        "EDOCPKIBBNG": "StatusResistanceBase",
        "EHBNCHKBLDI": 2
      }
    ],
    "RelicSubValueStepTime": 1
  },
  {
    "RelicRarity": "CombatPowerRelicRarity5",
    "RelicLevel": 1,
    "RelicType": "OBJECT",
    "RelicSubValueList": [
      {
        "EDOCPKIBBNG": "CriticalChanceBase",
        "EHBNCHKBLDI": 1
      },
      {
        "EDOCPKIBBNG": "BreakDamageAddedRatioBase",
        "EHBNCHKBLDI": 2
      }
    ],
    "RelicSubValueStepTime": 1
  },
  {
    "RelicRarity": "CombatPowerRelicRarity5",
    "RelicLevel": 2,
    "RelicType": "HEAD",
    "RelicSubValueList": [
      {
        "EDOCPKIBBNG": "HPAddedRatio",
        "EHBNCHKBLDI": 2
      }
    ],
    "RelicSubValueStepTime": 1
  },
  {
    "RelicRarity": "CombatPowerRelicRarity5",
    "RelicLevel": 2,
    "RelicType": "HAND",
    "RelicSubValueList": [
      {
        "EDOCPKIBBNG": "AttackAddedRatio",
        "EHBNCHKBLDI": 1
      },
      {
        "EDOCPKIBBNG": "SpeedDelta",
        "EHBNCHKBLDI": 1
      },
      {
        "EDOCPKIBBNG": "CriticalChanceBase",
        "EHBNCHKBLDI": 1
      }
    ],
    "RelicSubValueStepTime": 1
  },
  {
    "RelicRarity": "CombatPowerRelicRarity5",
    "RelicLevel": 2,
    "RelicType": "BODY",
    "RelicSubValueList": [
      {
        "EDOCPKIBBNG": "AttackAddedRatio",
        "EHBNCHKBLDI": 1
      },
      {
        "EDOCPKIBBNG": "CriticalDamageBase",
        "EHBNCHKBLDI": 2
      }
    ],
    "RelicSubValueStepTime": 1
  },
  {
    "RelicRarity": "CombatPowerRelicRarity5",
    "RelicLevel": 2,
    "RelicType": "FOOT",
    "RelicSubValueList": [
      {
        "EDOCPKIBBNG": "DefenceAddedRatio",
        "EHBNCHKBLDI": 2
      },
      {
        "EDOCPKIBBNG": "StatusProbabilityBase",
        "EHBNCHKBLDI": 1
      }
    ],
    "RelicSubValueStepTime": 1
  },
  {
    "RelicRarity": "CombatPowerRelicRarity5",
    "RelicLevel": 2,
    "RelicType": "NECK",
    "RelicSubValueList": [
      {
        "EDOCPKIBBNG": "SpeedDelta",
        "EHBNCHKBLDI": 1
      },
      {
        "EDOCPKIBBNG": "StatusResistanceBase",
        "EHBNCHKBLDI": 2
      }
    ],
    "RelicSubValueStepTime": 1
  },
  {
    "RelicRarity": "CombatPowerRelicRarity5",
    "RelicLevel": 2,
    "RelicType": "OBJECT",
    "RelicSubValueList": [
      {
        "EDOCPKIBBNG": "CriticalChanceBase",
        "EHBNCHKBLDI": 1
      },
      {
        "EDOCPKIBBNG": "BreakDamageAddedRatioBase",
        "EHBNCHKBLDI": 2
      }
    ],
    "RelicSubValueStepTime": 1
  },
  {
    "RelicRarity": "CombatPowerRelicRarity5",
    "RelicLevel": 3,
    "RelicType": "HEAD",
    "RelicSubValueList": [
      {
        "EDOCPKIBBNG": "HPAddedRatio",
        "EHBNCHKBLDI": 3
      }
    ],
    "RelicSubValueStepTime": 1
  },
  {
    "RelicRarity": "CombatPowerRelicRarity5",
    "RelicLevel": 3,
    "RelicType": "HAND",
    "RelicSubValueList": [
      {
        "EDOCPKIBBNG": "AttackAddedRatio",
        "EHBNCHKBLDI": 1
      },
      {
        "EDOCPKIBBNG": "DefenceAddedRatio",
        "EHBNCHKBLDI": 1
      },
      {
        "EDOCPKIBBNG": "SpeedDelta",
        "EHBNCHKBLDI": 1
      },
      {
        "EDOCPKIBBNG": "CriticalChanceBase",
        "EHBNCHKBLDI": 1
      }
    ],
    "RelicSubValueStepTime": 1
  },
  {
    "RelicRarity": "CombatPowerRelicRarity5",
    "RelicLevel": 3,
    "RelicType": "BODY",
    "RelicSubValueList": [
      {
        "EDOCPKIBBNG": "AttackAddedRatio",
        "EHBNCHKBLDI": 1
      },
      {
        "EDOCPKIBBNG": "CriticalDamageBase",
        "EHBNCHKBLDI": 3
      }
    ],
    "RelicSubValueStepTime": 1
  },
  {
    "RelicRarity": "CombatPowerRelicRarity5",
    "RelicLevel": 3,
    "RelicType": "FOOT",
    "RelicSubValueList": [
      {
        "EDOCPKIBBNG": "DefenceAddedRatio",
        "EHBNCHKBLDI": 2
      },
      {
        "EDOCPKIBBNG": "StatusProbabilityBase",
        "EHBNCHKBLDI": 2
      }
    ],
    "RelicSubValueStepTime": 1
  },
  {
    "RelicRarity": "CombatPowerRelicRarity5",
    "RelicLevel": 3,
    "RelicType": "NECK",
    "RelicSubValueList": [
      {
        "EDOCPKIBBNG": "SpeedDelta",
        "EHBNCHKBLDI": 2
      },
      {
        "EDOCPKIBBNG": "StatusResistanceBase",
        "EHBNCHKBLDI": 2
      }
    ],
    "RelicSubValueStepTime": 1
  },
  {
    "RelicRarity": "CombatPowerRelicRarity5",
    "RelicLevel": 3,
    "RelicType": "OBJECT",
    "RelicSubValueList": [
      {
        "EDOCPKIBBNG": "CriticalChanceBase",
        "EHBNCHKBLDI": 2
      },
      {
        "EDOCPKIBBNG": "BreakDamageAddedRatioBase",
        "EHBNCHKBLDI": 2
      }
    ],
    "RelicSubValueStepTime": 1
  },
  {
    "RelicRarity": "CombatPowerRelicRarity5",
    "RelicLevel": 4,
    "RelicType": "HEAD",
    "RelicSubValueList": [
      {
        "EDOCPKIBBNG": "HPAddedRatio",
        "EHBNCHKBLDI": 3
      }
    ],
    "RelicSubValueStepTime": 1
  },
  {
    "RelicRarity": "CombatPowerRelicRarity5",
    "RelicLevel": 4,
    "RelicType": "HAND",
    "RelicSubValueList": [
      {
        "EDOCPKIBBNG": "AttackAddedRatio",
        "EHBNCHKBLDI": 1
      },
      {
        "EDOCPKIBBNG": "DefenceAddedRatio",
        "EHBNCHKBLDI": 1
      },
      {
        "EDOCPKIBBNG": "SpeedDelta",
        "EHBNCHKBLDI": 1
      },
      {
        "EDOCPKIBBNG": "CriticalChanceBase",
        "EHBNCHKBLDI": 1
      }
    ],
    "RelicSubValueStepTime": 1
  },
  {
    "RelicRarity": "CombatPowerRelicRarity5",
    "RelicLevel": 4,
    "RelicType": "BODY",
    "RelicSubValueList": [
      {
        "EDOCPKIBBNG": "AttackAddedRatio",
        "EHBNCHKBLDI": 1
      },
      {
        "EDOCPKIBBNG": "CriticalDamageBase",
        "EHBNCHKBLDI": 3
      }
    ],
    "RelicSubValueStepTime": 1
  },
  {
    "RelicRarity": "CombatPowerRelicRarity5",
    "RelicLevel": 4,
    "RelicType": "FOOT",
    "RelicSubValueList": [
      {
        "EDOCPKIBBNG": "DefenceAddedRatio",
        "EHBNCHKBLDI": 2
      },
      {
        "EDOCPKIBBNG": "StatusProbabilityBase",
        "EHBNCHKBLDI": 2
      }
    ],
    "RelicSubValueStepTime": 1
  },
  {
    "RelicRarity": "CombatPowerRelicRarity5",
    "RelicLevel": 4,
    "RelicType": "NECK",
    "RelicSubValueList": [
      {
        "EDOCPKIBBNG": "SpeedDelta",
        "EHBNCHKBLDI": 2
      },
      {
        "EDOCPKIBBNG": "StatusResistanceBase",
        "EHBNCHKBLDI": 2
      }
    ],
    "RelicSubValueStepTime": 1
  },
  {
    "RelicRarity": "CombatPowerRelicRarity5",
    "RelicLevel": 4,
    "RelicType": "OBJECT",
    "RelicSubValueList": [
      {
        "EDOCPKIBBNG": "CriticalChanceBase",
        "EHBNCHKBLDI": 2
      },
      {
        "EDOCPKIBBNG": "BreakDamageAddedRatioBase",
        "EHBNCHKBLDI": 2
      }
    ],
    "RelicSubValueStepTime": 1
  },
  {
    "RelicRarity": "CombatPowerRelicRarity5",
    "RelicLevel": 5,
    "RelicType": "HEAD",
    "RelicSubValueList": [
      {
        "EDOCPKIBBNG": "HPAddedRatio",
        "EHBNCHKBLDI": 3
      }
    ],
    "RelicSubValueStepTime": 1
  },
  {
    "RelicRarity": "CombatPowerRelicRarity5",
    "RelicLevel": 5,
    "RelicType": "HAND",
    "RelicSubValueList": [
      {
        "EDOCPKIBBNG": "AttackAddedRatio",
        "EHBNCHKBLDI": 1
      },
      {
        "EDOCPKIBBNG": "DefenceAddedRatio",
        "EHBNCHKBLDI": 1
      },
      {
        "EDOCPKIBBNG": "SpeedDelta",
        "EHBNCHKBLDI": 1
      },
      {
        "EDOCPKIBBNG": "CriticalChanceBase",
        "EHBNCHKBLDI": 1
      }
    ],
    "RelicSubValueStepTime": 1
  },
  {
    "RelicRarity": "CombatPowerRelicRarity5",
    "RelicLevel": 5,
    "RelicType": "BODY",
    "RelicSubValueList": [
      {
        "EDOCPKIBBNG": "AttackAddedRatio",
        "EHBNCHKBLDI": 1
      },
      {
        "EDOCPKIBBNG": "CriticalDamageBase",
        "EHBNCHKBLDI": 3
      }
    ],
    "RelicSubValueStepTime": 1
  },
  {
    "RelicRarity": "CombatPowerRelicRarity5",
    "RelicLevel": 5,
    "RelicType": "FOOT",
    "RelicSubValueList": [
      {
        "EDOCPKIBBNG": "DefenceAddedRatio",
        "EHBNCHKBLDI": 2
      },
      {
        "EDOCPKIBBNG": "StatusProbabilityBase",
        "EHBNCHKBLDI": 2
      }
    ],
    "RelicSubValueStepTime": 1
  },
  {
    "RelicRarity": "CombatPowerRelicRarity5",
    "RelicLevel": 5,
    "RelicType": "NECK",
    "RelicSubValueList": [
      {
        "EDOCPKIBBNG": "SpeedDelta",
        "EHBNCHKBLDI": 2
      },
      {
        "EDOCPKIBBNG": "StatusResistanceBase",
        "EHBNCHKBLDI": 2
      }
    ],
    "RelicSubValueStepTime": 1
  },
  {
    "RelicRarity": "CombatPowerRelicRarity5",
    "RelicLevel": 5,
    "RelicType": "OBJECT",
    "RelicSubValueList": [
      {
        "EDOCPKIBBNG": "CriticalChanceBase",
        "EHBNCHKBLDI": 2
      },
      {
        "EDOCPKIBBNG": "BreakDamageAddedRatioBase",
        "EHBNCHKBLDI": 2
      }
    ],
    "RelicSubValueStepTime": 1
  },
  {
    "RelicRarity": "CombatPowerRelicRarity5",
    "RelicLevel": 6,
    "RelicType": "HEAD",
    "RelicSubValueList": [
      {
        "EDOCPKIBBNG": "HPAddedRatio",
        "EHBNCHKBLDI": 4
      }
    ],
    "RelicSubValueStepTime": 1
  },
  {
    "RelicRarity": "CombatPowerRelicRarity5",
    "RelicLevel": 6,
    "RelicType": "HAND",
    "RelicSubValueList": [
      {
        "EDOCPKIBBNG": "AttackAddedRatio",
        "EHBNCHKBLDI": 1
      },
      {
        "EDOCPKIBBNG": "DefenceAddedRatio",
        "EHBNCHKBLDI": 1
      },
      {
        "EDOCPKIBBNG": "SpeedDelta",
        "EHBNCHKBLDI": 1
      },
      {
        "EDOCPKIBBNG": "CriticalChanceBase",
        "EHBNCHKBLDI": 2
      }
    ],
    "RelicSubValueStepTime": 1
  },
  {
    "RelicRarity": "CombatPowerRelicRarity5",
    "RelicLevel": 6,
    "RelicType": "BODY",
    "RelicSubValueList": [
      {
        "EDOCPKIBBNG": "AttackAddedRatio",
        "EHBNCHKBLDI": 2
      },
      {
        "EDOCPKIBBNG": "CriticalDamageBase",
        "EHBNCHKBLDI": 3
      }
    ],
    "RelicSubValueStepTime": 1
  },
  {
    "RelicRarity": "CombatPowerRelicRarity5",
    "RelicLevel": 6,
    "RelicType": "FOOT",
    "RelicSubValueList": [
      {
        "EDOCPKIBBNG": "DefenceAddedRatio",
        "EHBNCHKBLDI": 2
      },
      {
        "EDOCPKIBBNG": "StatusProbabilityBase",
        "EHBNCHKBLDI": 3
      }
    ],
    "RelicSubValueStepTime": 1
  },
  {
    "RelicRarity": "CombatPowerRelicRarity5",
    "RelicLevel": 6,
    "RelicType": "NECK",
    "RelicSubValueList": [
      {
        "EDOCPKIBBNG": "SpeedDelta",
        "EHBNCHKBLDI": 2
      },
      {
        "EDOCPKIBBNG": "StatusResistanceBase",
        "EHBNCHKBLDI": 3
      }
    ],
    "RelicSubValueStepTime": 1
  },
  {
    "RelicRarity": "CombatPowerRelicRarity5",
    "RelicLevel": 6,
    "RelicType": "OBJECT",
    "RelicSubValueList": [
      {
        "EDOCPKIBBNG": "CriticalChanceBase",
        "EHBNCHKBLDI": 2
      },
      {
        "EDOCPKIBBNG": "BreakDamageAddedRatioBase",
        "EHBNCHKBLDI": 3
      }
    ],
    "RelicSubValueStepTime": 1
  },
  {
    "RelicRarity": "CombatPowerRelicRarity5",
    "RelicLevel": 7,
    "RelicType": "HEAD",
    "RelicSubValueList": [
      {
        "EDOCPKIBBNG": "HPAddedRatio",
        "EHBNCHKBLDI": 4
      }
    ],
    "RelicSubValueStepTime": 1
  },
  {
    "RelicRarity": "CombatPowerRelicRarity5",
    "RelicLevel": 7,
    "RelicType": "HAND",
    "RelicSubValueList": [
      {
        "EDOCPKIBBNG": "AttackAddedRatio",
        "EHBNCHKBLDI": 1
      },
      {
        "EDOCPKIBBNG": "DefenceAddedRatio",
        "EHBNCHKBLDI": 1
      },
      {
        "EDOCPKIBBNG": "SpeedDelta",
        "EHBNCHKBLDI": 1
      },
      {
        "EDOCPKIBBNG": "CriticalChanceBase",
        "EHBNCHKBLDI": 2
      }
    ],
    "RelicSubValueStepTime": 1
  },
  {
    "RelicRarity": "CombatPowerRelicRarity5",
    "RelicLevel": 7,
    "RelicType": "BODY",
    "RelicSubValueList": [
      {
        "EDOCPKIBBNG": "AttackAddedRatio",
        "EHBNCHKBLDI": 2
      },
      {
        "EDOCPKIBBNG": "CriticalDamageBase",
        "EHBNCHKBLDI": 3
      }
    ],
    "RelicSubValueStepTime": 1
  },
  {
    "RelicRarity": "CombatPowerRelicRarity5",
    "RelicLevel": 7,
    "RelicType": "FOOT",
    "RelicSubValueList": [
      {
        "EDOCPKIBBNG": "DefenceAddedRatio",
        "EHBNCHKBLDI": 2
      },
      {
        "EDOCPKIBBNG": "StatusProbabilityBase",
        "EHBNCHKBLDI": 3
      }
    ],
    "RelicSubValueStepTime": 1
  },
  {
    "RelicRarity": "CombatPowerRelicRarity5",
    "RelicLevel": 7,
    "RelicType": "NECK",
    "RelicSubValueList": [
      {
        "EDOCPKIBBNG": "SpeedDelta",
        "EHBNCHKBLDI": 2
      },
      {
        "EDOCPKIBBNG": "StatusResistanceBase",
        "EHBNCHKBLDI": 3
      }
    ],
    "RelicSubValueStepTime": 1
  },
  {
    "RelicRarity": "CombatPowerRelicRarity5",
    "RelicLevel": 7,
    "RelicType": "OBJECT",
    "RelicSubValueList": [
      {
        "EDOCPKIBBNG": "CriticalChanceBase",
        "EHBNCHKBLDI": 2
      },
      {
        "EDOCPKIBBNG": "BreakDamageAddedRatioBase",
        "EHBNCHKBLDI": 3
      }
    ],
    "RelicSubValueStepTime": 1
  },
  {
    "RelicRarity": "CombatPowerRelicRarity5",
    "RelicLevel": 8,
    "RelicType": "HEAD",
    "RelicSubValueList": [
      {
        "EDOCPKIBBNG": "HPAddedRatio",
        "EHBNCHKBLDI": 4
      }
    ],
    "RelicSubValueStepTime": 1
  },
  {
    "RelicRarity": "CombatPowerRelicRarity5",
    "RelicLevel": 8,
    "RelicType": "HAND",
    "RelicSubValueList": [
      {
        "EDOCPKIBBNG": "AttackAddedRatio",
        "EHBNCHKBLDI": 1
      },
      {
        "EDOCPKIBBNG": "DefenceAddedRatio",
        "EHBNCHKBLDI": 1
      },
      {
        "EDOCPKIBBNG": "SpeedDelta",
        "EHBNCHKBLDI": 1
      },
      {
        "EDOCPKIBBNG": "CriticalChanceBase",
        "EHBNCHKBLDI": 2
      }
    ],
    "RelicSubValueStepTime": 1
  },
  {
    "RelicRarity": "CombatPowerRelicRarity5",
    "RelicLevel": 8,
    "RelicType": "BODY",
    "RelicSubValueList": [
      {
        "EDOCPKIBBNG": "AttackAddedRatio",
        "EHBNCHKBLDI": 2
      },
      {
        "EDOCPKIBBNG": "CriticalDamageBase",
        "EHBNCHKBLDI": 3
      }
    ],
    "RelicSubValueStepTime": 1
  },
  {
    "RelicRarity": "CombatPowerRelicRarity5",
    "RelicLevel": 8,
    "RelicType": "FOOT",
    "RelicSubValueList": [
      {
        "EDOCPKIBBNG": "DefenceAddedRatio",
        "EHBNCHKBLDI": 2
      },
      {
        "EDOCPKIBBNG": "StatusProbabilityBase",
        "EHBNCHKBLDI": 3
      }
    ],
    "RelicSubValueStepTime": 1
  },
  {
    "RelicRarity": "CombatPowerRelicRarity5",
    "RelicLevel": 8,
    "RelicType": "NECK",
    "RelicSubValueList": [
      {
        "EDOCPKIBBNG": "SpeedDelta",
        "EHBNCHKBLDI": 2
      },
      {
        "EDOCPKIBBNG": "StatusResistanceBase",
        "EHBNCHKBLDI": 3
      }
    ],
    "RelicSubValueStepTime": 1
  },
  {
    "RelicRarity": "CombatPowerRelicRarity5",
    "RelicLevel": 8,
    "RelicType": "OBJECT",
    "RelicSubValueList": [
      {
        "EDOCPKIBBNG": "CriticalChanceBase",
        "EHBNCHKBLDI": 2
      },
      {
        "EDOCPKIBBNG": "BreakDamageAddedRatioBase",
        "EHBNCHKBLDI": 3
      }
    ],
    "RelicSubValueStepTime": 1
  },
  {
    "RelicRarity": "CombatPowerRelicRarity5",
    "RelicLevel": 9,
    "RelicType": "HEAD",
    "RelicSubValueList": [
      {
        "EDOCPKIBBNG": "HPAddedRatio",
        "EHBNCHKBLDI": 4
      }
    ],
    "RelicSubValueStepTime": 1
  },
  {
    "RelicRarity": "CombatPowerRelicRarity5",
    "RelicLevel": 9,
    "RelicType": "HAND",
    "RelicSubValueList": [
      {
        "EDOCPKIBBNG": "AttackAddedRatio",
        "EHBNCHKBLDI": 1
      },
      {
        "EDOCPKIBBNG": "DefenceAddedRatio",
        "EHBNCHKBLDI": 1
      },
      {
        "EDOCPKIBBNG": "SpeedDelta",
        "EHBNCHKBLDI": 2
      },
      {
        "EDOCPKIBBNG": "CriticalChanceBase",
        "EHBNCHKBLDI": 2
      }
    ],
    "RelicSubValueStepTime": 1
  },
  {
    "RelicRarity": "CombatPowerRelicRarity5",
    "RelicLevel": 9,
    "RelicType": "BODY",
    "RelicSubValueList": [
      {
        "EDOCPKIBBNG": "AttackAddedRatio",
        "EHBNCHKBLDI": 2
      },
      {
        "EDOCPKIBBNG": "CriticalDamageBase",
        "EHBNCHKBLDI": 4
      }
    ],
    "RelicSubValueStepTime": 1
  },
  {
    "RelicRarity": "CombatPowerRelicRarity5",
    "RelicLevel": 9,
    "RelicType": "FOOT",
    "RelicSubValueList": [
      {
        "EDOCPKIBBNG": "DefenceAddedRatio",
        "EHBNCHKBLDI": 3
      },
      {
        "EDOCPKIBBNG": "StatusProbabilityBase",
        "EHBNCHKBLDI": 3
      }
    ],
    "RelicSubValueStepTime": 1
  },
  {
    "RelicRarity": "CombatPowerRelicRarity5",
    "RelicLevel": 9,
    "RelicType": "NECK",
    "RelicSubValueList": [
      {
        "EDOCPKIBBNG": "SpeedDelta",
        "EHBNCHKBLDI": 2
      },
      {
        "EDOCPKIBBNG": "StatusResistanceBase",
        "EHBNCHKBLDI": 4
      }
    ],
    "RelicSubValueStepTime": 1
  },
  {
    "RelicRarity": "CombatPowerRelicRarity5",
    "RelicLevel": 9,
    "RelicType": "OBJECT",
    "RelicSubValueList": [
      {
        "EDOCPKIBBNG": "CriticalChanceBase",
        "EHBNCHKBLDI": 2
      },
      {
        "EDOCPKIBBNG": "BreakDamageAddedRatioBase",
        "EHBNCHKBLDI": 4
      }
    ],
    "RelicSubValueStepTime": 1
  },
  {
    "RelicRarity": "CombatPowerRelicRarity5",
    "RelicLevel": 10,
    "RelicType": "HEAD",
    "RelicSubValueList": [
      {
        "EDOCPKIBBNG": "HPAddedRatio",
        "EHBNCHKBLDI": 4
      }
    ],
    "RelicSubValueStepTime": 1
  },
  {
    "RelicRarity": "CombatPowerRelicRarity5",
    "RelicLevel": 10,
    "RelicType": "HAND",
    "RelicSubValueList": [
      {
        "EDOCPKIBBNG": "AttackAddedRatio",
        "EHBNCHKBLDI": 1
      },
      {
        "EDOCPKIBBNG": "DefenceAddedRatio",
        "EHBNCHKBLDI": 1
      },
      {
        "EDOCPKIBBNG": "SpeedDelta",
        "EHBNCHKBLDI": 2
      },
      {
        "EDOCPKIBBNG": "CriticalChanceBase",
        "EHBNCHKBLDI": 2
      }
    ],
    "RelicSubValueStepTime": 1
  },
  {
    "RelicRarity": "CombatPowerRelicRarity5",
    "RelicLevel": 10,
    "RelicType": "BODY",
    "RelicSubValueList": [
      {
        "EDOCPKIBBNG": "AttackAddedRatio",
        "EHBNCHKBLDI": 2
      },
      {
        "EDOCPKIBBNG": "CriticalDamageBase",
        "EHBNCHKBLDI": 4
      }
    ],
    "RelicSubValueStepTime": 1
  },
  {
    "RelicRarity": "CombatPowerRelicRarity5",
    "RelicLevel": 10,
    "RelicType": "FOOT",
    "RelicSubValueList": [
      {
        "EDOCPKIBBNG": "DefenceAddedRatio",
        "EHBNCHKBLDI": 3
      },
      {
        "EDOCPKIBBNG": "StatusProbabilityBase",
        "EHBNCHKBLDI": 3
      }
    ],
    "RelicSubValueStepTime": 1
  },
  {
    "RelicRarity": "CombatPowerRelicRarity5",
    "RelicLevel": 10,
    "RelicType": "NECK",
    "RelicSubValueList": [
      {
        "EDOCPKIBBNG": "SpeedDelta",
        "EHBNCHKBLDI": 2
      },
      {
        "EDOCPKIBBNG": "StatusResistanceBase",
        "EHBNCHKBLDI": 4
      }
    ],
    "RelicSubValueStepTime": 1
  },
  {
    "RelicRarity": "CombatPowerRelicRarity5",
    "RelicLevel": 10,
    "RelicType": "OBJECT",
    "RelicSubValueList": [
      {
        "EDOCPKIBBNG": "CriticalChanceBase",
        "EHBNCHKBLDI": 2
      },
      {
        "EDOCPKIBBNG": "BreakDamageAddedRatioBase",
        "EHBNCHKBLDI": 4
      }
    ],
    "RelicSubValueStepTime": 1
  },
  {
    "RelicRarity": "CombatPowerRelicRarity5",
    "RelicLevel": 11,
    "RelicType": "HEAD",
    "RelicSubValueList": [
      {
        "EDOCPKIBBNG": "HPAddedRatio",
        "EHBNCHKBLDI": 4
      }
    ],
    "RelicSubValueStepTime": 1
  },
  {
    "RelicRarity": "CombatPowerRelicRarity5",
    "RelicLevel": 11,
    "RelicType": "HAND",
    "RelicSubValueList": [
      {
        "EDOCPKIBBNG": "AttackAddedRatio",
        "EHBNCHKBLDI": 1
      },
      {
        "EDOCPKIBBNG": "DefenceAddedRatio",
        "EHBNCHKBLDI": 1
      },
      {
        "EDOCPKIBBNG": "SpeedDelta",
        "EHBNCHKBLDI": 2
      },
      {
        "EDOCPKIBBNG": "CriticalChanceBase",
        "EHBNCHKBLDI": 2
      }
    ],
    "RelicSubValueStepTime": 1
  },
  {
    "RelicRarity": "CombatPowerRelicRarity5",
    "RelicLevel": 11,
    "RelicType": "BODY",
    "RelicSubValueList": [
      {
        "EDOCPKIBBNG": "AttackAddedRatio",
        "EHBNCHKBLDI": 2
      },
      {
        "EDOCPKIBBNG": "CriticalDamageBase",
        "EHBNCHKBLDI": 4
      }
    ],
    "RelicSubValueStepTime": 1
  },
  {
    "RelicRarity": "CombatPowerRelicRarity5",
    "RelicLevel": 11,
    "RelicType": "FOOT",
    "RelicSubValueList": [
      {
        "EDOCPKIBBNG": "DefenceAddedRatio",
        "EHBNCHKBLDI": 3
      },
      {
        "EDOCPKIBBNG": "StatusProbabilityBase",
        "EHBNCHKBLDI": 3
      }
    ],
    "RelicSubValueStepTime": 1
  },
  {
    "RelicRarity": "CombatPowerRelicRarity5",
    "RelicLevel": 11,
    "RelicType": "NECK",
    "RelicSubValueList": [
      {
        "EDOCPKIBBNG": "SpeedDelta",
        "EHBNCHKBLDI": 2
      },
      {
        "EDOCPKIBBNG": "StatusResistanceBase",
        "EHBNCHKBLDI": 4
      }
    ],
    "RelicSubValueStepTime": 1
  },
  {
    "RelicRarity": "CombatPowerRelicRarity5",
    "RelicLevel": 11,
    "RelicType": "OBJECT",
    "RelicSubValueList": [
      {
        "EDOCPKIBBNG": "CriticalChanceBase",
        "EHBNCHKBLDI": 2
      },
      {
        "EDOCPKIBBNG": "BreakDamageAddedRatioBase",
        "EHBNCHKBLDI": 4
      }
    ],
    "RelicSubValueStepTime": 1
  },
  {
    "RelicRarity": "CombatPowerRelicRarity5",
    "RelicLevel": 12,
    "RelicType": "HEAD",
    "RelicSubValueList": [
      {
        "EDOCPKIBBNG": "HPAddedRatio",
        "EHBNCHKBLDI": 5
      }
    ],
    "RelicSubValueStepTime": 1
  },
  {
    "RelicRarity": "CombatPowerRelicRarity5",
    "RelicLevel": 12,
    "RelicType": "HAND",
    "RelicSubValueList": [
      {
        "EDOCPKIBBNG": "AttackAddedRatio",
        "EHBNCHKBLDI": 2
      },
      {
        "EDOCPKIBBNG": "DefenceAddedRatio",
        "EHBNCHKBLDI": 1
      },
      {
        "EDOCPKIBBNG": "SpeedDelta",
        "EHBNCHKBLDI": 2
      },
      {
        "EDOCPKIBBNG": "CriticalChanceBase",
        "EHBNCHKBLDI": 2
      }
    ],
    "RelicSubValueStepTime": 1
  },
  {
    "RelicRarity": "CombatPowerRelicRarity5",
    "RelicLevel": 12,
    "RelicType": "BODY",
    "RelicSubValueList": [
      {
        "EDOCPKIBBNG": "AttackAddedRatio",
        "EHBNCHKBLDI": 3
      },
      {
        "EDOCPKIBBNG": "CriticalDamageBase",
        "EHBNCHKBLDI": 4
      }
    ],
    "RelicSubValueStepTime": 1
  },
  {
    "RelicRarity": "CombatPowerRelicRarity5",
    "RelicLevel": 12,
    "RelicType": "FOOT",
    "RelicSubValueList": [
      {
        "EDOCPKIBBNG": "DefenceAddedRatio",
        "EHBNCHKBLDI": 3
      },
      {
        "EDOCPKIBBNG": "StatusProbabilityBase",
        "EHBNCHKBLDI": 4
      }
    ],
    "RelicSubValueStepTime": 1
  },
  {
    "RelicRarity": "CombatPowerRelicRarity5",
    "RelicLevel": 12,
    "RelicType": "NECK",
    "RelicSubValueList": [
      {
        "EDOCPKIBBNG": "SpeedDelta",
        "EHBNCHKBLDI": 3
      },
      {
        "EDOCPKIBBNG": "StatusResistanceBase",
        "EHBNCHKBLDI": 4
      }
    ],
    "RelicSubValueStepTime": 1
  },
  {
    "RelicRarity": "CombatPowerRelicRarity5",
    "RelicLevel": 12,
    "RelicType": "OBJECT",
    "RelicSubValueList": [
      {
        "EDOCPKIBBNG": "CriticalChanceBase",
        "EHBNCHKBLDI": 3
      },
      {
        "EDOCPKIBBNG": "BreakDamageAddedRatioBase",
        "EHBNCHKBLDI": 4
      }
    ],
    "RelicSubValueStepTime": 1
  },
  {
    "RelicRarity": "CombatPowerRelicRarity5",
    "RelicLevel": 13,
    "RelicType": "HEAD",
    "RelicSubValueList": [
      {
        "EDOCPKIBBNG": "HPAddedRatio",
        "EHBNCHKBLDI": 5
      }
    ],
    "RelicSubValueStepTime": 1
  },
  {
    "RelicRarity": "CombatPowerRelicRarity5",
    "RelicLevel": 13,
    "RelicType": "HAND",
    "RelicSubValueList": [
      {
        "EDOCPKIBBNG": "AttackAddedRatio",
        "EHBNCHKBLDI": 2
      },
      {
        "EDOCPKIBBNG": "DefenceAddedRatio",
        "EHBNCHKBLDI": 1
      },
      {
        "EDOCPKIBBNG": "SpeedDelta",
        "EHBNCHKBLDI": 2
      },
      {
        "EDOCPKIBBNG": "CriticalChanceBase",
        "EHBNCHKBLDI": 2
      }
    ],
    "RelicSubValueStepTime": 1
  },
  {
    "RelicRarity": "CombatPowerRelicRarity5",
    "RelicLevel": 13,
    "RelicType": "BODY",
    "RelicSubValueList": [
      {
        "EDOCPKIBBNG": "AttackAddedRatio",
        "EHBNCHKBLDI": 3
      },
      {
        "EDOCPKIBBNG": "CriticalDamageBase",
        "EHBNCHKBLDI": 4
      }
    ],
    "RelicSubValueStepTime": 1
  },
  {
    "RelicRarity": "CombatPowerRelicRarity5",
    "RelicLevel": 13,
    "RelicType": "FOOT",
    "RelicSubValueList": [
      {
        "EDOCPKIBBNG": "DefenceAddedRatio",
        "EHBNCHKBLDI": 3
      },
      {
        "EDOCPKIBBNG": "StatusProbabilityBase",
        "EHBNCHKBLDI": 4
      }
    ],
    "RelicSubValueStepTime": 1
  },
  {
    "RelicRarity": "CombatPowerRelicRarity5",
    "RelicLevel": 13,
    "RelicType": "NECK",
    "RelicSubValueList": [
      {
        "EDOCPKIBBNG": "SpeedDelta",
        "EHBNCHKBLDI": 3
      },
      {
        "EDOCPKIBBNG": "StatusResistanceBase",
        "EHBNCHKBLDI": 4
      }
    ],
    "RelicSubValueStepTime": 1
  },
  {
    "RelicRarity": "CombatPowerRelicRarity5",
    "RelicLevel": 13,
    "RelicType": "OBJECT",
    "RelicSubValueList": [
      {
        "EDOCPKIBBNG": "CriticalChanceBase",
        "EHBNCHKBLDI": 3
      },
      {
        "EDOCPKIBBNG": "BreakDamageAddedRatioBase",
        "EHBNCHKBLDI": 4
      }
    ],
    "RelicSubValueStepTime": 1
  },
  {
    "RelicRarity": "CombatPowerRelicRarity5",
    "RelicLevel": 14,
    "RelicType": "HEAD",
    "RelicSubValueList": [
      {
        "EDOCPKIBBNG": "HPAddedRatio",
        "EHBNCHKBLDI": 5
      }
    ],
    "RelicSubValueStepTime": 1
  },
  {
    "RelicRarity": "CombatPowerRelicRarity5",
    "RelicLevel": 14,
    "RelicType": "HAND",
    "RelicSubValueList": [
      {
        "EDOCPKIBBNG": "AttackAddedRatio",
        "EHBNCHKBLDI": 2
      },
      {
        "EDOCPKIBBNG": "DefenceAddedRatio",
        "EHBNCHKBLDI": 1
      },
      {
        "EDOCPKIBBNG": "SpeedDelta",
        "EHBNCHKBLDI": 2
      },
      {
        "EDOCPKIBBNG": "CriticalChanceBase",
        "EHBNCHKBLDI": 2
      }
    ],
    "RelicSubValueStepTime": 1
  },
  {
    "RelicRarity": "CombatPowerRelicRarity5",
    "RelicLevel": 14,
    "RelicType": "BODY",
    "RelicSubValueList": [
      {
        "EDOCPKIBBNG": "AttackAddedRatio",
        "EHBNCHKBLDI": 3
      },
      {
        "EDOCPKIBBNG": "CriticalDamageBase",
        "EHBNCHKBLDI": 4
      }
    ],
    "RelicSubValueStepTime": 1
  },
  {
    "RelicRarity": "CombatPowerRelicRarity5",
    "RelicLevel": 14,
    "RelicType": "FOOT",
    "RelicSubValueList": [
      {
        "EDOCPKIBBNG": "DefenceAddedRatio",
        "EHBNCHKBLDI": 3
      },
      {
        "EDOCPKIBBNG": "StatusProbabilityBase",
        "EHBNCHKBLDI": 4
      }
    ],
    "RelicSubValueStepTime": 1
  },
  {
    "RelicRarity": "CombatPowerRelicRarity5",
    "RelicLevel": 14,
    "RelicType": "NECK",
    "RelicSubValueList": [
      {
        "EDOCPKIBBNG": "SpeedDelta",
        "EHBNCHKBLDI": 3
      },
      {
        "EDOCPKIBBNG": "StatusResistanceBase",
        "EHBNCHKBLDI": 4
      }
    ],
    "RelicSubValueStepTime": 1
  },
  {
    "RelicRarity": "CombatPowerRelicRarity5",
    "RelicLevel": 14,
    "RelicType": "OBJECT",
    "RelicSubValueList": [
      {
        "EDOCPKIBBNG": "CriticalChanceBase",
        "EHBNCHKBLDI": 3
      },
      {
        "EDOCPKIBBNG": "BreakDamageAddedRatioBase",
        "EHBNCHKBLDI": 4
      }
    ],
    "RelicSubValueStepTime": 1
  },
  {
    "RelicRarity": "CombatPowerRelicRarity5",
    "RelicLevel": 15,
    "RelicType": "HEAD",
    "RelicSubValueList": [
      {
        "EDOCPKIBBNG": "HPAddedRatio",
        "EHBNCHKBLDI": 5
      }
    ],
    "RelicSubValueStepTime": 1
  },
  {
    "RelicRarity": "CombatPowerRelicRarity5",
    "RelicLevel": 15,
    "RelicType": "HAND",
    "RelicSubValueList": [
      {
        "EDOCPKIBBNG": "AttackAddedRatio",
        "EHBNCHKBLDI": 2
      },
      {
        "EDOCPKIBBNG": "DefenceAddedRatio",
        "EHBNCHKBLDI": 2
      },
      {
        "EDOCPKIBBNG": "SpeedDelta",
        "EHBNCHKBLDI": 2
      },
      {
        "EDOCPKIBBNG": "CriticalChanceBase",
        "EHBNCHKBLDI": 2
      }
    ],
    "RelicSubValueStepTime": 1
  },
  {
    "RelicRarity": "CombatPowerRelicRarity5",
    "RelicLevel": 15,
    "RelicType": "BODY",
    "RelicSubValueList": [
      {
        "EDOCPKIBBNG": "AttackAddedRatio",
        "EHBNCHKBLDI": 3
      },
      {
        "EDOCPKIBBNG": "CriticalDamageBase",
        "EHBNCHKBLDI": 5
      }
    ],
    "RelicSubValueStepTime": 1
  },
  {
    "RelicRarity": "CombatPowerRelicRarity5",
    "RelicLevel": 15,
    "RelicType": "FOOT",
    "RelicSubValueList": [
      {
        "EDOCPKIBBNG": "DefenceAddedRatio",
        "EHBNCHKBLDI": 3
      },
      {
        "EDOCPKIBBNG": "StatusProbabilityBase",
        "EHBNCHKBLDI": 5
      }
    ],
    "RelicSubValueStepTime": 1
  },
  {
    "RelicRarity": "CombatPowerRelicRarity5",
    "RelicLevel": 15,
    "RelicType": "NECK",
    "RelicSubValueList": [
      {
        "EDOCPKIBBNG": "SpeedDelta",
        "EHBNCHKBLDI": 3
      },
      {
        "EDOCPKIBBNG": "StatusResistanceBase",
        "EHBNCHKBLDI": 5
      }
    ],
    "RelicSubValueStepTime": 1
  },
  {
    "RelicRarity": "CombatPowerRelicRarity5",
    "RelicLevel": 15,
    "RelicType": "OBJECT",
    "RelicSubValueList": [
      {
        "EDOCPKIBBNG": "CriticalChanceBase",
        "EHBNCHKBLDI": 3
      },
      {
        "EDOCPKIBBNG": "BreakDamageAddedRatioBase",
        "EHBNCHKBLDI": 5
      }
    ],
    "RelicSubValueStepTime": 1
  }
]