[
  {
    "AreaID": 101,
    "AreaGroupID": "Guide",
    "DefaultStyle": "Ultimate",
    "CustomStageDisplayParams": [],
    "DifficultyIDList": [
      1
    ],
    "LayerIDList": [
      101
    ],
    "FirstReward": 111300,
    "AreaNameID": {
      "Hash": -886443383
    },
    "WorldLevel2DisplayMonster": [
      {
        "IODANDAABIA": 2004011,
        "BKOGBKGNGGG": 25
      },
      {
        "IODANDAABIA": 2004011,
        "BKOGBKGNGGG": 35
      },
      {
        "IODANDAABIA": 2004011,
        "BKOGBKGNGGG": 45
      },
      {
        "IODANDAABIA": 2004011,
        "BKOGBKGNGGG": 55
      },
      {
        "IODANDAABIA": 2004011,
        "BKOGBKGNGGG": 65
      },
      {
        "IODANDAABIA": 2004011,
        "BKOGBKGNGGG": 80
      },
      {
        "IODANDAABIA": 2004011,
        "BKOGBKGNGGG": 90
      }
    ],
    "CustomStageDisplayIcon": ""
  },
  {
    "AreaID": 201,
    "AreaGroupID": "Formal",
    "DefaultStyle": "Dot",
    "UnlockID": 5013017,
    "CustomStageDisplayParams": [],
    "DifficultyIDList": [
      11,
      12
    ],
    "LayerIDList": [
      201,
      202
    ],
    "AreaIndex": 1,
    "FirstReward": 111301,
    "AreaNameID": {
      "Hash": -886443350
    },
    "WorldLevel2DisplayMonster": [
      {
        "IODANDAABIA": 3003042,
        "BKOGBKGNGGG": 30
      },
      {
        "IODANDAABIA": 3003042,
        "BKOGBKGNGGG": 40
      },
      {
        "IODANDAABIA": 3003042,
        "BKOGBKGNGGG": 50
      },
      {
        "IODANDAABIA": 3003042,
        "BKOGBKGNGGG": 60
      },
      {
        "IODANDAABIA": 3003042,
        "BKOGBKGNGGG": 70
      },
      {
        "IODANDAABIA": 3003042,
        "BKOGBKGNGGG": 85
      },
      {
        "IODANDAABIA": 3003042,
        "BKOGBKGNGGG": 95
      }
    ],
    "CustomStageDisplayIcon": ""
  },
  {
    "AreaID": 301,
    "AreaGroupID": "Formal",
    "DefaultStyle": "Follow",
    "UnlockID": 5013001,
    "CustomStageDisplayParams": [],
    "DifficultyIDList": [
      21,
      22,
      23
    ],
    "LayerIDList": [
      301,
      302,
      303
    ],
    "AreaIndex": 2,
    "FirstReward": 111302,
    "AreaNameID": {
      "Hash": -886443317
    },
    "WorldLevel2DisplayMonster": [
      {
        "IODANDAABIA": 3024023,
        "BKOGBKGNGGG": 30
      },
      {
        "IODANDAABIA": 3024023,
        "BKOGBKGNGGG": 40
      },
      {
        "IODANDAABIA": 3024023,
        "BKOGBKGNGGG": 50
      },
      {
        "IODANDAABIA": 3024023,
        "BKOGBKGNGGG": 60
      },
      {
        "IODANDAABIA": 3024023,
        "BKOGBKGNGGG": 70
      },
      {
        "IODANDAABIA": 3024023,
        "BKOGBKGNGGG": 85
      },
      {
        "IODANDAABIA": 3024023,
        "BKOGBKGNGGG": 95
      }
    ],
    "CustomStageDisplayIcon": ""
  },
  {
    "AreaID": 401,
    "AreaGroupID": "Formal",
    "DefaultStyle": "Break",
    "UnlockID": 5013002,
    "CustomStageDisplayParams": [],
    "DifficultyIDList": [
      31,
      32,
      33
    ],
    "LayerIDList": [
      1101,
      1201,
      1302
    ],
    "AreaIndex": 3,
    "FirstReward": 111303,
    "AreaNameID": {
      "Hash": -886443548
    },
    "WorldLevel2DisplayMonster": [
      {
        "IODANDAABIA": 8024012,
        "BKOGBKGNGGG": 30
      },
      {
        "IODANDAABIA": 8024012,
        "BKOGBKGNGGG": 40
      },
      {
        "IODANDAABIA": 8024012,
        "BKOGBKGNGGG": 50
      },
      {
        "IODANDAABIA": 8024012,
        "BKOGBKGNGGG": 60
      },
      {
        "IODANDAABIA": 8024012,
        "BKOGBKGNGGG": 70
      },
      {
        "IODANDAABIA": 8024012,
        "BKOGBKGNGGG": 85
      },
      {
        "IODANDAABIA": 8024012,
        "BKOGBKGNGGG": 95
      }
    ],
    "CustomStageDisplayIcon": ""
  },
  {
    "AreaID": 501,
    "AreaGroupID": "Formal",
    "DefaultStyle": "Ultimate",
    "UnlockID": 5013003,
    "CustomStageDisplayParams": [],
    "DifficultyIDList": [
      41,
      42,
      43
    ],
    "LayerIDList": [
      1101,
      1201,
      1302
    ],
    "AreaIndex": 4,
    "FirstReward": 111304,
    "AreaNameID": {
      "Hash": -886443515
    },
    "WorldLevel2DisplayMonster": [
      {
        "IODANDAABIA": 2034012,
        "BKOGBKGNGGG": 30
      },
      {
        "IODANDAABIA": 2034012,
        "BKOGBKGNGGG": 40
      },
      {
        "IODANDAABIA": 2034012,
        "BKOGBKGNGGG": 50
      },
      {
        "IODANDAABIA": 2034012,
        "BKOGBKGNGGG": 60
      },
      {
        "IODANDAABIA": 2034012,
        "BKOGBKGNGGG": 70
      },
      {
        "IODANDAABIA": 2034012,
        "BKOGBKGNGGG": 85
      },
      {
        "IODANDAABIA": 2034012,
        "BKOGBKGNGGG": 95
      }
    ],
    "CustomStageDisplayIcon": ""
  },
  {
    "AreaID": 601,
    "AreaGroupID": "Formal",
    "DefaultStyle": "Ultimate",
    "UnlockID": 5013004,
    "CustomStageDisplayParams": [],
    "DifficultyIDList": [
      51,
      52,
      53,
      54
    ],
    "LayerIDList": [
      1101,
      1201,
      1301
    ],
    "ExtraLayerID": 1401,
    "AreaIndex": 5,
    "FirstReward": 111305,
    "IsHard": true,
    "AreaNameID": {
      "Hash": -886443482
    },
    "WorldLevel2DisplayMonster": [
      {
        "IODANDAABIA": 2034012,
        "BKOGBKGNGGG": 30
      },
      {
        "IODANDAABIA": 2034012,
        "BKOGBKGNGGG": 40
      },
      {
        "IODANDAABIA": 2034012,
        "BKOGBKGNGGG": 50
      },
      {
        "IODANDAABIA": 2034012,
        "BKOGBKGNGGG": 60
      },
      {
        "IODANDAABIA": 2034012,
        "BKOGBKGNGGG": 70
      },
      {
        "IODANDAABIA": 2034012,
        "BKOGBKGNGGG": 85
      },
      {
        "IODANDAABIA": 2034012,
        "BKOGBKGNGGG": 95
      }
    ],
    "CustomStageDisplayIcon": ""
  },
  {
    "AreaID": 701,
    "AreaGroupID": "Final",
    "DefaultStyle": "Ultimate",
    "UnlockID": 5013260,
    "CustomStageDisplayParams": [],
    "DifficultyIDList": [
      31,
      32,
      33
    ],
    "LayerIDList": [
      4101,
      4201,
      4301
    ],
    "FirstReward": 111306,
    "AreaNameID": {
      "Hash": -886443449
    },
    "WorldLevel2DisplayMonster": [
      {
        "IODANDAABIA": 2034012,
        "BKOGBKGNGGG": 30
      },
      {
        "IODANDAABIA": 2034012,
        "BKOGBKGNGGG": 40
      },
      {
        "IODANDAABIA": 2034012,
        "BKOGBKGNGGG": 50
      },
      {
        "IODANDAABIA": 2034012,
        "BKOGBKGNGGG": 60
      },
      {
        "IODANDAABIA": 2034012,
        "BKOGBKGNGGG": 70
      },
      {
        "IODANDAABIA": 2034012,
        "BKOGBKGNGGG": 85
      },
      {
        "IODANDAABIA": 2034012,
        "BKOGBKGNGGG": 95
      }
    ],
    "CustomStageDisplayIcon": ""
  },
  {
    "AreaID": 801,
    "AreaGroupID": "Customization",
    "DefaultStyle": "Break",
    "UnlockID": 5013028,
    "CustomStageDisplayParams": [
      {
        "PGCFPBGPDGG": "Scepter",
        "INNKEBMHLNF": "2006_2"
      },
      {
        "PGCFPBGPDGG": "MagicUnit",
        "INNKEBMHLNF": "6056_1"
      },
      {
        "PGCFPBGPDGG": "MagicUnit",
        "INNKEBMHLNF": "5013_2"
      },
      {
        "PGCFPBGPDGG": "MagicUnit",
        "INNKEBMHLNF": "6017_2"
      }
    ],
    "DifficultyIDList": [
      71,
      72,
      73
    ],
    "LayerIDList": [
      1101,
      1201,
      1302
    ],
    "AreaIndex": 1,
    "FirstReward": 111311,
    "AreaNameID": {
      "Hash": -886443152
    },
    "WorldLevel2DisplayMonster": [
      {
        "IODANDAABIA": 8024010,
        "BKOGBKGNGGG": 30
      },
      {
        "IODANDAABIA": 8024010,
        "BKOGBKGNGGG": 40
      },
      {
        "IODANDAABIA": 8024010,
        "BKOGBKGNGGG": 50
      },
      {
        "IODANDAABIA": 8024010,
        "BKOGBKGNGGG": 60
      },
      {
        "IODANDAABIA": 8024010,
        "BKOGBKGNGGG": 70
      },
      {
        "IODANDAABIA": 8024010,
        "BKOGBKGNGGG": 85
      },
      {
        "IODANDAABIA": 8024010,
        "BKOGBKGNGGG": 95
      }
    ],
    "CustomStageDisplayIcon": "UI/UI3D/Rogue/DLC/RogueMagic/Texture/RogueMagicBattleCustomDetail_Icon3.png"
  },
  {
    "AreaID": 802,
    "AreaGroupID": "Customization",
    "DefaultStyle": "Dot",
    "UnlockID": 5013028,
    "CustomStageDisplayParams": [
      {
        "PGCFPBGPDGG": "Scepter",
        "INNKEBMHLNF": "2001_2"
      },
      {
        "PGCFPBGPDGG": "MagicUnit",
        "INNKEBMHLNF": "6064_1"
      },
      {
        "PGCFPBGPDGG": "MagicUnit",
        "INNKEBMHLNF": "5002_2"
      },
      {
        "PGCFPBGPDGG": "MagicUnit",
        "INNKEBMHLNF": "6019_2"
      }
    ],
    "DifficultyIDList": [
      71,
      72,
      73
    ],
    "LayerIDList": [
      1101,
      1201,
      1302
    ],
    "AreaIndex": 2,
    "FirstReward": 111312,
    "AreaNameID": {
      "Hash": -886443149
    },
    "WorldLevel2DisplayMonster": [
      {
        "IODANDAABIA": 8024010,
        "BKOGBKGNGGG": 30
      },
      {
        "IODANDAABIA": 8024010,
        "BKOGBKGNGGG": 40
      },
      {
        "IODANDAABIA": 8024010,
        "BKOGBKGNGGG": 50
      },
      {
        "IODANDAABIA": 8024010,
        "BKOGBKGNGGG": 60
      },
      {
        "IODANDAABIA": 8024010,
        "BKOGBKGNGGG": 70
      },
      {
        "IODANDAABIA": 8024010,
        "BKOGBKGNGGG": 85
      },
      {
        "IODANDAABIA": 8024010,
        "BKOGBKGNGGG": 95
      }
    ],
    "CustomStageDisplayIcon": "UI/UI3D/Rogue/DLC/RogueMagic/Texture/RogueMagicBattleCustomDetail_Icon4.png"
  },
  {
    "AreaID": 803,
    "AreaGroupID": "Customization",
    "DefaultStyle": "Ultimate",
    "UnlockID": 5013028,
    "CustomStageDisplayParams": [
      {
        "PGCFPBGPDGG": "Miracle",
        "INNKEBMHLNF": "7303"
      },
      {
        "PGCFPBGPDGG": "Miracle",
        "INNKEBMHLNF": "7402"
      },
      {
        "PGCFPBGPDGG": "Miracle",
        "INNKEBMHLNF": "7305"
      },
      {
        "PGCFPBGPDGG": "Miracle",
        "INNKEBMHLNF": "7307"
      }
    ],
    "DifficultyIDList": [
      71,
      72,
      73
    ],
    "LayerIDList": [
      1101,
      1201,
      1302
    ],
    "AreaIndex": 3,
    "FirstReward": 111313,
    "AreaNameID": {
      "Hash": -886443150
    },
    "WorldLevel2DisplayMonster": [
      {
        "IODANDAABIA": 8024010,
        "BKOGBKGNGGG": 30
      },
      {
        "IODANDAABIA": 8024010,
        "BKOGBKGNGGG": 40
      },
      {
        "IODANDAABIA": 8024010,
        "BKOGBKGNGGG": 50
      },
      {
        "IODANDAABIA": 8024010,
        "BKOGBKGNGGG": 60
      },
      {
        "IODANDAABIA": 8024010,
        "BKOGBKGNGGG": 70
      },
      {
        "IODANDAABIA": 8024010,
        "BKOGBKGNGGG": 85
      },
      {
        "IODANDAABIA": 8024010,
        "BKOGBKGNGGG": 95
      }
    ],
    "CustomStageDisplayIcon": "UI/UI3D/Rogue/DLC/RogueMagic/Texture/RogueMagicBattleCustomDetail_Icon1.png"
  },
  {
    "AreaID": 804,
    "AreaGroupID": "Customization",
    "DefaultStyle": "Ultimate",
    "UnlockID": 5013028,
    "CustomStageDisplayParams": [
      {
        "PGCFPBGPDGG": "Scepter",
        "INNKEBMHLNF": "3007_2"
      },
      {
        "PGCFPBGPDGG": "MagicUnit",
        "INNKEBMHLNF": "6071_1"
      },
      {
        "PGCFPBGPDGG": "MagicUnit",
        "INNKEBMHLNF": "5009_2"
      },
      {
        "PGCFPBGPDGG": "MagicUnit",
        "INNKEBMHLNF": "6006_2"
      }
    ],
    "DifficultyIDList": [
      71,
      72,
      73
    ],
    "LayerIDList": [
      1101,
      1201,
      1302
    ],
    "AreaIndex": 4,
    "FirstReward": 111314,
    "AreaNameID": {
      "Hash": -886443155
    },
    "WorldLevel2DisplayMonster": [
      {
        "IODANDAABIA": 8024010,
        "BKOGBKGNGGG": 30
      },
      {
        "IODANDAABIA": 8024010,
        "BKOGBKGNGGG": 40
      },
      {
        "IODANDAABIA": 8024010,
        "BKOGBKGNGGG": 50
      },
      {
        "IODANDAABIA": 8024010,
        "BKOGBKGNGGG": 60
      },
      {
        "IODANDAABIA": 8024010,
        "BKOGBKGNGGG": 70
      },
      {
        "IODANDAABIA": 8024010,
        "BKOGBKGNGGG": 85
      },
      {
        "IODANDAABIA": 8024010,
        "BKOGBKGNGGG": 95
      }
    ],
    "CustomStageDisplayIcon": "UI/UI3D/Rogue/DLC/RogueMagic/Texture/RogueMagicBattleCustomDetail_Icon6.png"
  },
  {
    "AreaID": 805,
    "AreaGroupID": "Customization",
    "DefaultStyle": "Follow",
    "UnlockID": 5013028,
    "CustomStageDisplayParams": [
      {
        "PGCFPBGPDGG": "Scepter",
        "INNKEBMHLNF": "3003_2"
      },
      {
        "PGCFPBGPDGG": "MagicUnit",
        "INNKEBMHLNF": "6070_1"
      },
      {
        "PGCFPBGPDGG": "MagicUnit",
        "INNKEBMHLNF": "5007_2"
      },
      {
        "PGCFPBGPDGG": "MagicUnit",
        "INNKEBMHLNF": "6023_2"
      }
    ],
    "DifficultyIDList": [
      71,
      72,
      73
    ],
    "LayerIDList": [
      1101,
      1201,
      1302
    ],
    "AreaIndex": 5,
    "FirstReward": 111315,
    "AreaNameID": {
      "Hash": -886443156
    },
    "WorldLevel2DisplayMonster": [
      {
        "IODANDAABIA": 8024010,
        "BKOGBKGNGGG": 30
      },
      {
        "IODANDAABIA": 8024010,
        "BKOGBKGNGGG": 40
      },
      {
        "IODANDAABIA": 8024010,
        "BKOGBKGNGGG": 50
      },
      {
        "IODANDAABIA": 8024010,
        "BKOGBKGNGGG": 60
      },
      {
        "IODANDAABIA": 8024010,
        "BKOGBKGNGGG": 70
      },
      {
        "IODANDAABIA": 8024010,
        "BKOGBKGNGGG": 85
      },
      {
        "IODANDAABIA": 8024010,
        "BKOGBKGNGGG": 95
      }
    ],
    "CustomStageDisplayIcon": "UI/UI3D/Rogue/DLC/RogueMagic/Texture/RogueMagicBattleCustomDetail_Icon5.png"
  },
  {
    "AreaID": 806,
    "AreaGroupID": "Customization",
    "DefaultStyle": "Ultimate",
    "UnlockID": 5013028,
    "CustomStageDisplayParams": [
      {
        "PGCFPBGPDGG": "MagicUnit",
        "INNKEBMHLNF": "6066_1"
      },
      {
        "PGCFPBGPDGG": "MagicUnit",
        "INNKEBMHLNF": "6067_1"
      },
      {
        "PGCFPBGPDGG": "MagicUnit",
        "INNKEBMHLNF": "6068_1"
      },
      {
        "PGCFPBGPDGG": "MagicUnit",
        "INNKEBMHLNF": "6069_1"
      },
      {
        "PGCFPBGPDGG": "MagicUnit",
        "INNKEBMHLNF": "6059_1"
      },
      {
        "PGCFPBGPDGG": "MagicUnit",
        "INNKEBMHLNF": "6060_1"
      }
    ],
    "DifficultyIDList": [
      71,
      72,
      73
    ],
    "LayerIDList": [
      1101,
      1201,
      1302
    ],
    "AreaIndex": 6,
    "FirstReward": 111316,
    "AreaNameID": {
      "Hash": -886443153
    },
    "WorldLevel2DisplayMonster": [
      {
        "IODANDAABIA": 8024010,
        "BKOGBKGNGGG": 30
      },
      {
        "IODANDAABIA": 8024010,
        "BKOGBKGNGGG": 40
      },
      {
        "IODANDAABIA": 8024010,
        "BKOGBKGNGGG": 50
      },
      {
        "IODANDAABIA": 8024010,
        "BKOGBKGNGGG": 60
      },
      {
        "IODANDAABIA": 8024010,
        "BKOGBKGNGGG": 70
      },
      {
        "IODANDAABIA": 8024010,
        "BKOGBKGNGGG": 85
      },
      {
        "IODANDAABIA": 8024010,
        "BKOGBKGNGGG": 95
      }
    ],
    "CustomStageDisplayIcon": "UI/UI3D/Rogue/DLC/RogueMagic/Texture/RogueMagicBattleCustomDetail_Icon2.png"
  }
]