[
  {
    "KeywordID": 1615010,
    "MazeBuffID": 615010,
    "KeywordIcon": "SpriteOutput/AvatarProfessionTattoo/Profession/BgPathsKnight.png",
    "MazeBuffList": [
      615030,
      615031,
      615040,
      615041,
      615046
    ],
    "RogueFormulaList": [
      140102,
      130103,
      130104,
      120107,
      1230601,
      1230109,
      1340107,
      1320103
    ],
    "KeywordExtraEffect": 60000001,
    "ExtraEffect": 61000200,
    "KeywordBuffType": 120,
    "KeywordEffectBattle": {
      "Hash": 1350380007
    }
  },
  {
    "KeywordID": 1615110,
    "MazeBuffID": 615110,
    "KeywordIcon": "SpriteOutput/AvatarProfessionTattoo/Profession/BgPathsMemory.png",
    "MazeBuffList": [
      615130,
      615131,
      615140,
      615141,
      615146
    ],
    "RogueFormulaList": [
      140205,
      130209,
      1240206,
      1220205
    ],
    "KeywordExtraEffect": 60000002,
    "ExtraEffect": 61000201,
    "KeywordBuffType": 121,
    "KeywordEffectBattle": {
      "Hash": 1350380038
    }
  },
  {
    "KeywordID": 1615210,
    "MazeBuffID": 615210,
    "KeywordIcon": "SpriteOutput/AvatarProfessionTattoo/Profession/BgPathsWarlock.png",
    "MazeBuffList": [
      615230,
      615231,
      615240,
      615241,
      615246
    ],
    "RogueFormulaList": [
      140309,
      130302,
      120309,
      1340302,
      1330305,
      1330203
    ],
    "KeywordExtraEffect": 60000012,
    "ExtraEffect": 61000202,
    "KeywordBuffType": 122,
    "KeywordEffectBattle": {
      "Hash": 1350379941
    }
  },
  {
    "KeywordID": 1615310,
    "MazeBuffID": 615310,
    "KeywordIcon": "SpriteOutput/AvatarProfessionTattoo/Profession/BgPathsPirest.png",
    "MazeBuffList": [
      615330,
      615331,
      615340,
      615341,
      615346
    ],
    "RogueFormulaList": [
      140406,
      140704,
      130204,
      130405,
      130408,
      120405,
      1340403,
      1330406,
      1320407
    ],
    "KeywordExtraEffect": 60000013,
    "ExtraEffect": 61000203,
    "KeywordBuffType": 123,
    "KeywordEffectBattle": {
      "Hash": 1350379972
    }
  },
  {
    "KeywordID": 1615410,
    "MazeBuffID": 615410,
    "KeywordIcon": "SpriteOutput/AvatarProfessionTattoo/Profession/BgPathsRogue.png",
    "MazeBuffList": [
      615430,
      615431,
      615440,
      615441,
      615446
    ],
    "RogueFormulaList": [
      140508,
      130501,
      120501,
      120502,
      120504,
      1230506,
      1220509,
      1320508
    ],
    "KeywordExtraEffect": 60000004,
    "ExtraEffect": 61000204,
    "KeywordBuffType": 124,
    "KeywordEffectBattle": {
      "Hash": 1350379875
    }
  },
  {
    "KeywordID": 1615510,
    "MazeBuffID": 615510,
    "KeywordIcon": "SpriteOutput/AvatarProfessionTattoo/Profession/BgPathsWarrior.png",
    "MazeBuffList": [
      615530,
      615531,
      615540,
      615541,
      615546
    ],
    "RogueFormulaList": [
      140406,
      140601,
      130602,
      130603,
      120406,
      120603,
      120604,
      1220906,
      1330608
    ],
    "KeywordExtraEffect": 60000005,
    "ExtraEffect": 61000205,
    "KeywordBuffType": 125,
    "KeywordEffectBattle": {
      "Hash": 1350379906
    }
  },
  {
    "KeywordID": 1615610,
    "MazeBuffID": 615610,
    "KeywordIcon": "SpriteOutput/AvatarProfessionTattoo/Profession/BgPathsJoy.png",
    "MazeBuffList": [
      615630,
      615631,
      615640,
      615641,
      615646
    ],
    "RogueFormulaList": [
      140907,
      130706,
      120207,
      120703,
      120704,
      1240705,
      1230702,
      1230407,
      1220701,
      1320709
    ],
    "KeywordExtraEffect": 60000003,
    "ExtraEffect": 61000206,
    "KeywordBuffType": 126,
    "KeywordEffectBattle": {
      "Hash": 1350379809
    }
  },
  {
    "KeywordID": 1615710,
    "MazeBuffID": 615710,
    "KeywordIcon": "SpriteOutput/AvatarProfessionTattoo/Profession/BgPathsPropagation.png",
    "MazeBuffList": [
      615730,
      615731,
      615740,
      615741,
      615746
    ],
    "RogueFormulaList": [
      140508,
      140803,
      130708,
      130801,
      130809,
      120802,
      120803,
      1240908,
      1230805,
      1220408,
      1320801
    ],
    "KeywordExtraEffect": 60000017,
    "ExtraEffect": 61000207,
    "KeywordBuffType": 127,
    "KeywordEffectBattle": {
      "Hash": 1350379840
    }
  },
  {
    "KeywordID": 1615810,
    "MazeBuffID": 615810,
    "KeywordIcon": "SpriteOutput/AvatarProfessionTattoo/Profession/BgPathsnMage.png",
    "MazeBuffList": [
      615830,
      615831,
      615840,
      615841,
      615846
    ],
    "RogueFormulaList": [
      140309,
      140907,
      130905,
      120609,
      1330709,
      1330901
    ],
    "KeywordExtraEffect": 61000044,
    "ExtraEffect": 61000208,
    "KeywordBuffType": 128,
    "KeywordEffectBattle": {
      "Hash": 1350379743
    }
  }
]