[
  {
    "RogueBuffGroupID": 1000001,
    "RogueBuffDrop": [
      1505001,
      1505101,
      1505201,
      1505301,
      1505401,
      1505501,
      1505601,
      1505701
    ]
  },
  {
    "RogueBuffGroupID": 1000002,
    "RogueBuffDrop": [
      1504001,
      1504101,
      1504201,
      1504301,
      1504401,
      1504501
    ]
  },
  {
    "RogueBuffGroupID": 1000003,
    "RogueBuffDrop": [
      1503001,
      1503101,
      1503201
    ]
  },
  {
    "RogueBuffGroupID": 1000101,
    "RogueBuffDrop": [
      1515001,
      1515101,
      1515201,
      1515301,
      1515401,
      1515501,
      1515601,
      1515701
    ]
  },
  {
    "RogueBuffGroupID": 1000102,
    "RogueBuffDrop": [
      1514001,
      1514101,
      1514201,
      1514301,
      1514401,
      1514501
    ]
  },
  {
    "RogueBuffGroupID": 1000103,
    "RogueBuffDrop": [
      1513001,
      1513101,
      1513201
    ]
  },
  {
    "RogueBuffGroupID": 1000201,
    "RogueBuffDrop": [
      1525001,
      1525101,
      1525201,
      1525301,
      1525401,
      1525501,
      1525601,
      1525701
    ]
  },
  {
    "RogueBuffGroupID": 1000202,
    "RogueBuffDrop": [
      1524001,
      1524101,
      1524201,
      1524301,
      1524401,
      1524501
    ]
  },
  {
    "RogueBuffGroupID": 1000203,
    "RogueBuffDrop": [
      1523001,
      1523101,
      1523201
    ]
  },
  {
    "RogueBuffGroupID": 1000301,
    "RogueBuffDrop": [
      1535001,
      1535101,
      1535201,
      1535301,
      1535401,
      1535501,
      1535601,
      1535701
    ]
  },
  {
    "RogueBuffGroupID": 1000302,
    "RogueBuffDrop": [
      1534001,
      1534101,
      1534201,
      1534301,
      1534401,
      1534501
    ]
  },
  {
    "RogueBuffGroupID": 1000303,
    "RogueBuffDrop": [
      1533001,
      1533101,
      1533201
    ]
  },
  {
    "RogueBuffGroupID": 1000401,
    "RogueBuffDrop": [
      1545001,
      1545101,
      1545201,
      1545301,
      1545401,
      1545501,
      1545601,
      1545701
    ]
  },
  {
    "RogueBuffGroupID": 1000402,
    "RogueBuffDrop": [
      1544001,
      1544101,
      1544201,
      1544301,
      1544401,
      1544501
    ]
  },
  {
    "RogueBuffGroupID": 1000403,
    "RogueBuffDrop": [
      1543001,
      1543101,
      1543201
    ]
  },
  {
    "RogueBuffGroupID": 1000501,
    "RogueBuffDrop": [
      1555001,
      1555101,
      1555201,
      1555301,
      1555401,
      1555501,
      1555601,
      1555701
    ]
  },
  {
    "RogueBuffGroupID": 1000502,
    "RogueBuffDrop": [
      1554001,
      1554101,
      1554201,
      1554301,
      1554401,
      1554501
    ]
  },
  {
    "RogueBuffGroupID": 1000503,
    "RogueBuffDrop": [
      1553001,
      1553101,
      1553201
    ]
  },
  {
    "RogueBuffGroupID": 1000601,
    "RogueBuffDrop": [
      1565001,
      1565101,
      1565201,
      1565301,
      1565401,
      1565501,
      1565601,
      1565701
    ]
  },
  {
    "RogueBuffGroupID": 1000602,
    "RogueBuffDrop": [
      1564001,
      1564101,
      1564201,
      1564301,
      1564401,
      1564501
    ]
  },
  {
    "RogueBuffGroupID": 1000603,
    "RogueBuffDrop": [
      1563001,
      1563101,
      1563201
    ]
  },
  {
    "RogueBuffGroupID": 1000701,
    "RogueBuffDrop": [
      1575001,
      1575101,
      1575201,
      1575301,
      1575401,
      1575501,
      1575601,
      1575701
    ]
  },
  {
    "RogueBuffGroupID": 1000702,
    "RogueBuffDrop": [
      1574001,
      1574101,
      1574201,
      1574301,
      1574401,
      1574501
    ]
  },
  {
    "RogueBuffGroupID": 1000703,
    "RogueBuffDrop": [
      1573001,
      1573101,
      1573201
    ]
  },
  {
    "RogueBuffGroupID": 1000801,
    "RogueBuffDrop": [
      1585001,
      1585101,
      1585201,
      1585301,
      1585401,
      1585501,
      1585601,
      1585701
    ]
  },
  {
    "RogueBuffGroupID": 1000802,
    "RogueBuffDrop": [
      1584001,
      1584101,
      1584201,
      1584301,
      1584401,
      1584501
    ]
  },
  {
    "RogueBuffGroupID": 1000803,
    "RogueBuffDrop": [
      1583001,
      1583101,
      1583201
    ]
  },
  {
    "RogueBuffGroupID": 1000010,
    "RogueBuffDrop": [
      1000001,
      1000002,
      1000003
    ]
  },
  {
    "RogueBuffGroupID": 1000110,
    "RogueBuffDrop": [
      1000101,
      1000102,
      1000103
    ]
  },
  {
    "RogueBuffGroupID": 1000210,
    "RogueBuffDrop": [
      1000201,
      1000202,
      1000203
    ]
  },
  {
    "RogueBuffGroupID": 1000310,
    "RogueBuffDrop": [
      1000301,
      1000302,
      1000303
    ]
  },
  {
    "RogueBuffGroupID": 1000410,
    "RogueBuffDrop": [
      1000401,
      1000402,
      1000403
    ]
  },
  {
    "RogueBuffGroupID": 1000510,
    "RogueBuffDrop": [
      1000501,
      1000502,
      1000503
    ]
  },
  {
    "RogueBuffGroupID": 1000610,
    "RogueBuffDrop": [
      1000601,
      1000602,
      1000603
    ]
  },
  {
    "RogueBuffGroupID": 1000710,
    "RogueBuffDrop": [
      1000701,
      1000702,
      1000703
    ]
  },
  {
    "RogueBuffGroupID": 1000810,
    "RogueBuffDrop": [
      1000801,
      1000802,
      1000803
    ]
  },
  {
    "RogueBuffGroupID": 2000001,
    "RogueBuffDrop": [
      1000001,
      1000101,
      1000201,
      1000301,
      1000401,
      1000501,
      1000601,
      1000701,
      1000801
    ]
  },
  {
    "RogueBuffGroupID": 2000002,
    "RogueBuffDrop": [
      1000002,
      1000102,
      1000202,
      1000302,
      1000402,
      1000502,
      1000602,
      1000702,
      1000802
    ]
  },
  {
    "RogueBuffGroupID": 2000003,
    "RogueBuffDrop": [
      1000003,
      1000103,
      1000203,
      1000303,
      1000403,
      1000503,
      1000603,
      1000703,
      1000803
    ]
  },
  {
    "RogueBuffGroupID": 2000101,
    "RogueBuffDrop": [
      2000001,
      2000002
    ]
  },
  {
    "RogueBuffGroupID": 2000102,
    "RogueBuffDrop": [
      2000001,
      2000002,
      2000003
    ]
  },
  {
    "RogueBuffGroupID": 2000103,
    "RogueBuffDrop": [
      2000003
    ]
  },
  {
    "RogueBuffGroupID": 2000201,
    "RogueBuffDrop": [
      1513001,
      1525101,
      1525201
    ]
  },
  {
    "RogueBuffGroupID": 2000202,
    "RogueBuffDrop": [
      1513201,
      1535101,
      1535201
    ]
  },
  {
    "RogueBuffGroupID": 2000203,
    "RogueBuffDrop": [
      1514501,
      1545101,
      1545201
    ]
  },
  {
    "RogueBuffGroupID": 2000204,
    "RogueBuffDrop": [
      1000801,
      1000802,
      1000803
    ]
  },
  {
    "RogueBuffGroupID": 2000205,
    "RogueBuffDrop": [
      1513101,
      1514101,
      1515201,
      1515501
    ]
  },
  {
    "RogueBuffGroupID": 2000206,
    "RogueBuffDrop": [
      1543001,
      1543201,
      1544101,
      1545101,
      1545201
    ]
  },
  {
    "RogueBuffGroupID": 1010001,
    "TournMode": "Tourn1",
    "RogueBuffDrop": [
      1505001,
      1505101,
      1505201,
      1505301,
      1505401,
      1505501,
      1505601,
      1505701
    ]
  },
  {
    "RogueBuffGroupID": 1010002,
    "TournMode": "Tourn1",
    "RogueBuffDrop": [
      1504001,
      1504101,
      1504201,
      1504301,
      1504401,
      1504501,
      1504601
    ]
  },
  {
    "RogueBuffGroupID": 1010003,
    "TournMode": "Tourn1",
    "RogueBuffDrop": [
      1503001,
      1503101,
      1503201
    ]
  },
  {
    "RogueBuffGroupID": 1010101,
    "TournMode": "Tourn1",
    "RogueBuffDrop": [
      1515001,
      1515101,
      1515201,
      1515301,
      1515401,
      1515501,
      1515601,
      1515701
    ]
  },
  {
    "RogueBuffGroupID": 1010102,
    "TournMode": "Tourn1",
    "RogueBuffDrop": [
      1514001,
      1514101,
      1514201,
      1514301,
      1514401,
      1514501,
      1514601
    ]
  },
  {
    "RogueBuffGroupID": 1010103,
    "TournMode": "Tourn1",
    "RogueBuffDrop": [
      1513001,
      1513101,
      1513201
    ]
  },
  {
    "RogueBuffGroupID": 1010201,
    "TournMode": "Tourn1",
    "RogueBuffDrop": [
      1525001,
      1525101,
      1525201,
      1525301,
      1525401,
      1525501,
      1525601,
      1525701
    ]
  },
  {
    "RogueBuffGroupID": 1010202,
    "TournMode": "Tourn1",
    "RogueBuffDrop": [
      1524001,
      1524101,
      1524201,
      1524301,
      1524401,
      1524501,
      1524601
    ]
  },
  {
    "RogueBuffGroupID": 1010203,
    "TournMode": "Tourn1",
    "RogueBuffDrop": [
      1523001,
      1523101,
      1523201
    ]
  },
  {
    "RogueBuffGroupID": 1010301,
    "TournMode": "Tourn1",
    "RogueBuffDrop": [
      1535001,
      1535101,
      1535201,
      1535301,
      1535401,
      1535501,
      1535601,
      1535701
    ]
  },
  {
    "RogueBuffGroupID": 1010302,
    "TournMode": "Tourn1",
    "RogueBuffDrop": [
      1534001,
      1534101,
      1534201,
      1534301,
      1534401,
      1534501,
      1534601
    ]
  },
  {
    "RogueBuffGroupID": 1010303,
    "TournMode": "Tourn1",
    "RogueBuffDrop": [
      1533001,
      1533101,
      1533201
    ]
  },
  {
    "RogueBuffGroupID": 1010401,
    "TournMode": "Tourn1",
    "RogueBuffDrop": [
      1545001,
      1545101,
      1545201,
      1545301,
      1545401,
      1545501,
      1545601,
      1545701
    ]
  },
  {
    "RogueBuffGroupID": 1010402,
    "TournMode": "Tourn1",
    "RogueBuffDrop": [
      1544001,
      1544101,
      1544201,
      1544301,
      1544401,
      1544501,
      1544601
    ]
  },
  {
    "RogueBuffGroupID": 1010403,
    "TournMode": "Tourn1",
    "RogueBuffDrop": [
      1543001,
      1543101,
      1543201
    ]
  },
  {
    "RogueBuffGroupID": 1010501,
    "TournMode": "Tourn1",
    "RogueBuffDrop": [
      1555001,
      1555101,
      1555201,
      1555301,
      1555401,
      1555501,
      1555601,
      1555701
    ]
  },
  {
    "RogueBuffGroupID": 1010502,
    "TournMode": "Tourn1",
    "RogueBuffDrop": [
      1554001,
      1554101,
      1554201,
      1554301,
      1554401,
      1554501,
      1554601
    ]
  },
  {
    "RogueBuffGroupID": 1010503,
    "TournMode": "Tourn1",
    "RogueBuffDrop": [
      1553001,
      1553101,
      1553201
    ]
  },
  {
    "RogueBuffGroupID": 1010601,
    "TournMode": "Tourn1",
    "RogueBuffDrop": [
      1565001,
      1565101,
      1565201,
      1565301,
      1565401,
      1565501,
      1565601,
      1565701
    ]
  },
  {
    "RogueBuffGroupID": 1010602,
    "TournMode": "Tourn1",
    "RogueBuffDrop": [
      1564001,
      1564101,
      1564201,
      1564301,
      1564401,
      1564501,
      1564601
    ]
  },
  {
    "RogueBuffGroupID": 1010603,
    "TournMode": "Tourn1",
    "RogueBuffDrop": [
      1563001,
      1563101,
      1563201
    ]
  },
  {
    "RogueBuffGroupID": 1010701,
    "TournMode": "Tourn1",
    "RogueBuffDrop": [
      1575001,
      1575101,
      1575201,
      1575301,
      1575401,
      1575501,
      1575601,
      1575701
    ]
  },
  {
    "RogueBuffGroupID": 1010702,
    "TournMode": "Tourn1",
    "RogueBuffDrop": [
      1574001,
      1574101,
      1574201,
      1574301,
      1574401,
      1574501,
      1574601
    ]
  },
  {
    "RogueBuffGroupID": 1010703,
    "TournMode": "Tourn1",
    "RogueBuffDrop": [
      1573001,
      1573101,
      1573201
    ]
  },
  {
    "RogueBuffGroupID": 1010801,
    "TournMode": "Tourn1",
    "RogueBuffDrop": [
      1585001,
      1585101,
      1585201,
      1585301,
      1585401,
      1585501,
      1585601,
      1585701
    ]
  },
  {
    "RogueBuffGroupID": 1010802,
    "TournMode": "Tourn1",
    "RogueBuffDrop": [
      1584001,
      1584101,
      1584201,
      1584301,
      1584401,
      1584501,
      1584601
    ]
  },
  {
    "RogueBuffGroupID": 1010803,
    "TournMode": "Tourn1",
    "RogueBuffDrop": [
      1583001,
      1583101,
      1583201
    ]
  },
  {
    "RogueBuffGroupID": 1010011,
    "TournMode": "Tourn1",
    "RogueBuffDrop": [
      1505002,
      1505102,
      1505202,
      1505302,
      1505402,
      1505502,
      1505602,
      1505702
    ]
  },
  {
    "RogueBuffGroupID": 1010012,
    "TournMode": "Tourn1",
    "RogueBuffDrop": [
      1504002,
      1504102,
      1504202,
      1504302,
      1504402,
      1504502,
      1504602
    ]
  },
  {
    "RogueBuffGroupID": 1010013,
    "TournMode": "Tourn1",
    "RogueBuffDrop": [
      1503002,
      1503102,
      1503202
    ]
  },
  {
    "RogueBuffGroupID": 1010111,
    "TournMode": "Tourn1",
    "RogueBuffDrop": [
      1515002,
      1515102,
      1515202,
      1515302,
      1515402,
      1515502,
      1515602,
      1515702
    ]
  },
  {
    "RogueBuffGroupID": 1010112,
    "TournMode": "Tourn1",
    "RogueBuffDrop": [
      1514002,
      1514102,
      1514202,
      1514302,
      1514402,
      1514502,
      1514602
    ]
  },
  {
    "RogueBuffGroupID": 1010113,
    "TournMode": "Tourn1",
    "RogueBuffDrop": [
      1513002,
      1513102,
      1513202
    ]
  },
  {
    "RogueBuffGroupID": 1010211,
    "TournMode": "Tourn1",
    "RogueBuffDrop": [
      1525002,
      1525102,
      1525202,
      1525302,
      1525402,
      1525502,
      1525602,
      1525702
    ]
  },
  {
    "RogueBuffGroupID": 1010212,
    "TournMode": "Tourn1",
    "RogueBuffDrop": [
      1524002,
      1524102,
      1524202,
      1524302,
      1524402,
      1524502,
      1524602
    ]
  },
  {
    "RogueBuffGroupID": 1010213,
    "TournMode": "Tourn1",
    "RogueBuffDrop": [
      1523002,
      1523102,
      1523202
    ]
  },
  {
    "RogueBuffGroupID": 1010311,
    "TournMode": "Tourn1",
    "RogueBuffDrop": [
      1535002,
      1535102,
      1535202,
      1535302,
      1535402,
      1535502,
      1535602,
      1535702
    ]
  },
  {
    "RogueBuffGroupID": 1010312,
    "TournMode": "Tourn1",
    "RogueBuffDrop": [
      1534002,
      1534102,
      1534202,
      1534302,
      1534402,
      1534502,
      1534602
    ]
  },
  {
    "RogueBuffGroupID": 1010313,
    "TournMode": "Tourn1",
    "RogueBuffDrop": [
      1533002,
      1533102,
      1533202
    ]
  },
  {
    "RogueBuffGroupID": 1010411,
    "TournMode": "Tourn1",
    "RogueBuffDrop": [
      1545002,
      1545102,
      1545202,
      1545302,
      1545402,
      1545502,
      1545602,
      1545702
    ]
  },
  {
    "RogueBuffGroupID": 1010412,
    "TournMode": "Tourn1",
    "RogueBuffDrop": [
      1544002,
      1544102,
      1544202,
      1544302,
      1544402,
      1544502,
      1544602
    ]
  },
  {
    "RogueBuffGroupID": 1010413,
    "TournMode": "Tourn1",
    "RogueBuffDrop": [
      1543002,
      1543102,
      1543202
    ]
  },
  {
    "RogueBuffGroupID": 1010511,
    "TournMode": "Tourn1",
    "RogueBuffDrop": [
      1555002,
      1555102,
      1555202,
      1555302,
      1555402,
      1555502,
      1555602,
      1555702
    ]
  },
  {
    "RogueBuffGroupID": 1010512,
    "TournMode": "Tourn1",
    "RogueBuffDrop": [
      1554002,
      1554102,
      1554202,
      1554302,
      1554402,
      1554502,
      1554602
    ]
  },
  {
    "RogueBuffGroupID": 1010513,
    "TournMode": "Tourn1",
    "RogueBuffDrop": [
      1553002,
      1553102,
      1553202
    ]
  },
  {
    "RogueBuffGroupID": 1010611,
    "TournMode": "Tourn1",
    "RogueBuffDrop": [
      1565002,
      1565102,
      1565202,
      1565302,
      1565402,
      1565502,
      1565602,
      1565702
    ]
  },
  {
    "RogueBuffGroupID": 1010612,
    "TournMode": "Tourn1",
    "RogueBuffDrop": [
      1564002,
      1564102,
      1564202,
      1564302,
      1564402,
      1564502,
      1564602
    ]
  },
  {
    "RogueBuffGroupID": 1010613,
    "TournMode": "Tourn1",
    "RogueBuffDrop": [
      1563002,
      1563102,
      1563202
    ]
  },
  {
    "RogueBuffGroupID": 1010711,
    "TournMode": "Tourn1",
    "RogueBuffDrop": [
      1575002,
      1575102,
      1575202,
      1575302,
      1575402,
      1575502,
      1575602,
      1575702
    ]
  },
  {
    "RogueBuffGroupID": 1010712,
    "TournMode": "Tourn1",
    "RogueBuffDrop": [
      1574002,
      1574102,
      1574202,
      1574302,
      1574402,
      1574502,
      1574602
    ]
  },
  {
    "RogueBuffGroupID": 1010713,
    "TournMode": "Tourn1",
    "RogueBuffDrop": [
      1573002,
      1573102,
      1573202
    ]
  },
  {
    "RogueBuffGroupID": 1010811,
    "TournMode": "Tourn1",
    "RogueBuffDrop": [
      1585002,
      1585102,
      1585202,
      1585302,
      1585402,
      1585502,
      1585602,
      1585702
    ]
  },
  {
    "RogueBuffGroupID": 1010812,
    "TournMode": "Tourn1",
    "RogueBuffDrop": [
      1584002,
      1584102,
      1584202,
      1584302,
      1584402,
      1584502,
      1584602
    ]
  },
  {
    "RogueBuffGroupID": 1010813,
    "TournMode": "Tourn1",
    "RogueBuffDrop": [
      1583002,
      1583102,
      1583202
    ]
  },
  {
    "RogueBuffGroupID": 1010021,
    "TournMode": "Tourn1",
    "RogueBuffDrop": [
      1010001,
      1010002
    ]
  },
  {
    "RogueBuffGroupID": 1010121,
    "TournMode": "Tourn1",
    "RogueBuffDrop": [
      1010101,
      1010102
    ]
  },
  {
    "RogueBuffGroupID": 1010221,
    "TournMode": "Tourn1",
    "RogueBuffDrop": [
      1010201,
      1010202
    ]
  },
  {
    "RogueBuffGroupID": 1010321,
    "TournMode": "Tourn1",
    "RogueBuffDrop": [
      1010301,
      1010302
    ]
  },
  {
    "RogueBuffGroupID": 1010421,
    "TournMode": "Tourn1",
    "RogueBuffDrop": [
      1010401,
      1010402
    ]
  },
  {
    "RogueBuffGroupID": 1010521,
    "TournMode": "Tourn1",
    "RogueBuffDrop": [
      1010501,
      1010502
    ]
  },
  {
    "RogueBuffGroupID": 1010621,
    "TournMode": "Tourn1",
    "RogueBuffDrop": [
      1010601,
      1010602
    ]
  },
  {
    "RogueBuffGroupID": 1010721,
    "TournMode": "Tourn1",
    "RogueBuffDrop": [
      1010701,
      1010702
    ]
  },
  {
    "RogueBuffGroupID": 1010821,
    "TournMode": "Tourn1",
    "RogueBuffDrop": [
      1010801,
      1010802
    ]
  },
  {
    "RogueBuffGroupID": 1010022,
    "TournMode": "Tourn1",
    "RogueBuffDrop": [
      1010001,
      1010002,
      1010003
    ]
  },
  {
    "RogueBuffGroupID": 1010122,
    "TournMode": "Tourn1",
    "RogueBuffDrop": [
      1010101,
      1010102,
      1010103
    ]
  },
  {
    "RogueBuffGroupID": 1010222,
    "TournMode": "Tourn1",
    "RogueBuffDrop": [
      1010201,
      1010202,
      1010203
    ]
  },
  {
    "RogueBuffGroupID": 1010322,
    "TournMode": "Tourn1",
    "RogueBuffDrop": [
      1010301,
      1010302,
      1010303
    ]
  },
  {
    "RogueBuffGroupID": 1010422,
    "TournMode": "Tourn1",
    "RogueBuffDrop": [
      1010401,
      1010402,
      1010403
    ]
  },
  {
    "RogueBuffGroupID": 1010522,
    "TournMode": "Tourn1",
    "RogueBuffDrop": [
      1010501,
      1010502,
      1010503
    ]
  },
  {
    "RogueBuffGroupID": 1010622,
    "TournMode": "Tourn1",
    "RogueBuffDrop": [
      1010601,
      1010602,
      1010603
    ]
  },
  {
    "RogueBuffGroupID": 1010722,
    "TournMode": "Tourn1",
    "RogueBuffDrop": [
      1010701,
      1010702,
      1010703
    ]
  },
  {
    "RogueBuffGroupID": 1010822,
    "TournMode": "Tourn1",
    "RogueBuffDrop": [
      1010801,
      1010802,
      1010803
    ]
  },
  {
    "RogueBuffGroupID": 1010023,
    "TournMode": "Tourn1",
    "RogueBuffDrop": [
      1010002,
      1010003
    ]
  },
  {
    "RogueBuffGroupID": 1010123,
    "TournMode": "Tourn1",
    "RogueBuffDrop": [
      1010102,
      1010103
    ]
  },
  {
    "RogueBuffGroupID": 1010223,
    "TournMode": "Tourn1",
    "RogueBuffDrop": [
      1010202,
      1010203
    ]
  },
  {
    "RogueBuffGroupID": 1010323,
    "TournMode": "Tourn1",
    "RogueBuffDrop": [
      1010302,
      1010303
    ]
  },
  {
    "RogueBuffGroupID": 1010423,
    "TournMode": "Tourn1",
    "RogueBuffDrop": [
      1010402,
      1010403
    ]
  },
  {
    "RogueBuffGroupID": 1010523,
    "TournMode": "Tourn1",
    "RogueBuffDrop": [
      1010502,
      1010503
    ]
  },
  {
    "RogueBuffGroupID": 1010623,
    "TournMode": "Tourn1",
    "RogueBuffDrop": [
      1010602,
      1010603
    ]
  },
  {
    "RogueBuffGroupID": 1010723,
    "TournMode": "Tourn1",
    "RogueBuffDrop": [
      1010702,
      1010703
    ]
  },
  {
    "RogueBuffGroupID": 1010823,
    "TournMode": "Tourn1",
    "RogueBuffDrop": [
      1010802,
      1010803
    ]
  },
  {
    "RogueBuffGroupID": 1010031,
    "TournMode": "Tourn1",
    "RogueBuffDrop": [
      1010011,
      1010012
    ]
  },
  {
    "RogueBuffGroupID": 1010131,
    "TournMode": "Tourn1",
    "RogueBuffDrop": [
      1010111,
      1010112
    ]
  },
  {
    "RogueBuffGroupID": 1010231,
    "TournMode": "Tourn1",
    "RogueBuffDrop": [
      1010211,
      1010212
    ]
  },
  {
    "RogueBuffGroupID": 1010331,
    "TournMode": "Tourn1",
    "RogueBuffDrop": [
      1010311,
      1010312
    ]
  },
  {
    "RogueBuffGroupID": 1010431,
    "TournMode": "Tourn1",
    "RogueBuffDrop": [
      1010411,
      1010412
    ]
  },
  {
    "RogueBuffGroupID": 1010531,
    "TournMode": "Tourn1",
    "RogueBuffDrop": [
      1010511,
      1010512
    ]
  },
  {
    "RogueBuffGroupID": 1010631,
    "TournMode": "Tourn1",
    "RogueBuffDrop": [
      1010611,
      1010612
    ]
  },
  {
    "RogueBuffGroupID": 1010731,
    "TournMode": "Tourn1",
    "RogueBuffDrop": [
      1010711,
      1010712
    ]
  },
  {
    "RogueBuffGroupID": 1010831,
    "TournMode": "Tourn1",
    "RogueBuffDrop": [
      1010811,
      1010812
    ]
  },
  {
    "RogueBuffGroupID": 1010032,
    "TournMode": "Tourn1",
    "RogueBuffDrop": [
      1010011,
      1010012,
      1010013
    ]
  },
  {
    "RogueBuffGroupID": 1010132,
    "TournMode": "Tourn1",
    "RogueBuffDrop": [
      1010111,
      1010112,
      1010113
    ]
  },
  {
    "RogueBuffGroupID": 1010232,
    "TournMode": "Tourn1",
    "RogueBuffDrop": [
      1010211,
      1010212,
      1010213
    ]
  },
  {
    "RogueBuffGroupID": 1010332,
    "TournMode": "Tourn1",
    "RogueBuffDrop": [
      1010311,
      1010312,
      1010313
    ]
  },
  {
    "RogueBuffGroupID": 1010432,
    "TournMode": "Tourn1",
    "RogueBuffDrop": [
      1010411,
      1010412,
      1010413
    ]
  },
  {
    "RogueBuffGroupID": 1010532,
    "TournMode": "Tourn1",
    "RogueBuffDrop": [
      1010511,
      1010512,
      1010513
    ]
  },
  {
    "RogueBuffGroupID": 1010632,
    "TournMode": "Tourn1",
    "RogueBuffDrop": [
      1010611,
      1010612,
      1010613
    ]
  },
  {
    "RogueBuffGroupID": 1010732,
    "TournMode": "Tourn1",
    "RogueBuffDrop": [
      1010711,
      1010712,
      1010713
    ]
  },
  {
    "RogueBuffGroupID": 1010832,
    "TournMode": "Tourn1",
    "RogueBuffDrop": [
      1010811,
      1010812,
      1010813
    ]
  },
  {
    "RogueBuffGroupID": 1010033,
    "TournMode": "Tourn1",
    "RogueBuffDrop": [
      1010012,
      1010013
    ]
  },
  {
    "RogueBuffGroupID": 1010133,
    "TournMode": "Tourn1",
    "RogueBuffDrop": [
      1010112,
      1010113
    ]
  },
  {
    "RogueBuffGroupID": 1010233,
    "TournMode": "Tourn1",
    "RogueBuffDrop": [
      1010212,
      1010213
    ]
  },
  {
    "RogueBuffGroupID": 1010333,
    "TournMode": "Tourn1",
    "RogueBuffDrop": [
      1010312,
      1010313
    ]
  },
  {
    "RogueBuffGroupID": 1010433,
    "TournMode": "Tourn1",
    "RogueBuffDrop": [
      1010412,
      1010413
    ]
  },
  {
    "RogueBuffGroupID": 1010533,
    "TournMode": "Tourn1",
    "RogueBuffDrop": [
      1010512,
      1010513
    ]
  },
  {
    "RogueBuffGroupID": 1010633,
    "TournMode": "Tourn1",
    "RogueBuffDrop": [
      1010612,
      1010613
    ]
  },
  {
    "RogueBuffGroupID": 1010733,
    "TournMode": "Tourn1",
    "RogueBuffDrop": [
      1010712,
      1010713
    ]
  },
  {
    "RogueBuffGroupID": 1010833,
    "TournMode": "Tourn1",
    "RogueBuffDrop": [
      1010812,
      1010813
    ]
  },
  {
    "RogueBuffGroupID": 2010001,
    "TournMode": "Tourn1",
    "RogueBuffDrop": [
      1010001,
      1010101,
      1010201,
      1010301,
      1010401,
      1010501,
      1010601,
      1010701,
      1010801
    ]
  },
  {
    "RogueBuffGroupID": 2010002,
    "TournMode": "Tourn1",
    "RogueBuffDrop": [
      1010002,
      1010102,
      1010202,
      1010302,
      1010402,
      1010502,
      1010602,
      1010702,
      1010802
    ]
  },
  {
    "RogueBuffGroupID": 2010003,
    "TournMode": "Tourn1",
    "RogueBuffDrop": [
      1010003,
      1010103,
      1010203,
      1010303,
      1010403,
      1010503,
      1010603,
      1010703,
      1010803
    ]
  },
  {
    "RogueBuffGroupID": 2010011,
    "TournMode": "Tourn1",
    "RogueBuffDrop": [
      1010011,
      1010111,
      1010211,
      1010311,
      1010411,
      1010511,
      1010611,
      1010711,
      1010811
    ]
  },
  {
    "RogueBuffGroupID": 2010012,
    "TournMode": "Tourn1",
    "RogueBuffDrop": [
      1010012,
      1010112,
      1010212,
      1010312,
      1010412,
      1010512,
      1010612,
      1010712,
      1010812
    ]
  },
  {
    "RogueBuffGroupID": 2010013,
    "TournMode": "Tourn1",
    "RogueBuffDrop": [
      1010013,
      1010113,
      1010213,
      1010313,
      1010413,
      1010513,
      1010613,
      1010713,
      1010813
    ]
  },
  {
    "RogueBuffGroupID": 2010101,
    "TournMode": "Tourn1",
    "RogueBuffDrop": [
      2010001,
      2010002
    ]
  },
  {
    "RogueBuffGroupID": 2010102,
    "TournMode": "Tourn1",
    "RogueBuffDrop": [
      2010001,
      2010002,
      2010003
    ]
  },
  {
    "RogueBuffGroupID": 2010103,
    "TournMode": "Tourn1",
    "RogueBuffDrop": [
      2010002,
      2010003
    ]
  },
  {
    "RogueBuffGroupID": 2010111,
    "TournMode": "Tourn1",
    "RogueBuffDrop": [
      2010011,
      2010012
    ]
  },
  {
    "RogueBuffGroupID": 2010112,
    "TournMode": "Tourn1",
    "RogueBuffDrop": [
      2010011,
      2010012,
      2010013
    ]
  },
  {
    "RogueBuffGroupID": 2010113,
    "TournMode": "Tourn1",
    "RogueBuffDrop": [
      2010012,
      2010013
    ]
  },
  {
    "RogueBuffGroupID": 2010104,
    "TournMode": "Tourn1",
    "RogueBuffDrop": [
      2010002,
      2010003
    ]
  },
  {
    "RogueBuffGroupID": 2020001,
    "TournMode": "Tourn1",
    "RogueBuffDrop": [
      1553001,
      1553101,
      1524301,
      1555001,
      1555201
    ]
  },
  {
    "RogueBuffGroupID": 2020002,
    "TournMode": "Tourn1",
    "RogueBuffDrop": [
      1543001,
      1543201,
      1545301,
      1545101,
      1545201
    ]
  },
  {
    "RogueBuffGroupID": 2020004,
    "TournMode": "Tourn1",
    "RogueBuffDrop": [
      1583001,
      1583101,
      1564201,
      1585101,
      1585201
    ]
  },
  {
    "RogueBuffGroupID": 2020005,
    "TournMode": "Tourn1",
    "RogueBuffDrop": [
      1563001,
      1533001,
      1564501,
      1565201,
      1565301
    ]
  },
  {
    "RogueBuffGroupID": 2020007,
    "TournMode": "Tourn1",
    "RogueBuffDrop": [
      1533001,
      1533201,
      1534301,
      1535101,
      1535701
    ]
  },
  {
    "RogueBuffGroupID": 2020008,
    "TournMode": "Tourn1",
    "RogueBuffDrop": [
      1563001,
      1573201,
      1583201,
      1553101
    ]
  },
  {
    "RogueBuffGroupID": 2020010,
    "TournMode": "Tourn1",
    "RogueBuffDrop": [
      1513001,
      1513201,
      1514001,
      1515101,
      1585601
    ]
  },
  {
    "RogueBuffGroupID": 2020011,
    "TournMode": "Tourn1",
    "RogueBuffDrop": [
      1523101,
      1523001,
      1524101,
      1525201,
      1525101
    ]
  },
  {
    "RogueBuffGroupID": 2020013,
    "TournMode": "Tourn1",
    "RogueBuffDrop": [
      1563001,
      1563101,
      1564001,
      1565001,
      1565401
    ]
  },
  {
    "RogueBuffGroupID": 2020014,
    "TournMode": "Tourn1",
    "RogueBuffDrop": [
      1563001,
      1563101,
      1564501,
      1564301,
      1565101
    ]
  },
  {
    "RogueBuffGroupID": 2020016,
    "TournMode": "Tourn1",
    "RogueBuffDrop": [
      1543201,
      1513201,
      1514601,
      1514301,
      1515001
    ]
  },
  {
    "RogueBuffGroupID": 2020017,
    "TournMode": "Tourn1",
    "RogueBuffDrop": [
      1543101,
      1543201,
      1544201,
      1544401,
      1545501
    ]
  },
  {
    "RogueBuffGroupID": 2020019,
    "TournMode": "Tourn1",
    "RogueBuffDrop": [
      1583001,
      1583101,
      1584201,
      1584501,
      1585001
    ]
  },
  {
    "RogueBuffGroupID": 2020020,
    "TournMode": "Tourn1",
    "RogueBuffDrop": [
      1543201,
      1553001,
      1554001,
      1554301,
      1555301
    ]
  },
  {
    "RogueBuffGroupID": 2020023,
    "TournMode": "Tourn1",
    "RogueBuffDrop": [
      1583001,
      1583101,
      1584001,
      1584301,
      1585001
    ]
  },
  {
    "RogueBuffGroupID": 2020026,
    "TournMode": "Tourn1",
    "RogueBuffDrop": [
      1503201,
      1503001,
      1504401,
      1504201,
      1505401
    ]
  },
  {
    "RogueBuffGroupID": 2020029,
    "TournMode": "Tourn1",
    "RogueBuffDrop": [
      1523001,
      1523201,
      1524201,
      1525601,
      1525701
    ]
  },
  {
    "RogueBuffGroupID": 2020032,
    "TournMode": "Tourn1",
    "RogueBuffDrop": [
      1583001,
      1583101,
      1584601,
      1584401,
      1585601
    ]
  },
  {
    "RogueBuffGroupID": 2020035,
    "TournMode": "Tourn1",
    "RogueBuffDrop": [
      1543101,
      1543201,
      1544001,
      1544201,
      1545501
    ]
  }
]