[
  {
    "ScepterID": 2001,
    "ScepterLevel": 1,
    "LockMagicUnit": [
      {
        "MMBMHEHDIBF": 4001,
        "PKHCKBELLKE": 1
      }
    ],
    "TrenchCount": {
      "Active": 1,
      "Attach": 1,
      "Passive": 2
    },
    "FuncType": "SP",
    "StyleType": "Dot",
    "ScepterBasicPower": {
      "Value": 150
    },
    "StaffMazeBuffID": 682010,
    "LimitRangeType": "Eject",
    "EffectTypeList": [
      "Stack",
      "Turn"
    ]
  },
  {
    "ScepterID": 2001,
    "ScepterLevel": 2,
    "LockMagicUnit": [
      {
        "MMBMHEHDIBF": 4001,
        "PKHCKBELLKE": 2
      }
    ],
    "TrenchCount": {
      "Active": 1,
      "Attach": 2,
      "Passive": 2
    },
    "FuncType": "SP",
    "StyleType": "Dot",
    "ScepterBasicPower": {
      "Value": 300
    },
    "StaffMazeBuffID": 682010,
    "LimitRangeType": "Eject",
    "EffectTypeList": [
      "Stack",
      "Turn"
    ]
  },
  {
    "ScepterID": 2001,
    "ScepterLevel": 3,
    "LockMagicUnit": [
      {
        "MMBMHEHDIBF": 4001,
        "PKHCKBELLKE": 3
      }
    ],
    "TrenchCount": {
      "Active": 1,
      "Attach": 2,
      "Passive": 3
    },
    "FuncType": "SP",
    "StyleType": "Dot",
    "ScepterBasicPower": {
      "Value": 600
    },
    "StaffMazeBuffID": 682010,
    "LimitRangeType": "Eject",
    "EffectTypeList": [
      "Stack",
      "Turn"
    ]
  },
  {
    "ScepterID": 2002,
    "ScepterLevel": 1,
    "LockMagicUnit": [
      {
        "MMBMHEHDIBF": 4004,
        "PKHCKBELLKE": 1
      }
    ],
    "TrenchCount": {
      "Active": 1,
      "Attach": 1,
      "Passive": 2
    },
    "UnlockID": 5013003,
    "FuncType": "SP",
    "StyleType": "Follow",
    "ScepterBasicPower": {
      "Value": 150
    },
    "StaffMazeBuffID": 682020,
    "LimitRangeType": "Eject",
    "EffectTypeList": [
      "Turn"
    ]
  },
  {
    "ScepterID": 2002,
    "ScepterLevel": 2,
    "LockMagicUnit": [
      {
        "MMBMHEHDIBF": 4004,
        "PKHCKBELLKE": 2
      }
    ],
    "TrenchCount": {
      "Active": 1,
      "Attach": 2,
      "Passive": 2
    },
    "UnlockID": 5013003,
    "FuncType": "SP",
    "StyleType": "Follow",
    "ScepterBasicPower": {
      "Value": 300
    },
    "StaffMazeBuffID": 682020,
    "LimitRangeType": "Eject",
    "EffectTypeList": [
      "Turn"
    ]
  },
  {
    "ScepterID": 2002,
    "ScepterLevel": 3,
    "LockMagicUnit": [
      {
        "MMBMHEHDIBF": 4004,
        "PKHCKBELLKE": 3
      }
    ],
    "TrenchCount": {
      "Active": 1,
      "Attach": 2,
      "Passive": 3
    },
    "UnlockID": 5013003,
    "FuncType": "SP",
    "StyleType": "Follow",
    "ScepterBasicPower": {
      "Value": 600
    },
    "StaffMazeBuffID": 682020,
    "LimitRangeType": "Eject",
    "EffectTypeList": [
      "Turn"
    ]
  },
  {
    "ScepterID": 2003,
    "ScepterLevel": 1,
    "LockMagicUnit": [
      {
        "MMBMHEHDIBF": 4006,
        "PKHCKBELLKE": 1
      }
    ],
    "TrenchCount": {
      "Active": 1,
      "Attach": 1,
      "Passive": 2
    },
    "FuncType": "SP",
    "StyleType": "Ultimate",
    "ScepterBasicPower": {
      "Value": 150
    },
    "StaffMazeBuffID": 682030,
    "LimitRangeType": "Eject",
    "EffectTypeList": [
      "Stack"
    ]
  },
  {
    "ScepterID": 2003,
    "ScepterLevel": 2,
    "LockMagicUnit": [
      {
        "MMBMHEHDIBF": 4006,
        "PKHCKBELLKE": 2
      }
    ],
    "TrenchCount": {
      "Active": 1,
      "Attach": 2,
      "Passive": 2
    },
    "FuncType": "SP",
    "StyleType": "Ultimate",
    "ScepterBasicPower": {
      "Value": 300
    },
    "StaffMazeBuffID": 682030,
    "LimitRangeType": "Eject",
    "EffectTypeList": [
      "Stack"
    ]
  },
  {
    "ScepterID": 2003,
    "ScepterLevel": 3,
    "LockMagicUnit": [
      {
        "MMBMHEHDIBF": 4006,
        "PKHCKBELLKE": 3
      }
    ],
    "TrenchCount": {
      "Active": 1,
      "Attach": 2,
      "Passive": 3
    },
    "FuncType": "SP",
    "StyleType": "Ultimate",
    "ScepterBasicPower": {
      "Value": 600
    },
    "StaffMazeBuffID": 682030,
    "LimitRangeType": "Eject",
    "EffectTypeList": [
      "Stack"
    ]
  },
  {
    "ScepterID": 2004,
    "ScepterLevel": 1,
    "LockMagicUnit": [
      {
        "MMBMHEHDIBF": 4021,
        "PKHCKBELLKE": 1
      }
    ],
    "TrenchCount": {
      "Active": 1,
      "Attach": 1,
      "Passive": 2
    },
    "UnlockID": 5013001,
    "FuncType": "SP",
    "StyleType": "Follow",
    "ScepterBasicPower": {
      "Value": 150
    },
    "StaffMazeBuffID": 682040,
    "LimitRangeType": "Concentrate",
    "EffectTypeList": [
      "Turn"
    ]
  },
  {
    "ScepterID": 2004,
    "ScepterLevel": 2,
    "LockMagicUnit": [
      {
        "MMBMHEHDIBF": 4021,
        "PKHCKBELLKE": 2
      }
    ],
    "TrenchCount": {
      "Active": 1,
      "Attach": 2,
      "Passive": 2
    },
    "UnlockID": 5013001,
    "FuncType": "SP",
    "StyleType": "Follow",
    "ScepterBasicPower": {
      "Value": 300
    },
    "StaffMazeBuffID": 682040,
    "LimitRangeType": "Concentrate",
    "EffectTypeList": [
      "Turn"
    ]
  },
  {
    "ScepterID": 2004,
    "ScepterLevel": 3,
    "LockMagicUnit": [
      {
        "MMBMHEHDIBF": 4021,
        "PKHCKBELLKE": 3
      }
    ],
    "TrenchCount": {
      "Active": 1,
      "Attach": 2,
      "Passive": 3
    },
    "UnlockID": 5013001,
    "FuncType": "SP",
    "StyleType": "Follow",
    "ScepterBasicPower": {
      "Value": 600
    },
    "StaffMazeBuffID": 682040,
    "LimitRangeType": "Concentrate",
    "EffectTypeList": [
      "Turn"
    ]
  },
  {
    "ScepterID": 2005,
    "ScepterLevel": 1,
    "LockMagicUnit": [
      {
        "MMBMHEHDIBF": 4023,
        "PKHCKBELLKE": 1
      }
    ],
    "TrenchCount": {
      "Active": 1,
      "Attach": 1,
      "Passive": 2
    },
    "UnlockID": 5013002,
    "FuncType": "SP",
    "StyleType": "Break",
    "ScepterBasicPower": {
      "Value": 150
    },
    "StaffMazeBuffID": 682050,
    "LimitRangeType": "Concentrate",
    "EffectTypeList": [
      "None"
    ]
  },
  {
    "ScepterID": 2005,
    "ScepterLevel": 2,
    "LockMagicUnit": [
      {
        "MMBMHEHDIBF": 4023,
        "PKHCKBELLKE": 2
      }
    ],
    "TrenchCount": {
      "Active": 1,
      "Attach": 2,
      "Passive": 2
    },
    "UnlockID": 5013002,
    "FuncType": "SP",
    "StyleType": "Break",
    "ScepterBasicPower": {
      "Value": 300
    },
    "StaffMazeBuffID": 682050,
    "LimitRangeType": "Concentrate",
    "EffectTypeList": [
      "None"
    ]
  },
  {
    "ScepterID": 2005,
    "ScepterLevel": 3,
    "LockMagicUnit": [
      {
        "MMBMHEHDIBF": 4023,
        "PKHCKBELLKE": 3
      }
    ],
    "TrenchCount": {
      "Active": 1,
      "Attach": 2,
      "Passive": 3
    },
    "UnlockID": 5013002,
    "FuncType": "SP",
    "StyleType": "Break",
    "ScepterBasicPower": {
      "Value": 600
    },
    "StaffMazeBuffID": 682050,
    "LimitRangeType": "Concentrate",
    "EffectTypeList": [
      "None"
    ]
  },
  {
    "ScepterID": 2006,
    "ScepterLevel": 1,
    "LockMagicUnit": [
      {
        "MMBMHEHDIBF": 4024,
        "PKHCKBELLKE": 1
      }
    ],
    "TrenchCount": {
      "Active": 1,
      "Attach": 1,
      "Passive": 2
    },
    "UnlockID": 5013002,
    "FuncType": "SP",
    "StyleType": "Break",
    "ScepterBasicPower": {
      "Value": 150
    },
    "StaffMazeBuffID": 682060,
    "LimitRangeType": "Concentrate",
    "EffectTypeList": [
      "Turn"
    ]
  },
  {
    "ScepterID": 2006,
    "ScepterLevel": 2,
    "LockMagicUnit": [
      {
        "MMBMHEHDIBF": 4024,
        "PKHCKBELLKE": 2
      }
    ],
    "TrenchCount": {
      "Active": 1,
      "Attach": 2,
      "Passive": 2
    },
    "UnlockID": 5013002,
    "FuncType": "SP",
    "StyleType": "Break",
    "ScepterBasicPower": {
      "Value": 300
    },
    "StaffMazeBuffID": 682060,
    "LimitRangeType": "Concentrate",
    "EffectTypeList": [
      "Turn"
    ]
  },
  {
    "ScepterID": 2006,
    "ScepterLevel": 3,
    "LockMagicUnit": [
      {
        "MMBMHEHDIBF": 4024,
        "PKHCKBELLKE": 3
      }
    ],
    "TrenchCount": {
      "Active": 1,
      "Attach": 2,
      "Passive": 3
    },
    "UnlockID": 5013002,
    "FuncType": "SP",
    "StyleType": "Break",
    "ScepterBasicPower": {
      "Value": 600
    },
    "StaffMazeBuffID": 682060,
    "LimitRangeType": "Concentrate",
    "EffectTypeList": [
      "Turn"
    ]
  },
  {
    "ScepterID": 2007,
    "ScepterLevel": 1,
    "LockMagicUnit": [
      {
        "MMBMHEHDIBF": 4025,
        "PKHCKBELLKE": 1
      }
    ],
    "TrenchCount": {
      "Active": 1,
      "Attach": 1,
      "Passive": 2
    },
    "UnlockID": 5013003,
    "FuncType": "ActionDelay",
    "StyleType": "Dot",
    "ScepterBasicPower": {
      "Value": 150
    },
    "StaffMazeBuffID": 682070,
    "LimitRangeType": "Concentrate",
    "EffectTypeList": [
      "None"
    ]
  },
  {
    "ScepterID": 2007,
    "ScepterLevel": 2,
    "LockMagicUnit": [
      {
        "MMBMHEHDIBF": 4025,
        "PKHCKBELLKE": 2
      }
    ],
    "TrenchCount": {
      "Active": 1,
      "Attach": 2,
      "Passive": 2
    },
    "UnlockID": 5013003,
    "FuncType": "ActionDelay",
    "StyleType": "Dot",
    "ScepterBasicPower": {
      "Value": 300
    },
    "StaffMazeBuffID": 682070,
    "LimitRangeType": "Concentrate",
    "EffectTypeList": [
      "None"
    ]
  },
  {
    "ScepterID": 2007,
    "ScepterLevel": 3,
    "LockMagicUnit": [
      {
        "MMBMHEHDIBF": 4025,
        "PKHCKBELLKE": 3
      }
    ],
    "TrenchCount": {
      "Active": 1,
      "Attach": 2,
      "Passive": 3
    },
    "UnlockID": 5013003,
    "FuncType": "ActionDelay",
    "StyleType": "Dot",
    "ScepterBasicPower": {
      "Value": 600
    },
    "StaffMazeBuffID": 682070,
    "LimitRangeType": "Concentrate",
    "EffectTypeList": [
      "None"
    ]
  },
  {
    "ScepterID": 2008,
    "ScepterLevel": 1,
    "LockMagicUnit": [
      {
        "MMBMHEHDIBF": 4042,
        "PKHCKBELLKE": 1
      }
    ],
    "TrenchCount": {
      "Active": 1,
      "Attach": 1,
      "Passive": 2
    },
    "FuncType": "SP",
    "StyleType": "Dot",
    "ScepterBasicPower": {
      "Value": 150
    },
    "StaffMazeBuffID": 682080,
    "LimitRangeType": "AOE",
    "EffectTypeList": [
      "None"
    ]
  },
  {
    "ScepterID": 2008,
    "ScepterLevel": 2,
    "LockMagicUnit": [
      {
        "MMBMHEHDIBF": 4042,
        "PKHCKBELLKE": 2
      }
    ],
    "TrenchCount": {
      "Active": 1,
      "Attach": 2,
      "Passive": 2
    },
    "FuncType": "SP",
    "StyleType": "Dot",
    "ScepterBasicPower": {
      "Value": 300
    },
    "StaffMazeBuffID": 682080,
    "LimitRangeType": "AOE",
    "EffectTypeList": [
      "None"
    ]
  },
  {
    "ScepterID": 2008,
    "ScepterLevel": 3,
    "LockMagicUnit": [
      {
        "MMBMHEHDIBF": 4042,
        "PKHCKBELLKE": 3
      }
    ],
    "TrenchCount": {
      "Active": 1,
      "Attach": 2,
      "Passive": 3
    },
    "FuncType": "SP",
    "StyleType": "Dot",
    "ScepterBasicPower": {
      "Value": 600
    },
    "StaffMazeBuffID": 682080,
    "LimitRangeType": "AOE",
    "EffectTypeList": [
      "None"
    ]
  },
  {
    "ScepterID": 2009,
    "ScepterLevel": 1,
    "LockMagicUnit": [
      {
        "MMBMHEHDIBF": 4043,
        "PKHCKBELLKE": 1
      }
    ],
    "TrenchCount": {
      "Active": 1,
      "Attach": 1,
      "Passive": 2
    },
    "FuncType": "SP",
    "StyleType": "Ultimate",
    "ScepterBasicPower": {
      "Value": 150
    },
    "StaffMazeBuffID": 682090,
    "LimitRangeType": "AOE",
    "EffectTypeList": [
      "Turn"
    ]
  },
  {
    "ScepterID": 2009,
    "ScepterLevel": 2,
    "LockMagicUnit": [
      {
        "MMBMHEHDIBF": 4043,
        "PKHCKBELLKE": 2
      }
    ],
    "TrenchCount": {
      "Active": 1,
      "Attach": 2,
      "Passive": 2
    },
    "FuncType": "SP",
    "StyleType": "Ultimate",
    "ScepterBasicPower": {
      "Value": 300
    },
    "StaffMazeBuffID": 682090,
    "LimitRangeType": "AOE",
    "EffectTypeList": [
      "Turn"
    ]
  },
  {
    "ScepterID": 2009,
    "ScepterLevel": 3,
    "LockMagicUnit": [
      {
        "MMBMHEHDIBF": 4043,
        "PKHCKBELLKE": 3
      }
    ],
    "TrenchCount": {
      "Active": 1,
      "Attach": 2,
      "Passive": 3
    },
    "FuncType": "SP",
    "StyleType": "Ultimate",
    "ScepterBasicPower": {
      "Value": 600
    },
    "StaffMazeBuffID": 682090,
    "LimitRangeType": "AOE",
    "EffectTypeList": [
      "Turn"
    ]
  },
  {
    "ScepterID": 2010,
    "ScepterLevel": 1,
    "LockMagicUnit": [
      {
        "MMBMHEHDIBF": 4046,
        "PKHCKBELLKE": 1
      }
    ],
    "TrenchCount": {
      "Active": 1,
      "Attach": 1,
      "Passive": 2
    },
    "UnlockID": 5013001,
    "FuncType": "SP",
    "StyleType": "Follow",
    "ScepterBasicPower": {
      "Value": 150
    },
    "StaffMazeBuffID": 682100,
    "LimitRangeType": "AOE",
    "EffectTypeList": [
      "Turn"
    ]
  },
  {
    "ScepterID": 2010,
    "ScepterLevel": 2,
    "LockMagicUnit": [
      {
        "MMBMHEHDIBF": 4046,
        "PKHCKBELLKE": 2
      }
    ],
    "TrenchCount": {
      "Active": 1,
      "Attach": 2,
      "Passive": 2
    },
    "UnlockID": 5013001,
    "FuncType": "SP",
    "StyleType": "Follow",
    "ScepterBasicPower": {
      "Value": 300
    },
    "StaffMazeBuffID": 682100,
    "LimitRangeType": "AOE",
    "EffectTypeList": [
      "Turn"
    ]
  },
  {
    "ScepterID": 2010,
    "ScepterLevel": 3,
    "LockMagicUnit": [
      {
        "MMBMHEHDIBF": 4046,
        "PKHCKBELLKE": 3
      }
    ],
    "TrenchCount": {
      "Active": 1,
      "Attach": 2,
      "Passive": 3
    },
    "UnlockID": 5013001,
    "FuncType": "SP",
    "StyleType": "Follow",
    "ScepterBasicPower": {
      "Value": 600
    },
    "StaffMazeBuffID": 682100,
    "LimitRangeType": "AOE",
    "EffectTypeList": [
      "Turn"
    ]
  },
  {
    "ScepterID": 2011,
    "ScepterLevel": 1,
    "LockMagicUnit": [
      {
        "MMBMHEHDIBF": 4061,
        "PKHCKBELLKE": 1
      }
    ],
    "TrenchCount": {
      "Active": 1,
      "Attach": 1,
      "Passive": 2
    },
    "UnlockID": 5013005,
    "FuncType": "SP",
    "StyleType": "Ultimate",
    "ScepterBasicPower": {
      "Value": 150
    },
    "StaffMazeBuffID": 682110,
    "LimitRangeType": "Spread",
    "EffectTypeList": [
      "Turn"
    ]
  },
  {
    "ScepterID": 2011,
    "ScepterLevel": 2,
    "LockMagicUnit": [
      {
        "MMBMHEHDIBF": 4061,
        "PKHCKBELLKE": 2
      }
    ],
    "TrenchCount": {
      "Active": 1,
      "Attach": 2,
      "Passive": 2
    },
    "UnlockID": 5013005,
    "FuncType": "SP",
    "StyleType": "Ultimate",
    "ScepterBasicPower": {
      "Value": 300
    },
    "StaffMazeBuffID": 682110,
    "LimitRangeType": "Spread",
    "EffectTypeList": [
      "Turn"
    ]
  },
  {
    "ScepterID": 2011,
    "ScepterLevel": 3,
    "LockMagicUnit": [
      {
        "MMBMHEHDIBF": 4061,
        "PKHCKBELLKE": 3
      }
    ],
    "TrenchCount": {
      "Active": 1,
      "Attach": 2,
      "Passive": 3
    },
    "UnlockID": 5013005,
    "FuncType": "SP",
    "StyleType": "Ultimate",
    "ScepterBasicPower": {
      "Value": 600
    },
    "StaffMazeBuffID": 682110,
    "LimitRangeType": "Spread",
    "EffectTypeList": [
      "Turn"
    ]
  },
  {
    "ScepterID": 2012,
    "ScepterLevel": 1,
    "LockMagicUnit": [
      {
        "MMBMHEHDIBF": 4063,
        "PKHCKBELLKE": 1
      }
    ],
    "TrenchCount": {
      "Active": 1,
      "Attach": 1,
      "Passive": 2
    },
    "UnlockID": 5013005,
    "FuncType": "SP",
    "StyleType": "Break",
    "ScepterBasicPower": {
      "Value": 150
    },
    "StaffMazeBuffID": 682120,
    "LimitRangeType": "Spread",
    "EffectTypeList": [
      "Stack"
    ]
  },
  {
    "ScepterID": 2012,
    "ScepterLevel": 2,
    "LockMagicUnit": [
      {
        "MMBMHEHDIBF": 4063,
        "PKHCKBELLKE": 2
      }
    ],
    "TrenchCount": {
      "Active": 1,
      "Attach": 2,
      "Passive": 2
    },
    "UnlockID": 5013005,
    "FuncType": "SP",
    "StyleType": "Break",
    "ScepterBasicPower": {
      "Value": 300
    },
    "StaffMazeBuffID": 682120,
    "LimitRangeType": "Spread",
    "EffectTypeList": [
      "Stack"
    ]
  },
  {
    "ScepterID": 2012,
    "ScepterLevel": 3,
    "LockMagicUnit": [
      {
        "MMBMHEHDIBF": 4063,
        "PKHCKBELLKE": 3
      }
    ],
    "TrenchCount": {
      "Active": 1,
      "Attach": 2,
      "Passive": 3
    },
    "UnlockID": 5013005,
    "FuncType": "SP",
    "StyleType": "Break",
    "ScepterBasicPower": {
      "Value": 600
    },
    "StaffMazeBuffID": 682120,
    "LimitRangeType": "Spread",
    "EffectTypeList": [
      "Stack"
    ]
  },
  {
    "ScepterID": 2013,
    "ScepterLevel": 1,
    "LockMagicUnit": [
      {
        "MMBMHEHDIBF": 4065,
        "PKHCKBELLKE": 1
      }
    ],
    "TrenchCount": {
      "Active": 1,
      "Attach": 1,
      "Passive": 2
    },
    "FuncType": "SP",
    "StyleType": "Dot",
    "ScepterBasicPower": {
      "Value": 150
    },
    "StaffMazeBuffID": 682130,
    "LimitRangeType": "Spread",
    "EffectTypeList": [
      "Turn"
    ]
  },
  {
    "ScepterID": 2013,
    "ScepterLevel": 2,
    "LockMagicUnit": [
      {
        "MMBMHEHDIBF": 4065,
        "PKHCKBELLKE": 2
      }
    ],
    "TrenchCount": {
      "Active": 1,
      "Attach": 2,
      "Passive": 2
    },
    "FuncType": "SP",
    "StyleType": "Dot",
    "ScepterBasicPower": {
      "Value": 300
    },
    "StaffMazeBuffID": 682130,
    "LimitRangeType": "Spread",
    "EffectTypeList": [
      "Turn"
    ]
  },
  {
    "ScepterID": 2013,
    "ScepterLevel": 3,
    "LockMagicUnit": [
      {
        "MMBMHEHDIBF": 4065,
        "PKHCKBELLKE": 3
      }
    ],
    "TrenchCount": {
      "Active": 1,
      "Attach": 2,
      "Passive": 3
    },
    "FuncType": "SP",
    "StyleType": "Dot",
    "ScepterBasicPower": {
      "Value": 600
    },
    "StaffMazeBuffID": 682130,
    "LimitRangeType": "Spread",
    "EffectTypeList": [
      "Turn"
    ]
  },
  {
    "ScepterID": 3001,
    "ScepterLevel": 1,
    "LockMagicUnit": [
      {
        "MMBMHEHDIBF": 4002,
        "PKHCKBELLKE": 1
      }
    ],
    "TrenchCount": {
      "Active": 1,
      "Attach": 1,
      "Passive": 2
    },
    "UnlockID": 5013001,
    "FuncType": "ActionDelay",
    "StyleType": "Dot",
    "ScepterBasicPower": {
      "Value": 150
    },
    "StaffMazeBuffID": 687010,
    "LimitRangeType": "Eject",
    "EffectTypeList": [
      "Stack",
      "Turn"
    ]
  },
  {
    "ScepterID": 3001,
    "ScepterLevel": 2,
    "LockMagicUnit": [
      {
        "MMBMHEHDIBF": 4002,
        "PKHCKBELLKE": 2
      }
    ],
    "TrenchCount": {
      "Active": 1,
      "Attach": 2,
      "Passive": 2
    },
    "UnlockID": 5013001,
    "FuncType": "ActionDelay",
    "StyleType": "Dot",
    "ScepterBasicPower": {
      "Value": 300
    },
    "StaffMazeBuffID": 687010,
    "LimitRangeType": "Eject",
    "EffectTypeList": [
      "Stack",
      "Turn"
    ]
  },
  {
    "ScepterID": 3001,
    "ScepterLevel": 3,
    "LockMagicUnit": [
      {
        "MMBMHEHDIBF": 4002,
        "PKHCKBELLKE": 3
      }
    ],
    "TrenchCount": {
      "Active": 1,
      "Attach": 2,
      "Passive": 3
    },
    "UnlockID": 5013001,
    "FuncType": "ActionDelay",
    "StyleType": "Dot",
    "ScepterBasicPower": {
      "Value": 600
    },
    "StaffMazeBuffID": 687010,
    "LimitRangeType": "Eject",
    "EffectTypeList": [
      "Stack",
      "Turn"
    ]
  },
  {
    "ScepterID": 3002,
    "ScepterLevel": 1,
    "LockMagicUnit": [
      {
        "MMBMHEHDIBF": 4003,
        "PKHCKBELLKE": 1
      }
    ],
    "TrenchCount": {
      "Active": 1,
      "Attach": 1,
      "Passive": 2
    },
    "UnlockID": 5013001,
    "FuncType": "ActionDelay",
    "StyleType": "Follow",
    "ScepterBasicPower": {
      "Value": 150
    },
    "StaffMazeBuffID": 687020,
    "LimitRangeType": "Eject",
    "EffectTypeList": [
      "Stack",
      "Turn"
    ]
  },
  {
    "ScepterID": 3002,
    "ScepterLevel": 2,
    "LockMagicUnit": [
      {
        "MMBMHEHDIBF": 4003,
        "PKHCKBELLKE": 2
      }
    ],
    "TrenchCount": {
      "Active": 1,
      "Attach": 2,
      "Passive": 2
    },
    "UnlockID": 5013001,
    "FuncType": "ActionDelay",
    "StyleType": "Follow",
    "ScepterBasicPower": {
      "Value": 300
    },
    "StaffMazeBuffID": 687020,
    "LimitRangeType": "Eject",
    "EffectTypeList": [
      "Stack",
      "Turn"
    ]
  },
  {
    "ScepterID": 3002,
    "ScepterLevel": 3,
    "LockMagicUnit": [
      {
        "MMBMHEHDIBF": 4003,
        "PKHCKBELLKE": 3
      }
    ],
    "TrenchCount": {
      "Active": 1,
      "Attach": 2,
      "Passive": 3
    },
    "UnlockID": 5013001,
    "FuncType": "ActionDelay",
    "StyleType": "Follow",
    "ScepterBasicPower": {
      "Value": 600
    },
    "StaffMazeBuffID": 687020,
    "LimitRangeType": "Eject",
    "EffectTypeList": [
      "Stack",
      "Turn"
    ]
  },
  {
    "ScepterID": 3003,
    "ScepterLevel": 1,
    "LockMagicUnit": [
      {
        "MMBMHEHDIBF": 4022,
        "PKHCKBELLKE": 1
      }
    ],
    "TrenchCount": {
      "Active": 1,
      "Attach": 1,
      "Passive": 2
    },
    "UnlockID": 5013005,
    "FuncType": "ActionDelay",
    "StyleType": "Follow",
    "ScepterBasicPower": {
      "Value": 150
    },
    "StaffMazeBuffID": 687030,
    "LimitRangeType": "Concentrate",
    "EffectTypeList": [
      "None"
    ]
  },
  {
    "ScepterID": 3003,
    "ScepterLevel": 2,
    "LockMagicUnit": [
      {
        "MMBMHEHDIBF": 4022,
        "PKHCKBELLKE": 2
      }
    ],
    "TrenchCount": {
      "Active": 1,
      "Attach": 2,
      "Passive": 2
    },
    "UnlockID": 5013005,
    "FuncType": "ActionDelay",
    "StyleType": "Follow",
    "ScepterBasicPower": {
      "Value": 300
    },
    "StaffMazeBuffID": 687030,
    "LimitRangeType": "Concentrate",
    "EffectTypeList": [
      "None"
    ]
  },
  {
    "ScepterID": 3003,
    "ScepterLevel": 3,
    "LockMagicUnit": [
      {
        "MMBMHEHDIBF": 4022,
        "PKHCKBELLKE": 3
      }
    ],
    "TrenchCount": {
      "Active": 1,
      "Attach": 2,
      "Passive": 3
    },
    "UnlockID": 5013005,
    "FuncType": "ActionDelay",
    "StyleType": "Follow",
    "ScepterBasicPower": {
      "Value": 600
    },
    "StaffMazeBuffID": 687030,
    "LimitRangeType": "Concentrate",
    "EffectTypeList": [
      "None"
    ]
  },
  {
    "ScepterID": 3004,
    "ScepterLevel": 1,
    "LockMagicUnit": [
      {
        "MMBMHEHDIBF": 4026,
        "PKHCKBELLKE": 1
      }
    ],
    "TrenchCount": {
      "Active": 1,
      "Attach": 1,
      "Passive": 2
    },
    "UnlockID": 5013002,
    "FuncType": "ActionDelay",
    "StyleType": "Ultimate",
    "ScepterBasicPower": {
      "Value": 150
    },
    "StaffMazeBuffID": 687040,
    "LimitRangeType": "Concentrate",
    "EffectTypeList": [
      "Turn"
    ]
  },
  {
    "ScepterID": 3004,
    "ScepterLevel": 2,
    "LockMagicUnit": [
      {
        "MMBMHEHDIBF": 4026,
        "PKHCKBELLKE": 2
      }
    ],
    "TrenchCount": {
      "Active": 1,
      "Attach": 2,
      "Passive": 2
    },
    "UnlockID": 5013002,
    "FuncType": "ActionDelay",
    "StyleType": "Ultimate",
    "ScepterBasicPower": {
      "Value": 300
    },
    "StaffMazeBuffID": 687040,
    "LimitRangeType": "Concentrate",
    "EffectTypeList": [
      "Turn"
    ]
  },
  {
    "ScepterID": 3004,
    "ScepterLevel": 3,
    "LockMagicUnit": [
      {
        "MMBMHEHDIBF": 4026,
        "PKHCKBELLKE": 3
      }
    ],
    "TrenchCount": {
      "Active": 1,
      "Attach": 2,
      "Passive": 3
    },
    "UnlockID": 5013002,
    "FuncType": "ActionDelay",
    "StyleType": "Ultimate",
    "ScepterBasicPower": {
      "Value": 600
    },
    "StaffMazeBuffID": 687040,
    "LimitRangeType": "Concentrate",
    "EffectTypeList": [
      "Turn"
    ]
  },
  {
    "ScepterID": 3005,
    "ScepterLevel": 1,
    "LockMagicUnit": [
      {
        "MMBMHEHDIBF": 4041,
        "PKHCKBELLKE": 1
      }
    ],
    "TrenchCount": {
      "Active": 1,
      "Attach": 1,
      "Passive": 2
    },
    "UnlockID": 5013002,
    "FuncType": "ActionDelay",
    "StyleType": "Dot",
    "ScepterBasicPower": {
      "Value": 150
    },
    "StaffMazeBuffID": 687050,
    "LimitRangeType": "AOE",
    "EffectTypeList": [
      "Turn"
    ]
  },
  {
    "ScepterID": 3005,
    "ScepterLevel": 2,
    "LockMagicUnit": [
      {
        "MMBMHEHDIBF": 4041,
        "PKHCKBELLKE": 2
      }
    ],
    "TrenchCount": {
      "Active": 1,
      "Attach": 2,
      "Passive": 2
    },
    "UnlockID": 5013002,
    "FuncType": "ActionDelay",
    "StyleType": "Dot",
    "ScepterBasicPower": {
      "Value": 300
    },
    "StaffMazeBuffID": 687050,
    "LimitRangeType": "AOE",
    "EffectTypeList": [
      "Turn"
    ]
  },
  {
    "ScepterID": 3005,
    "ScepterLevel": 3,
    "LockMagicUnit": [
      {
        "MMBMHEHDIBF": 4041,
        "PKHCKBELLKE": 3
      }
    ],
    "TrenchCount": {
      "Active": 1,
      "Attach": 2,
      "Passive": 3
    },
    "UnlockID": 5013002,
    "FuncType": "ActionDelay",
    "StyleType": "Dot",
    "ScepterBasicPower": {
      "Value": 600
    },
    "StaffMazeBuffID": 687050,
    "LimitRangeType": "AOE",
    "EffectTypeList": [
      "Turn"
    ]
  },
  {
    "ScepterID": 3006,
    "ScepterLevel": 1,
    "LockMagicUnit": [
      {
        "MMBMHEHDIBF": 4044,
        "PKHCKBELLKE": 1
      }
    ],
    "TrenchCount": {
      "Active": 1,
      "Attach": 1,
      "Passive": 2
    },
    "UnlockID": 5013001,
    "FuncType": "ActionDelay",
    "StyleType": "Ultimate",
    "ScepterBasicPower": {
      "Value": 150
    },
    "StaffMazeBuffID": 687060,
    "LimitRangeType": "AOE",
    "EffectTypeList": [
      "None"
    ]
  },
  {
    "ScepterID": 3006,
    "ScepterLevel": 2,
    "LockMagicUnit": [
      {
        "MMBMHEHDIBF": 4044,
        "PKHCKBELLKE": 2
      }
    ],
    "TrenchCount": {
      "Active": 1,
      "Attach": 2,
      "Passive": 2
    },
    "UnlockID": 5013001,
    "FuncType": "ActionDelay",
    "StyleType": "Ultimate",
    "ScepterBasicPower": {
      "Value": 300
    },
    "StaffMazeBuffID": 687060,
    "LimitRangeType": "AOE",
    "EffectTypeList": [
      "None"
    ]
  },
  {
    "ScepterID": 3006,
    "ScepterLevel": 3,
    "LockMagicUnit": [
      {
        "MMBMHEHDIBF": 4044,
        "PKHCKBELLKE": 3
      }
    ],
    "TrenchCount": {
      "Active": 1,
      "Attach": 2,
      "Passive": 3
    },
    "UnlockID": 5013001,
    "FuncType": "ActionDelay",
    "StyleType": "Ultimate",
    "ScepterBasicPower": {
      "Value": 600
    },
    "StaffMazeBuffID": 687060,
    "LimitRangeType": "AOE",
    "EffectTypeList": [
      "None"
    ]
  },
  {
    "ScepterID": 3007,
    "ScepterLevel": 1,
    "LockMagicUnit": [
      {
        "MMBMHEHDIBF": 4062,
        "PKHCKBELLKE": 1
      }
    ],
    "TrenchCount": {
      "Active": 1,
      "Attach": 1,
      "Passive": 2
    },
    "UnlockID": 5013003,
    "FuncType": "ActionDelay",
    "StyleType": "Ultimate",
    "ScepterBasicPower": {
      "Value": 150
    },
    "StaffMazeBuffID": 687070,
    "LimitRangeType": "Spread",
    "EffectTypeList": [
      "Turn"
    ]
  },
  {
    "ScepterID": 3007,
    "ScepterLevel": 2,
    "LockMagicUnit": [
      {
        "MMBMHEHDIBF": 4062,
        "PKHCKBELLKE": 2
      }
    ],
    "TrenchCount": {
      "Active": 1,
      "Attach": 2,
      "Passive": 2
    },
    "UnlockID": 5013003,
    "FuncType": "ActionDelay",
    "StyleType": "Ultimate",
    "ScepterBasicPower": {
      "Value": 300
    },
    "StaffMazeBuffID": 687070,
    "LimitRangeType": "Spread",
    "EffectTypeList": [
      "Turn"
    ]
  },
  {
    "ScepterID": 3007,
    "ScepterLevel": 3,
    "LockMagicUnit": [
      {
        "MMBMHEHDIBF": 4062,
        "PKHCKBELLKE": 3
      }
    ],
    "TrenchCount": {
      "Active": 1,
      "Attach": 2,
      "Passive": 3
    },
    "UnlockID": 5013003,
    "FuncType": "ActionDelay",
    "StyleType": "Ultimate",
    "ScepterBasicPower": {
      "Value": 600
    },
    "StaffMazeBuffID": 687070,
    "LimitRangeType": "Spread",
    "EffectTypeList": [
      "Turn"
    ]
  },
  {
    "ScepterID": 3008,
    "ScepterLevel": 1,
    "LockMagicUnit": [
      {
        "MMBMHEHDIBF": 4066,
        "PKHCKBELLKE": 1
      }
    ],
    "TrenchCount": {
      "Active": 1,
      "Attach": 1,
      "Passive": 2
    },
    "UnlockID": 5013005,
    "FuncType": "ActionDelay",
    "StyleType": "Follow",
    "ScepterBasicPower": {
      "Value": 150
    },
    "StaffMazeBuffID": 687080,
    "LimitRangeType": "Spread",
    "EffectTypeList": [
      "None"
    ]
  },
  {
    "ScepterID": 3008,
    "ScepterLevel": 2,
    "LockMagicUnit": [
      {
        "MMBMHEHDIBF": 4066,
        "PKHCKBELLKE": 2
      }
    ],
    "TrenchCount": {
      "Active": 1,
      "Attach": 2,
      "Passive": 2
    },
    "UnlockID": 5013005,
    "FuncType": "ActionDelay",
    "StyleType": "Follow",
    "ScepterBasicPower": {
      "Value": 300
    },
    "StaffMazeBuffID": 687080,
    "LimitRangeType": "Spread",
    "EffectTypeList": [
      "None"
    ]
  },
  {
    "ScepterID": 3008,
    "ScepterLevel": 3,
    "LockMagicUnit": [
      {
        "MMBMHEHDIBF": 4066,
        "PKHCKBELLKE": 3
      }
    ],
    "TrenchCount": {
      "Active": 1,
      "Attach": 2,
      "Passive": 3
    },
    "UnlockID": 5013005,
    "FuncType": "ActionDelay",
    "StyleType": "Follow",
    "ScepterBasicPower": {
      "Value": 600
    },
    "StaffMazeBuffID": 687080,
    "LimitRangeType": "Spread",
    "EffectTypeList": [
      "None"
    ]
  },
  {
    "ScepterID": 3009,
    "ScepterLevel": 1,
    "LockMagicUnit": [
      {
        "MMBMHEHDIBF": 4005,
        "PKHCKBELLKE": 1
      }
    ],
    "TrenchCount": {
      "Active": 1,
      "Attach": 1,
      "Passive": 2
    },
    "UnlockID": 5013005,
    "FuncType": "ActionDelay",
    "StyleType": "Break",
    "ScepterBasicPower": {
      "Value": 150
    },
    "StaffMazeBuffID": 687090,
    "LimitRangeType": "Eject",
    "EffectTypeList": [
      "Stack"
    ]
  },
  {
    "ScepterID": 3009,
    "ScepterLevel": 2,
    "LockMagicUnit": [
      {
        "MMBMHEHDIBF": 4005,
        "PKHCKBELLKE": 2
      }
    ],
    "TrenchCount": {
      "Active": 1,
      "Attach": 2,
      "Passive": 2
    },
    "UnlockID": 5013005,
    "FuncType": "ActionDelay",
    "StyleType": "Break",
    "ScepterBasicPower": {
      "Value": 300
    },
    "StaffMazeBuffID": 687090,
    "LimitRangeType": "Eject",
    "EffectTypeList": [
      "Stack"
    ]
  },
  {
    "ScepterID": 3009,
    "ScepterLevel": 3,
    "LockMagicUnit": [
      {
        "MMBMHEHDIBF": 4005,
        "PKHCKBELLKE": 3
      }
    ],
    "TrenchCount": {
      "Active": 1,
      "Attach": 2,
      "Passive": 3
    },
    "UnlockID": 5013005,
    "FuncType": "ActionDelay",
    "StyleType": "Break",
    "ScepterBasicPower": {
      "Value": 600
    },
    "StaffMazeBuffID": 687090,
    "LimitRangeType": "Eject",
    "EffectTypeList": [
      "Stack"
    ]
  },
  {
    "ScepterID": 3010,
    "ScepterLevel": 1,
    "LockMagicUnit": [
      {
        "MMBMHEHDIBF": 4045,
        "PKHCKBELLKE": 1
      }
    ],
    "TrenchCount": {
      "Active": 1,
      "Attach": 1,
      "Passive": 2
    },
    "UnlockID": 5013002,
    "FuncType": "ActionDelay",
    "StyleType": "Break",
    "ScepterBasicPower": {
      "Value": 150
    },
    "StaffMazeBuffID": 687100,
    "LimitRangeType": "AOE",
    "EffectTypeList": [
      "Turn"
    ]
  },
  {
    "ScepterID": 3010,
    "ScepterLevel": 2,
    "LockMagicUnit": [
      {
        "MMBMHEHDIBF": 4045,
        "PKHCKBELLKE": 2
      }
    ],
    "TrenchCount": {
      "Active": 1,
      "Attach": 2,
      "Passive": 2
    },
    "UnlockID": 5013002,
    "FuncType": "ActionDelay",
    "StyleType": "Break",
    "ScepterBasicPower": {
      "Value": 300
    },
    "StaffMazeBuffID": 687100,
    "LimitRangeType": "AOE",
    "EffectTypeList": [
      "Turn"
    ]
  },
  {
    "ScepterID": 3010,
    "ScepterLevel": 3,
    "LockMagicUnit": [
      {
        "MMBMHEHDIBF": 4045,
        "PKHCKBELLKE": 3
      }
    ],
    "TrenchCount": {
      "Active": 1,
      "Attach": 2,
      "Passive": 3
    },
    "UnlockID": 5013002,
    "FuncType": "ActionDelay",
    "StyleType": "Break",
    "ScepterBasicPower": {
      "Value": 600
    },
    "StaffMazeBuffID": 687100,
    "LimitRangeType": "AOE",
    "EffectTypeList": [
      "Turn"
    ]
  },
  {
    "ScepterID": 3011,
    "ScepterLevel": 1,
    "LockMagicUnit": [
      {
        "MMBMHEHDIBF": 4064,
        "PKHCKBELLKE": 1
      }
    ],
    "TrenchCount": {
      "Active": 1,
      "Attach": 1,
      "Passive": 2
    },
    "UnlockID": 5013003,
    "FuncType": "ActionDelay",
    "StyleType": "Break",
    "ScepterBasicPower": {
      "Value": 150
    },
    "StaffMazeBuffID": 687110,
    "LimitRangeType": "Spread",
    "EffectTypeList": [
      "Turn"
    ]
  },
  {
    "ScepterID": 3011,
    "ScepterLevel": 2,
    "LockMagicUnit": [
      {
        "MMBMHEHDIBF": 4064,
        "PKHCKBELLKE": 2
      }
    ],
    "TrenchCount": {
      "Active": 1,
      "Attach": 2,
      "Passive": 2
    },
    "UnlockID": 5013003,
    "FuncType": "ActionDelay",
    "StyleType": "Break",
    "ScepterBasicPower": {
      "Value": 300
    },
    "StaffMazeBuffID": 687110,
    "LimitRangeType": "Spread",
    "EffectTypeList": [
      "Turn"
    ]
  },
  {
    "ScepterID": 3011,
    "ScepterLevel": 3,
    "LockMagicUnit": [
      {
        "MMBMHEHDIBF": 4064,
        "PKHCKBELLKE": 3
      }
    ],
    "TrenchCount": {
      "Active": 1,
      "Attach": 2,
      "Passive": 3
    },
    "UnlockID": 5013003,
    "FuncType": "ActionDelay",
    "StyleType": "Break",
    "ScepterBasicPower": {
      "Value": 600
    },
    "StaffMazeBuffID": 687110,
    "LimitRangeType": "Spread",
    "EffectTypeList": [
      "Turn"
    ]
  }
]