[
  {
    "ConstValueName": "RogueTourn_Talent_TalentCoinItemID",
    "Value": {
      "IntValue": 281018
    }
  },
  {
    "ConstValueName": "RogueTourn_ExpItemID",
    "Value": {
      "IntValue": 281022
    }
  },
  {
    "ConstValueName": "RogueTourn_Archive_NameMaxLength",
    "Value": {
      "IntValue": 24
    }
  },
  {
    "ConstValueName": "RogueTourn_Archive_MaxCount",
    "Value": {
      "IntValue": 4
    }
  },
  {
    "ConstValueName": "RogueTourn_Level_MapEntrance",
    "Value": {
      "IntValue": 1034102
    }
  },
  {
    "ConstValueName": "RogueTourn_Level_MappingInfo",
    "Value": {
      "IntValue": 2421
    }
  },
  {
    "ConstValueName": "RogueTourn_Weekly_Challenge_Exp_Limit",
    "Value": {
      "IntValue": 2000
    }
  },
  {
    "ConstValueName": "RogueTourn_Weekly_Challenge_Exp_Ratio",
    "Value": {
      "IntValue": 1
    }
  },
  {
    "ConstValueName": "RogueTourn_Weekly_Challenge_Score_Ratio",
    "Value": {
      "IntValue": 0
    }
  },
  {
    "ConstValueName": "RogueTourn_Handbook_Buff_QuestList",
    "Value": {
      "ArrayValue": [
        {
          "IntValue": 6014601
        },
        {
          "IntValue": 6014602
        },
        {
          "IntValue": 6014603
        },
        {
          "IntValue": 6014604
        },
        {
          "IntValue": 6014605
        }
      ]
    }
  },
  {
    "ConstValueName": "RogueTourn_Handbook_Formula_QuestList",
    "Value": {
      "ArrayValue": [
        {
          "IntValue": 6014701
        },
        {
          "IntValue": 6014702
        },
        {
          "IntValue": 6014703
        },
        {
          "IntValue": 6014704
        },
        {
          "IntValue": 6014705
        }
      ]
    }
  },
  {
    "ConstValueName": "RogueTourn_Handbook_Miracle_QuestList",
    "Value": {
      "ArrayValue": [
        {
          "IntValue": 6014401
        },
        {
          "IntValue": 6014402
        },
        {
          "IntValue": 6014403
        },
        {
          "IntValue": 6014404
        },
        {
          "IntValue": 6014405
        }
      ]
    }
  },
  {
    "ConstValueName": "RogueTourn_Handbook_Hex_QuestList",
    "Value": {
      "ArrayValue": [
        {
          "IntValue": 6014501
        },
        {
          "IntValue": 6014502
        },
        {
          "IntValue": 6014503
        },
        {
          "IntValue": 6014504
        },
        {
          "IntValue": 6014505
        }
      ]
    }
  },
  {
    "ConstValueName": "RogueTourn_Handbook_Event_QuestList",
    "Value": {
      "ArrayValue": [
        {
          "IntValue": 6014801
        },
        {
          "IntValue": 6014802
        },
        {
          "IntValue": 6014803
        },
        {
          "IntValue": 6014804
        },
        {
          "IntValue": 6014805
        }
      ]
    }
  },
  {
    "ConstValueName": "RogueTourn_Fundamental_FormulaCategories",
    "Value": {
      "ArrayValue": [
        {
          "IntValue": 1
        },
        {
          "IntValue": 5
        }
      ]
    }
  },
  {
    "ConstValueName": "RogueTourn_WeeklyChallenge_ActivityModuleID",
    "Value": {
      "IntValue": 6001401
    }
  },
  {
    "ConstValueName": "RogueTourn_GodMode_EffectJsonPath",
    "Value": {
      "StringValue": "Config/Level/Rogue/RogueModifier/RogueTournGodMode/RogueTournS1GodMode.json"
    }
  },
  {
    "ConstValueName": "RogueTourn_GodMode_UnlockID",
    "Value": {
      "IntValue": 3001302
    }
  },
  {
    "ConstValueName": "RogueTourn_GodModeStatus",
    "Value": {
      "IntValue": 1
    }
  }
]