[
  {
    "TalkSentenceID": 599000101,
    "VoiceIDList": [
      502000001,
      502000002
    ]
  },
  {
    "TalkSentenceID": 599000201,
    "VoiceIDList": [
      502000003,
      502000004
    ]
  },
  {
    "TalkSentenceID": 500012101,
    "VoiceIDList": [
      500012101,
      500012102
    ]
  },
  {
    "TalkSentenceID": 500012201,
    "VoiceIDList": [
      500012201,
      500012202
    ]
  },
  {
    "TalkSentenceID": 500012021,
    "VoiceIDList": [
      500012021,
      500012022
    ]
  },
  {
    "TalkSentenceID": 510010102,
    "VoiceIDList": [
      510010101,
      510010102
    ]
  },
  {
    "TalkSentenceID": 500201301,
    "VoiceIDList": [
      510010101,
      510010102
    ]
  },
  {
    "TalkSentenceID": 510010202,
    "VoiceIDList": [
      510010201,
      510010202
    ]
  },
  {
    "TalkSentenceID": 510010302,
    "VoiceIDList": [
      510010301,
      510010302
    ]
  },
  {
    "TalkSentenceID": 510010318,
    "VoiceIDList": [
      510010317,
      510010318
    ]
  },
  {
    "TalkSentenceID": 510010402,
    "VoiceIDList": [
      510010401,
      510010402
    ]
  },
  {
    "TalkSentenceID": 500204301,
    "VoiceIDList": [
      510010401,
      510010402
    ]
  },
  {
    "TalkSentenceID": 510010602,
    "VoiceIDList": [
      510010601,
      510010602
    ]
  },
  {
    "TalkSentenceID": 500010702,
    "VoiceIDList": [
      500010701,
      500010702
    ]
  },
  {
    "TalkSentenceID": 500207101,
    "VoiceIDList": [
      500010701,
      500010702
    ]
  },
  {
    "TalkSentenceID": 500207401,
    "VoiceIDList": [
      500207401,
      500207402
    ]
  },
  {
    "TalkSentenceID": 500010809,
    "VoiceIDList": [
      500010801,
      500010802
    ]
  },
  {
    "TalkSentenceID": 510010902,
    "VoiceIDList": [
      510010901,
      510010902
    ]
  },
  {
    "TalkSentenceID": 500209401,
    "VoiceIDList": [
      510010901,
      510010902
    ]
  },
  {
    "TalkSentenceID": 510011002,
    "VoiceIDList": [
      510011001,
      510011002
    ]
  },
  {
    "TalkSentenceID": 510011102,
    "VoiceIDList": [
      510011101,
      510011102
    ]
  },
  {
    "TalkSentenceID": 510011202,
    "VoiceIDList": [
      510011201,
      510011202
    ]
  },
  {
    "TalkSentenceID": 510011302,
    "VoiceIDList": [
      510011301,
      510011302
    ]
  },
  {
    "TalkSentenceID": 500213303,
    "VoiceIDList": [
      510011301,
      510011302
    ]
  },
  {
    "TalkSentenceID": 500011402,
    "VoiceIDList": [
      500011401,
      500011402
    ]
  },
  {
    "TalkSentenceID": 500214401,
    "VoiceIDList": [
      500011401,
      500011402
    ]
  },
  {
    "TalkSentenceID": 510011502,
    "VoiceIDList": [
      510011501,
      510011502
    ]
  },
  {
    "TalkSentenceID": 510011602,
    "VoiceIDList": [
      510011601,
      510011602
    ]
  },
  {
    "TalkSentenceID": 500217301,
    "VoiceIDList": [
      500217301,
      500217302
    ]
  },
  {
    "TalkSentenceID": 500218301,
    "VoiceIDList": [
      500218301,
      500218302
    ]
  },
  {
    "TalkSentenceID": 510011902,
    "VoiceIDList": [
      510011901,
      510011902
    ]
  },
  {
    "TalkSentenceID": 500002401,
    "VoiceIDList": [
      500002401,
      500002402
    ]
  },
  {
    "TalkSentenceID": 500002335,
    "VoiceIDList": [
      500002331,
      500002332
    ]
  },
  {
    "TalkSentenceID": 200074301,
    "VoiceIDList": [
      200074301,
      200074302
    ]
  },
  {
    "TalkSentenceID": 501029129,
    "VoiceIDList": [
      501030001,
      501030002
    ]
  },
  {
    "TalkSentenceID": 501030034,
    "VoiceIDList": [
      501030003,
      501030004
    ]
  },
  {
    "TalkSentenceID": 501029445,
    "VoiceIDList": [
      501030005,
      501030006
    ]
  },
  {
    "TalkSentenceID": 501029942,
    "VoiceIDList": [
      501030007,
      501030008
    ]
  },
  {
    "TalkSentenceID": 501029237,
    "VoiceIDList": [
      501030009,
      501030010
    ]
  },
  {
    "TalkSentenceID": 501029301,
    "VoiceIDList": [
      501030011,
      501030012
    ]
  },
  {
    "TalkSentenceID": 501029304,
    "VoiceIDList": [
      501030011,
      501030012
    ]
  },
  {
    "TalkSentenceID": 501030236,
    "VoiceIDList": [
      501030013,
      501030014
    ]
  },
  {
    "TalkSentenceID": 501030333,
    "VoiceIDList": [
      501030015,
      501030016
    ]
  },
  {
    "TalkSentenceID": 501030466,
    "VoiceIDList": [
      501030017,
      501030018
    ]
  },
  {
    "TalkSentenceID": 501023543,
    "VoiceIDList": [
      501023543,
      501023544
    ]
  },
  {
    "TalkSentenceID": 501023664,
    "VoiceIDList": [
      501030019,
      501030020
    ]
  },
  {
    "TalkSentenceID": 501023750,
    "VoiceIDList": [
      501030021,
      501030022
    ]
  },
  {
    "TalkSentenceID": 501023871,
    "VoiceIDList": [
      501030023,
      501030024
    ]
  },
  {
    "TalkSentenceID": 501024077,
    "VoiceIDList": [
      501030025,
      501030026
    ]
  },
  {
    "TalkSentenceID": 501024180,
    "VoiceIDList": [
      501030027,
      501030028
    ]
  },
  {
    "TalkSentenceID": 501024272,
    "VoiceIDList": [
      501030029,
      501030030
    ]
  },
  {
    "TalkSentenceID": 501026739,
    "VoiceIDList": [
      501030031,
      501030032
    ]
  },
  {
    "TalkSentenceID": 501024490,
    "VoiceIDList": [
      501030033,
      501030034
    ]
  },
  {
    "TalkSentenceID": 501026845,
    "VoiceIDList": [
      501030035,
      501030036
    ]
  },
  {
    "TalkSentenceID": 501029701,
    "VoiceIDList": [
      501030037,
      501030038
    ]
  },
  {
    "TalkSentenceID": 501026935,
    "VoiceIDList": [
      501030039,
      501030040
    ]
  },
  {
    "TalkSentenceID": 501026939,
    "VoiceIDList": [
      501030041,
      501030042
    ]
  },
  {
    "TalkSentenceID": 501027048,
    "VoiceIDList": [
      501030043,
      501030044
    ]
  },
  {
    "TalkSentenceID": 501027142,
    "VoiceIDList": [
      501030045,
      501030046
    ]
  },
  {
    "TalkSentenceID": 501023980,
    "VoiceIDList": [
      501030047,
      501030048
    ]
  },
  {
    "TalkSentenceID": 501027229,
    "VoiceIDList": [
      501030049,
      501030050
    ]
  },
  {
    "TalkSentenceID": 501027319,
    "VoiceIDList": [
      501030051,
      501030052
    ]
  },
  {
    "TalkSentenceID": 501027427,
    "VoiceIDList": [
      501030053,
      501030054
    ]
  },
  {
    "TalkSentenceID": 501028736,
    "VoiceIDList": [
      501030055,
      501030056
    ]
  },
  {
    "TalkSentenceID": 501029644,
    "VoiceIDList": [
      501030057,
      501030058
    ]
  },
  {
    "TalkSentenceID": 501029854,
    "VoiceIDList": [
      501030059,
      501030060
    ]
  },
  {
    "TalkSentenceID": 501030527,
    "VoiceIDList": [
      501030061,
      501030062
    ]
  },
  {
    "TalkSentenceID": 501027633,
    "VoiceIDList": [
      501030065,
      501030066
    ]
  },
  {
    "TalkSentenceID": 501027729,
    "VoiceIDList": [
      501030067,
      501030068
    ]
  },
  {
    "TalkSentenceID": 501027835,
    "VoiceIDList": [
      501030069,
      501030070
    ]
  },
  {
    "TalkSentenceID": 501027943,
    "VoiceIDList": [
      501030071,
      501030072
    ]
  },
  {
    "TalkSentenceID": 501028039,
    "VoiceIDList": [
      501030073,
      501030074
    ]
  },
  {
    "TalkSentenceID": 501028243,
    "VoiceIDList": [
      501030075,
      501030076
    ]
  },
  {
    "TalkSentenceID": 501028333,
    "VoiceIDList": [
      501030077,
      501030078
    ]
  },
  {
    "TalkSentenceID": 501028863,
    "VoiceIDList": [
      501030079,
      501030080
    ]
  },
  {
    "TalkSentenceID": 501028949,
    "VoiceIDList": [
      501030081,
      501030082
    ]
  },
  {
    "TalkSentenceID": 501029047,
    "VoiceIDList": [
      501030083,
      501030084
    ]
  },
  {
    "TalkSentenceID": 501028445,
    "VoiceIDList": [
      501030085,
      501030086
    ]
  },
  {
    "TalkSentenceID": 501028536,
    "VoiceIDList": [
      501030087,
      501030088
    ]
  },
  {
    "TalkSentenceID": 501028635,
    "VoiceIDList": [
      501030089
    ]
  },
  {
    "TalkSentenceID": 501028651,
    "VoiceIDList": [
      501030090
    ]
  },
  {
    "TalkSentenceID": 501030659,
    "VoiceIDList": [
      501030091,
      501030092
    ]
  },
  {
    "TalkSentenceID": 501190301,
    "VoiceIDList": [
      501030093,
      501030094
    ]
  },
  {
    "TalkSentenceID": 501190211,
    "VoiceIDList": [
      501030095,
      501030096
    ]
  },
  {
    "TalkSentenceID": 501190111,
    "VoiceIDList": [
      501030097,
      501030098
    ]
  },
  {
    "TalkSentenceID": 404003090,
    "VoiceIDList": [
      501030099,
      501030100
    ]
  },
  {
    "TalkSentenceID": 501030948,
    "VoiceIDList": [
      501030101,
      501030102
    ]
  },
  {
    "TalkSentenceID": 501031009,
    "VoiceIDList": [
      501030099,
      501030100
    ]
  },
  {
    "TalkSentenceID": 501031111,
    "VoiceIDList": [
      501031101,
      501031102
    ]
  },
  {
    "TalkSentenceID": 501031249,
    "VoiceIDList": [
      501031201,
      501031202
    ]
  },
  {
    "TalkSentenceID": 501031305,
    "VoiceIDList": [
      501031301,
      501031302
    ]
  },
  {
    "TalkSentenceID": 501031406,
    "VoiceIDList": [
      501031401,
      501031402
    ]
  },
  {
    "TalkSentenceID": 502101301,
    "VoiceIDList": [
      502030001,
      502030002
    ]
  },
  {
    "TalkSentenceID": 502102301,
    "VoiceIDList": [
      502030003,
      502030004
    ]
  },
  {
    "TalkSentenceID": 502103301,
    "VoiceIDList": [
      502030005,
      502030006
    ]
  },
  {
    "TalkSentenceID": 502104301,
    "VoiceIDList": [
      502030007,
      502030008
    ]
  },
  {
    "TalkSentenceID": 502105301,
    "VoiceIDList": [
      502030009,
      502030010
    ]
  },
  {
    "TalkSentenceID": 502106301,
    "VoiceIDList": [
      502030011,
      502030012
    ]
  },
  {
    "TalkSentenceID": 502107301,
    "VoiceIDList": [
      502030013,
      502030014
    ]
  },
  {
    "TalkSentenceID": 502108301,
    "VoiceIDList": [
      502030015,
      502030016
    ]
  },
  {
    "TalkSentenceID": 502109301,
    "VoiceIDList": [
      502030017,
      502030018
    ]
  },
  {
    "TalkSentenceID": 502110301,
    "VoiceIDList": [
      502030019,
      502030020
    ]
  },
  {
    "TalkSentenceID": 502112301,
    "VoiceIDList": [
      502030021,
      502030022
    ]
  },
  {
    "TalkSentenceID": 502113510,
    "VoiceIDList": [
      502030023,
      502030024
    ]
  },
  {
    "TalkSentenceID": 502114301,
    "VoiceIDList": [
      502030025,
      502030026
    ]
  },
  {
    "TalkSentenceID": 502115301,
    "VoiceIDList": [
      502030027,
      502030028
    ]
  },
  {
    "TalkSentenceID": 502116301,
    "VoiceIDList": [
      502030029,
      502030030
    ]
  },
  {
    "TalkSentenceID": 502117301,
    "VoiceIDList": [
      502030031,
      502030032
    ]
  },
  {
    "TalkSentenceID": 502123401,
    "VoiceIDList": [
      502030033,
      502030034
    ]
  },
  {
    "TalkSentenceID": 502119301,
    "VoiceIDList": [
      502030035,
      502030036
    ]
  },
  {
    "TalkSentenceID": 502120301,
    "VoiceIDList": [
      502030037,
      502030038
    ]
  },
  {
    "TalkSentenceID": 502121301,
    "VoiceIDList": [
      502030039,
      502030040
    ]
  },
  {
    "TalkSentenceID": 502122301,
    "VoiceIDList": [
      502030041,
      502030042
    ]
  },
  {
    "TalkSentenceID": 502013151,
    "VoiceIDList": [
      502030043,
      502030044
    ]
  },
  {
    "TalkSentenceID": 502021101,
    "VoiceIDList": [
      502030045,
      502030046
    ]
  },
  {
    "TalkSentenceID": 502022144,
    "VoiceIDList": [
      502030047,
      502030048
    ]
  },
  {
    "TalkSentenceID": 502014155,
    "VoiceIDList": [
      502030049,
      502030050
    ]
  },
  {
    "TalkSentenceID": 502015136,
    "VoiceIDList": [
      502030051,
      502030052
    ]
  },
  {
    "TalkSentenceID": 502016137,
    "VoiceIDList": [
      502030053,
      502030054
    ]
  },
  {
    "TalkSentenceID": 502023156,
    "VoiceIDList": [
      502030055,
      502030056
    ]
  },
  {
    "TalkSentenceID": 502026147,
    "VoiceIDList": [
      502030057,
      502030058
    ]
  },
  {
    "TalkSentenceID": 502024134,
    "VoiceIDList": [
      502030059,
      502030060
    ]
  },
  {
    "TalkSentenceID": 502017153,
    "VoiceIDList": [
      502030061
    ]
  },
  {
    "TalkSentenceID": 502017301,
    "VoiceIDList": [
      502030062
    ]
  },
  {
    "TalkSentenceID": 502018101,
    "VoiceIDList": [
      502030063,
      502030064
    ]
  },
  {
    "TalkSentenceID": 502019153,
    "VoiceIDList": [
      502030065
    ]
  },
  {
    "TalkSentenceID": 502019154,
    "VoiceIDList": [
      502030066
    ]
  },
  {
    "TalkSentenceID": 502025145,
    "VoiceIDList": [
      502030067,
      502030068
    ]
  },
  {
    "TalkSentenceID": 502020136,
    "VoiceIDList": [
      502030069,
      502030070
    ]
  },
  {
    "TalkSentenceID": 502032164,
    "VoiceIDList": [
      502030071,
      502030072
    ]
  },
  {
    "TalkSentenceID": 502033151,
    "VoiceIDList": [
      502030073,
      502030074
    ]
  },
  {
    "TalkSentenceID": 502034149,
    "VoiceIDList": [
      502030075,
      502030076
    ]
  },
  {
    "TalkSentenceID": 502027153,
    "VoiceIDList": [
      502030077,
      502030078
    ]
  },
  {
    "TalkSentenceID": 502028136,
    "VoiceIDList": [
      502030079,
      502030080
    ]
  },
  {
    "TalkSentenceID": 502029143,
    "VoiceIDList": [
      502030081
    ]
  },
  {
    "TalkSentenceID": 502029144,
    "VoiceIDList": [
      502030082
    ]
  },
  {
    "TalkSentenceID": 502030143,
    "VoiceIDList": [
      502030083,
      502030084
    ]
  },
  {
    "TalkSentenceID": 502031130,
    "VoiceIDList": [
      502030085,
      502030086
    ]
  },
  {
    "TalkSentenceID": 502041202,
    "VoiceIDList": [
      502030087,
      502030088
    ]
  },
  {
    "TalkSentenceID": 502050202,
    "VoiceIDList": [
      502030089,
      502030090
    ]
  },
  {
    "TalkSentenceID": 502051202,
    "VoiceIDList": [
      502030091,
      502030092
    ]
  },
  {
    "TalkSentenceID": 502042202,
    "VoiceIDList": [
      502030093,
      502030094
    ]
  },
  {
    "TalkSentenceID": 502071302,
    "VoiceIDList": [
      502030095,
      502030096
    ]
  },
  {
    "TalkSentenceID": 502052302,
    "VoiceIDList": [
      502030097,
      502030098
    ]
  },
  {
    "TalkSentenceID": 502053302,
    "VoiceIDList": [
      502030099,
      502030100
    ]
  },
  {
    "TalkSentenceID": 502054302,
    "VoiceIDList": [
      502030101,
      502030102
    ]
  },
  {
    "TalkSentenceID": 502055402,
    "VoiceIDList": [
      502030103,
      502030104
    ]
  },
  {
    "TalkSentenceID": 502056302,
    "VoiceIDList": [
      502030105,
      502030106
    ]
  },
  {
    "TalkSentenceID": 502070302,
    "VoiceIDList": [
      502030107,
      502030108
    ]
  },
  {
    "TalkSentenceID": 502064102,
    "VoiceIDList": [
      502030109,
      502030110
    ]
  },
  {
    "TalkSentenceID": 502062202,
    "VoiceIDList": [
      502030111,
      502030112
    ]
  },
  {
    "TalkSentenceID": 502058301,
    "VoiceIDList": [
      502030113,
      502030114
    ]
  },
  {
    "TalkSentenceID": 502060302,
    "VoiceIDList": [
      502030115,
      502030116
    ]
  },
  {
    "TalkSentenceID": 502061302,
    "VoiceIDList": [
      502030117,
      502030118
    ]
  },
  {
    "TalkSentenceID": 502065102,
    "VoiceIDList": [
      502030119,
      502030120
    ]
  },
  {
    "TalkSentenceID": 502066102,
    "VoiceIDList": [
      502030121,
      502030122
    ]
  },
  {
    "TalkSentenceID": 502037202,
    "VoiceIDList": [
      502030123,
      502030124
    ]
  },
  {
    "TalkSentenceID": 502038202,
    "VoiceIDList": [
      502030125,
      502030126
    ]
  },
  {
    "TalkSentenceID": 502039202,
    "VoiceIDList": [
      502030127,
      502030128
    ]
  },
  {
    "TalkSentenceID": 502040202,
    "VoiceIDList": [
      502030129,
      502030130
    ]
  },
  {
    "TalkSentenceID": 502043202,
    "VoiceIDList": [
      502030131,
      502030132
    ]
  },
  {
    "TalkSentenceID": 502044202,
    "VoiceIDList": [
      502030133,
      502030134
    ]
  },
  {
    "TalkSentenceID": 502045202,
    "VoiceIDList": [
      502030135,
      502030136
    ]
  },
  {
    "TalkSentenceID": 502046202,
    "VoiceIDList": [
      502030137,
      502030138
    ]
  },
  {
    "TalkSentenceID": 502047202,
    "VoiceIDList": [
      502030139,
      502030140
    ]
  },
  {
    "TalkSentenceID": 502048202,
    "VoiceIDList": [
      502030141,
      502030142
    ]
  },
  {
    "TalkSentenceID": 502049202,
    "VoiceIDList": [
      502030143,
      502030144
    ]
  },
  {
    "TalkSentenceID": 502063102,
    "VoiceIDList": [
      502030145,
      502030146
    ]
  },
  {
    "TalkSentenceID": 502086202,
    "VoiceIDList": [
      502030147,
      502030148
    ]
  },
  {
    "TalkSentenceID": 502087202,
    "VoiceIDList": [
      502030149,
      502030150
    ]
  },
  {
    "TalkSentenceID": 502085102,
    "VoiceIDList": [
      502030151,
      502030152
    ]
  },
  {
    "TalkSentenceID": 502084202,
    "VoiceIDList": [
      502030153,
      502030154
    ]
  },
  {
    "TalkSentenceID": 502057102,
    "VoiceIDList": [
      502030156
    ]
  },
  {
    "TalkSentenceID": 502059102,
    "VoiceIDList": [
      502030157,
      502030158
    ]
  },
  {
    "TalkSentenceID": 502090202,
    "VoiceIDList": [
      502030159,
      502030160
    ]
  },
  {
    "TalkSentenceID": 502088110,
    "VoiceIDList": [
      502030161,
      502030162
    ]
  },
  {
    "TalkSentenceID": 502089202,
    "VoiceIDList": [
      502030163,
      502030164
    ]
  },
  {
    "TalkSentenceID": 502035101,
    "VoiceIDList": [
      502030165,
      502030166
    ]
  },
  {
    "TalkSentenceID": 502100101,
    "VoiceIDList": [
      502100101,
      502100102
    ]
  },
  {
    "TalkSentenceID": 502100103,
    "VoiceIDList": [
      502100101,
      502100102
    ]
  },
  {
    "TalkSentenceID": 502100341,
    "VoiceIDList": [
      502101170,
      502101171
    ]
  },
  {
    "TalkSentenceID": 502100641,
    "VoiceIDList": [
      502101172,
      502101173
    ]
  },
  {
    "TalkSentenceID": 502100841,
    "VoiceIDList": [
      502101174,
      502101175
    ]
  },
  {
    "TalkSentenceID": 502101041,
    "VoiceIDList": [
      502101176,
      502101177
    ]
  },
  {
    "TalkSentenceID": 502200401,
    "VoiceIDList": [
      502101178,
      502101179
    ]
  },
  {
    "TalkSentenceID": 500014002,
    "VoiceIDList": [
      500014001,
      500014002
    ]
  },
  {
    "TalkSentenceID": 500014302,
    "VoiceIDList": [
      500014301,
      500014302
    ]
  },
  {
    "TalkSentenceID": 500014503,
    "VoiceIDList": [
      500014501,
      500014502
    ]
  },
  {
    "TalkSentenceID": 500014803,
    "VoiceIDList": [
      500014801,
      500014802
    ]
  },
  {
    "TalkSentenceID": 500015102,
    "VoiceIDList": [
      500015101,
      500015102
    ]
  },
  {
    "TalkSentenceID": 500015402,
    "VoiceIDList": [
      500015401,
      500015402
    ]
  },
  {
    "TalkSentenceID": 500015702,
    "VoiceIDList": [
      500015701,
      500015702
    ]
  },
  {
    "TalkSentenceID": 500016002,
    "VoiceIDList": [
      500016001,
      500016002
    ]
  },
  {
    "TalkSentenceID": 500016302,
    "VoiceIDList": [
      500016301,
      500016302
    ]
  },
  {
    "TalkSentenceID": 500016502,
    "VoiceIDList": [
      500016501,
      500016502
    ]
  },
  {
    "TalkSentenceID": 500016802,
    "VoiceIDList": [
      500016801,
      500016802
    ]
  },
  {
    "TalkSentenceID": 500017102,
    "VoiceIDList": [
      500017101,
      500017102
    ]
  },
  {
    "TalkSentenceID": 500017402,
    "VoiceIDList": [
      500017401,
      500017402
    ]
  },
  {
    "TalkSentenceID": 500017602,
    "VoiceIDList": [
      500017801,
      500017802
    ]
  },
  {
    "TalkSentenceID": 500017802,
    "VoiceIDList": [
      500017801,
      500017802
    ]
  },
  {
    "TalkSentenceID": 500018102,
    "VoiceIDList": [
      500018101,
      500018102
    ]
  },
  {
    "TalkSentenceID": 500018402,
    "VoiceIDList": [
      500018401,
      500018402
    ]
  },
  {
    "TalkSentenceID": 500018702,
    "VoiceIDList": [
      500018701,
      500018702
    ]
  },
  {
    "TalkSentenceID": 503001061,
    "VoiceIDList": [
      503001001,
      503001002
    ]
  },
  {
    "TalkSentenceID": 503001081,
    "VoiceIDList": [
      503001005,
      503001006
    ]
  },
  {
    "TalkSentenceID": 503001111,
    "VoiceIDList": [
      503001003,
      503001004
    ]
  },
  {
    "TalkSentenceID": 503001141,
    "VoiceIDList": [
      503001007,
      503001008
    ]
  },
  {
    "TalkSentenceID": 503007091,
    "VoiceIDList": [
      503007001,
      503007002
    ]
  },
  {
    "TalkSentenceID": 503007101,
    "VoiceIDList": [
      503007005,
      503007006
    ]
  },
  {
    "TalkSentenceID": 503007121,
    "VoiceIDList": [
      503007003,
      503007004
    ]
  },
  {
    "TalkSentenceID": 503007131,
    "VoiceIDList": [
      503007007,
      503007008
    ]
  },
  {
    "TalkSentenceID": 503020056,
    "VoiceIDList": [
      503020001,
      503020002
    ]
  },
  {
    "TalkSentenceID": 503020081,
    "VoiceIDList": [
      503020005,
      503020006
    ]
  },
  {
    "TalkSentenceID": 503020101,
    "VoiceIDList": [
      503020003,
      503020004
    ]
  },
  {
    "TalkSentenceID": 503020121,
    "VoiceIDList": [
      503020007,
      503020008
    ]
  },
  {
    "TalkSentenceID": 503026061,
    "VoiceIDList": [
      503026001,
      503026002
    ]
  },
  {
    "TalkSentenceID": 503026081,
    "VoiceIDList": [
      503026005,
      503026006
    ]
  },
  {
    "TalkSentenceID": 503026101,
    "VoiceIDList": [
      503026003,
      503026004
    ]
  },
  {
    "TalkSentenceID": 503026121,
    "VoiceIDList": [
      503026007,
      503026008
    ]
  },
  {
    "TalkSentenceID": 503027056,
    "VoiceIDList": [
      503027001,
      503027002
    ]
  },
  {
    "TalkSentenceID": 503027071,
    "VoiceIDList": [
      503027005,
      503027006
    ]
  },
  {
    "TalkSentenceID": 503027091,
    "VoiceIDList": [
      503027003,
      503027004
    ]
  },
  {
    "TalkSentenceID": 503027111,
    "VoiceIDList": [
      503027007,
      503027008
    ]
  },
  {
    "TalkSentenceID": 503017061,
    "VoiceIDList": [
      503017007,
      503017008
    ]
  },
  {
    "TalkSentenceID": 503017081,
    "VoiceIDList": [
      503017005,
      503017006
    ]
  },
  {
    "TalkSentenceID": 503017101,
    "VoiceIDList": [
      503017001,
      503017002
    ]
  },
  {
    "TalkSentenceID": 503017121,
    "VoiceIDList": [
      503017003,
      503017004
    ]
  },
  {
    "TalkSentenceID": 503006061,
    "VoiceIDList": [
      503006001,
      503006002
    ]
  },
  {
    "TalkSentenceID": 503006071,
    "VoiceIDList": [
      503006005,
      503006006
    ]
  },
  {
    "TalkSentenceID": 503006081,
    "VoiceIDList": [
      503006003,
      503006004
    ]
  },
  {
    "TalkSentenceID": 503006091,
    "VoiceIDList": [
      503006007,
      503006008
    ]
  },
  {
    "TalkSentenceID": 503023061,
    "VoiceIDList": [
      503023001,
      503023002
    ]
  },
  {
    "TalkSentenceID": 503023081,
    "VoiceIDList": [
      503023007,
      503023008
    ]
  },
  {
    "TalkSentenceID": 503023111,
    "VoiceIDList": [
      503023003,
      503023004
    ]
  },
  {
    "TalkSentenceID": 503023131,
    "VoiceIDList": [
      503023005,
      503023006
    ]
  },
  {
    "TalkSentenceID": 503024061,
    "VoiceIDList": [
      503024001,
      503024002
    ]
  },
  {
    "TalkSentenceID": 503024081,
    "VoiceIDList": [
      503024007,
      503024008
    ]
  },
  {
    "TalkSentenceID": 503024101,
    "VoiceIDList": [
      503024005,
      503024006
    ]
  },
  {
    "TalkSentenceID": 503024121,
    "VoiceIDList": [
      503024003,
      503024004
    ]
  },
  {
    "TalkSentenceID": 503025081,
    "VoiceIDList": [
      503025001,
      503025002
    ]
  },
  {
    "TalkSentenceID": 503025087,
    "VoiceIDList": [
      503025005,
      503025006
    ]
  },
  {
    "TalkSentenceID": 503025101,
    "VoiceIDList": [
      503025003,
      503025004
    ]
  },
  {
    "TalkSentenceID": 503025121,
    "VoiceIDList": [
      503025007,
      503025008
    ]
  },
  {
    "TalkSentenceID": 503015090,
    "VoiceIDList": [
      503015007,
      503015008
    ]
  },
  {
    "TalkSentenceID": 503015096,
    "VoiceIDList": [
      503015001,
      503015002
    ]
  },
  {
    "TalkSentenceID": 503015121,
    "VoiceIDList": [
      503015005,
      503015006
    ]
  },
  {
    "TalkSentenceID": 503015141,
    "VoiceIDList": [
      503015003,
      503015004
    ]
  },
  {
    "TalkSentenceID": 503021056,
    "VoiceIDList": [
      503021001,
      503021002
    ]
  },
  {
    "TalkSentenceID": 503021081,
    "VoiceIDList": [
      503021003,
      503021004
    ]
  },
  {
    "TalkSentenceID": 503021101,
    "VoiceIDList": [
      503021005,
      503021006
    ]
  },
  {
    "TalkSentenceID": 503021121,
    "VoiceIDList": [
      503021007,
      503021008
    ]
  },
  {
    "TalkSentenceID": 503003081,
    "VoiceIDList": [
      503003001,
      503003002
    ]
  },
  {
    "TalkSentenceID": 503003091,
    "VoiceIDList": [
      503003007,
      503003008
    ]
  },
  {
    "TalkSentenceID": 503003111,
    "VoiceIDList": [
      503003003,
      503003004
    ]
  },
  {
    "TalkSentenceID": 503003131,
    "VoiceIDList": [
      503003005,
      503003006
    ]
  },
  {
    "TalkSentenceID": 503005101,
    "VoiceIDList": [
      503005001,
      503005002
    ]
  },
  {
    "TalkSentenceID": 503005111,
    "VoiceIDList": [
      503005007,
      503005008
    ]
  },
  {
    "TalkSentenceID": 503005131,
    "VoiceIDList": [
      503005003,
      503005004
    ]
  },
  {
    "TalkSentenceID": 503005141,
    "VoiceIDList": [
      503005005,
      503005006
    ]
  },
  {
    "TalkSentenceID": 503008076,
    "VoiceIDList": [
      503008001,
      503008002
    ]
  },
  {
    "TalkSentenceID": 503008081,
    "VoiceIDList": [
      503008005,
      503008006
    ]
  },
  {
    "TalkSentenceID": 503008091,
    "VoiceIDList": [
      503008003,
      503008004
    ]
  },
  {
    "TalkSentenceID": 503008101,
    "VoiceIDList": [
      503008007,
      503008008
    ]
  },
  {
    "TalkSentenceID": 503030021,
    "VoiceIDList": [
      503030027,
      503030028
    ]
  },
  {
    "TalkSentenceID": 503030221,
    "VoiceIDList": [
      503030033,
      503030034
    ]
  },
  {
    "TalkSentenceID": 503030331,
    "VoiceIDList": [
      503030037,
      503030038
    ]
  },
  {
    "TalkSentenceID": 503030441,
    "VoiceIDList": [
      503030021,
      503030022
    ]
  },
  {
    "TalkSentenceID": 503030521,
    "VoiceIDList": [
      503030041,
      503030042
    ]
  },
  {
    "TalkSentenceID": 503030621,
    "VoiceIDList": [
      503030029,
      503030030
    ]
  },
  {
    "TalkSentenceID": 503030721,
    "VoiceIDList": [
      503030035,
      503030036
    ]
  },
  {
    "TalkSentenceID": 503030801,
    "VoiceIDList": [
      503030039,
      503030040
    ]
  },
  {
    "TalkSentenceID": 503002046,
    "VoiceIDList": [
      503030047,
      503030048
    ]
  },
  {
    "TalkSentenceID": 503002061,
    "VoiceIDList": [
      503030045,
      503030046
    ]
  },
  {
    "TalkSentenceID": 503002081,
    "VoiceIDList": [
      503030049,
      503030050
    ]
  },
  {
    "TalkSentenceID": 503002091,
    "VoiceIDList": [
      503030051,
      503030052
    ]
  },
  {
    "TalkSentenceID": 503004071,
    "VoiceIDList": [
      503030059,
      503030060
    ]
  },
  {
    "TalkSentenceID": 503004081,
    "VoiceIDList": [
      503030053,
      503030054
    ]
  },
  {
    "TalkSentenceID": 503004101,
    "VoiceIDList": [
      503030055,
      503030056
    ]
  },
  {
    "TalkSentenceID": 503004111,
    "VoiceIDList": [
      503030057,
      503030058
    ]
  },
  {
    "TalkSentenceID": 503010073,
    "VoiceIDList": [
      503030061,
      503030062
    ]
  },
  {
    "TalkSentenceID": 503010081,
    "VoiceIDList": [
      503030063,
      503030064
    ]
  },
  {
    "TalkSentenceID": 503010093,
    "VoiceIDList": [
      503030065,
      503030066
    ]
  },
  {
    "TalkSentenceID": 503010111,
    "VoiceIDList": [
      503030067,
      503030068
    ]
  },
  {
    "TalkSentenceID": 503011071,
    "VoiceIDList": [
      503030069,
      503030070
    ]
  },
  {
    "TalkSentenceID": 503011079,
    "VoiceIDList": [
      503030073,
      503030074
    ]
  },
  {
    "TalkSentenceID": 503011121,
    "VoiceIDList": [
      503030071,
      503030072
    ]
  },
  {
    "TalkSentenceID": 503011161,
    "VoiceIDList": [
      503030075,
      503030076
    ]
  },
  {
    "TalkSentenceID": 503013071,
    "VoiceIDList": [
      503030081,
      503030082
    ]
  },
  {
    "TalkSentenceID": 503013081,
    "VoiceIDList": [
      503030077,
      503030078
    ]
  },
  {
    "TalkSentenceID": 503013091,
    "VoiceIDList": [
      503030083,
      503030084
    ]
  },
  {
    "TalkSentenceID": 503013106,
    "VoiceIDList": [
      503030079,
      503030080
    ]
  },
  {
    "TalkSentenceID": 503014071,
    "VoiceIDList": [
      503030089,
      503030090
    ]
  },
  {
    "TalkSentenceID": 503014081,
    "VoiceIDList": [
      503030085,
      503030086
    ]
  },
  {
    "TalkSentenceID": 503014111,
    "VoiceIDList": [
      503030091,
      503030092
    ]
  },
  {
    "TalkSentenceID": 503014141,
    "VoiceIDList": [
      503030087,
      503030088
    ]
  },
  {
    "TalkSentenceID": 503016086,
    "VoiceIDList": [
      503030093,
      503030094
    ]
  },
  {
    "TalkSentenceID": 503016096,
    "VoiceIDList": [
      503030097,
      503030098
    ]
  },
  {
    "TalkSentenceID": 503016111,
    "VoiceIDList": [
      503030095,
      503030096
    ]
  },
  {
    "TalkSentenceID": 503016131,
    "VoiceIDList": [
      503030099,
      503030100
    ]
  },
  {
    "TalkSentenceID": 503022061,
    "VoiceIDList": [
      503030103,
      503030104
    ]
  },
  {
    "TalkSentenceID": 503022081,
    "VoiceIDList": [
      503030107,
      503030108
    ]
  },
  {
    "TalkSentenceID": 503022111,
    "VoiceIDList": [
      503030105,
      503030106
    ]
  },
  {
    "TalkSentenceID": 503022141,
    "VoiceIDList": [
      503030101,
      503030102
    ]
  },
  {
    "TalkSentenceID": 503012191,
    "VoiceIDList": [
      503030115,
      503030116
    ]
  },
  {
    "TalkSentenceID": 503012211,
    "VoiceIDList": [
      503030111,
      503030112
    ]
  },
  {
    "TalkSentenceID": 503012241,
    "VoiceIDList": [
      503030113,
      503030114
    ]
  },
  {
    "TalkSentenceID": 503012271,
    "VoiceIDList": [
      503030109,
      503030110
    ]
  },
  {
    "TalkSentenceID": 413030401,
    "VoiceIDList": [
      503030117,
      503030118
    ]
  },
  {
    "TalkSentenceID": 413030601,
    "VoiceIDList": [
      503030119,
      503030120
    ]
  },
  {
    "TalkSentenceID": 413030801,
    "VoiceIDList": [
      503030121,
      503030122
    ]
  },
  {
    "TalkSentenceID": 413031101,
    "VoiceIDList": [
      503030123,
      503030124
    ]
  },
  {
    "TalkSentenceID": 503009071,
    "VoiceIDList": [
      503030131,
      503030132
    ]
  },
  {
    "TalkSentenceID": 503009081,
    "VoiceIDList": [
      503030125,
      503030126
    ]
  },
  {
    "TalkSentenceID": 503009131,
    "VoiceIDList": [
      503030129,
      503030130
    ]
  },
  {
    "TalkSentenceID": 503009201,
    "VoiceIDList": [
      503030127,
      503030128
    ]
  },
  {
    "TalkSentenceID": 503031001,
    "VoiceIDList": [
      503030043,
      503030044
    ]
  },
  {
    "TalkSentenceID": 503018302,
    "VoiceIDList": [
      503030133,
      503030134
    ]
  },
  {
    "TalkSentenceID": 503018502,
    "VoiceIDList": [
      503030135,
      503030136
    ]
  },
  {
    "TalkSentenceID": 503018702,
    "VoiceIDList": [
      503030137,
      503030138
    ]
  },
  {
    "TalkSentenceID": 503018902,
    "VoiceIDList": [
      503030139,
      503030140
    ]
  },
  {
    "TalkSentenceID": 503033016,
    "VoiceIDList": [
      103052522,
      103052523
    ]
  },
  {
    "TalkSentenceID": 503033046,
    "VoiceIDList": [
      103052524,
      103052525
    ]
  },
  {
    "TalkSentenceID": 503033036,
    "VoiceIDList": [
      103052526,
      103052527
    ]
  },
  {
    "TalkSentenceID": 503033026,
    "VoiceIDList": [
      103052528,
      103052529
    ]
  },
  {
    "TalkSentenceID": 413081601,
    "VoiceIDList": [
      424030101,
      424030102
    ]
  },
  {
    "TalkSentenceID": 413081201,
    "VoiceIDList": [
      424030103,
      424030104
    ]
  },
  {
    "TalkSentenceID": 413081801,
    "VoiceIDList": [
      424030105,
      424030106
    ]
  },
  {
    "TalkSentenceID": 413082001,
    "VoiceIDList": [
      424030107,
      424030108
    ]
  },
  {
    "TalkSentenceID": 413041201,
    "VoiceIDList": [
      424030109,
      424030110
    ]
  },
  {
    "TalkSentenceID": 413041701,
    "VoiceIDList": [
      424030111,
      424030112
    ]
  },
  {
    "TalkSentenceID": 413041001,
    "VoiceIDList": [
      424030113,
      424030114
    ]
  },
  {
    "TalkSentenceID": 413041501,
    "VoiceIDList": [
      424030115,
      424030116
    ]
  },
  {
    "TalkSentenceID": 413051401,
    "VoiceIDList": [
      424030117,
      424030118
    ]
  },
  {
    "TalkSentenceID": 413050901,
    "VoiceIDList": [
      424030119,
      424030120
    ]
  },
  {
    "TalkSentenceID": 413051201,
    "VoiceIDList": [
      424030121,
      424030122
    ]
  },
  {
    "TalkSentenceID": 413051701,
    "VoiceIDList": [
      424030123,
      424030124
    ]
  },
  {
    "TalkSentenceID": 413101101,
    "VoiceIDList": [
      503101169,
      503101173
    ]
  },
  {
    "TalkSentenceID": 413101301,
    "VoiceIDList": [
      503101170,
      503101174
    ]
  },
  {
    "TalkSentenceID": 413101501,
    "VoiceIDList": [
      503101171,
      503101175
    ]
  },
  {
    "TalkSentenceID": 413101701,
    "VoiceIDList": [
      503101172,
      503101176
    ]
  },
  {
    "TalkSentenceID": 413021501,
    "VoiceIDList": [
      424030133,
      424030134
    ]
  },
  {
    "TalkSentenceID": 413021201,
    "VoiceIDList": [
      424030135,
      424030136
    ]
  },
  {
    "TalkSentenceID": 413021801,
    "VoiceIDList": [
      424030137,
      424030138
    ]
  },
  {
    "TalkSentenceID": 413022001,
    "VoiceIDList": [
      424030139,
      424030140
    ]
  },
  {
    "TalkSentenceID": 413091501,
    "VoiceIDList": [
      424030141,
      424030142
    ]
  },
  {
    "TalkSentenceID": 413091701,
    "VoiceIDList": [
      424030143,
      424030144
    ]
  },
  {
    "TalkSentenceID": 413092001,
    "VoiceIDList": [
      424030145,
      424030146
    ]
  },
  {
    "TalkSentenceID": 413091301,
    "VoiceIDList": [
      424030147,
      424030148
    ]
  },
  {
    "TalkSentenceID": 413111001,
    "VoiceIDList": [
      424030151,
      424030152
    ]
  },
  {
    "TalkSentenceID": 413111201,
    "VoiceIDList": [
      424030149,
      424030150
    ]
  },
  {
    "TalkSentenceID": 413111401,
    "VoiceIDList": [
      424030155,
      424030156
    ]
  },
  {
    "TalkSentenceID": 413111601,
    "VoiceIDList": [
      424030153,
      424030154
    ]
  },
  {
    "TalkSentenceID": 413121301,
    "VoiceIDList": [
      424030157,
      424030158
    ]
  },
  {
    "TalkSentenceID": 413121501,
    "VoiceIDList": [
      424030163,
      424030164
    ]
  },
  {
    "TalkSentenceID": 413121701,
    "VoiceIDList": [
      424030161,
      424030162
    ]
  },
  {
    "TalkSentenceID": 413121901,
    "VoiceIDList": [
      424030159,
      424030160
    ]
  },
  {
    "TalkSentenceID": 413131601,
    "VoiceIDList": [
      424030165,
      424030166
    ]
  },
  {
    "TalkSentenceID": 413131301,
    "VoiceIDList": [
      424030167,
      424030168
    ]
  },
  {
    "TalkSentenceID": 413132001,
    "VoiceIDList": [
      424030169,
      424030170
    ]
  },
  {
    "TalkSentenceID": 413131801,
    "VoiceIDList": [
      424030171,
      424030172
    ]
  },
  {
    "TalkSentenceID": 413011701,
    "VoiceIDList": [
      424030173,
      424030174
    ]
  },
  {
    "TalkSentenceID": 413011301,
    "VoiceIDList": [
      424030175,
      424030176
    ]
  },
  {
    "TalkSentenceID": 413010901,
    "VoiceIDList": [
      424030177,
      424030178
    ]
  },
  {
    "TalkSentenceID": 413011101,
    "VoiceIDList": [
      424030179,
      424030180
    ]
  },
  {
    "TalkSentenceID": 413140901,
    "VoiceIDList": [
      424030181,
      424030182
    ]
  },
  {
    "TalkSentenceID": 413141101,
    "VoiceIDList": [
      424030183,
      424030184
    ]
  },
  {
    "TalkSentenceID": 413140601,
    "VoiceIDList": [
      424030185,
      424030186
    ]
  },
  {
    "TalkSentenceID": 413141301,
    "VoiceIDList": [
      424030187,
      424030188
    ]
  },
  {
    "TalkSentenceID": 413071601,
    "VoiceIDList": [
      424030190
    ]
  },
  {
    "TalkSentenceID": 413071901,
    "VoiceIDList": [
      424030192
    ]
  },
  {
    "TalkSentenceID": 413071301,
    "VoiceIDList": [
      424030194
    ]
  },
  {
    "TalkSentenceID": 413071801,
    "VoiceIDList": [
      424030196
    ]
  },
  {
    "TalkSentenceID": 413061101,
    "VoiceIDList": [
      424030197,
      424030198
    ]
  },
  {
    "TalkSentenceID": 413061301,
    "VoiceIDList": [
      424030199,
      424030200
    ]
  },
  {
    "TalkSentenceID": 413061601,
    "VoiceIDList": [
      424030201,
      424030202
    ]
  },
  {
    "TalkSentenceID": 413061801,
    "VoiceIDList": [
      424030203,
      424030204
    ]
  },
  {
    "TalkSentenceID": 413160901,
    "VoiceIDList": [
      424030205,
      424030206
    ]
  },
  {
    "TalkSentenceID": 413160601,
    "VoiceIDList": [
      424030207,
      424030208
    ]
  },
  {
    "TalkSentenceID": 413161401,
    "VoiceIDList": [
      424030209,
      424030210
    ]
  },
  {
    "TalkSentenceID": 413161101,
    "VoiceIDList": [
      424030211,
      424030212
    ]
  },
  {
    "TalkSentenceID": 413120201,
    "VoiceIDList": [
      424030213,
      424030214
    ]
  },
  {
    "TalkSentenceID": 413110501,
    "VoiceIDList": [
      424030215,
      424030216
    ]
  },
  {
    "TalkSentenceID": 203019901,
    "VoiceIDList": [
      424030217,
      424030218
    ]
  },
  {
    "TalkSentenceID": 413130701,
    "VoiceIDList": [
      424030219,
      424030220
    ]
  },
  {
    "TalkSentenceID": 413010201,
    "VoiceIDList": [
      424030221,
      424030222
    ]
  },
  {
    "TalkSentenceID": 413140201,
    "VoiceIDList": [
      424030223,
      424030224
    ]
  },
  {
    "TalkSentenceID": 413070201,
    "VoiceIDList": [
      424030225,
      424030226
    ]
  },
  {
    "TalkSentenceID": 413060201,
    "VoiceIDList": [
      424030227,
      424030228
    ]
  },
  {
    "TalkSentenceID": 413160201,
    "VoiceIDList": [
      424030229,
      424030230
    ]
  },
  {
    "TalkSentenceID": 503019302,
    "VoiceIDList": [
      424030231,
      424030232
    ]
  },
  {
    "TalkSentenceID": 503019502,
    "VoiceIDList": [
      424030233,
      424030234
    ]
  },
  {
    "TalkSentenceID": 503019802,
    "VoiceIDList": [
      424030235,
      424030236
    ]
  },
  {
    "TalkSentenceID": 503019932,
    "VoiceIDList": [
      424030237,
      424030238
    ]
  },
  {
    "TalkSentenceID": 413090124,
    "VoiceIDList": [
      413090124,
      413090125
    ]
  },
  {
    "TalkSentenceID": 413100302,
    "VoiceIDList": [
      413100302,
      413100303
    ]
  },
  {
    "TalkSentenceID": 413020501,
    "VoiceIDList": [
      424030245,
      424030246
    ]
  },
  {
    "TalkSentenceID": 413040401,
    "VoiceIDList": [
      424030247,
      424030248
    ]
  },
  {
    "TalkSentenceID": 413080301,
    "VoiceIDList": [
      424030249,
      424030250
    ]
  },
  {
    "TalkSentenceID": 413050401,
    "VoiceIDList": [
      413050101,
      413050102
    ]
  },
  {
    "TalkSentenceID": 503040001,
    "VoiceIDList": [
      503040001,
      503040002
    ]
  },
  {
    "TalkSentenceID": 503040003,
    "VoiceIDList": [
      503040003,
      503040004
    ]
  },
  {
    "TalkSentenceID": 503040005,
    "VoiceIDList": [
      503040005,
      503040006
    ]
  },
  {
    "TalkSentenceID": 503040007,
    "VoiceIDList": [
      503040007,
      503040008
    ]
  },
  {
    "TalkSentenceID": 503040009,
    "VoiceIDList": [
      503040009,
      503040010
    ]
  },
  {
    "TalkSentenceID": 503040011,
    "VoiceIDList": [
      503040011,
      503040012
    ]
  },
  {
    "TalkSentenceID": 503040013,
    "VoiceIDList": [
      503040013,
      503040014
    ]
  },
  {
    "TalkSentenceID": 503040015,
    "VoiceIDList": [
      503040015,
      503040016
    ]
  },
  {
    "TalkSentenceID": 503040017,
    "VoiceIDList": [
      503040017,
      503040018
    ]
  },
  {
    "TalkSentenceID": 413220201,
    "VoiceIDList": [
      503040019,
      503040020
    ]
  },
  {
    "TalkSentenceID": 503040021,
    "VoiceIDList": [
      503040021,
      503040022
    ]
  },
  {
    "TalkSentenceID": 503040023,
    "VoiceIDList": [
      503040023,
      503040024
    ]
  },
  {
    "TalkSentenceID": 503040025,
    "VoiceIDList": [
      503040025,
      503040026
    ]
  },
  {
    "TalkSentenceID": 503040027,
    "VoiceIDList": [
      503040027,
      503040028
    ]
  },
  {
    "TalkSentenceID": 503040029,
    "VoiceIDList": [
      503040029,
      503040030
    ]
  },
  {
    "TalkSentenceID": 503040031,
    "VoiceIDList": [
      503040031,
      503040032
    ]
  },
  {
    "TalkSentenceID": 503040033,
    "VoiceIDList": [
      503040033,
      503040034
    ]
  },
  {
    "TalkSentenceID": 503040035,
    "VoiceIDList": [
      503040035,
      503040036
    ]
  },
  {
    "TalkSentenceID": 503040037,
    "VoiceIDList": [
      503040037,
      503040038
    ]
  },
  {
    "TalkSentenceID": 503040039,
    "VoiceIDList": [
      503040039,
      503040040
    ]
  },
  {
    "TalkSentenceID": 503047061,
    "VoiceIDList": [
      503040041,
      503040042
    ]
  },
  {
    "TalkSentenceID": 503047151,
    "VoiceIDList": [
      503040043,
      503040044
    ]
  },
  {
    "TalkSentenceID": 503047081,
    "VoiceIDList": [
      503040045,
      503040046
    ]
  },
  {
    "TalkSentenceID": 503047131,
    "VoiceIDList": [
      503040047,
      503040048
    ]
  },
  {
    "TalkSentenceID": 503040049,
    "VoiceIDList": [
      503040049,
      503040050
    ]
  },
  {
    "TalkSentenceID": 503040041,
    "VoiceIDList": [
      503040051,
      503040052
    ]
  },
  {
    "TalkSentenceID": 503040043,
    "VoiceIDList": [
      503040053,
      503040054
    ]
  },
  {
    "TalkSentenceID": 503040045,
    "VoiceIDList": [
      503040055,
      503040056
    ]
  },
  {
    "TalkSentenceID": 503040047,
    "VoiceIDList": [
      503040057,
      503040058
    ]
  },
  {
    "TalkSentenceID": 503040059,
    "VoiceIDList": [
      503040059,
      503040060
    ]
  },
  {
    "TalkSentenceID": 503040061,
    "VoiceIDList": [
      503040061,
      503040062
    ]
  },
  {
    "TalkSentenceID": 503040063,
    "VoiceIDList": [
      503040063,
      503040064
    ]
  },
  {
    "TalkSentenceID": 503040065,
    "VoiceIDList": [
      503040065,
      503040066
    ]
  },
  {
    "TalkSentenceID": 503040067,
    "VoiceIDList": [
      503040067,
      503040068
    ]
  },
  {
    "TalkSentenceID": 503040069,
    "VoiceIDList": [
      503040069,
      503040070
    ]
  },
  {
    "TalkSentenceID": 503040070,
    "VoiceIDList": [
      503040071,
      503040072
    ]
  },
  {
    "TalkSentenceID": 503042061,
    "VoiceIDList": [
      503040073,
      503040074
    ]
  },
  {
    "TalkSentenceID": 503042111,
    "VoiceIDList": [
      503040075,
      503040076
    ]
  },
  {
    "TalkSentenceID": 503042081,
    "VoiceIDList": [
      503040077,
      503040078
    ]
  },
  {
    "TalkSentenceID": 503042141,
    "VoiceIDList": [
      503040079,
      503040080
    ]
  },
  {
    "TalkSentenceID": 503045061,
    "VoiceIDList": [
      503101177,
      503101181
    ]
  },
  {
    "TalkSentenceID": 503045131,
    "VoiceIDList": [
      503101178,
      503101182
    ]
  },
  {
    "TalkSentenceID": 503045081,
    "VoiceIDList": [
      503101179,
      503101183
    ]
  },
  {
    "TalkSentenceID": 503045161,
    "VoiceIDList": [
      503101180,
      503101184
    ]
  },
  {
    "TalkSentenceID": 503046061,
    "VoiceIDList": [
      503040089,
      503040090
    ]
  },
  {
    "TalkSentenceID": 503046131,
    "VoiceIDList": [
      503040091,
      503040092
    ]
  },
  {
    "TalkSentenceID": 503046081,
    "VoiceIDList": [
      503040093,
      503040094
    ]
  },
  {
    "TalkSentenceID": 503046151,
    "VoiceIDList": [
      503040095,
      503040096
    ]
  },
  {
    "TalkSentenceID": 503040071,
    "VoiceIDList": [
      503040097,
      503040098
    ]
  },
  {
    "TalkSentenceID": 503040121,
    "VoiceIDList": [
      503040099,
      503040100
    ]
  },
  {
    "TalkSentenceID": 503040091,
    "VoiceIDList": [
      503040101,
      503040102
    ]
  },
  {
    "TalkSentenceID": 503040051,
    "VoiceIDList": [
      503040103,
      503040104
    ]
  },
  {
    "TalkSentenceID": 503041051,
    "VoiceIDList": [
      503040105,
      503040106
    ]
  },
  {
    "TalkSentenceID": 503041101,
    "VoiceIDList": [
      503040107,
      503040108
    ]
  },
  {
    "TalkSentenceID": 503041071,
    "VoiceIDList": [
      503040109,
      503040110
    ]
  },
  {
    "TalkSentenceID": 503041121,
    "VoiceIDList": [
      503040111,
      503040112
    ]
  },
  {
    "TalkSentenceID": 503048111,
    "VoiceIDList": [
      503040113,
      503040114
    ]
  },
  {
    "TalkSentenceID": 503048151,
    "VoiceIDList": [
      503040115,
      503040116
    ]
  },
  {
    "TalkSentenceID": 503048131,
    "VoiceIDList": [
      503040117,
      503040118
    ]
  },
  {
    "TalkSentenceID": 503048171,
    "VoiceIDList": [
      503040119,
      503040120
    ]
  },
  {
    "TalkSentenceID": 503040122,
    "VoiceIDList": [
      503040121,
      503040122
    ]
  },
  {
    "TalkSentenceID": 503040123,
    "VoiceIDList": [
      503040123,
      503040124
    ]
  },
  {
    "TalkSentenceID": 503040125,
    "VoiceIDList": [
      503040125,
      503040126
    ]
  },
  {
    "TalkSentenceID": 503040127,
    "VoiceIDList": [
      503040127,
      503040128
    ]
  },
  {
    "TalkSentenceID": 413210202,
    "VoiceIDList": [
      503040129,
      503040130
    ]
  },
  {
    "TalkSentenceID": 413211301,
    "VoiceIDList": [
      503040131,
      503040132
    ]
  },
  {
    "TalkSentenceID": 413211701,
    "VoiceIDList": [
      503040133,
      503040134
    ]
  },
  {
    "TalkSentenceID": 413211101,
    "VoiceIDList": [
      503040135,
      503040136
    ]
  },
  {
    "TalkSentenceID": 413211501,
    "VoiceIDList": [
      503040137,
      503040138
    ]
  },
  {
    "TalkSentenceID": 503040139,
    "VoiceIDList": [
      503040139,
      503040140
    ]
  },
  {
    "TalkSentenceID": 503040141,
    "VoiceIDList": [
      503040141,
      503040142
    ]
  },
  {
    "TalkSentenceID": 503040143,
    "VoiceIDList": [
      503040143,
      503040144
    ]
  },
  {
    "TalkSentenceID": 503040145,
    "VoiceIDList": [
      503040145,
      503040146
    ]
  },
  {
    "TalkSentenceID": 503040147,
    "VoiceIDList": [
      503040147,
      503040148
    ]
  },
  {
    "TalkSentenceID": 503038043,
    "VoiceIDList": [
      503040149,
      503040150
    ]
  },
  {
    "TalkSentenceID": 503038055,
    "VoiceIDList": [
      503040151,
      503040152
    ]
  },
  {
    "TalkSentenceID": 503038048,
    "VoiceIDList": [
      503040153,
      503040154
    ]
  },
  {
    "TalkSentenceID": 503038063,
    "VoiceIDList": [
      503040155,
      503040156
    ]
  },
  {
    "TalkSentenceID": 503039036,
    "VoiceIDList": [
      503040157,
      503040158
    ]
  },
  {
    "TalkSentenceID": 503039050,
    "VoiceIDList": [
      503040159,
      503040160
    ]
  },
  {
    "TalkSentenceID": 503039039,
    "VoiceIDList": [
      503040161,
      503040162
    ]
  },
  {
    "TalkSentenceID": 503039067,
    "VoiceIDList": [
      503040163,
      503040164
    ]
  },
  {
    "TalkSentenceID": 503043027,
    "VoiceIDList": [
      503040165,
      503040166
    ]
  },
  {
    "TalkSentenceID": 503043036,
    "VoiceIDList": [
      503040167,
      503040168
    ]
  },
  {
    "TalkSentenceID": 503043030,
    "VoiceIDList": [
      503040169,
      503040170
    ]
  },
  {
    "TalkSentenceID": 503043052,
    "VoiceIDList": [
      503040171,
      503040172
    ]
  },
  {
    "TalkSentenceID": 503044045,
    "VoiceIDList": [
      503040173,
      503040174
    ]
  },
  {
    "TalkSentenceID": 503044060,
    "VoiceIDList": [
      503040175,
      503040176
    ]
  },
  {
    "TalkSentenceID": 503044048,
    "VoiceIDList": [
      503040177,
      503040178
    ]
  },
  {
    "TalkSentenceID": 503044067,
    "VoiceIDList": [
      503040179,
      503040180
    ]
  },
  {
    "TalkSentenceID": 413200202,
    "VoiceIDList": [
      413200202,
      413200203
    ]
  },
  {
    "TalkSentenceID": 413200902,
    "VoiceIDList": [
      413200902,
      413200903
    ]
  },
  {
    "TalkSentenceID": 413200702,
    "VoiceIDList": [
      413200702,
      413200703
    ]
  },
  {
    "TalkSentenceID": 413201502,
    "VoiceIDList": [
      413201502,
      413201503
    ]
  },
  {
    "TalkSentenceID": 413201202,
    "VoiceIDList": [
      413201202,
      413201203
    ]
  },
  {
    "TalkSentenceID": 503052032,
    "VoiceIDList": [
      503052001,
      503052002
    ]
  },
  {
    "TalkSentenceID": 503052047,
    "VoiceIDList": [
      503052001,
      503052002
    ]
  },
  {
    "TalkSentenceID": 503052040,
    "VoiceIDList": [
      503052001,
      503052002
    ]
  },
  {
    "TalkSentenceID": 503052056,
    "VoiceIDList": [
      503052001,
      503052002
    ]
  },
  {
    "TalkSentenceID": 503053077,
    "VoiceIDList": [
      503053001,
      503053002
    ]
  },
  {
    "TalkSentenceID": 503053064,
    "VoiceIDList": [
      503053003,
      503053004
    ]
  },
  {
    "TalkSentenceID": 503053056,
    "VoiceIDList": [
      503053005,
      503053006
    ]
  },
  {
    "TalkSentenceID": 503053048,
    "VoiceIDList": [
      503053007,
      503053008
    ]
  },
  {
    "TalkSentenceID": 503054035,
    "VoiceIDList": [
      503054001,
      503054002
    ]
  },
  {
    "TalkSentenceID": 503054049,
    "VoiceIDList": [
      503054003,
      503054004
    ]
  },
  {
    "TalkSentenceID": 503054041,
    "VoiceIDList": [
      503054005,
      503054006
    ]
  },
  {
    "TalkSentenceID": 503054060,
    "VoiceIDList": [
      503054007,
      503054008
    ]
  },
  {
    "TalkSentenceID": 503055077,
    "VoiceIDList": [
      503055001,
      503055002
    ]
  },
  {
    "TalkSentenceID": 503055065,
    "VoiceIDList": [
      503055003,
      503055004
    ]
  },
  {
    "TalkSentenceID": 503055059,
    "VoiceIDList": [
      503055005,
      503055006
    ]
  },
  {
    "TalkSentenceID": 503055050,
    "VoiceIDList": [
      503055007,
      503055008
    ]
  },
  {
    "TalkSentenceID": 503056034,
    "VoiceIDList": [
      503056001,
      503056002
    ]
  },
  {
    "TalkSentenceID": 503056084,
    "VoiceIDList": [
      503056003,
      503056004
    ]
  },
  {
    "TalkSentenceID": 503056053,
    "VoiceIDList": [
      503056005,
      503056006
    ]
  },
  {
    "TalkSentenceID": 503056038,
    "VoiceIDList": [
      503056007,
      503056008
    ]
  },
  {
    "TalkSentenceID": 503057033,
    "VoiceIDList": [
      503057001,
      503057002
    ]
  },
  {
    "TalkSentenceID": 503057048,
    "VoiceIDList": [
      503057003,
      503057004
    ]
  },
  {
    "TalkSentenceID": 503057040,
    "VoiceIDList": [
      503057005,
      503057006
    ]
  },
  {
    "TalkSentenceID": 503057055,
    "VoiceIDList": [
      503057007,
      503057008
    ]
  },
  {
    "TalkSentenceID": 503058040,
    "VoiceIDList": [
      503058001,
      503058002
    ]
  },
  {
    "TalkSentenceID": 503058032,
    "VoiceIDList": [
      503058003,
      503058004
    ]
  },
  {
    "TalkSentenceID": 503058055,
    "VoiceIDList": [
      503058005,
      503058006
    ]
  },
  {
    "TalkSentenceID": 503058063,
    "VoiceIDList": [
      503058007,
      503058008
    ]
  },
  {
    "TalkSentenceID": 503072046,
    "VoiceIDList": [
      503059001,
      503059002
    ]
  },
  {
    "TalkSentenceID": 503072059,
    "VoiceIDList": [
      503059003,
      503059004
    ]
  },
  {
    "TalkSentenceID": 503072066,
    "VoiceIDList": [
      503059005,
      503059006
    ]
  },
  {
    "TalkSentenceID": 503072040,
    "VoiceIDList": [
      503059007,
      503059008
    ]
  },
  {
    "TalkSentenceID": 503059071,
    "VoiceIDList": [
      503060007,
      503060008
    ]
  },
  {
    "TalkSentenceID": 503059081,
    "VoiceIDList": [
      503060001,
      503060002
    ]
  },
  {
    "TalkSentenceID": 503059101,
    "VoiceIDList": [
      503060005,
      503060006
    ]
  },
  {
    "TalkSentenceID": 503059121,
    "VoiceIDList": [
      503060003,
      503060004
    ]
  },
  {
    "TalkSentenceID": 503060061,
    "VoiceIDList": [
      503060103,
      503060104
    ]
  },
  {
    "TalkSentenceID": 503060081,
    "VoiceIDList": [
      503060107,
      503060108
    ]
  },
  {
    "TalkSentenceID": 503060101,
    "VoiceIDList": [
      503060105,
      503060106
    ]
  },
  {
    "TalkSentenceID": 503060121,
    "VoiceIDList": [
      503060109,
      503060110
    ]
  },
  {
    "TalkSentenceID": 503061061,
    "VoiceIDList": [
      503101185,
      503101189
    ]
  },
  {
    "TalkSentenceID": 503061081,
    "VoiceIDList": [
      503101187,
      503101191
    ]
  },
  {
    "TalkSentenceID": 503061111,
    "VoiceIDList": [
      503101186,
      503101190
    ]
  },
  {
    "TalkSentenceID": 503061131,
    "VoiceIDList": [
      503101188,
      503101192
    ]
  },
  {
    "TalkSentenceID": 503062086,
    "VoiceIDList": [
      503060041,
      503060042
    ]
  },
  {
    "TalkSentenceID": 503062096,
    "VoiceIDList": [
      503060045,
      503060046
    ]
  },
  {
    "TalkSentenceID": 503062106,
    "VoiceIDList": [
      503060043,
      503060044
    ]
  },
  {
    "TalkSentenceID": 503062131,
    "VoiceIDList": [
      503060047,
      503060048
    ]
  },
  {
    "TalkSentenceID": 503063061,
    "VoiceIDList": [
      503060049,
      503060050
    ]
  },
  {
    "TalkSentenceID": 503063081,
    "VoiceIDList": [
      503060053,
      503060054
    ]
  },
  {
    "TalkSentenceID": 503063101,
    "VoiceIDList": [
      503060051,
      503060052
    ]
  },
  {
    "TalkSentenceID": 503063131,
    "VoiceIDList": [
      503060055,
      503060056
    ]
  },
  {
    "TalkSentenceID": 503064061,
    "VoiceIDList": [
      503060063,
      503060064
    ]
  },
  {
    "TalkSentenceID": 503064081,
    "VoiceIDList": [
      503060057,
      503060058
    ]
  },
  {
    "TalkSentenceID": 503064102,
    "VoiceIDList": [
      503060059,
      503060060
    ]
  },
  {
    "TalkSentenceID": 503064121,
    "VoiceIDList": [
      503060061,
      503060062
    ]
  },
  {
    "TalkSentenceID": 503065061,
    "VoiceIDList": [
      503060069,
      503060070
    ]
  },
  {
    "TalkSentenceID": 503065081,
    "VoiceIDList": [
      503060065,
      503060066
    ]
  },
  {
    "TalkSentenceID": 503065101,
    "VoiceIDList": [
      503060067,
      503060068
    ]
  },
  {
    "TalkSentenceID": 503065121,
    "VoiceIDList": [
      503060071,
      503060072
    ]
  },
  {
    "TalkSentenceID": 503066061,
    "VoiceIDList": [
      503060079,
      503060080
    ]
  },
  {
    "TalkSentenceID": 503066081,
    "VoiceIDList": [
      503060073,
      503060074
    ]
  },
  {
    "TalkSentenceID": 503066101,
    "VoiceIDList": [
      503060075,
      503060076
    ]
  },
  {
    "TalkSentenceID": 503066121,
    "VoiceIDList": [
      503060077,
      503060078
    ]
  },
  {
    "TalkSentenceID": 503067066,
    "VoiceIDList": [
      503060089,
      503060090
    ]
  },
  {
    "TalkSentenceID": 503067081,
    "VoiceIDList": [
      503060093,
      503060094
    ]
  },
  {
    "TalkSentenceID": 503067111,
    "VoiceIDList": [
      503060091,
      503060092
    ]
  },
  {
    "TalkSentenceID": 503067131,
    "VoiceIDList": [
      503060095,
      503060096
    ]
  },
  {
    "TalkSentenceID": 503068071,
    "VoiceIDList": [
      503060097,
      503060098
    ]
  },
  {
    "TalkSentenceID": 503068091,
    "VoiceIDList": [
      503060097,
      503060098
    ]
  },
  {
    "TalkSentenceID": 503068111,
    "VoiceIDList": [
      503060097,
      503060098
    ]
  },
  {
    "TalkSentenceID": 503068141,
    "VoiceIDList": [
      503060097,
      503060098
    ]
  },
  {
    "TalkSentenceID": 503069071,
    "VoiceIDList": [
      503060099,
      503060100
    ]
  },
  {
    "TalkSentenceID": 503069091,
    "VoiceIDList": [
      503060099,
      503060100
    ]
  },
  {
    "TalkSentenceID": 503069111,
    "VoiceIDList": [
      503060099,
      503060100
    ]
  },
  {
    "TalkSentenceID": 503069131,
    "VoiceIDList": [
      503060099,
      503060100
    ]
  },
  {
    "TalkSentenceID": 503071061,
    "VoiceIDList": [
      503060025,
      503060026
    ]
  },
  {
    "TalkSentenceID": 503071081,
    "VoiceIDList": [
      503060029,
      503060030
    ]
  },
  {
    "TalkSentenceID": 503071101,
    "VoiceIDList": [
      503060027,
      503060028
    ]
  },
  {
    "TalkSentenceID": 503071121,
    "VoiceIDList": [
      503060031,
      503060032
    ]
  },
  {
    "TalkSentenceID": 503073081,
    "VoiceIDList": [
      503060101,
      503060102
    ]
  },
  {
    "TalkSentenceID": 503073111,
    "VoiceIDList": [
      503060101,
      503060102
    ]
  },
  {
    "TalkSentenceID": 503073141,
    "VoiceIDList": [
      503060101,
      503060102
    ]
  },
  {
    "TalkSentenceID": 503073162,
    "VoiceIDList": [
      503060101,
      503060102
    ]
  },
  {
    "TalkSentenceID": 503074041,
    "VoiceIDList": [
      503060009,
      503060010
    ]
  },
  {
    "TalkSentenceID": 503075101,
    "VoiceIDList": [
      503060081,
      503060082
    ]
  },
  {
    "TalkSentenceID": 503075121,
    "VoiceIDList": [
      503060087,
      503060088
    ]
  },
  {
    "TalkSentenceID": 503075141,
    "VoiceIDList": [
      503060083,
      503060084
    ]
  },
  {
    "TalkSentenceID": 503075161,
    "VoiceIDList": [
      503060085,
      503060086
    ]
  },
  {
    "TalkSentenceID": 413230301,
    "VoiceIDList": [
      413230701,
      413230702
    ]
  },
  {
    "TalkSentenceID": 413230901,
    "VoiceIDList": [
      413230901,
      413230902
    ]
  },
  {
    "TalkSentenceID": 413230701,
    "VoiceIDList": [
      413230701,
      413230702
    ]
  },
  {
    "TalkSentenceID": 413231101,
    "VoiceIDList": [
      413231101,
      413231102
    ]
  },
  {
    "TalkSentenceID": 413231301,
    "VoiceIDList": [
      413231301,
      413231302
    ]
  },
  {
    "TalkSentenceID": 503082051,
    "VoiceIDList": [
      503090001,
      503090002
    ]
  },
  {
    "TalkSentenceID": 503082301,
    "VoiceIDList": [
      503090003,
      503090004
    ]
  },
  {
    "TalkSentenceID": 503082401,
    "VoiceIDList": [
      503090005,
      503090006
    ]
  },
  {
    "TalkSentenceID": 503082151,
    "VoiceIDList": [
      503090007,
      503090008
    ]
  },
  {
    "TalkSentenceID": 503077101,
    "VoiceIDList": [
      503090009,
      503090010
    ]
  },
  {
    "TalkSentenceID": 503077501,
    "VoiceIDList": [
      503090011,
      503090012
    ]
  },
  {
    "TalkSentenceID": 503077301,
    "VoiceIDList": [
      503090013,
      503090014
    ]
  },
  {
    "TalkSentenceID": 503077701,
    "VoiceIDList": [
      503090015,
      503090016
    ]
  },
  {
    "TalkSentenceID": 503076101,
    "VoiceIDList": [
      503090017,
      503090018
    ]
  },
  {
    "TalkSentenceID": 503076501,
    "VoiceIDList": [
      503090019,
      503090020
    ]
  },
  {
    "TalkSentenceID": 503076301,
    "VoiceIDList": [
      503090021,
      503090022
    ]
  },
  {
    "TalkSentenceID": 503076701,
    "VoiceIDList": [
      503090023,
      503090024
    ]
  },
  {
    "TalkSentenceID": 503078051,
    "VoiceIDList": [
      503090025,
      503090026
    ]
  },
  {
    "TalkSentenceID": 503078301,
    "VoiceIDList": [
      503090027,
      503090028
    ]
  },
  {
    "TalkSentenceID": 503078151,
    "VoiceIDList": [
      503090029,
      503090030
    ]
  },
  {
    "TalkSentenceID": 503078451,
    "VoiceIDList": [
      503090031,
      503090032
    ]
  },
  {
    "TalkSentenceID": 503079401,
    "VoiceIDList": [
      503090033,
      503090034
    ]
  },
  {
    "TalkSentenceID": 503079301,
    "VoiceIDList": [
      503090035,
      503090036
    ]
  },
  {
    "TalkSentenceID": 503079201,
    "VoiceIDList": [
      503090037,
      503090038
    ]
  },
  {
    "TalkSentenceID": 503079051,
    "VoiceIDList": [
      503090039,
      503090040
    ]
  },
  {
    "TalkSentenceID": 503080051,
    "VoiceIDList": [
      503090041,
      503090042
    ]
  },
  {
    "TalkSentenceID": 503080301,
    "VoiceIDList": [
      503090043,
      503090044
    ]
  },
  {
    "TalkSentenceID": 503080151,
    "VoiceIDList": [
      503090045,
      503090046
    ]
  },
  {
    "TalkSentenceID": 503080401,
    "VoiceIDList": [
      503090047,
      503090048
    ]
  },
  {
    "TalkSentenceID": 503081051,
    "VoiceIDList": [
      503090049,
      503090050
    ]
  },
  {
    "TalkSentenceID": 503081301,
    "VoiceIDList": [
      503090051,
      503090052
    ]
  },
  {
    "TalkSentenceID": 503081151,
    "VoiceIDList": [
      503090053,
      503090054
    ]
  },
  {
    "TalkSentenceID": 503081401,
    "VoiceIDList": [
      503090055,
      503090056
    ]
  },
  {
    "TalkSentenceID": 503083151,
    "VoiceIDList": [
      503090057,
      503090058
    ]
  },
  {
    "TalkSentenceID": 503083301,
    "VoiceIDList": [
      503090059,
      503090060
    ]
  },
  {
    "TalkSentenceID": 503083051,
    "VoiceIDList": [
      503090061,
      503090062
    ]
  },
  {
    "TalkSentenceID": 503083401,
    "VoiceIDList": [
      503090063,
      503090064
    ]
  },
  {
    "TalkSentenceID": 503087051,
    "VoiceIDList": [
      503090065,
      503090066
    ]
  },
  {
    "TalkSentenceID": 503087251,
    "VoiceIDList": [
      503090067,
      503090068
    ]
  },
  {
    "TalkSentenceID": 503087151,
    "VoiceIDList": [
      503090069,
      503090070
    ]
  },
  {
    "TalkSentenceID": 503087351,
    "VoiceIDList": [
      503090071,
      503090072
    ]
  },
  {
    "TalkSentenceID": 503084051,
    "VoiceIDList": [
      503090073,
      503090074
    ]
  },
  {
    "TalkSentenceID": 503084301,
    "VoiceIDList": [
      503090075,
      503090076
    ]
  },
  {
    "TalkSentenceID": 503084151,
    "VoiceIDList": [
      503090077,
      503090078
    ]
  },
  {
    "TalkSentenceID": 503084401,
    "VoiceIDList": [
      503090079,
      503090080
    ]
  },
  {
    "TalkSentenceID": 503086051,
    "VoiceIDList": [
      503090081,
      503090082
    ]
  },
  {
    "TalkSentenceID": 503086251,
    "VoiceIDList": [
      503090083,
      503090084
    ]
  },
  {
    "TalkSentenceID": 503086151,
    "VoiceIDList": [
      503090085,
      503090086
    ]
  },
  {
    "TalkSentenceID": 503086351,
    "VoiceIDList": [
      503090087,
      503090088
    ]
  },
  {
    "TalkSentenceID": 503085101,
    "VoiceIDList": [
      503090089,
      503090090
    ]
  },
  {
    "TalkSentenceID": 503085301,
    "VoiceIDList": [
      503090091,
      503090092
    ]
  },
  {
    "TalkSentenceID": 503085201,
    "VoiceIDList": [
      503090093,
      503090094
    ]
  },
  {
    "TalkSentenceID": 503085451,
    "VoiceIDList": [
      503090095,
      503090096
    ]
  },
  {
    "TalkSentenceID": 503090041,
    "VoiceIDList": [
      503101196,
      503101200
    ]
  },
  {
    "TalkSentenceID": 503091101,
    "VoiceIDList": [
      503101201,
      503101205
    ]
  },
  {
    "TalkSentenceID": 503091121,
    "VoiceIDList": [
      503101203,
      503101207
    ]
  },
  {
    "TalkSentenceID": 503091161,
    "VoiceIDList": [
      503101202,
      503101206
    ]
  },
  {
    "TalkSentenceID": 503091181,
    "VoiceIDList": [
      503101204,
      503101208
    ]
  },
  {
    "TalkSentenceID": 503092101,
    "VoiceIDList": [
      503101209,
      503101213
    ]
  },
  {
    "TalkSentenceID": 503092121,
    "VoiceIDList": [
      503101211,
      503101215
    ]
  },
  {
    "TalkSentenceID": 503092161,
    "VoiceIDList": [
      503101210,
      503101214
    ]
  },
  {
    "TalkSentenceID": 503092181,
    "VoiceIDList": [
      503101212,
      503101216
    ]
  },
  {
    "TalkSentenceID": 503093101,
    "VoiceIDList": [
      503090103,
      503090104
    ]
  },
  {
    "TalkSentenceID": 503094101,
    "VoiceIDList": [
      503090105,
      503090106
    ]
  },
  {
    "TalkSentenceID": 503095101,
    "VoiceIDList": [
      503090107,
      503090108
    ]
  },
  {
    "TalkSentenceID": 503090109,
    "VoiceIDList": [
      503090109,
      503090110
    ]
  },
  {
    "TalkSentenceID": 502010091,
    "VoiceIDList": [
      502450101,
      502450102
    ]
  },
  {
    "TalkSentenceID": 502030091,
    "VoiceIDList": [
      502450103,
      502450104
    ]
  },
  {
    "TalkSentenceID": 502040091,
    "VoiceIDList": [
      502450105,
      502450106
    ]
  },
  {
    "TalkSentenceID": 502070091,
    "VoiceIDList": [
      502450107,
      502450108
    ]
  },
  {
    "TalkSentenceID": 502020091,
    "VoiceIDList": [
      502450109,
      502450110
    ]
  },
  {
    "TalkSentenceID": 502080091,
    "VoiceIDList": [
      502450111,
      502450112
    ]
  },
  {
    "TalkSentenceID": 502050091,
    "VoiceIDList": [
      502450113,
      502450114
    ]
  },
  {
    "TalkSentenceID": 502060091,
    "VoiceIDList": [
      502450115,
      502450116
    ]
  },
  {
    "TalkSentenceID": 502090091,
    "VoiceIDList": [
      502450117,
      502450118
    ]
  },
  {
    "TalkSentenceID": 502100091,
    "VoiceIDList": [
      502450119,
      502450120
    ]
  },
  {
    "TalkSentenceID": 502170191,
    "VoiceIDList": [
      502110001,
      502110002
    ]
  },
  {
    "TalkSentenceID": 502110691,
    "VoiceIDList": [
      502110003,
      502110004
    ]
  },
  {
    "TalkSentenceID": 502120591,
    "VoiceIDList": [
      502110005,
      502110006
    ]
  },
  {
    "TalkSentenceID": 502130091,
    "VoiceIDList": [
      502110007,
      502110008
    ]
  },
  {
    "TalkSentenceID": 502140091,
    "VoiceIDList": [
      502110009,
      502110010
    ]
  },
  {
    "TalkSentenceID": 502150191,
    "VoiceIDList": [
      502110011
    ]
  },
  {
    "TalkSentenceID": 502180191,
    "VoiceIDList": [
      502110013,
      502110014
    ]
  },
  {
    "TalkSentenceID": 502190191,
    "VoiceIDList": [
      502110015,
      502110016
    ]
  },
  {
    "TalkSentenceID": 502200591,
    "VoiceIDList": [
      502110017,
      502110018
    ]
  },
  {
    "TalkSentenceID": 502160191,
    "VoiceIDList": [
      502110019,
      502110020
    ]
  },
  {
    "TalkSentenceID": 502210191,
    "VoiceIDList": [
      502110021,
      502110022
    ]
  },
  {
    "TalkSentenceID": 502220191,
    "VoiceIDList": [
      502110023,
      502110024
    ]
  },
  {
    "TalkSentenceID": 817101401,
    "VoiceIDList": [
      502110025,
      502110026
    ]
  },
  {
    "TalkSentenceID": 802330401,
    "VoiceIDList": [
      502110027,
      502110028
    ]
  },
  {
    "TalkSentenceID": 413240202,
    "VoiceIDList": [
      503101001,
      503101002
    ]
  },
  {
    "TalkSentenceID": 413240902,
    "VoiceIDList": [
      503101003,
      503101007
    ]
  },
  {
    "TalkSentenceID": 413241102,
    "VoiceIDList": [
      503101004,
      503101008
    ]
  },
  {
    "TalkSentenceID": 413241302,
    "VoiceIDList": [
      503101005,
      503101009
    ]
  },
  {
    "TalkSentenceID": 413241502,
    "VoiceIDList": [
      503101006,
      503101010
    ]
  },
  {
    "TalkSentenceID": 503097602,
    "VoiceIDList": [
      503101013,
      503101017
    ]
  },
  {
    "TalkSentenceID": 503097906,
    "VoiceIDList": [
      503101014,
      503101018
    ]
  },
  {
    "TalkSentenceID": 503097402,
    "VoiceIDList": [
      503101015,
      503101019
    ]
  },
  {
    "TalkSentenceID": 503097102,
    "VoiceIDList": [
      503101016,
      503101020
    ]
  },
  {
    "TalkSentenceID": 503104301,
    "VoiceIDList": [
      503101023,
      503101027
    ]
  },
  {
    "TalkSentenceID": 503104501,
    "VoiceIDList": [
      503101024,
      503101028
    ]
  },
  {
    "TalkSentenceID": 503104401,
    "VoiceIDList": [
      503101025,
      503101029
    ]
  },
  {
    "TalkSentenceID": 503104601,
    "VoiceIDList": [
      503101026,
      503101030
    ]
  },
  {
    "TalkSentenceID": 503105301,
    "VoiceIDList": [
      503101033,
      503101037
    ]
  },
  {
    "TalkSentenceID": 503105501,
    "VoiceIDList": [
      503101034,
      503101038
    ]
  },
  {
    "TalkSentenceID": 503105401,
    "VoiceIDList": [
      503101035,
      503101039
    ]
  },
  {
    "TalkSentenceID": 503105601,
    "VoiceIDList": [
      503101036,
      503101040
    ]
  },
  {
    "TalkSentenceID": 503098302,
    "VoiceIDList": [
      503101041,
      503101045
    ]
  },
  {
    "TalkSentenceID": 503098152,
    "VoiceIDList": [
      503101042,
      503101046
    ]
  },
  {
    "TalkSentenceID": 503098702,
    "VoiceIDList": [
      503101043,
      503101047
    ]
  },
  {
    "TalkSentenceID": 503098502,
    "VoiceIDList": [
      503101044,
      503101048
    ]
  },
  {
    "TalkSentenceID": 503099102,
    "VoiceIDList": [
      503101049,
      503101053
    ]
  },
  {
    "TalkSentenceID": 503099802,
    "VoiceIDList": [
      503101050,
      503101054
    ]
  },
  {
    "TalkSentenceID": 503099302,
    "VoiceIDList": [
      503101051,
      503101055
    ]
  },
  {
    "TalkSentenceID": 503099602,
    "VoiceIDList": [
      503101052,
      503101056
    ]
  },
  {
    "TalkSentenceID": 503102401,
    "VoiceIDList": [
      503101057,
      503101061
    ]
  },
  {
    "TalkSentenceID": 503102601,
    "VoiceIDList": [
      503101058,
      503101062
    ]
  },
  {
    "TalkSentenceID": 503102501,
    "VoiceIDList": [
      503101059,
      503101063
    ]
  },
  {
    "TalkSentenceID": 503102301,
    "VoiceIDList": [
      503101060,
      503101064
    ]
  },
  {
    "TalkSentenceID": 503101301,
    "VoiceIDList": [
      503101066,
      503101070
    ]
  },
  {
    "TalkSentenceID": 503101401,
    "VoiceIDList": [
      503101065,
      503101069
    ]
  },
  {
    "TalkSentenceID": 503101501,
    "VoiceIDList": [
      503101067,
      503101071
    ]
  },
  {
    "TalkSentenceID": 503101601,
    "VoiceIDList": [
      503101068,
      503101072
    ]
  },
  {
    "TalkSentenceID": 503103301,
    "VoiceIDList": [
      503101073,
      503101077
    ]
  },
  {
    "TalkSentenceID": 503103501,
    "VoiceIDList": [
      503101074,
      503101078
    ]
  },
  {
    "TalkSentenceID": 503103401,
    "VoiceIDList": [
      503101075,
      503101079
    ]
  },
  {
    "TalkSentenceID": 503103601,
    "VoiceIDList": [
      503101076,
      503101080
    ]
  },
  {
    "TalkSentenceID": 503113301,
    "VoiceIDList": [
      503101089,
      503101093
    ]
  },
  {
    "TalkSentenceID": 503113501,
    "VoiceIDList": [
      503101090,
      503101094
    ]
  },
  {
    "TalkSentenceID": 503113401,
    "VoiceIDList": [
      503101091,
      503101095
    ]
  },
  {
    "TalkSentenceID": 503113601,
    "VoiceIDList": [
      503101092,
      503101096
    ]
  },
  {
    "TalkSentenceID": 503111301,
    "VoiceIDList": [
      503101097,
      503101101
    ]
  },
  {
    "TalkSentenceID": 503111501,
    "VoiceIDList": [
      503101098,
      503101102
    ]
  },
  {
    "TalkSentenceID": 503111401,
    "VoiceIDList": [
      503101099,
      503101103
    ]
  },
  {
    "TalkSentenceID": 503111601,
    "VoiceIDList": [
      503101100,
      503101104
    ]
  },
  {
    "TalkSentenceID": 503112301,
    "VoiceIDList": [
      503101113,
      503101117
    ]
  },
  {
    "TalkSentenceID": 503112501,
    "VoiceIDList": [
      503101114,
      503101118
    ]
  },
  {
    "TalkSentenceID": 503112401,
    "VoiceIDList": [
      503101115,
      503101119
    ]
  },
  {
    "TalkSentenceID": 503112601,
    "VoiceIDList": [
      503101116,
      503101120
    ]
  },
  {
    "TalkSentenceID": 503101058,
    "VoiceIDList": [
      503101121,
      503101125
    ]
  },
  {
    "TalkSentenceID": 503101059,
    "VoiceIDList": [
      503101122,
      503101126
    ]
  },
  {
    "TalkSentenceID": 503101060,
    "VoiceIDList": [
      503101123,
      503101127
    ]
  },
  {
    "TalkSentenceID": 802610901,
    "VoiceIDList": [
      503101124,
      503101128
    ]
  },
  {
    "TalkSentenceID": 503106101,
    "VoiceIDList": [
      503101129,
      503101133
    ]
  },
  {
    "TalkSentenceID": 503101063,
    "VoiceIDList": [
      503101130,
      503101134
    ]
  },
  {
    "TalkSentenceID": 503101064,
    "VoiceIDList": [
      503101131,
      503101135
    ]
  },
  {
    "TalkSentenceID": 503101065,
    "VoiceIDList": [
      503101132,
      503101136
    ]
  },
  {
    "TalkSentenceID": 503107101,
    "VoiceIDList": [
      503101137,
      503101141
    ]
  },
  {
    "TalkSentenceID": 503101067,
    "VoiceIDList": [
      503101138,
      503101142
    ]
  },
  {
    "TalkSentenceID": 503101068,
    "VoiceIDList": [
      503101139,
      503101143
    ]
  },
  {
    "TalkSentenceID": 503101069,
    "VoiceIDList": [
      503101140,
      503101144
    ]
  },
  {
    "TalkSentenceID": 503108101,
    "VoiceIDList": [
      503101145,
      503101149
    ]
  },
  {
    "TalkSentenceID": 503101071,
    "VoiceIDList": [
      503101146,
      503101150
    ]
  },
  {
    "TalkSentenceID": 503101072,
    "VoiceIDList": [
      503101147,
      503101151
    ]
  },
  {
    "TalkSentenceID": 503101073,
    "VoiceIDList": [
      503101148,
      503101152
    ]
  },
  {
    "TalkSentenceID": 503109301,
    "VoiceIDList": [
      503101153,
      503101157
    ]
  },
  {
    "TalkSentenceID": 503109601,
    "VoiceIDList": [
      503101154,
      503101158
    ]
  },
  {
    "TalkSentenceID": 503109501,
    "VoiceIDList": [
      503101155,
      503101159
    ]
  },
  {
    "TalkSentenceID": 503109401,
    "VoiceIDList": [
      503101156,
      503101160
    ]
  },
  {
    "TalkSentenceID": 503110301,
    "VoiceIDList": [
      503101161,
      503101165
    ]
  },
  {
    "TalkSentenceID": 503110601,
    "VoiceIDList": [
      503101162,
      503101166
    ]
  },
  {
    "TalkSentenceID": 503110501,
    "VoiceIDList": [
      503101163,
      503101167
    ]
  },
  {
    "TalkSentenceID": 503110401,
    "VoiceIDList": [
      503101164,
      503101168
    ]
  },
  {
    "TalkSentenceID": 503114001,
    "VoiceIDList": [
      503114006,
      503114007
    ]
  },
  {
    "TalkSentenceID": 503114101,
    "VoiceIDList": [
      503114006,
      503114007
    ]
  },
  {
    "TalkSentenceID": 503115001,
    "VoiceIDList": [
      503114004,
      503114005
    ]
  },
  {
    "TalkSentenceID": 503116001,
    "VoiceIDList": [
      503114002,
      503114003
    ]
  },
  {
    "TalkSentenceID": 504014002,
    "VoiceIDList": [
      504000201,
      504000202
    ]
  },
  {
    "TalkSentenceID": 504015002,
    "VoiceIDList": [
      504000203,
      504000206
    ]
  },
  {
    "TalkSentenceID": 504015204,
    "VoiceIDList": [
      504000204,
      504000207
    ]
  },
  {
    "TalkSentenceID": 504015203,
    "VoiceIDList": [
      504000205,
      504000208
    ]
  },
  {
    "TalkSentenceID": 504016002,
    "VoiceIDList": [
      504000209,
      504000210
    ]
  },
  {
    "TalkSentenceID": 504017002,
    "VoiceIDList": [
      504000211,
      504000212
    ]
  },
  {
    "TalkSentenceID": 504002091,
    "VoiceIDList": [
      504000215,
      504000216
    ]
  },
  {
    "TalkSentenceID": 504003091,
    "VoiceIDList": [
      504000217,
      504000218
    ]
  },
  {
    "TalkSentenceID": 504004091,
    "VoiceIDList": [
      504000219,
      504000220
    ]
  },
  {
    "TalkSentenceID": 504005091,
    "VoiceIDList": [
      504000221,
      504000222
    ]
  },
  {
    "TalkSentenceID": 504006091,
    "VoiceIDList": [
      504000223,
      504000224
    ]
  },
  {
    "TalkSentenceID": 504034093,
    "VoiceIDList": [
      504000225,
      504000226
    ]
  },
  {
    "TalkSentenceID": 504035091,
    "VoiceIDList": [
      504000227,
      504000228
    ]
  },
  {
    "TalkSentenceID": 504001091,
    "VoiceIDList": [
      504000229,
      504000230
    ]
  },
  {
    "TalkSentenceID": 504013094,
    "VoiceIDList": [
      504000231,
      504000232
    ]
  },
  {
    "TalkSentenceID": 504037201,
    "VoiceIDList": [
      504000233,
      504000234
    ]
  },
  {
    "TalkSentenceID": 504007091,
    "VoiceIDList": [
      504000235,
      504000236
    ]
  },
  {
    "TalkSentenceID": 504018102,
    "VoiceIDList": [
      504000239,
      504000240
    ]
  },
  {
    "TalkSentenceID": 504019102,
    "VoiceIDList": [
      504000241,
      504000242
    ]
  },
  {
    "TalkSentenceID": 504038101,
    "VoiceIDList": [
      504000243,
      504000244
    ]
  },
  {
    "TalkSentenceID": 504008091,
    "VoiceIDList": [
      504000245,
      504000246
    ]
  },
  {
    "TalkSentenceID": 504038301,
    "VoiceIDList": [
      504000247,
      504000248
    ]
  },
  {
    "TalkSentenceID": 504021002,
    "VoiceIDList": [
      504000249,
      504000250
    ]
  },
  {
    "TalkSentenceID": 504022002,
    "VoiceIDList": [
      504000251,
      504000252
    ]
  },
  {
    "TalkSentenceID": 504020103,
    "VoiceIDList": [
      504000253,
      504000254
    ]
  },
  {
    "TalkSentenceID": 504023102,
    "VoiceIDList": [
      504000255,
      504000256
    ]
  },
  {
    "TalkSentenceID": 504024102,
    "VoiceIDList": [
      504000257,
      504000258
    ]
  },
  {
    "TalkSentenceID": 504009091,
    "VoiceIDList": [
      504000259,
      504000260
    ]
  },
  {
    "TalkSentenceID": 504038901,
    "VoiceIDList": [
      504000271,
      504000272
    ]
  },
  {
    "TalkSentenceID": 504039201,
    "VoiceIDList": [
      504000275,
      504000276
    ]
  },
  {
    "TalkSentenceID": 504025102,
    "VoiceIDList": [
      504000277,
      504000278
    ]
  },
  {
    "TalkSentenceID": 504026102,
    "VoiceIDList": [
      504000279,
      504000280
    ]
  },
  {
    "TalkSentenceID": 504039501,
    "VoiceIDList": [
      504000281,
      504000282
    ]
  },
  {
    "TalkSentenceID": 504039801,
    "VoiceIDList": [
      504000283,
      504000284
    ]
  },
  {
    "TalkSentenceID": 504040101,
    "VoiceIDList": [
      504000285,
      504000286
    ]
  },
  {
    "TalkSentenceID": 504040401,
    "VoiceIDList": [
      504000287,
      504000288
    ]
  },
  {
    "TalkSentenceID": 504028302,
    "VoiceIDList": [
      504000289,
      504000290
    ]
  },
  {
    "TalkSentenceID": 504040701,
    "VoiceIDList": [
      504000291,
      504000292
    ]
  },
  {
    "TalkSentenceID": 504040901,
    "VoiceIDList": [
      504000293,
      504000294
    ]
  },
  {
    "TalkSentenceID": 504029102,
    "VoiceIDList": [
      504000297,
      504000298
    ]
  },
  {
    "TalkSentenceID": 504036091,
    "VoiceIDList": [
      504000299,
      504000300
    ]
  },
  {
    "TalkSentenceID": 504041201,
    "VoiceIDList": [
      504000301,
      504000302
    ]
  },
  {
    "TalkSentenceID": 504041501,
    "VoiceIDList": [
      504000305,
      504000306
    ]
  },
  {
    "TalkSentenceID": 504010091,
    "VoiceIDList": [
      504000307,
      504000308
    ]
  },
  {
    "TalkSentenceID": 504041801,
    "VoiceIDList": [
      504000309,
      504000310
    ]
  },
  {
    "TalkSentenceID": 504042101,
    "VoiceIDList": [
      504000311,
      504000312
    ]
  },
  {
    "TalkSentenceID": 504042501,
    "VoiceIDList": [
      504000313,
      504000314
    ]
  },
  {
    "TalkSentenceID": 504042801,
    "VoiceIDList": [
      504000315,
      504000316
    ]
  },
  {
    "TalkSentenceID": 504011091,
    "VoiceIDList": [
      504000317,
      504000318
    ]
  },
  {
    "TalkSentenceID": 504012091,
    "VoiceIDList": [
      504000319,
      504000320
    ]
  },
  {
    "TalkSentenceID": 504043101,
    "VoiceIDList": [
      504000321,
      504000322
    ]
  },
  {
    "TalkSentenceID": 504043401,
    "VoiceIDList": [
      504000323,
      504000324
    ]
  },
  {
    "TalkSentenceID": 504043801,
    "VoiceIDList": [
      504000325,
      504000326
    ]
  },
  {
    "TalkSentenceID": 504030102,
    "VoiceIDList": [
      504000329,
      504000330
    ]
  },
  {
    "TalkSentenceID": 504031102,
    "VoiceIDList": [
      504000331,
      504000332
    ]
  },
  {
    "TalkSentenceID": 504032102,
    "VoiceIDList": [
      504000333,
      504000334
    ]
  },
  {
    "TalkSentenceID": 504044101,
    "VoiceIDList": [
      504000335,
      504000336
    ]
  },
  {
    "TalkSentenceID": 504044401,
    "VoiceIDList": [
      504000337,
      504000338
    ]
  },
  {
    "TalkSentenceID": 504044701,
    "VoiceIDList": [
      504000339,
      504000340
    ]
  }
]