[
  {
    "ID": 1,
    "StoryList": [
      101,
      102
    ],
    "Name": {
      "Hash": -601119168
    },
    "MainCatalogTitle": {
      "Hash": 587688233
    },
    "SubCatalogTitle": {
      "Hash": -1230525712
    },
    "StarUnlockToast": {
      "Hash": 371857150
    },
    "MaxLevel": 6,
    "PrefabPath": "UI/TarotBook/Card/TarotBookCard01Element.prefab",
    "TabIconPath": "SpriteOutput/TarotBook/Symbol/TarotBookBookSymbolIcon01.png",
    "RoundIconPath": "SpriteOutput/TarotBook/TarotCard/RoundIcon/TarotBookRoundCardIcon01.png",
    "RectIconPath": "SpriteOutput/TarotBook/TarotCard/CatalogueIcon/TarotBookRectCardIcon01.png",
    "Position": 1
  },
  {
    "ID": 7,
    "StoryList": [
      701
    ],
    "Tag": 1,
    "Name": {
      "Hash": -601119170
    },
    "MainCatalogTitle": {
      "Hash": 587688231
    },
    "SubCatalogTitle": {
      "Hash": -423956658
    },
    "StarUnlockToast": {
      "Hash": 371857150
    },
    "MaxLevel": 6,
    "PrefabPath": "UI/TarotBook/Card/TarotBookCard07Element.prefab",
    "TabIconPath": "SpriteOutput/TarotBook/Symbol/TarotBookBookSymbolIcon07.png",
    "RoundIconPath": "SpriteOutput/TarotBook/TarotCard/RoundIcon/TarotBookRoundCardIcon07.png",
    "RectIconPath": "SpriteOutput/TarotBook/TarotCard/CatalogueIcon/TarotBookRectCardIcon07.png",
    "Position": 7
  },
  {
    "ID": 9,
    "StoryList": [
      901,
      902
    ],
    "Name": {
      "Hash": -601119160
    },
    "MainCatalogTitle": {
      "Hash": 587688241
    },
    "SubCatalogTitle": {
      "Hash": -874295352
    },
    "StarUnlockToast": {
      "Hash": 371857150
    },
    "MaxLevel": 6,
    "PrefabPath": "UI/TarotBook/Card/TarotBookCard09Element.prefab",
    "TabIconPath": "SpriteOutput/TarotBook/Symbol/TarotBookBookSymbolIcon09.png",
    "RoundIconPath": "SpriteOutput/TarotBook/TarotCard/RoundIcon/TarotBookRoundCardIcon09.png",
    "RectIconPath": "SpriteOutput/TarotBook/TarotCard/CatalogueIcon/TarotBookRectCardIcon09.png",
    "Position": 9
  },
  {
    "ID": 10,
    "StoryList": [
      1001
    ],
    "Name": {
      "Hash": 1823335088
    },
    "MainCatalogTitle": {
      "Hash": -1386184839
    },
    "SubCatalogTitle": {
      "Hash": -1050893504
    },
    "StarUnlockToast": {
      "Hash": 371857150
    },
    "MaxLevel": 6,
    "PrefabPath": "UI/TarotBook/Card/TarotBookCard10Element.prefab",
    "TabIconPath": "SpriteOutput/TarotBook/Symbol/TarotBookBookSymbolIcon10.png",
    "RoundIconPath": "SpriteOutput/TarotBook/TarotCard/RoundIcon/TarotBookRoundCardIcon10.png",
    "RectIconPath": "SpriteOutput/TarotBook/TarotCard/CatalogueIcon/TarotBookRectCardIcon10.png",
    "Position": 10
  },
  {
    "ID": 11,
    "StoryList": [
      1101
    ],
    "Name": {
      "Hash": 257251147
    },
    "MainCatalogTitle": {
      "Hash": 1342698516
    },
    "SubCatalogTitle": {
      "Hash": -1050893505
    },
    "StarUnlockToast": {
      "Hash": 371857150
    },
    "MaxLevel": 6,
    "PrefabPath": "UI/TarotBook/Card/TarotBookCard11Element.prefab",
    "TabIconPath": "SpriteOutput/TarotBook/Symbol/TarotBookBookSymbolIcon11.png",
    "RoundIconPath": "SpriteOutput/TarotBook/TarotCard/RoundIcon/TarotBookRoundCardIcon11.png",
    "RectIconPath": "SpriteOutput/TarotBook/TarotCard/CatalogueIcon/TarotBookRectCardIcon11.png",
    "Position": 11
  }
]