[
  {
    "ID": 101010,
    "GroupID": 100,
    "CoinCost": 1000,
    "SortID": 1,
    "StaticPropIDList": [
      10003
    ],
    "HasPreview": true,
    "HasCutScene": true,
    "Name": {
      "Hash": -1906825118
    },
    "ImgPath": "SpriteOutput/Quest/TrainParty/BuildAreaIcon/BuildAreaIcon6.png"
  },
  {
    "ID": 101011,
    "GroupID": 100,
    "CoinCost": 12000,
    "SortID": 2,
    "StaticPropIDList": [
      10001,
      11009
    ],
    "HasPreview": true,
    "HasCutScene": true,
    "Name": {
      "Hash": 822058237
    },
    "ImgPath": "SpriteOutput/Quest/TrainParty/BuildAreaIcon/BuildAreaIcon7.png"
  },
  {
    "ID": 101012,
    "GroupID": 101,
    "CoinCost": 2000,
    "SortID": 3,
    "StaticPropIDList": [
      11001,
      11006
    ],
    "HasPreview": true,
    "HasCutScene": true,
    "Name": {
      "Hash": -744025704
    },
    "ImgPath": "SpriteOutput/Quest/TrainParty/BuildAreaIcon/BuildAreaIcon7.png"
  },
  {
    "ID": 101013,
    "GroupID": 102,
    "CoinCost": 2000,
    "SortID": 4,
    "StaticPropIDList": [
      11003
    ],
    "HasPreview": true,
    "Name": {
      "Hash": 1984857651
    },
    "ImgPath": "SpriteOutput/Quest/TrainParty/BuildAreaIcon/BuildAreaIcon7.png"
  },
  {
    "ID": 101014,
    "GroupID": 102,
    "CoinCost": 6000,
    "SortID": 5,
    "StaticPropIDList": [
      11004
    ],
    "HasPreview": true,
    "Name": {
      "Hash": 62543350
    },
    "ImgPath": "SpriteOutput/Quest/TrainParty/BuildAreaIcon/BuildAreaIcon7.png"
  },
  {
    "ID": 101015,
    "GroupID": 103,
    "CoinCost": 6000,
    "SortID": 6,
    "StaticPropIDList": [
      11005
    ],
    "HasPreview": true,
    "Name": {
      "Hash": -1503540591
    },
    "ImgPath": "SpriteOutput/Quest/TrainParty/BuildAreaIcon/BuildAreaIcon7.png"
  },
  {
    "ID": 101016,
    "GroupID": 102,
    "CoinCost": 6000,
    "SortID": 7,
    "StaticPropIDList": [
      11002
    ],
    "HasPreview": true,
    "Name": {
      "Hash": 1225342764
    },
    "ImgPath": "SpriteOutput/Quest/TrainParty/BuildAreaIcon/BuildAreaIcon7.png"
  },
  {
    "ID": 101017,
    "GroupID": 103,
    "CoinCost": 30000,
    "SortID": 8,
    "StaticPropIDList": [
      11007
    ],
    "HasPreview": true,
    "HasCutScene": true,
    "Name": {
      "Hash": -340741177
    },
    "ImgPath": "SpriteOutput/Quest/TrainParty/BuildAreaIcon/BuildAreaIcon7.png"
  },
  {
    "ID": 101018,
    "GroupID": 103,
    "CoinCost": 12000,
    "SortID": 9,
    "StaticPropIDList": [
      11008
    ],
    "HasPreview": true,
    "Name": {
      "Hash": 2031911818
    },
    "ImgPath": "SpriteOutput/Quest/TrainParty/BuildAreaIcon/BuildAreaIcon7.png"
  },
  {
    "ID": 201010,
    "GroupID": 200,
    "CoinCost": 1000,
    "SortID": 10,
    "StaticPropIDList": [
      10007
    ],
    "HasPreview": true,
    "HasCutScene": true,
    "Name": {
      "Hash": -1906830433
    },
    "ImgPath": "SpriteOutput/Quest/TrainParty/BuildAreaIcon/BuildAreaIcon2.png"
  },
  {
    "ID": 201011,
    "GroupID": 200,
    "CoinCost": 1000,
    "SortID": 11,
    "StaticPropIDList": [
      12001,
      12005,
      12009
    ],
    "HasPreview": true,
    "Name": {
      "Hash": 822052922
    },
    "ImgPath": "SpriteOutput/Quest/TrainParty/BuildAreaIcon/BuildAreaIcon7.png"
  },
  {
    "ID": 201013,
    "GroupID": 202,
    "CoinCost": 1000,
    "SortID": 12,
    "StaticPropIDList": [
      12007,
      10009,
      10010
    ],
    "HasPreview": true,
    "HasCutScene": true,
    "Name": {
      "Hash": 1984852336
    },
    "ImgPath": "SpriteOutput/Quest/TrainParty/BuildAreaIcon/BuildAreaIcon7.png"
  },
  {
    "ID": 201014,
    "GroupID": 202,
    "CoinCost": 1000,
    "SortID": 13,
    "StaticPropIDList": [
      12002,
      12003,
      12013
    ],
    "HasPreview": true,
    "Name": {
      "Hash": 62538035
    },
    "ImgPath": "SpriteOutput/Quest/TrainParty/BuildAreaIcon/BuildAreaIcon7.png"
  },
  {
    "ID": 201016,
    "GroupID": 203,
    "CoinCost": 2000,
    "SortID": 14,
    "StaticPropIDList": [
      12004
    ],
    "HasPreview": true,
    "Name": {
      "Hash": 1225337449
    },
    "ImgPath": "SpriteOutput/Quest/TrainParty/BuildAreaIcon/BuildAreaIcon7.png"
  },
  {
    "ID": 201017,
    "GroupID": 202,
    "CoinCost": 1000,
    "SortID": 15,
    "StaticPropIDList": [
      12008,
      12006
    ],
    "HasPreview": true,
    "Name": {
      "Hash": -340746492
    },
    "ImgPath": "SpriteOutput/Quest/TrainParty/BuildAreaIcon/BuildAreaIcon7.png"
  },
  {
    "ID": 201021,
    "GroupID": 201,
    "SortID": 17,
    "StaticPropIDList": [
      12011
    ],
    "HasPreview": true,
    "Name": {
      "Hash": 822052925
    },
    "ImgPath": "SpriteOutput/Quest/TrainParty/BuildAreaIcon/BuildAreaIcon7.png"
  },
  {
    "ID": 201022,
    "GroupID": 203,
    "CoinCost": 2000,
    "SortID": 18,
    "StaticPropIDList": [
      12012
    ],
    "HasPreview": true,
    "Name": {
      "Hash": -744031016
    },
    "ImgPath": "SpriteOutput/Quest/TrainParty/BuildAreaIcon/BuildAreaIcon7.png"
  },
  {
    "ID": 301011,
    "GroupID": 300,
    "CoinCost": 2000,
    "SortID": 18,
    "StaticPropIDList": [
      10014
    ],
    "HasPreview": true,
    "HasCutScene": true,
    "Name": {
      "Hash": 822056059
    },
    "ImgPath": "SpriteOutput/Quest/TrainParty/BuildAreaIcon/BuildAreaIcon3.png"
  },
  {
    "ID": 301012,
    "GroupID": 301,
    "CoinCost": 6000,
    "SortID": 19,
    "StaticPropIDList": [
      13002
    ],
    "HasPreview": true,
    "Name": {
      "Hash": -744027882
    },
    "ImgPath": "SpriteOutput/Quest/TrainParty/BuildAreaIcon/BuildAreaIcon7.png"
  },
  {
    "ID": 301013,
    "GroupID": 300,
    "CoinCost": 6000,
    "SortID": 20,
    "StaticPropIDList": [
      13003,
      13007,
      10002,
      13001
    ],
    "HasPreview": true,
    "HasCutScene": true,
    "Name": {
      "Hash": 1984855473
    },
    "ImgPath": "SpriteOutput/Quest/TrainParty/BuildAreaIcon/BuildAreaIcon7.png"
  },
  {
    "ID": 301014,
    "GroupID": 301,
    "CoinCost": 6000,
    "SortID": 21,
    "StaticPropIDList": [
      13004
    ],
    "HasPreview": true,
    "Name": {
      "Hash": 62541172
    },
    "ImgPath": "SpriteOutput/Quest/TrainParty/BuildAreaIcon/BuildAreaIcon7.png"
  },
  {
    "ID": 301015,
    "GroupID": 301,
    "CoinCost": 12000,
    "SortID": 22,
    "StaticPropIDList": [
      13005
    ],
    "HasPreview": true,
    "Name": {
      "Hash": -1503542769
    },
    "ImgPath": "SpriteOutput/Quest/TrainParty/BuildAreaIcon/BuildAreaIcon7.png"
  },
  {
    "ID": 401010,
    "GroupID": 400,
    "CoinCost": 6000,
    "SortID": 23,
    "StaticPropIDList": [
      10004
    ],
    "HasPreview": true,
    "HasCutScene": true,
    "Name": {
      "Hash": -1906823899
    },
    "ImgPath": "SpriteOutput/Quest/TrainParty/BuildAreaIcon/BuildAreaIcon1.png"
  },
  {
    "ID": 401011,
    "GroupID": 401,
    "CoinCost": 6000,
    "SortID": 24,
    "StaticPropIDList": [
      14002,
      14003,
      14004
    ],
    "HasPreview": true,
    "Name": {
      "Hash": 822059456
    },
    "ImgPath": "SpriteOutput/Quest/TrainParty/BuildAreaIcon/BuildAreaIcon7.png"
  },
  {
    "ID": 401012,
    "GroupID": 400,
    "CoinCost": 12000,
    "SortID": 25,
    "StaticPropIDList": [
      14001,
      10008
    ],
    "HasPreview": true,
    "HasCutScene": true,
    "Name": {
      "Hash": -744024485
    },
    "ImgPath": "SpriteOutput/Quest/TrainParty/BuildAreaIcon/BuildAreaIcon7.png"
  },
  {
    "ID": 401015,
    "GroupID": 402,
    "CoinCost": 12000,
    "SortID": 26,
    "StaticPropIDList": [
      14005
    ],
    "HasPreview": true,
    "Name": {
      "Hash": -1503539372
    },
    "ImgPath": "SpriteOutput/Quest/TrainParty/BuildAreaIcon/BuildAreaIcon7.png"
  },
  {
    "ID": 401016,
    "GroupID": 401,
    "CoinCost": 30000,
    "SortID": 27,
    "StaticPropIDList": [
      14006,
      14007
    ],
    "HasPreview": true,
    "HasCutScene": true,
    "Name": {
      "Hash": 1225343983
    },
    "ImgPath": "SpriteOutput/Quest/TrainParty/BuildAreaIcon/BuildAreaIcon7.png"
  },
  {
    "ID": 401018,
    "GroupID": 401,
    "CoinCost": 6000,
    "SortID": 28,
    "StaticPropIDList": [
      14008,
      14009
    ],
    "HasPreview": true,
    "Name": {
      "Hash": 2031913037
    },
    "ImgPath": "SpriteOutput/Quest/TrainParty/BuildAreaIcon/BuildAreaIcon7.png"
  },
  {
    "ID": 401020,
    "GroupID": 402,
    "CoinCost": 6000,
    "SortID": 29,
    "StaticPropIDList": [
      14010,
      14011
    ],
    "HasPreview": true,
    "Name": {
      "Hash": -1906823900
    },
    "ImgPath": "SpriteOutput/Quest/TrainParty/BuildAreaIcon/BuildAreaIcon7.png"
  },
  {
    "ID": 501010,
    "GroupID": 500,
    "CoinCost": 12000,
    "SortID": 30,
    "StaticPropIDList": [
      10006
    ],
    "HasPreview": true,
    "HasCutScene": true,
    "Name": {
      "Hash": -1906820762
    },
    "ImgPath": "SpriteOutput/Quest/TrainParty/BuildAreaIcon/BuildAreaIcon4.png"
  },
  {
    "ID": 501011,
    "GroupID": 500,
    "CoinCost": 12000,
    "SortID": 31,
    "StaticPropIDList": [
      15001,
      10011
    ],
    "HasPreview": true,
    "HasCutScene": true,
    "Name": {
      "Hash": 822062593
    },
    "ImgPath": "SpriteOutput/Quest/TrainParty/BuildAreaIcon/BuildAreaIcon7.png"
  },
  {
    "ID": 501013,
    "GroupID": 501,
    "CoinCost": 12000,
    "SortID": 32,
    "StaticPropIDList": [
      15002
    ],
    "HasPreview": true,
    "Name": {
      "Hash": 1984862007
    },
    "ImgPath": "SpriteOutput/Quest/TrainParty/BuildAreaIcon/BuildAreaIcon7.png"
  },
  {
    "ID": 501014,
    "GroupID": 501,
    "CoinCost": 12000,
    "SortID": 33,
    "StaticPropIDList": [
      15005
    ],
    "HasPreview": true,
    "Name": {
      "Hash": 62547706
    },
    "ImgPath": "SpriteOutput/Quest/TrainParty/BuildAreaIcon/BuildAreaIcon7.png"
  },
  {
    "ID": 501015,
    "GroupID": 502,
    "CoinCost": 12000,
    "SortID": 34,
    "StaticPropIDList": [
      15006
    ],
    "HasPreview": true,
    "Name": {
      "Hash": -1503536235
    },
    "ImgPath": "SpriteOutput/Quest/TrainParty/BuildAreaIcon/BuildAreaIcon7.png"
  },
  {
    "ID": 501016,
    "GroupID": 502,
    "CoinCost": 12000,
    "SortID": 35,
    "StaticPropIDList": [
      15007
    ],
    "HasPreview": true,
    "Name": {
      "Hash": 1225347120
    },
    "ImgPath": "SpriteOutput/Quest/TrainParty/BuildAreaIcon/BuildAreaIcon7.png"
  },
  {
    "ID": 501017,
    "GroupID": 502,
    "CoinCost": 30000,
    "SortID": 36,
    "StaticPropIDList": [
      15008
    ],
    "HasPreview": true,
    "Name": {
      "Hash": -340736821
    },
    "ImgPath": "SpriteOutput/Quest/TrainParty/BuildAreaIcon/BuildAreaIcon7.png"
  },
  {
    "ID": 601010,
    "GroupID": 600,
    "CoinCost": 12000,
    "SortID": 37,
    "StaticPropIDList": [
      10005
    ],
    "HasPreview": true,
    "HasCutScene": true,
    "Name": {
      "Hash": -1906826077
    },
    "ImgPath": "SpriteOutput/Quest/TrainParty/BuildAreaIcon/BuildAreaIcon5.png"
  },
  {
    "ID": 601012,
    "GroupID": 601,
    "CoinCost": 50000,
    "SortID": 38,
    "StaticPropIDList": [
      16001
    ],
    "HasPreview": true,
    "HasCutScene": true,
    "Name": {
      "Hash": -744026663
    },
    "ImgPath": "SpriteOutput/Quest/TrainParty/BuildAreaIcon/BuildAreaIcon7.png"
  },
  {
    "ID": 601013,
    "GroupID": 601,
    "CoinCost": 50000,
    "SortID": 39,
    "StaticPropIDList": [
      16002
    ],
    "HasPreview": true,
    "Name": {
      "Hash": 1984856692
    },
    "ImgPath": "SpriteOutput/Quest/TrainParty/BuildAreaIcon/BuildAreaIcon7.png"
  },
  {
    "ID": 601014,
    "GroupID": 600,
    "CoinCost": 12000,
    "SortID": 40,
    "StaticPropIDList": [
      16003,
      10012,
      10013
    ],
    "HasPreview": true,
    "HasCutScene": true,
    "Name": {
      "Hash": 62542391
    },
    "ImgPath": "SpriteOutput/Quest/TrainParty/BuildAreaIcon/BuildAreaIcon7.png"
  }
]