[
  {
    "WorkingBuffID": 101,
    "Name": {
      "Hash": -1947230731
    },
    "Description": {
      "Hash": 1869871974
    },
    "IconPath": "SpriteOutput/AvatarRoundIcon/Avatar/1001.png"
  },
  {
    "WorkingBuffID": 102,
    "Name": {
      "Hash": -1543946204
    },
    "Description": {
      "Hash": 1869871971
    },
    "IconPath": "SpriteOutput/AvatarRoundIcon/Avatar/1002.png"
  },
  {
    "WorkingBuffID": 103,
    "Name": {
      "Hash": 1184937151
    },
    "Description": {
      "Hash": 1869871972
    },
    "IconPath": "SpriteOutput/AvatarRoundIcon/Avatar/1003.png"
  },
  {
    "WorkingBuffID": 104,
    "Name": {
      "Hash": 1944452038
    },
    "Description": {
      "Hash": 1869871969
    },
    "IconPath": "SpriteOutput/AvatarRoundIcon/Avatar/1004.png"
  },
  {
    "WorkingBuffID": 105,
    "Name": {
      "Hash": 378368097
    },
    "Description": {
      "Hash": 1869871970
    },
    "IconPath": "SpriteOutput/AvatarRoundIcon/Avatar/8001.png"
  }
]