[
  {
    "ID": 100,
    "WorldName": {
      "Hash": 1240267000
    },
    "WorldDesc": {
      "Hash": 371857150
    },
    "WorldLanguageName": {
      "Hash": -2089063610
    },
    "DynamicOptionalBlock": "100",
    "MapSpaceTypeList": [
      "Unknow"
    ],
    "ChapterIconBigPath": "SpriteOutput/Mission/ChapterIconBig/ChapterIconBigPrologue.png",
    "ChronicleWorldBgPath": "",
    "ChronicleWorldSubBgPath": "",
    "ChronicleWorldPredictPath": "",
    "ChronicleWorldProcessingPath": "",
    "CameraWidth": 30,
    "CameraHeight": 33,
    "SmallWorldIconPath": ""
  },
  {
    "ID": 101,
    "IsRealWorld": true,
    "IsShow": true,
    "WorldName": {
      "Hash": 1240267001
    },
    "WorldDesc": {
      "Hash": 371857150
    },
    "WorldLanguageName": {
      "Hash": -2089063609
    },
    "DynamicOptionalBlock": "101",
    "MapSpaceTypeList": [
      "Unknow"
    ],
    "ChapterIconBigPath": "SpriteOutput/Mission/ChapterIconBig/ChapterIconBigPrologue.png",
    "ChronicleWorldBgPath": "SpriteOutput/Chronicle/ChroniclePageBgWorld00.png",
    "ChronicleWorldSubBgPath": "SpriteOutput/Chronicle/ChroniclePage02BgWorld00.png",
    "ChronicleWorldPredictPath": "SpriteOutput/Chronicle/ImgChronicle_EmptyWorld00.png",
    "ChronicleWorldProcessingPath": "SpriteOutput/Chronicle/ImgChronicle_ProgressWorld00.png",
    "CameraWidth": 58,
    "CameraHeight": 33,
    "SmallWorldIconPath": "SpriteOutput/TabIcon/World/World00Icon.png"
  },
  {
    "ID": 201,
    "IsRealWorld": true,
    "IsShow": true,
    "WorldName": {
      "Hash": 1240266902
    },
    "WorldDesc": {
      "Hash": 371857150
    },
    "WorldLanguageName": {
      "Hash": -2089063576
    },
    "DynamicOptionalBlock": "201",
    "MapSpaceTypeList": [
      "Unknow"
    ],
    "ChapterIconBigPath": "SpriteOutput/Mission/ChapterIconBig/ChapterIconBigFirstworld.png",
    "ChronicleWorldBgPath": "SpriteOutput/Chronicle/ChroniclePageBgWorld01.png",
    "ChronicleWorldSubBgPath": "SpriteOutput/Chronicle/ChroniclePage02BgWorld01.png",
    "ChronicleWorldPredictPath": "SpriteOutput/Chronicle/ImgChronicle_EmptyWorld01.png",
    "ChronicleWorldProcessingPath": "SpriteOutput/Chronicle/ImgChronicle_ProgressWorld01.png",
    "CameraWidth": 58,
    "CameraHeight": 33,
    "SmallWorldIconPath": "SpriteOutput/TabIcon/World/World01Icon.png"
  },
  {
    "ID": 301,
    "IsRealWorld": true,
    "IsShow": true,
    "WorldName": {
      "Hash": 1240266935
    },
    "WorldDesc": {
      "Hash": 371857150
    },
    "WorldLanguageName": {
      "Hash": -2089063543
    },
    "DynamicOptionalBlock": "301",
    "MapSpaceTypeList": [
      "Unknow"
    ],
    "ChapterIconBigPath": "SpriteOutput/Mission/ChapterIconBig/ChapterIconBigSecondworld.png",
    "ChronicleWorldBgPath": "SpriteOutput/Chronicle/ChroniclePageBgWorld02.png",
    "ChronicleWorldSubBgPath": "SpriteOutput/Chronicle/ChroniclePage02BgWorld02.png",
    "ChronicleWorldPredictPath": "SpriteOutput/Chronicle/ImgChronicle_EmptyWorld02.png",
    "ChronicleWorldProcessingPath": "SpriteOutput/Chronicle/ImgChronicle_ProgressWorld02.png",
    "CameraWidth": 66,
    "CameraHeight": 33,
    "SmallWorldIconPath": "SpriteOutput/TabIcon/World/World02Icon.png"
  },
  {
    "ID": 401,
    "IsRealWorld": true,
    "IsShow": true,
    "WorldName": {
      "Hash": 1240266836
    },
    "WorldDesc": {
      "Hash": -508296586
    },
    "WorldLanguageName": {
      "Hash": -2089063774
    },
    "DynamicOptionalBlock": "401",
    "MapSpaceTypeList": [
      "Reality",
      "Dream"
    ],
    "TrainSpaceType": "Reality",
    "ChapterIconBigPath": "SpriteOutput/Mission/ChapterIconBig/ChapterIconBigThirdWorld.png",
    "ChronicleWorldBgPath": "SpriteOutput/Chronicle/ChroniclePageBgWorld03.png",
    "ChronicleWorldSubBgPath": "SpriteOutput/Chronicle/ChroniclePage02BgWorld03.png",
    "ChronicleWorldPredictPath": "SpriteOutput/Chronicle/ImgChronicle_EmptyWorld03.png",
    "ChronicleWorldProcessingPath": "SpriteOutput/Chronicle/ImgChronicle_ProgressWorld03.png",
    "CameraWidth": 75,
    "CameraHeight": 33,
    "SmallWorldIconPath": "SpriteOutput/TabIcon/World/World03Icon.png"
  },
  {
    "ID": 501,
    "IsRealWorld": true,
    "IsShow": true,
    "WorldName": {
      "Hash": 1240266869
    },
    "WorldDesc": {
      "Hash": -508296553
    },
    "WorldLanguageName": {
      "Hash": -2089063741
    },
    "DynamicOptionalBlock": "501",
    "MapSpaceTypeList": [
      "Unknow",
      "AmphoreusDay",
      "AmphoreusNight",
      "AmphoreusSpecial"
    ],
    "ChapterIconBigPath": "SpriteOutput/Mission/ChapterIconBig/ChapterIconBigFourthworld.png",
    "ChronicleWorldBgPath": "SpriteOutput/Chronicle/ChroniclePageBgWorld04.png",
    "ChronicleWorldSubBgPath": "SpriteOutput/Chronicle/ChroniclePage02BgWorld04.png",
    "ChronicleWorldPredictPath": "SpriteOutput/Chronicle/ImgChronicle_EmptyWorld04.png",
    "ChronicleWorldProcessingPath": "SpriteOutput/Chronicle/ImgChronicle_ProgressWorld04.png",
    "CameraWidth": 75,
    "CameraHeight": 33,
    "SmallWorldIconPath": "SpriteOutput/TabIcon/World/World04Icon.png"
  },
  {
    "ID": 999,
    "WorldName": {
      "Hash": 371857150
    },
    "WorldDesc": {
      "Hash": 371857150
    },
    "WorldLanguageName": {
      "Hash": 371857150
    },
    "DynamicOptionalBlock": "100",
    "MapSpaceTypeList": [
      "Unknow"
    ],
    "ChapterIconBigPath": "",
    "ChronicleWorldBgPath": "",
    "ChronicleWorldSubBgPath": "",
    "ChronicleWorldPredictPath": "",
    "ChronicleWorldProcessingPath": "",
    "CameraWidth": 75,
    "CameraHeight": 33,
    "SmallWorldIconPath": ""
  }
]