[
  {
    "id": 1,
    "name": "生命值 (16)",
    "grup": 2
  },
  {
    "id": 2,
    "name": "攻擊力 (8)",
    "grup": 2
  },
  {
    "id": 3,
    "name": "防禦力 (8)",
    "grup": 2
  },
  {
    "id": 4,
    "name": "生命值 (1.73 %)",
    "grup": 2
  },
  {
    "id": 5,
    "name": "攻擊力 (1.73 %)",
    "grup": 2
  },
  {
    "id": 6,
    "name": "防禦力 (2.16 %)",
    "grup": 2
  },
  {
    "id": 7,
    "name": "速度 (1)",
    "grup": 2
  },
  {
    "id": 8,
    "name": "暴擊率 (1.30 %)",
    "grup": 2
  },
  {
    "id": 9,
    "name": "暴擊傷害 (2.59 %)",
    "grup": 2
  },
  {
    "id": 10,
    "name": "效果命中 (1.73 %)",
    "grup": 2
  },
  {
    "id": 11,
    "name": "效果抗性 (1.73 %)",
    "grup": 2
  },
  {
    "id": 12,
    "name": "擊破特攻 (2.59 %)",
    "grup": 2
  },
  {
    "id": 1,
    "name": "生命值 (25)",
    "grup": 3
  },
  {
    "id": 2,
    "name": "攻擊力 (12)",
    "grup": 3
  },
  {
    "id": 3,
    "name": "防禦力 (12)",
    "grup": 3
  },
  {
    "id": 4,
    "name": "生命值 (2.59 %)",
    "grup": 3
  },
  {
    "id": 5,
    "name": "攻擊力 (2.59 %)",
    "grup": 3
  },
  {
    "id": 6,
    "name": "防禦力 (3.24 %)",
    "grup": 3
  },
  {
    "id": 7,
    "name": "速度 (1)",
    "grup": 3
  },
  {
    "id": 8,
    "name": "暴擊率 (1.94 %)",
    "grup": 3
  },
  {
    "id": 9,
    "name": "暴擊傷害 (3.89 %)",
    "grup": 3
  },
  {
    "id": 10,
    "name": "效果命中 (2.59 %)",
    "grup": 3
  },
  {
    "id": 11,
    "name": "效果抗性 (2.59 %)",
    "grup": 3
  },
  {
    "id": 12,
    "name": "擊破特攻 (3.89 %)",
    "grup": 3
  },
  {
    "id": 1,
    "name": "生命值 (33)",
    "grup": 4
  },
  {
    "id": 2,
    "name": "攻擊力 (16)",
    "grup": 4
  },
  {
    "id": 3,
    "name": "防禦力 (16)",
    "grup": 4
  },
  {
    "id": 4,
    "name": "生命值 (3.46 %)",
    "grup": 4
  },
  {
    "id": 5,
    "name": "攻擊力 (3.46 %)",
    "grup": 4
  },
  {
    "id": 6,
    "name": "防禦力 (4.32 %)",
    "grup": 4
  },
  {
    "id": 7,
    "name": "速度 (2)",
    "grup": 4
  },
  {
    "id": 8,
    "name": "暴擊率 (2.59 %)",
    "grup": 4
  },
  {
    "id": 9,
    "name": "暴擊傷害 (5.18 %)",
    "grup": 4
  },
  {
    "id": 10,
    "name": "效果命中 (3.46 %)",
    "grup": 4
  },
  {
    "id": 11,
    "name": "效果抗性 (3.46 %)",
    "grup": 4
  },
  {
    "id": 12,
    "name": "擊破特攻 (5.18 %)",
    "grup": 4
  },
  {
    "id": 1,
    "name": "生命值 (42)",
    "grup": 5
  },
  {
    "id": 2,
    "name": "攻擊力 (21)",
    "grup": 5
  },
  {
    "id": 3,
    "name": "防禦力 (21)",
    "grup": 5
  },
  {
    "id": 4,
    "name": "生命值 (4.32 %)",
    "grup": 5
  },
  {
    "id": 5,
    "name": "攻擊力 (4.32 %)",
    "grup": 5
  },
  {
    "id": 6,
    "name": "防禦力 (5.40 %)",
    "grup": 5
  },
  {
    "id": 7,
    "name": "速度 (2)",
    "grup": 5
  },
  {
    "id": 8,
    "name": "暴擊率 (3.24 %)",
    "grup": 5
  },
  {
    "id": 9,
    "name": "暴擊傷害 (6.48 %)",
    "grup": 5
  },
  {
    "id": 10,
    "name": "效果命中 (4.32 %)",
    "grup": 5
  },
  {
    "id": 11,
    "name": "效果抗性 (4.32 %)",
    "grup": 5
  },
  {
    "id": 12,
    "name": "擊破特攻 (6.48 %)",
    "grup": 5
  }
]