[
  {
    "id": 1,
    "name": "PV (45)",
    "grup": 21
  },
  {
    "id": 1,
    "name": "ATQ (22)",
    "grup": 22
  },
  {
    "id": 1,
    "name": "PV (2.76 %)",
    "grup": 23
  },
  {
    "id": 2,
    "name": "ATQ (2.76 %)",
    "grup": 23
  },
  {
    "id": 3,
    "name": "DEF (3.46 %)",
    "grup": 23
  },
  {
    "id": 4,
    "name": "Chance de CRIT (2.07 %)",
    "grup": 23
  },
  {
    "id": 5,
    "name": "Dano CRIT (4.15 %)",
    "grup": 23
  },
  {
    "id": 6,
    "name": "Bônus de Cura Realizada (2.21 %)",
    "grup": 23
  },
  {
    "id": 7,
    "name": "Taxa de Acerto de Efeito (2.76 %)",
    "grup": 23
  },
  {
    "id": 1,
    "name": "PV (2.76 %)",
    "grup": 24
  },
  {
    "id": 2,
    "name": "ATQ (2.76 %)",
    "grup": 24
  },
  {
    "id": 3,
    "name": "DEF (3.46 %)",
    "grup": 24
  },
  {
    "id": 4,
    "name": "VEL (1)",
    "grup": 24
  },
  {
    "id": 1,
    "name": "PV (2.76 %)",
    "grup": 25
  },
  {
    "id": 2,
    "name": "ATQ (2.76 %)",
    "grup": 25
  },
  {
    "id": 3,
    "name": "DEF (3.46 %)",
    "grup": 25
  },
  {
    "id": 4,
    "name": "Bônus de Dano Físico (2.49 %)",
    "grup": 25
  },
  {
    "id": 5,
    "name": "Bônus de Dano de Fogo (2.49 %)",
    "grup": 25
  },
  {
    "id": 6,
    "name": "Bônus de Dano de Gelo (2.49 %)",
    "grup": 25
  },
  {
    "id": 7,
    "name": "Bônus de Dano de Raio (2.49 %)",
    "grup": 25
  },
  {
    "id": 8,
    "name": "Bônus de Dano de Vento (2.49 %)",
    "grup": 25
  },
  {
    "id": 9,
    "name": "Bônus de Dano Quântico (2.49 %)",
    "grup": 25
  },
  {
    "id": 10,
    "name": "Bônus de Dano Imaginário (2.49 %)",
    "grup": 25
  },
  {
    "id": 1,
    "name": "Efeito de Quebra (4.15 %)",
    "grup": 26
  },
  {
    "id": 2,
    "name": "Taxa de Regeneração de Energia (1.24 %)",
    "grup": 26
  },
  {
    "id": 3,
    "name": "PV (2.76 %)",
    "grup": 26
  },
  {
    "id": 4,
    "name": "ATQ (2.76 %)",
    "grup": 26
  },
  {
    "id": 5,
    "name": "DEF (3.46 %)",
    "grup": 26
  },
  {
    "id": 1,
    "name": "PV (67)",
    "grup": 31
  },
  {
    "id": 1,
    "name": "ATQ (33)",
    "grup": 32
  },
  {
    "id": 1,
    "name": "PV (4.15 %)",
    "grup": 33
  },
  {
    "id": 2,
    "name": "ATQ (4.15 %)",
    "grup": 33
  },
  {
    "id": 3,
    "name": "DEF (5.18 %)",
    "grup": 33
  },
  {
    "id": 4,
    "name": "Chance de CRIT (3.11 %)",
    "grup": 33
  },
  {
    "id": 5,
    "name": "Dano CRIT (6.22 %)",
    "grup": 33
  },
  {
    "id": 6,
    "name": "Bônus de Cura Realizada (3.32 %)",
    "grup": 33
  },
  {
    "id": 7,
    "name": "Taxa de Acerto de Efeito (4.15 %)",
    "grup": 33
  },
  {
    "id": 1,
    "name": "PV (4.15 %)",
    "grup": 34
  },
  {
    "id": 2,
    "name": "ATQ (4.15 %)",
    "grup": 34
  },
  {
    "id": 3,
    "name": "DEF (5.18 %)",
    "grup": 34
  },
  {
    "id": 4,
    "name": "VEL (2)",
    "grup": 34
  },
  {
    "id": 1,
    "name": "PV (4.15 %)",
    "grup": 35
  },
  {
    "id": 2,
    "name": "ATQ (4.15 %)",
    "grup": 35
  },
  {
    "id": 3,
    "name": "DEF (5.18 %)",
    "grup": 35
  },
  {
    "id": 4,
    "name": "Bônus de Dano Físico (3.73 %)",
    "grup": 35
  },
  {
    "id": 5,
    "name": "Bônus de Dano de Fogo (3.73 %)",
    "grup": 35
  },
  {
    "id": 6,
    "name": "Bônus de Dano de Gelo (3.73 %)",
    "grup": 35
  },
  {
    "id": 7,
    "name": "Bônus de Dano de Raio (3.73 %)",
    "grup": 35
  },
  {
    "id": 8,
    "name": "Bônus de Dano de Vento (3.73 %)",
    "grup": 35
  },
  {
    "id": 9,
    "name": "Bônus de Dano Quântico (3.73 %)",
    "grup": 35
  },
  {
    "id": 10,
    "name": "Bônus de Dano Imaginário (3.73 %)",
    "grup": 35
  },
  {
    "id": 1,
    "name": "Efeito de Quebra (6.22 %)",
    "grup": 36
  },
  {
    "id": 2,
    "name": "Taxa de Regeneração de Energia (1.87 %)",
    "grup": 36
  },
  {
    "id": 3,
    "name": "PV (4.15 %)",
    "grup": 36
  },
  {
    "id": 4,
    "name": "ATQ (4.15 %)",
    "grup": 36
  },
  {
    "id": 5,
    "name": "DEF (5.18 %)",
    "grup": 36
  },
  {
    "id": 1,
    "name": "PV (90)",
    "grup": 41
  },
  {
    "id": 1,
    "name": "ATQ (45)",
    "grup": 42
  },
  {
    "id": 1,
    "name": "PV (5.53 %)",
    "grup": 43
  },
  {
    "id": 2,
    "name": "ATQ (5.53 %)",
    "grup": 43
  },
  {
    "id": 3,
    "name": "DEF (6.91 %)",
    "grup": 43
  },
  {
    "id": 4,
    "name": "Chance de CRIT (4.15 %)",
    "grup": 43
  },
  {
    "id": 5,
    "name": "Dano CRIT (8.29 %)",
    "grup": 43
  },
  {
    "id": 6,
    "name": "Bônus de Cura Realizada (4.42 %)",
    "grup": 43
  },
  {
    "id": 7,
    "name": "Taxa de Acerto de Efeito (5.53 %)",
    "grup": 43
  },
  {
    "id": 1,
    "name": "PV (5.53 %)",
    "grup": 44
  },
  {
    "id": 2,
    "name": "ATQ (5.53 %)",
    "grup": 44
  },
  {
    "id": 3,
    "name": "DEF (6.91 %)",
    "grup": 44
  },
  {
    "id": 4,
    "name": "VEL (3)",
    "grup": 44
  },
  {
    "id": 1,
    "name": "PV (5.53 %)",
    "grup": 45
  },
  {
    "id": 2,
    "name": "ATQ (5.53 %)",
    "grup": 45
  },
  {
    "id": 3,
    "name": "DEF (6.91 %)",
    "grup": 45
  },
  {
    "id": 4,
    "name": "Bônus de Dano Físico (4.98 %)",
    "grup": 45
  },
  {
    "id": 5,
    "name": "Bônus de Dano de Fogo (4.98 %)",
    "grup": 45
  },
  {
    "id": 6,
    "name": "Bônus de Dano de Gelo (4.98 %)",
    "grup": 45
  },
  {
    "id": 7,
    "name": "Bônus de Dano de Raio (4.98 %)",
    "grup": 45
  },
  {
    "id": 8,
    "name": "Bônus de Dano de Vento (4.98 %)",
    "grup": 45
  },
  {
    "id": 9,
    "name": "Bônus de Dano Quântico (4.98 %)",
    "grup": 45
  },
  {
    "id": 10,
    "name": "Bônus de Dano Imaginário (4.98 %)",
    "grup": 45
  },
  {
    "id": 1,
    "name": "Efeito de Quebra (8.29 %)",
    "grup": 46
  },
  {
    "id": 2,
    "name": "Taxa de Regeneração de Energia (2.49 %)",
    "grup": 46
  },
  {
    "id": 3,
    "name": "PV (5.53 %)",
    "grup": 46
  },
  {
    "id": 4,
    "name": "ATQ (5.53 %)",
    "grup": 46
  },
  {
    "id": 5,
    "name": "DEF (6.91 %)",
    "grup": 46
  },
  {
    "id": 1,
    "name": "PV (112)",
    "grup": 51
  },
  {
    "id": 1,
    "name": "ATQ (56)",
    "grup": 52
  },
  {
    "id": 1,
    "name": "PV (6.91 %)",
    "grup": 53
  },
  {
    "id": 2,
    "name": "ATQ (6.91 %)",
    "grup": 53
  },
  {
    "id": 3,
    "name": "DEF (8.64 %)",
    "grup": 53
  },
  {
    "id": 4,
    "name": "Chance de CRIT (5.18 %)",
    "grup": 53
  },
  {
    "id": 5,
    "name": "Dano CRIT (10.37 %)",
    "grup": 53
  },
  {
    "id": 6,
    "name": "Bônus de Cura Realizada (5.53 %)",
    "grup": 53
  },
  {
    "id": 7,
    "name": "Taxa de Acerto de Efeito (6.91 %)",
    "grup": 53
  },
  {
    "id": 1,
    "name": "PV (6.91 %)",
    "grup": 54
  },
  {
    "id": 2,
    "name": "ATQ (6.91 %)",
    "grup": 54
  },
  {
    "id": 3,
    "name": "DEF (8.64 %)",
    "grup": 54
  },
  {
    "id": 4,
    "name": "VEL (4)",
    "grup": 54
  },
  {
    "id": 1,
    "name": "PV (6.91 %)",
    "grup": 55
  },
  {
    "id": 2,
    "name": "ATQ (6.91 %)",
    "grup": 55
  },
  {
    "id": 3,
    "name": "DEF (8.64 %)",
    "grup": 55
  },
  {
    "id": 4,
    "name": "Bônus de Dano Físico (6.22 %)",
    "grup": 55
  },
  {
    "id": 5,
    "name": "Bônus de Dano de Fogo (6.22 %)",
    "grup": 55
  },
  {
    "id": 6,
    "name": "Bônus de Dano de Gelo (6.22 %)",
    "grup": 55
  },
  {
    "id": 7,
    "name": "Bônus de Dano de Raio (6.22 %)",
    "grup": 55
  },
  {
    "id": 8,
    "name": "Bônus de Dano de Vento (6.22 %)",
    "grup": 55
  },
  {
    "id": 9,
    "name": "Bônus de Dano Quântico (6.22 %)",
    "grup": 55
  },
  {
    "id": 10,
    "name": "Bônus de Dano Imaginário (6.22 %)",
    "grup": 55
  },
  {
    "id": 1,
    "name": "Efeito de Quebra (10.37 %)",
    "grup": 56
  },
  {
    "id": 2,
    "name": "Taxa de Regeneração de Energia (3.11 %)",
    "grup": 56
  },
  {
    "id": 3,
    "name": "PV (6.91 %)",
    "grup": 56
  },
  {
    "id": 4,
    "name": "ATQ (6.91 %)",
    "grup": 56
  },
  {
    "id": 5,
    "name": "DEF (8.64 %)",
    "grup": 56
  },
  {
    "id": 1,
    "name": "DEF (6.91 %)",
    "grup": 433
  },
  {
    "id": 1,
    "name": "Chance de CRIT (4.15 %)",
    "grup": 434
  },
  {
    "id": 1,
    "name": "Bônus de Cura Realizada (4.42 %)",
    "grup": 436
  },
  {
    "id": 1,
    "name": "PV (5.53 %)",
    "grup": 441
  },
  {
    "id": 1,
    "name": "DEF (6.91 %)",
    "grup": 443
  }
]