[
  {
    "id": 10000,
    "name": "Vagão de Convívio (Train)",
    "floor_default": 10000000,
    "floor": [
      10000000,
      10000002,
      10000003
    ]
  },
  {
    "id": 10001,
    "name": "Zona de Controle Principal (Town)",
    "floor_default": 10001001,
    "floor": [
      10001001
    ]
  },
  {
    "id": 10002,
    "name": "Expresso Astral (Train)",
    "floor_default": 10002001,
    "floor": [
      10002001
    ]
  },
  {
    "id": 20001,
    "name": "Zona Base (Maze)",
    "floor_default": 20001001,
    "floor": [
      20001001
    ]
  },
  {
    "id": 20002,
    "name": "Zona de Armazenamento (Maze)",
    "floor_default": 20001001,
    "floor": [
      20002001
    ]
  },
  {
    "id": 20003,
    "name": "Zona de Abastecimento (Maze)",
    "floor_default": 20001001,
    "floor": [
      20003001
    ]
  },
  {
    "id": 20004,
    "name": "Zona de Reclusão (Maze)",
    "floor_default": 20004001,
    "floor": [
      20004001
    ]
  },
  {
    "id": 80112,
    "name": "Escritório da Herta (Town)",
    "floor_default": 80112001,
    "floor": [
      80112001
    ]
  },
  {
    "id": 10101,
    "name": "Distrito Administrativo (Town)",
    "floor_default": 10101001,
    "floor": [
      10101001,
      10101002,
      10101003,
      10101004,
      10101005,
      10101006,
      10101007,
      10101008,
      10101009
    ]
  },
  {
    "id": 10102,
    "name": "Vila do Rochedo (Town)",
    "floor_default": 10102001,
    "floor": [
      10102001,
      10102002,
      10102003,
      10102004
    ]
  },
  {
    "id": 20101,
    "name": "Planícies Nevadas Distantes (Maze)",
    "floor_default": 20101001,
    "floor": [
      20101001
    ]
  },
  {
    "id": 20111,
    "name": "Passagem do Remanso (Maze)",
    "floor_default": 20111001,
    "floor": [
      20111001
    ]
  },
  {
    "id": 20121,
    "name": "Grande Mina (Maze)",
    "floor_default": 20121001,
    "floor": [
      20121001
    ]
  },
  {
    "id": 20122,
    "name": "Vila dos Rebites (Maze)",
    "floor_default": 20122001,
    "floor": [
      20122001
    ]
  },
  {
    "id": 20123,
    "name": "Assentamento de Robôs (Maze)",
    "floor_default": 20123001,
    "floor": [
      20123001
    ]
  },
  {
    "id": 20131,
    "name": "Zona Restrita da Guarda Crinalva (Maze)",
    "floor_default": 20131001,
    "floor": [
      20131001
    ]
  },
  {
    "id": 20132,
    "name": "Corredor de Ecos Atenuados (Maze)",
    "floor_default": 20132001,
    "floor": [
      20132001
    ]
  },
  {
    "id": 20133,
    "name": "Colina do Inverno Eterno (Raid)",
    "floor_default": 20133001,
    "floor": [
      20133001,
      20133002
    ]
  },
  {
    "id": 20134,
    "name": "Colina do Inverno Eterno (Maze)",
    "floor_default": 20134001,
    "floor": [
      20134001
    ]
  },
  {
    "id": 20135,
    "name": "Pilares da Criação (Maze)",
    "floor_default": 20135001,
    "floor": [
      20135001
    ]
  },
  {
    "id": 20136,
    "name": "Antigo Campo de Testes de Armas (Maze)",
    "floor_default": 20136001,
    "floor": [
      20136001
    ]
  },
  {
    "id": 20100,
    "name": "Espaço do Caminho (Raid)",
    "floor_default": 20100001,
    "floor": [
      20100001
    ]
  },
  {
    "id": 10201,
    "name": "Refúgio Central dos Esquifes Estelares (Town)",
    "floor_default": 10201001,
    "floor": [
      10201001,
      10201002
    ]
  },
  {
    "id": 10202,
    "name": "Santuário Glorificado (Town)",
    "floor_default": 10202001,
    "floor": [
      10202001,
      10202002,
      10202003,
      10202004
    ]
  },
  {
    "id": 20211,
    "name": "Vau-Nuvem (Maze)",
    "floor_default": 20211001,
    "floor": [
      20211001
    ]
  },
  {
    "id": 20212,
    "name": "Porto Estelarium (Maze)",
    "floor_default": 20212001,
    "floor": [
      20212001
    ]
  },
  {
    "id": 20213,
    "name": "Vau-Nuvem (Raid)",
    "floor_default": 20213001,
    "floor": [
      20213001,
      20213002
    ]
  },
  {
    "id": 20214,
    "name": "Vagão de Convívio (Raid)",
    "floor_default": 20214001,
    "floor": [
      20214001
    ]
  },
  {
    "id": 20221,
    "name": "Comissão de Divinação (Maze)",
    "floor_default": 20221001,
    "floor": [
      20221001
    ]
  },
  {
    "id": 20222,
    "name": "Comissão de Artesanato (Maze)",
    "floor_default": 20222001,
    "floor": [
      20222001
    ]
  },
  {
    "id": 20223,
    "name": "Jardim Flamavulpe (Maze)",
    "floor_default": 20223001,
    "floor": [
      20223001
    ]
  },
  {
    "id": 20231,
    "name": "Comissão de Alquimia (Maze)",
    "floor_default": 20231001,
    "floor": [
      20231001,
      20231002
    ]
  },
  {
    "id": 20232,
    "name": "Desfiladeiro Escamado Aquático (Maze)",
    "floor_default": 20232001,
    "floor": [
      20232001
    ]
  },
  {
    "id": 20233,
    "name": "Raízes da Árvore (Maze)",
    "floor_default": 20233001,
    "floor": [
      20233001
    ]
  },
  {
    "id": 20241,
    "name": "A Prisão dos Grilhões (Maze)",
    "floor_default": 20241001,
    "floor": [
      20241001
    ]
  },
  {
    "id": 20242,
    "name": "Cruzador Celeste (Maze)",
    "floor_default": 20242001,
    "floor": [
      20242001
    ]
  },
  {
    "id": 20243,
    "name": "Campo de Batalha da Fera Interior (Maze)",
    "floor_default": 20243001,
    "floor": [
      20243001
    ]
  },
  {
    "id": 10301,
    "name": "Hora Dourada (Town)",
    "floor_default": 10301001,
    "floor": [
      10301001
    ]
  },
  {
    "id": 10304,
    "name": "Recife do Fluxonírico (Town)",
    "floor_default": 10304001,
    "floor": [
      10304001
    ]
  },
  {
    "id": 10305,
    "name": "O Devaneio (Realidade) (Town)",
    "floor_default": 10305001,
    "floor": [
      10305001
    ]
  },
  {
    "id": 10306,
    "name": "Faculdade da Academia Dobradura de Penacony (Town)",
    "floor_default": 10306001,
    "floor": [
      10306001
    ]
  },
  {
    "id": 10341,
    "name": "{TEXTJOIN#87} (Town)",
    "floor_default": 10341001,
    "floor": [
      10341001
    ]
  },
  {
    "id": 20311,
    "name": "O Devaneio (Mundonírico) (Maze)",
    "floor_default": 20311001,
    "floor": [
      20311001
    ]
  },
  {
    "id": 20312,
    "name": "Sonho de Uma Criança (Maze)",
    "floor_default": 20312001,
    "floor": [
      20312001
    ]
  },
  {
    "id": 20313,
    "name": "Margem do Sonho (Maze)",
    "floor_default": 20313001,
    "floor": [
      20313001
    ]
  },
  {
    "id": 20321,
    "name": "Parque Temático dos Estúdios Clock (Maze)",
    "floor_default": 20321001,
    "floor": [
      20321001
    ]
  },
  {
    "id": 20322,
    "name": "Pavilhão do Orvalho (Maze)",
    "floor_default": 20322001,
    "floor": [
      20322001
    ]
  },
  {
    "id": 20323,
    "name": "Horizonte da Existência (Maze)",
    "floor_default": 20323001,
    "floor": [
      20323001
    ]
  },
  {
    "id": 20331,
    "name": "Local das Audições FelizAlma™ da Brasareia (Maze)",
    "floor_default": 20331001,
    "floor": [
      20331001
    ]
  },
  {
    "id": 20332,
    "name": "Grande Teatro de Penacony (Maze)",
    "floor_default": 20332001,
    "floor": [
      20332001
    ]
  },
  {
    "id": 10401,
    "name": "Okhema, a \"Pólis Sagrada Eterna\" (Town)",
    "floor_default": 10401001,
    "floor": [
      10401001
    ]
  },
  {
    "id": 10402,
    "name": "Vórtice da Criação (Town)",
    "floor_default": 10402001,
    "floor": [
      10402001
    ]
  },
  {
    "id": 20411,
    "name": "\"Ruínas do Conflito\" - Castrum Kremnos (Maze)",
    "floor_default": 20411001,
    "floor": [
      20411001
    ]
  },
  {
    "id": 20412,
    "name": "\"Abismo do Destino\" Janusópolis (Maze)",
    "floor_default": 20412001,
    "floor": [
      20412001
    ]
  },
  {
    "id": 20413,
    "name": "\"Fronte de Batalha Banhado em Sangue\" - Castrum Kremnos (Maze)",
    "floor_default": 20413001,
    "floor": [
      20413001
    ]
  },
  {
    "id": 30101,
    "name": "N/A (Challenge)",
    "floor_default": 30101001,
    "floor": [
      30101001
    ]
  },
  {
    "id": 30102,
    "name": "N/A (Challenge)",
    "floor_default": 30102001,
    "floor": [
      30102001,
      30102002,
      30102003,
      30102004,
      30102005,
      30102006
    ]
  },
  {
    "id": 30103,
    "name": "N/A (Challenge)",
    "floor_default": 30103001,
    "floor": [
      30103001
    ]
  },
  {
    "id": 30104,
    "name": "N/A (Challenge)",
    "floor_default": 30104001,
    "floor": [
      30104001
    ]
  },
  {
    "id": 30105,
    "name": "N/A (Challenge)",
    "floor_default": 30105001,
    "floor": [
      30105001
    ]
  },
  {
    "id": 30120,
    "name": "N/A (Raid)",
    "floor_default": 30120001,
    "floor": [
      30120001
    ]
  },
  {
    "id": 30121,
    "name": "N/A (Challenge)",
    "floor_default": 30121001,
    "floor": [
      30121001,
      30121002
    ]
  },
  {
    "id": 30122,
    "name": "N/A (Challenge)",
    "floor_default": 30122001,
    "floor": [
      30122001
    ]
  },
  {
    "id": 30123,
    "name": "N/A (Challenge)",
    "floor_default": 30123001,
    "floor": [
      30123001
    ]
  },
  {
    "id": 30124,
    "name": "N/A (Challenge)",
    "floor_default": 30124001,
    "floor": [
      30124001,
      30124002
    ]
  },
  {
    "id": 30125,
    "name": "N/A (Challenge)",
    "floor_default": 30125001,
    "floor": [
      30125001
    ]
  },
  {
    "id": 30126,
    "name": "N/A (Challenge)",
    "floor_default": 30126001,
    "floor": [
      30126001,
      30126002,
      30126003
    ]
  },
  {
    "id": 30127,
    "name": "N/A (Challenge)",
    "floor_default": 30127001,
    "floor": [
      30127001
    ]
  },
  {
    "id": 30130,
    "name": "N/A (Challenge)",
    "floor_default": 30130001,
    "floor": [
      30130001,
      30130002
    ]
  },
  {
    "id": 30201,
    "name": "Caverna da Corrosão (Raid)",
    "floor_default": 30201001,
    "floor": [
      30201001,
      30202001,
      30203001,
      30204001,
      30205001,
      30206001
    ]
  },
  {
    "id": 30301,
    "name": "N/A (Raid)",
    "floor_default": 30301001,
    "floor": [
      30301001,
      30301002,
      30301003,
      30301004,
      30301005,
      30301006,
      30301007
    ]
  },
  {
    "id": 30401,
    "name": "N/A (Raid)",
    "floor_default": 30401001,
    "floor": [
      30401001,
      30401002,
      30401003,
      30401004,
      30401005
    ]
  },
  {
    "id": 30500,
    "name": "N/A (TrialActivity)",
    "floor_default": 30500001,
    "floor": [
      30500001
    ]
  },
  {
    "id": 30501,
    "name": "N/A (TrialActivity)",
    "floor_default": 30501001,
    "floor": [
      30501001
    ]
  },
  {
    "id": 30502,
    "name": "N/A (TrialActivity)",
    "floor_default": 30502001,
    "floor": [
      30502001
    ]
  },
  {
    "id": 30521,
    "name": "N/A (TrialActivity)",
    "floor_default": 30521001,
    "floor": [
      30521001
    ]
  },
  {
    "id": 30523,
    "name": "N/A (TrialActivity)",
    "floor_default": 30523001,
    "floor": [
      30523001
    ]
  },
  {
    "id": 30524,
    "name": "N/A (TrialActivity)",
    "floor_default": 30524001,
    "floor": [
      30524001
    ]
  },
  {
    "id": 30525,
    "name": "N/A (TrialActivity)",
    "floor_default": 30525001,
    "floor": [
      30525001
    ]
  },
  {
    "id": 30527,
    "name": "N/A (TrialActivity)",
    "floor_default": 30527001,
    "floor": [
      30527001
    ]
  },
  {
    "id": 30530,
    "name": "N/A (TrialActivity)",
    "floor_default": 30530001,
    "floor": [
      30530001
    ]
  },
  {
    "id": 40000,
    "name": "N/A (Raid)",
    "floor_default": 40000001,
    "floor": [
      40000001
    ]
  },
  {
    "id": 40002,
    "name": "N/A (Raid)",
    "floor_default": 40002001,
    "floor": [
      40002001,
      40002002,
      40002003,
      40002004,
      40002101,
      40002102,
      40002103,
      40002104
    ]
  },
  {
    "id": 40003,
    "name": "N/A (Raid)",
    "floor_default": 40003001,
    "floor": [
      40003001
    ]
  },
  {
    "id": 40101,
    "name": "N/A (Raid)",
    "floor_default": 40101001,
    "floor": [
      40101001,
      40101002,
      40101003,
      40101004,
      40101006
    ]
  },
  {
    "id": 40102,
    "name": "N/A (Raid)",
    "floor_default": 40102001,
    "floor": [
      40102001,
      40102002,
      40102003,
      40102004
    ]
  },
  {
    "id": 40103,
    "name": "N/A (Raid)",
    "floor_default": 40103001,
    "floor": [
      40103001
    ]
  },
  {
    "id": 40104,
    "name": "N/A (Raid)",
    "floor_default": 40104001,
    "floor": [
      40104001,
      40104002,
      40104003,
      40104004,
      40104005,
      40104006,
      40104007,
      40104008,
      40104009,
      40104010,
      40104011,
      40104012,
      40104013,
      40104014,
      40104015,
      40104016,
      40104017,
      40104018,
      40104019,
      40104020,
      40104021,
      40104022,
      40104023,
      40104024
    ]
  },
  {
    "id": 40105,
    "name": "N/A (Raid)",
    "floor_default": 40105001,
    "floor": [
      40105001,
      40105002,
      40105003,
      40105004
    ]
  },
  {
    "id": 40106,
    "name": "N/A (Raid)",
    "floor_default": 40106001,
    "floor": [
      40106001
    ]
  },
  {
    "id": 40107,
    "name": "N/A (Raid)",
    "floor_default": 40107001,
    "floor": [
      40107001,
      40107002
    ]
  },
  {
    "id": 40111,
    "name": "N/A (Raid)",
    "floor_default": 40111001,
    "floor": [
      40111001
    ]
  },
  {
    "id": 40121,
    "name": "N/A (Raid)",
    "floor_default": 40121001,
    "floor": [
      40121001,
      40121002,
      40121003,
      40121005,
      40121006
    ]
  },
  {
    "id": 40122,
    "name": "N/A (Raid)",
    "floor_default": 40122001,
    "floor": [
      40122001
    ]
  },
  {
    "id": 40123,
    "name": "N/A (Raid)",
    "floor_default": 40123001,
    "floor": [
      40123001
    ]
  },
  {
    "id": 40131,
    "name": "N/A (Raid)",
    "floor_default": 40131001,
    "floor": [
      40131001,
      40131002,
      40131003
    ]
  },
  {
    "id": 40211,
    "name": "N/A (Raid)",
    "floor_default": 40211001,
    "floor": [
      40211001,
      40211002,
      40211003
    ]
  },
  {
    "id": 40212,
    "name": "N/A (Raid)",
    "floor_default": 40212001,
    "floor": [
      40212001,
      40212002,
      40212003
    ]
  },
  {
    "id": 40221,
    "name": "N/A (Raid)",
    "floor_default": 40221001,
    "floor": [
      40221001
    ]
  },
  {
    "id": 40222,
    "name": "N/A (Raid)",
    "floor_default": 40222001,
    "floor": [
      40222001,
      40222002,
      40222003,
      40222004,
      40222005,
      40222006
    ]
  },
  {
    "id": 40231,
    "name": "N/A (Raid)",
    "floor_default": 40231001,
    "floor": [
      40231001,
      40231003,
      40231004
    ]
  },
  {
    "id": 40232,
    "name": "N/A (Raid)",
    "floor_default": 40232001,
    "floor": [
      40232001,
      40232002
    ]
  },
  {
    "id": 40233,
    "name": "N/A (Raid)",
    "floor_default": 40233001,
    "floor": [
      40233001
    ]
  },
  {
    "id": 40234,
    "name": "N/A (Raid)",
    "floor_default": 40234001,
    "floor": [
      40234001
    ]
  },
  {
    "id": 40235,
    "name": "N/A (Raid)",
    "floor_default": 40235001,
    "floor": [
      40235001
    ]
  },
  {
    "id": 40236,
    "name": "N/A (Raid)",
    "floor_default": 40236001,
    "floor": [
      40236001,
      40236002
    ]
  },
  {
    "id": 40237,
    "name": "N/A (Raid)",
    "floor_default": 40237001,
    "floor": [
      40237001,
      40237002,
      40237003,
      40237004,
      40237005,
      40237006
    ]
  },
  {
    "id": 40238,
    "name": "N/A (Raid)",
    "floor_default": 40238001,
    "floor": [
      40238001
    ]
  },
  {
    "id": 40242,
    "name": "N/A (Raid)",
    "floor_default": 40242001,
    "floor": [
      40242001,
      40242002
    ]
  },
  {
    "id": 40243,
    "name": "N/A (Raid)",
    "floor_default": 40243001,
    "floor": [
      40243001
    ]
  },
  {
    "id": 40301,
    "name": "N/A (Raid)",
    "floor_default": 40301001,
    "floor": [
      40301001,
      40301002
    ]
  },
  {
    "id": 40302,
    "name": "N/A (Raid)",
    "floor_default": 40302001,
    "floor": [
      40302001
    ]
  },
  {
    "id": 40312,
    "name": "N/A (Raid)",
    "floor_default": 40312001,
    "floor": [
      40312001
    ]
  },
  {
    "id": 40401,
    "name": "N/A (Raid)",
    "floor_default": 40401001,
    "floor": [
      40401001,
      40401002,
      40401003
    ]
  },
  {
    "id": 40402,
    "name": "N/A (Raid)",
    "floor_default": 40402001,
    "floor": [
      40402001,
      40402002
    ]
  },
  {
    "id": 40403,
    "name": "N/A (Raid)",
    "floor_default": 40403003,
    "floor": [
      40403001,
      40403002,
      40403003,
      40403004
    ]
  },
  {
    "id": 40404,
    "name": "N/A (Raid)",
    "floor_default": 40404001,
    "floor": [
      40404001
    ]
  },
  {
    "id": 41000,
    "name": "N/A (Raid)",
    "floor_default": 41000001,
    "floor": [
      41000001,
      41000002,
      41000003,
      41000004,
      41000005,
      41000006
    ]
  },
  {
    "id": 41007,
    "name": "N/A (Raid)",
    "floor_default": 41000007,
    "floor": [
      41000007
    ]
  },
  {
    "id": 41008,
    "name": "N/A (Raid)",
    "floor_default": 41000008,
    "floor": [
      41000008
    ]
  },
  {
    "id": 41009,
    "name": "N/A (Raid)",
    "floor_default": 41000009,
    "floor": [
      41000009
    ]
  },
  {
    "id": 41010,
    "name": "N/A (Raid)",
    "floor_default": 41000010,
    "floor": [
      41000010
    ]
  },
  {
    "id": 41011,
    "name": "N/A (Raid)",
    "floor_default": 41000011,
    "floor": [
      41000011
    ]
  },
  {
    "id": 41012,
    "name": "N/A (Raid)",
    "floor_default": 41000012,
    "floor": [
      41000012
    ]
  },
  {
    "id": 41221,
    "name": "N/A (Raid)",
    "floor_default": 42221001,
    "floor": [
      41221001,
      41221002,
      41221003,
      41221004
    ]
  },
  {
    "id": 41212,
    "name": "N/A (Raid)",
    "floor_default": 41212001,
    "floor": [
      41212001
    ]
  },
  {
    "id": 42221,
    "name": "N/A (Raid)",
    "floor_default": 42221001,
    "floor": [
      42221001
    ]
  },
  {
    "id": 43001,
    "name": "N/A (Raid)",
    "floor_default": 40004001,
    "floor": [
      43001001,
      43001002
    ]
  },
  {
    "id": 43002,
    "name": "N/A (Raid)",
    "floor_default": 43002001,
    "floor": [
      43002001,
      43002002,
      43002003
    ]
  },
  {
    "id": 43003,
    "name": "N/A (Raid)",
    "floor_default": 43003001,
    "floor": [
      43003001
    ]
  },
  {
    "id": 43004,
    "name": "N/A (Raid)",
    "floor_default": 43004001,
    "floor": [
      43004001
    ]
  },
  {
    "id": 43101,
    "name": "N/A (Raid)",
    "floor_default": 43101001,
    "floor": [
      43101001,
      43101002
    ]
  },
  {
    "id": 43102,
    "name": "N/A (Raid)",
    "floor_default": 43102001,
    "floor": [
      43102001,
      43102002,
      43102003
    ]
  },
  {
    "id": 43103,
    "name": "N/A (AetherDivide)",
    "floor_default": 43103001,
    "floor": [
      43103001,
      43103002,
      43103003,
      43103004,
      43103005
    ]
  },
  {
    "id": 43104,
    "name": "N/A (Raid)",
    "floor_default": 43104001,
    "floor": [
      43104001
    ]
  },
  {
    "id": 43201,
    "name": "N/A (Raid)",
    "floor_default": 43201001,
    "floor": [
      43201001,
      43201002,
      43201003,
      43201004,
      43201005
    ]
  },
  {
    "id": 43202,
    "name": "N/A (Raid)",
    "floor_default": 43202001,
    "floor": [
      43202001,
      43202002,
      43202003,
      43202004,
      43202005,
      43202006
    ]
  },
  {
    "id": 43203,
    "name": "N/A (Raid)",
    "floor_default": 43203001,
    "floor": [
      43203001
    ]
  },
  {
    "id": 43204,
    "name": "N/A (Raid)",
    "floor_default": 43204001,
    "floor": [
      43204001
    ]
  },
  {
    "id": 43205,
    "name": "N/A (Raid)",
    "floor_default": 43205001,
    "floor": [
      43205001
    ]
  },
  {
    "id": 43206,
    "name": "N/A (Raid)",
    "floor_default": 43206001,
    "floor": [
      43206001
    ]
  },
  {
    "id": 43207,
    "name": "N/A (Raid)",
    "floor_default": 43207001,
    "floor": [
      43207001,
      43207002,
      43207003
    ]
  },
  {
    "id": 43208,
    "name": "N/A (Raid)",
    "floor_default": 43208001,
    "floor": [
      43208001
    ]
  },
  {
    "id": 43209,
    "name": "N/A (Raid)",
    "floor_default": 43209001,
    "floor": [
      43209001
    ]
  },
  {
    "id": 43210,
    "name": "N/A (Raid)",
    "floor_default": 43210001,
    "floor": [
      43210001,
      43210002
    ]
  },
  {
    "id": 43211,
    "name": "N/A (Raid)",
    "floor_default": 43211001,
    "floor": [
      43211001
    ]
  },
  {
    "id": 43212,
    "name": "N/A (Raid)",
    "floor_default": 43212001,
    "floor": [
      43212001
    ]
  },
  {
    "id": 43213,
    "name": "N/A (Raid)",
    "floor_default": 43213001,
    "floor": [
      43213001
    ]
  },
  {
    "id": 43214,
    "name": "N/A (Raid)",
    "floor_default": 43214001,
    "floor": [
      43214001
    ]
  },
  {
    "id": 43215,
    "name": "N/A (Raid)",
    "floor_default": 43215001,
    "floor": [
      43215001
    ]
  },
  {
    "id": 43216,
    "name": "N/A (Raid)",
    "floor_default": 43215001,
    "floor": [
      43216001
    ]
  },
  {
    "id": 43217,
    "name": "N/A (Raid)",
    "floor_default": 43215001,
    "floor": [
      43217001,
      43217002
    ]
  },
  {
    "id": 43218,
    "name": "N/A (Raid)",
    "floor_default": 43215001,
    "floor": [
      43218001
    ]
  },
  {
    "id": 43301,
    "name": "N/A (Raid)",
    "floor_default": 43301001,
    "floor": [
      40311001,
      43301001
    ]
  },
  {
    "id": 43302,
    "name": "N/A (Raid)",
    "floor_default": 43301001,
    "floor": [
      43302001
    ]
  },
  {
    "id": 43303,
    "name": "N/A (Raid)",
    "floor_default": 43301001,
    "floor": [
      43303001,
      43303002,
      43303003
    ]
  },
  {
    "id": 43304,
    "name": "N/A (Raid)",
    "floor_default": 43304001,
    "floor": [
      43304001
    ]
  },
  {
    "id": 43305,
    "name": "N/A (Raid)",
    "floor_default": 43305001,
    "floor": [
      43305001,
      43305002
    ]
  },
  {
    "id": 43306,
    "name": "N/A (Raid)",
    "floor_default": 43306001,
    "floor": [
      43306001,
      43306002
    ]
  },
  {
    "id": 43307,
    "name": "N/A (Raid)",
    "floor_default": 43307001,
    "floor": [
      43307001
    ]
  },
  {
    "id": 43309,
    "name": "N/A (Raid)",
    "floor_default": 43309001,
    "floor": [
      43309001
    ]
  },
  {
    "id": 43308,
    "name": "N/A (Raid)",
    "floor_default": 43308001,
    "floor": [
      43308001
    ]
  },
  {
    "id": 43310,
    "name": "N/A (Raid)",
    "floor_default": 43310001,
    "floor": [
      43310001
    ]
  },
  {
    "id": 43311,
    "name": "N/A (Raid)",
    "floor_default": 43301101,
    "floor": [
      43301101
    ]
  },
  {
    "id": 43312,
    "name": "N/A (Raid)",
    "floor_default": 43312001,
    "floor": [
      43312001,
      43312003,
      43312002
    ]
  },
  {
    "id": 43313,
    "name": "N/A (Raid)",
    "floor_default": 43313001,
    "floor": [
      43313001,
      43313002,
      43313003,
      43313004
    ]
  },
  {
    "id": 43314,
    "name": "N/A (Raid)",
    "floor_default": 43314001,
    "floor": [
      43314001
    ]
  },
  {
    "id": 43315,
    "name": "N/A (Raid)",
    "floor_default": 43315001,
    "floor": [
      43315001
    ]
  },
  {
    "id": 43316,
    "name": "N/A (Raid)",
    "floor_default": 43316001,
    "floor": [
      43316001
    ]
  },
  {
    "id": 43321,
    "name": "N/A (Raid)",
    "floor_default": 43321001,
    "floor": [
      43321001,
      43321002
    ]
  },
  {
    "id": 44001,
    "name": "N/A (Raid)",
    "floor_default": 44001001,
    "floor": [
      44001001,
      44001002,
      44001003
    ]
  },
  {
    "id": 44201,
    "name": "N/A (Raid)",
    "floor_default": 44201001,
    "floor": [
      44201001,
      44201002,
      44201003
    ]
  },
  {
    "id": 44202,
    "name": "N/A (Raid)",
    "floor_default": 44202001,
    "floor": [
      44202001,
      44202002,
      44202003,
      44202004
    ]
  },
  {
    "id": 44301,
    "name": "N/A (Raid)",
    "floor_default": 44301001,
    "floor": [
      44301001,
      44301002,
      44301003,
      44301004,
      44301005,
      44301006,
      44301007,
      44301008,
      44301009,
      44301010,
      44301011,
      44301012,
      44301013,
      44301014,
      44301015,
      44301016,
      44301017,
      44301018,
      44301019,
      44301020,
      44301021,
      44301022
    ]
  },
  {
    "id": 44302,
    "name": "N/A (Raid)",
    "floor_default": 44302001,
    "floor": [
      44302001,
      44302002,
      44302003,
      44302004
    ]
  },
  {
    "id": 44303,
    "name": "N/A (Raid)",
    "floor_default": 44303001,
    "floor": [
      44303001,
      44303002,
      44303003
    ]
  },
  {
    "id": 44305,
    "name": "N/A (Raid)",
    "floor_default": 44305001,
    "floor": [
      44305001,
      44305002,
      44305003,
      44305004,
      44305005
    ]
  },
  {
    "id": 43322,
    "name": "N/A (Raid)",
    "floor_default": 43322001,
    "floor": [
      43322001,
      43322002,
      43322003,
      43322004,
      43322005
    ]
  },
  {
    "id": 41401,
    "name": "N/A (Raid)",
    "floor_default": 41401001,
    "floor": [
      41401001,
      41401002,
      41401003,
      41401004,
      41401005,
      41401006,
      41401007,
      41401008,
      41401009,
      41401010,
      41401011,
      41401012,
      41401013,
      41401014,
      41401015,
      41401016,
      41401017,
      41401018,
      41401019,
      41401020
    ]
  },
  {
    "id": 41402,
    "name": "N/A (Raid)",
    "floor_default": 41402001,
    "floor": [
      41402001
    ]
  },
  {
    "id": 80000,
    "name": "??? (Rogue)",
    "floor_default": 80000001,
    "floor": [
      80000001
    ]
  },
  {
    "id": 80001,
    "name": "Universo Simulado (Rogue)",
    "floor_default": 80001001,
    "floor": [
      80001001,
      80001002,
      80001003
    ]
  },
  {
    "id": 81001,
    "name": "Universo Simulado (Rogue)",
    "floor_default": 81001001,
    "floor": [
      81001001
    ]
  },
  {
    "id": 81002,
    "name": "Universo Simulado (Rogue)",
    "floor_default": 81002001,
    "floor": [
      81002001
    ]
  },
  {
    "id": 81003,
    "name": "Universo Simulado (Rogue)",
    "floor_default": 81003001,
    "floor": [
      81003001
    ]
  },
  {
    "id": 81004,
    "name": "Universo Simulado (Rogue)",
    "floor_default": 81004001,
    "floor": [
      81004001
    ]
  },
  {
    "id": 81111,
    "name": "Universo Simulado (Rogue)",
    "floor_default": 81111001,
    "floor": [
      81111001
    ]
  },
  {
    "id": 81131,
    "name": "Universo Simulado (Rogue)",
    "floor_default": 81131001,
    "floor": [
      81131001
    ]
  },
  {
    "id": 81132,
    "name": "Universo Simulado (Rogue)",
    "floor_default": 81132001,
    "floor": [
      81132001
    ]
  },
  {
    "id": 81121,
    "name": "Universo Simulado (Rogue)",
    "floor_default": 81121001,
    "floor": [
      81121001
    ]
  },
  {
    "id": 81122,
    "name": "Universo Simulado (Rogue)",
    "floor_default": 81122001,
    "floor": [
      81122001
    ]
  },
  {
    "id": 81123,
    "name": "Universo Simulado (Rogue)",
    "floor_default": 81123001,
    "floor": [
      81123001
    ]
  },
  {
    "id": 81211,
    "name": "Universo Simulado (Rogue)",
    "floor_default": 81211001,
    "floor": [
      81211001
    ]
  },
  {
    "id": 81212,
    "name": "Universo Simulado (Rogue)",
    "floor_default": 81212001,
    "floor": [
      81212001
    ]
  },
  {
    "id": 81221,
    "name": "Universo Simulado (Rogue)",
    "floor_default": 81221001,
    "floor": [
      81221001
    ]
  },
  {
    "id": 81222,
    "name": "Universo Simulado (Rogue)",
    "floor_default": 81222001,
    "floor": [
      81222001
    ]
  },
  {
    "id": 81223,
    "name": "Universo Simulado (Rogue)",
    "floor_default": 81223001,
    "floor": [
      81223001
    ]
  },
  {
    "id": 81231,
    "name": "Universo Simulado (Rogue)",
    "floor_default": 81231001,
    "floor": [
      81231001
    ]
  },
  {
    "id": 81232,
    "name": "Universo Simulado (Rogue)",
    "floor_default": 81232001,
    "floor": [
      81232001
    ]
  },
  {
    "id": 81311,
    "name": "Universo Simulado (Rogue)",
    "floor_default": 81311001,
    "floor": [
      81311001
    ]
  },
  {
    "id": 81312,
    "name": "Universo Simulado (Rogue)",
    "floor_default": 81312001,
    "floor": [
      81312001
    ]
  },
  {
    "id": 81313,
    "name": "Universo Simulado (Rogue)",
    "floor_default": 81313001,
    "floor": [
      81313001
    ]
  },
  {
    "id": 80200,
    "name": "Universo Simulado (Rogue)",
    "floor_default": 80200001,
    "floor": [
      80200001,
      80200002,
      80200003,
      80200004,
      80200005,
      80200006,
      80200007,
      80200008
    ]
  },
  {
    "id": 80201,
    "name": "Universo Simulado (Rogue)",
    "floor_default": 80201001,
    "floor": [
      80201001
    ]
  },
  {
    "id": 80202,
    "name": "Universo Simulado (Rogue)",
    "floor_default": 80202001,
    "floor": [
      80202001
    ]
  },
  {
    "id": 80203,
    "name": "Universo Simulado (Rogue)",
    "floor_default": 80203001,
    "floor": [
      80203001
    ]
  },
  {
    "id": 80204,
    "name": "Universo Simulado (Rogue)",
    "floor_default": 80204001,
    "floor": [
      80204001
    ]
  },
  {
    "id": 80205,
    "name": "Universo Simulado (Rogue)",
    "floor_default": 80205001,
    "floor": [
      80205001
    ]
  },
  {
    "id": 80206,
    "name": "Universo Simulado (Rogue)",
    "floor_default": 80206001,
    "floor": [
      80206001
    ]
  },
  {
    "id": 80207,
    "name": "Universo Simulado (Rogue)",
    "floor_default": 80207001,
    "floor": [
      80207001
    ]
  },
  {
    "id": 80208,
    "name": "Universo Simulado (Rogue)",
    "floor_default": 80208001,
    "floor": [
      80208001
    ]
  },
  {
    "id": 80209,
    "name": "Universo Simulado (Rogue)",
    "floor_default": 80209001,
    "floor": [
      80209001
    ]
  },
  {
    "id": 80210,
    "name": "Universo Simulado (Rogue)",
    "floor_default": 80210001,
    "floor": [
      80210001
    ]
  },
  {
    "id": 80211,
    "name": "Universo Simulado (Rogue)",
    "floor_default": 80211001,
    "floor": [
      80211001
    ]
  },
  {
    "id": 80301,
    "name": "Universo Simulado (Rogue)",
    "floor_default": 80301001,
    "floor": [
      80301001,
      80301002
    ]
  },
  {
    "id": 80302,
    "name": "Universo Simulado (Rogue)",
    "floor_default": 80302001,
    "floor": [
      80302001,
      80302002
    ]
  },
  {
    "id": 80303,
    "name": "Universo Simulado (Rogue)",
    "floor_default": 80303001,
    "floor": [
      80303001
    ]
  },
  {
    "id": 80304,
    "name": "Universo Simulado (Rogue)",
    "floor_default": 80304001,
    "floor": [
      80304001
    ]
  },
  {
    "id": 80305,
    "name": "Universo Simulado (Rogue)",
    "floor_default": 80305001,
    "floor": [
      80305001
    ]
  },
  {
    "id": 80400,
    "name": "Universo Divergente (Rogue)",
    "floor_default": 80400001,
    "floor": [
      80400001
    ]
  },
  {
    "id": 80401,
    "name": "Universo Divergente (Rogue)",
    "floor_default": 80401001,
    "floor": [
      80401001
    ]
  },
  {
    "id": 80402,
    "name": "Universo Divergente (Rogue)",
    "floor_default": 80402001,
    "floor": [
      80402001
    ]
  },
  {
    "id": 80403,
    "name": "Universo Divergente (Rogue)",
    "floor_default": 80403001,
    "floor": [
      80403001
    ]
  },
  {
    "id": 80404,
    "name": "Universo Divergente (Rogue)",
    "floor_default": 80404001,
    "floor": [
      80404001
    ]
  },
  {
    "id": 80405,
    "name": "Universo Divergente (Rogue)",
    "floor_default": 80405001,
    "floor": [
      80405001
    ]
  },
  {
    "id": 80406,
    "name": "Universo Divergente (Rogue)",
    "floor_default": 80406001,
    "floor": [
      80406001
    ]
  },
  {
    "id": 80407,
    "name": "Universo Divergente (Rogue)",
    "floor_default": 80407001,
    "floor": [
      80407001
    ]
  },
  {
    "id": 80408,
    "name": "Universo Divergente (Rogue)",
    "floor_default": 80408001,
    "floor": [
      80408001,
      80408002,
      80408003,
      80408004,
      80408005,
      80408006,
      80408007,
      80408008
    ]
  },
  {
    "id": 80409,
    "name": "Universo Divergente (Rogue)",
    "floor_default": 80409001,
    "floor": [
      80409001,
      80409002,
      80409003,
      80409004,
      80409005,
      80409006,
      80409007
    ]
  },
  {
    "id": 80501,
    "name": "Universo Simulado (Rogue)",
    "floor_default": 80501001,
    "floor": [
      80501001
    ]
  },
  {
    "id": 80502,
    "name": "Universo Simulado (Rogue)",
    "floor_default": 80502001,
    "floor": [
      80502001
    ]
  },
  {
    "id": 80503,
    "name": "Universo Simulado (Rogue)",
    "floor_default": 80503001,
    "floor": [
      80503001
    ]
  },
  {
    "id": 80504,
    "name": "Universo Simulado (Rogue)",
    "floor_default": 80504001,
    "floor": [
      80504001
    ]
  },
  {
    "id": 80505,
    "name": "Universo Simulado (Rogue)",
    "floor_default": 80505001,
    "floor": [
      80505001
    ]
  },
  {
    "id": 80506,
    "name": "Universo Simulado (Rogue)",
    "floor_default": 80506001,
    "floor": [
      80506001
    ]
  },
  {
    "id": 80507,
    "name": "Universo Simulado (Rogue)",
    "floor_default": 80507001,
    "floor": [
      80507001
    ]
  },
  {
    "id": 80508,
    "name": "Universo Simulado (Rogue)",
    "floor_default": 80508001,
    "floor": [
      80508001,
      80508002,
      80508003,
      80508004,
      80508005,
      80508006,
      80508007
    ]
  }
]